﻿<?xml version="1.0" encoding="utf-8"?>
<!DOCTYPE svg PUBLIC "-//W3C//DTD SVG 1.0//EN" "http://www.w3.org/TR/2001/REC-SVG-20010904/DTD/svg10.dtd"[
	<!ENTITY ns_flows "http://ns.adobe.com/Flows/1.0/">
	<!ENTITY ns_svg "http://www.w3.org/2000/svg">
	<!ENTITY ns_xlink "http://www.w3.org/1999/xlink">
	<!ENTITY st0 "font-size:7px;font-family:'MS-PGothic';adobe-font-script:japanese;">
	<!ENTITY st1 "font-size:6px;font-family:'ArialMT';">
	<!-- White fill  -->
	<!ENTITY st2 "fill:#FFFFFF;stroke:#000000; stroke-width:1.41;stroke-linecap:round;stroke-linejoin:round;">
	<!-- Yellow fill  -->
	<!ENTITY st3 "fill:#FFFFCC;stroke:#FFFFCC; stroke-width:0.1;stroke-linecap:round;stroke-linejoin:round;">
	<!-- Gray fill  -->
	<!ENTITY st4 "fill:#CCCCCC;stroke:#CCCCCC; stroke-width:0.1;stroke-linecap:round;stroke-linejoin:round;">
	<!-- Light-blue fill -->
	<!ENTITY st5 "fill:#CCECF4;stroke:#000000; stroke-width:1.133;stroke-linecap:round;stroke-linejoin:round;">
	<!ENTITY st6 "fill:none;stroke-linecap:butt; stroke-linejoin:round;">
	<!ENTITY st7 "fill:none;stroke:#000000;stroke-linecap:round;stroke-linejoin:round;">
	<!ENTITY st8 "enable-background:new    ;">
	<!-- Black fill -->
	<!ENTITY st9 "fill:#000000;stroke:#000000; stroke-linecap:round;stroke-linejoin:round;">
	<!-- SRS note   -->
	<!ENTITY st10 "font-size:9px;font-family:'ArialMT';">
	<!ENTITY st11 "font-size:9px;font-family:'Svg Symbol';">
	<!ENTITY st12 "font-size:6px;font-family:'Svg Symbol';">
	<!ENTITY st13 "fill:none;stroke:#ff0000;stroke-linecap:round;stroke-linejoin:round;">
	<!-- Yellow fill  -->
	<!ENTITY st14 "fill:#FFFF00;stroke:#FFFF00; stroke-width:0.1;stroke-linecap:round;stroke-linejoin:round;">
	<!ENTITY st15 "font-size:6px;font-family:'MS-PGothic';adobe-font-script:japanese;">
	<!ENTITY st16 "1.00 0.00 0.00 1.00">
	<!ENTITY st17 "0.00 -1.00 1.00 0.00">
	<!ENTITY st18 "font-size:6px;font-family:'Arial';">
	<!ENTITY st19 "font-size:9px;font-family:'Arial';">
	<!ENTITY st20 "font-size:6px;font-family:'MS-PGothic','MS PGothic';adobe-font-script:japanese;">
	<!ENTITY st21 "font-size:7px;font-family:'MS-PGothic','MS PGothic';adobe-font-script:japanese;">
	<!ATTLIST svg
		xmlns:ewd CDATA #FIXED "http://shcl.co.jp/ewd"
		xmlns:a CDATA #FIXED "http://ns.adobe.com/AdobeSVGViewerExtensions/3.0/"
		ewd:ver CDATA #IMPLIED
	>
	<!ATTLIST a
		ewd:lineID CDATA #IMPLIED
		ewd:groupID CDATA #IMPLIED
		ewd:figtype CDATA #IMPLIED
		ewd:code CDATA #IMPLIED
		ewd:figID CDATA #IMPLIED
		ewd:pinNo CDATA #IMPLIED
		ewd:comment CDATA #IMPLIED >
	<!ATTLIST g
		ewd:lineID CDATA #IMPLIED
		ewd:groupID CDATA #IMPLIED
		ewd:figtype CDATA #IMPLIED
		ewd:code CDATA #IMPLIED
		ewd:figID CDATA #IMPLIED
		ewd:pinNo CDATA #IMPLIED
		ewd:comment CDATA #IMPLIED >
	<!ATTLIST text
		ewd:textID CDATA #IMPLIED >
	<!ATTLIST title
		ewd:textID CDATA #IMPLIED >
]>
<!-- Generator: Shintec Hozumi YS   -->
<svg onload="call_execInitLoadProc_svg('system')" style="overflow:visible;  enable-background:new 0 0 986.340 710.000" viewBox="0 0 986.340 710.000" height="710.000" width="986.340" xml:space="preserve" ewd:ver="L2.1.2.7" xmlns="&ns_svg;" xmlns:a="http://ns.adobe.com/AdobeSVGViewerExtensions/3.0/" xmlns:ewd="http://shcl.co.jp/ewd" xmlns:xlink="&ns_xlink;">
<path d=" M  444.76,  517.37  L  441.93,  522.27 " style="stroke-width: 0.85 ;&st7; " /><path d=" M  444.76,  517.37  L  441.93,  512.46 " style="stroke-width: 0.85 ;&st7; " /><path d=" M  444.48,  518.22  L  444.48,  516.52 " style="stroke-width: 0.85 ;&st7; " /><path d=" M  365.16,  555.04  L  365.16,  553.34 " style="stroke-width: 0.85 ;&st7; " /><path d=" M  373.65,  512.61  L  373.65,  510.79 " style="stroke-width: 0.85 ;&st7; " /><path d=" M  356.66,  523.94  L  356.66,  522.12 " style="stroke-width: 0.85 ;&st7; " /><path d=" M  365.16,  518.28  L  365.16,  516.45 " style="stroke-width: 0.85 ;&st7; " /><path d=" M  365.16,  487.12  L  365.16,  485.29 " style="stroke-width: 0.85 ;&st7; " /><path d=" M  365.16,  478.62  L  365.16,  476.79 " style="stroke-width: 0.85 ;&st7; " /><path d=" M  445.08,  518.27  L  445.08,  516.46 " style="stroke-width: 0.85 ;&st7; " /><path d=" M  365.76,  555.09  L  365.76,  553.29 " style="stroke-width: 0.85 ;&st7; " /><path d=" M  374.26,  512.60  L  374.26,  510.80 " style="stroke-width: 0.85 ;&st7; " /><path d=" M  357.26,  523.93  L  357.26,  522.13 " style="stroke-width: 0.85 ;&st7; " /><path d=" M  365.76,  518.27  L  365.76,  516.46 " style="stroke-width: 0.85 ;&st7; " /><path d=" M  365.76,  487.10  L  365.76,  485.30 " style="stroke-width: 0.85 ;&st7; " /><path d=" M  365.76,  478.61  L  365.76,  476.80 " style="stroke-width: 0.85 ;&st7; " /><path d=" M  365.44,   69.77  L  365.44,   95.27 " style="stroke-width: 0.85 ;&st7; " /><path d=" M  367.56,   95.27  L  363.31,   95.27 " style="stroke-width: 1.42 ;&st7; " /><path d=" M  367.56,  103.77  L  363.31,  103.77 " style="stroke-width: 1.42 ;&st7; " /><path d=" M  475.92,  545.69  L  475.92,  554.19 " style="stroke-width: 0.85 ;&st7; " /><path d=" M  475.92,  520.20  L  475.92,  528.70 " style="stroke-width: 0.85 ;&st7; " /><path d=" M  212.46,  494.70  L  212.46,  435.21 " style="stroke-width: 0.85 ;&st7; " /><path d=" M  314.45,   69.77  L  314.45,   95.27 " style="stroke-width: 0.85 ;&st7; " /><path d=" M  316.57,   95.27  L  312.32,   95.27 " style="stroke-width: 1.42 ;&st7; " /><path d=" M  316.57,  103.77  L  312.32,  103.77 " style="stroke-width: 1.42 ;&st7; " /><path d=" M  433.43,  324.73  L  441.93,  324.73 " style="stroke-width: 1.42 ;&st7; " /><path d=" M  394.41,  489.04  L  402.91,  489.04 " style="stroke-width: 0.85 ;&st7; " /><path d=" M  419.90,  489.04  L  428.40,  489.04 " style="stroke-width: 0.85 ;&st7; " /><path d=" M  394.41,  545.69  L  402.91,  545.69 " style="stroke-width: 0.85 ;&st7; " /><path d=" M  419.90,  545.69  L  428.40,  545.69 " style="stroke-width: 0.85 ;&st7; " /><path d=" M  356.94,  324.73  L  365.44,  324.73 " style="stroke-width: 1.42 ;&st7; " /><path d=" M  372.82,  229.30  L  380.18,  225.05 " style="stroke-width: 0.85 ;&st7; " /><path d=" M  378.17,  221.58  L  370.81,  225.83 " style="stroke-width: 0.85 ;&st7; " /><path d=" M  369.69,  231.25  L  361.19,  231.25 " style="stroke-width: 0.85 ;&st7; " /><path d=" M  369.69,  256.74  L  361.19,  256.74 " style="stroke-width: 0.85 ;&st7; " /><path d=" M  305.95,  324.73  L  314.45,  324.73 " style="stroke-width: 1.42 ;&st7; " /><path d=" M  365.44,  265.24  L  365.44,  163.26 " style="stroke-width: 0.85 ;&st7; " /><path d=" M  450.42,  517.37  L  444.76,  517.37 " style="stroke-width: 0.85 ;&st7; " /><path d=" M  203.97,  282.24  L  212.46,  282.24 " style="stroke-width: 1.42 ;&st7; " /><path d=" M  395.18,  197.25  L  386.69,  197.25 " style="stroke-width: 0.85 ;&st7; " /><path d=" M  314.45,  435.21  L  314.45,  452.21  L  254.96,  452.21  L  254.96,  494.70 " style="stroke-width: 0.85 ;&st7; " /><path d=" M  365.44,  477.71  L  467.42,  477.71 " style="stroke-width: 0.85 ;&st7; " /><path d=" M  402.27,  571.19  L  314.45,  571.19 " style="stroke-width: 0.85 ;&st7; " /><path d=" M  419.26,  571.19  L  433.43,  571.19  L  433.43,  579.69  L  314.45,  579.69 " style="stroke-width: 0.85 ;&st7; " /><path d=" M  373.94,  486.20  L  373.94,  554.19  L  356.94,  554.19  L  356.94,  486.20  L  373.94,  486.20 " style="stroke-width: 0.85 ;&st7; " /><path d=" M  467.42,  435.21  L  467.42,  477.71 " style="stroke-width: 0.85 ;&st7; " /><path d=" M  433.43,  536.99  L  428.40,  545.69 " style="stroke-width: 0.85 ;&st7; " /><path d=" M  484.42,  435.21  L  161.47,  435.21  L  161.47,  596.69  L  484.42,  596.69  L  484.42,  435.21 " style="stroke-width: 1.42 ;&st7; " /><path d=" M  305.95,  494.70  L  305.95,  477.71  L  365.44,  477.71  L  365.44,  605.18 " style="stroke-width: 0.85 ;&st7; " /><path d=" M  314.45,  588.19  L  314.45,  494.70  L  169.97,  494.70  L  169.97,  588.19  L  314.45,  588.19 " style="stroke-width: 1.42 ;&st7; " /><path d=" M  365.44,  494.70  L  362.61,  500.37  L  368.27,  500.37  L  365.44,  494.70  L  365.44,  495.02  L  365.38,  495.13  L  365.49,  495.13  L  365.63,  495.41  L  365.24,  495.41  L  365.10,  495.70  L  365.78,  495.70  L  365.92,  495.98  L  364.96,  495.98  L  364.82,  496.26  L  366.06,  496.26  L  366.20,  496.54  L  364.68,  496.54  L  364.54,  496.83  L  366.34,  496.83  L  366.48,  497.11  L  364.39,  497.11  L  364.25,  497.39  L  366.63,  497.39  L  366.77,  497.68  L  364.11,  497.68  L  363.97,  497.96  L  366.91,  497.96  L  367.05,  498.24  L  363.83,  498.24  L  363.69,  498.53  L  367.19,  498.53  L  367.33,  498.81  L  363.54,  498.81  L  363.40,  499.09  L  367.48,  499.09  L  367.62,  499.38  L  363.26,  499.38  L  363.12,  499.66  L  367.76,  499.66  L  367.90,  499.94  L  362.98,  499.94  L  362.84,  500.23  L  368.04,  500.23  L  365.44,  495.02  L  362.84,  500.23 " style="stroke-width: 0.28 ;&st7; " /><path d=" M  370.40,  493.29  L  371.81,  494.70  L  376.06,  494.70  L  377.48,  496.12 " style="stroke-width: 0.85 ;&st7; " /><path d=" M  356.94,  494.70  L  354.11,  500.37  L  359.77,  500.37  L  356.94,  494.70  L  356.94,  495.02  L  356.89,  495.13  L  356.99,  495.13  L  357.14,  495.41  L  356.74,  495.41  L  356.60,  495.70  L  357.28,  495.70  L  357.42,  495.98  L  356.46,  495.98  L  356.32,  496.26  L  357.56,  496.26  L  357.70,  496.54  L  356.18,  496.54  L  356.04,  496.83  L  357.84,  496.83  L  357.99,  497.11  L  355.89,  497.11  L  355.75,  497.39  L  358.13,  497.39  L  358.27,  497.68  L  355.61,  497.68  L  355.47,  497.96  L  358.41,  497.96  L  358.55,  498.24  L  355.33,  498.24  L  355.19,  498.53  L  358.69,  498.53  L  358.84,  498.81  L  355.05,  498.81  L  354.90,  499.09  L  358.98,  499.09  L  359.12,  499.38  L  354.76,  499.38  L  354.62,  499.66  L  359.26,  499.66  L  359.40,  499.94  L  354.48,  499.94  L  354.34,  500.23  L  359.54,  500.23  L  356.94,  495.02  L  354.34,  500.23 " style="stroke-width: 0.28 ;&st7; " /><path d=" M  353.40,  535.78  L  354.82,  537.20  L  359.06,  537.20  L  360.48,  538.61 " style="stroke-width: 0.85 ;&st7; " /><path d=" M  364.02,  613.68  L  366.86,  613.68 " style="stroke-width: 0.85 ;&st7; " /><path d=" M  362.61,  610.85  L  368.27,  610.85 " style="stroke-width: 0.85 ;&st7; " /><path d=" M  361.19,  608.02  L  369.69,  608.02 " style="stroke-width: 0.85 ;&st7; " /><path d=" M  356.94,  605.18  L  373.94,  605.18 " style="stroke-width: 0.85 ;&st7; " /><path d=" M  339.62,  518.26  L  339.62,  516.47  L  340.27,  516.47  L  340.27,  518.26 " style="stroke-width: 0.85 ;&st7; " /><path d=" M  365.44,  517.37  L  314.45,  517.37 " style="stroke-width: 0.85 ;&st7; " /><path d=" M  361.90,  493.29  L  363.31,  494.70  L  367.56,  494.70  L  368.98,  496.12 " style="stroke-width: 0.85 ;&st7; " /><path d=" M  373.94,  494.70  L  371.10,  500.37  L  376.77,  500.37  L  373.94,  494.70  L  373.94,  495.02  L  373.88,  495.13  L  373.99,  495.13  L  374.13,  495.41  L  373.74,  495.41  L  373.60,  495.70  L  374.27,  495.70  L  374.42,  495.98  L  373.46,  495.98  L  373.32,  496.26  L  374.56,  496.26  L  374.70,  496.54  L  373.18,  496.54  L  373.03,  496.83  L  374.84,  496.83  L  374.98,  497.11  L  372.89,  497.11  L  372.75,  497.39  L  375.12,  497.39  L  375.27,  497.68  L  372.61,  497.68  L  372.47,  497.96  L  375.41,  497.96  L  375.55,  498.24  L  372.33,  498.24  L  372.18,  498.53  L  375.69,  498.53  L  375.83,  498.81  L  372.04,  498.81  L  371.90,  499.09  L  375.97,  499.09  L  376.12,  499.38  L  371.76,  499.38  L  371.62,  499.66  L  376.26,  499.66  L  376.40,  499.94  L  371.48,  499.94  L  371.33,  500.23  L  376.54,  500.23  L  373.94,  495.02  L  371.33,  500.23 " style="stroke-width: 0.28 ;&st7; " /><path d=" M  361.90,  535.78  L  363.31,  537.20  L  367.56,  537.20  L  368.98,  538.61 " style="stroke-width: 0.85 ;&st7; " /><path d=" M  365.44,  537.20  L  362.61,  542.86  L  368.27,  542.86  L  365.44,  537.20  L  365.44,  537.51  L  365.38,  537.62  L  365.49,  537.62  L  365.63,  537.91  L  365.24,  537.91  L  365.10,  538.19  L  365.78,  538.19  L  365.92,  538.47  L  364.96,  538.47  L  364.82,  538.76  L  366.06,  538.76  L  366.20,  539.04  L  364.68,  539.04  L  364.54,  539.32  L  366.34,  539.32  L  366.48,  539.60  L  364.39,  539.60  L  364.25,  539.89  L  366.63,  539.89  L  366.77,  540.17  L  364.11,  540.17  L  363.97,  540.45  L  366.91,  540.45  L  367.05,  540.74  L  363.83,  540.74  L  363.69,  541.02  L  367.19,  541.02  L  367.33,  541.30  L  363.54,  541.30  L  363.40,  541.59  L  367.48,  541.59  L  367.62,  541.87  L  363.26,  541.87  L  363.12,  542.15  L  367.76,  542.15  L  367.90,  542.44  L  362.98,  542.44  L  362.84,  542.72  L  368.04,  542.72  L  365.44,  537.51  L  362.84,  542.72 " style="stroke-width: 0.28 ;&st7; " /><path d=" M  356.94,  537.20  L  354.11,  542.86  L  359.77,  542.86  L  356.94,  537.20  L  356.94,  537.51  L  356.89,  537.62  L  356.99,  537.62  L  357.14,  537.91  L  356.74,  537.91  L  356.60,  538.19  L  357.28,  538.19  L  357.42,  538.47  L  356.46,  538.47  L  356.32,  538.76  L  357.56,  538.76  L  357.70,  539.04  L  356.18,  539.04  L  356.04,  539.32  L  357.84,  539.32  L  357.99,  539.60  L  355.89,  539.60  L  355.75,  539.89  L  358.13,  539.89  L  358.27,  540.17  L  355.61,  540.17  L  355.47,  540.45  L  358.41,  540.45  L  358.55,  540.74  L  355.33,  540.74  L  355.19,  541.02  L  358.69,  541.02  L  358.84,  541.30  L  355.05,  541.30  L  354.90,  541.59  L  358.98,  541.59  L  359.12,  541.87  L  354.76,  541.87  L  354.62,  542.15  L  359.26,  542.15  L  359.40,  542.44  L  354.48,  542.44  L  354.34,  542.72  L  359.54,  542.72  L  356.94,  537.51  L  354.34,  542.72 " style="stroke-width: 0.28 ;&st7; " /><path d=" M  353.40,  493.29  L  354.82,  494.70  L  359.06,  494.70  L  360.48,  496.12 " style="stroke-width: 0.85 ;&st7; " /><path d=" M  365.12,  580.59  L  365.12,  578.79  L  365.76,  578.79  L  365.76,  580.59 " style="stroke-width: 0.85 ;&st7; " /><path d=" M  339.94,  562.69  L  339.94,  517.37 " style="stroke-width: 0.85 ;&st7; " /><path d=" M  373.94,  537.20  L  371.10,  542.86  L  376.77,  542.86  L  373.94,  537.20  L  373.94,  537.51  L  373.88,  537.62  L  373.99,  537.62  L  374.13,  537.91  L  373.74,  537.91  L  373.60,  538.19  L  374.27,  538.19  L  374.42,  538.47  L  373.46,  538.47  L  373.32,  538.76  L  374.56,  538.76  L  374.70,  539.04  L  373.18,  539.04  L  373.03,  539.32  L  374.84,  539.32  L  374.98,  539.60  L  372.89,  539.60  L  372.75,  539.89  L  375.12,  539.89  L  375.27,  540.17  L  372.61,  540.17  L  372.47,  540.45  L  375.41,  540.45  L  375.55,  540.74  L  372.33,  540.74  L  372.18,  541.02  L  375.69,  541.02  L  375.83,  541.30  L  372.04,  541.30  L  371.90,  541.59  L  375.97,  541.59  L  376.12,  541.87  L  371.76,  541.87  L  371.62,  542.15  L  376.26,  542.15  L  376.40,  542.44  L  371.48,  542.44  L  371.33,  542.72  L  376.54,  542.72  L  373.94,  537.51  L  371.33,  542.72 " style="stroke-width: 0.28 ;&st7; " /><path d=" M  370.40,  535.78  L  371.81,  537.20  L  376.06,  537.20  L  377.48,  538.61 " style="stroke-width: 0.85 ;&st7; " /><path d=" M  339.94,  562.69  L  475.92,  562.69  L  475.92,  554.19 " style="stroke-width: 0.85 ;&st7; " /><path d=" M  475.92,  520.20  L  475.92,  517.37  L  467.42,  517.37 " style="stroke-width: 0.85 ;&st7; " /><path d=" M  365.44,  256.74  L  359.77,  248.24  L  371.10,  248.24  L  365.44,  256.74 " style="stroke-width: 0.28 ;&st9;" /><path d=" M  380.18,  225.05  L  377.84,  228.09  L  376.37,  225.55  L  380.18,  225.05  L  378.89,  225.79  L  377.91,  227.07  L  377.29,  226.00  L  378.89,  225.79  L  378.25,  226.16  L  377.94,  226.57  L  377.75,  226.23  L  378.25,  226.16 " style="stroke-width: 0.85 ;&st7; " /><path d=" M  378.17,  221.58  L  375.84,  224.62  L  374.37,  222.08  L  378.17,  221.58  L  376.89,  222.32  L  375.90,  223.61  L  375.29,  222.53  L  376.89,  222.32  L  376.25,  222.69  L  375.94,  223.10  L  375.74,  222.76  L  376.25,  222.69 " style="stroke-width: 0.85 ;&st7; " /><path d=" M  365.44,  231.25  L  359.77,  222.75  L  371.10,  222.75  L  365.44,  231.25 " style="stroke-width: 0.28 ;&st9;" /><path d=" M  378.19,   78.27  L  378.19,   35.78  L  352.69,   35.78  L  352.69,   78.27  L  378.19,   78.27 " style="stroke-width: 1.42 ;&st7; " /><path d=" M  365.44,   90.37  L  362.61,   87.54  L  362.61,   91.79  L  365.44,   94.62  L  368.27,   91.79  L  368.27,   87.54  L  365.44,   90.37 " style="stroke-width: 0.28 ;&st9;" /><path d=" M  212.46,  350.23  L  212.46,  367.22 " style="stroke-width: 0.85 ;&st7; " /><path d=" M  339.94,  265.24  L  407.93,  265.24  L  407.93,  163.26  L  339.94,  163.26  L  339.94,  265.24 " style="stroke-width: 1.42 ;&st7; " /><path d=" M  203.97,  350.23  L  220.96,  350.23  L  220.96,  367.22  L  203.97,  367.22  L  203.97,  350.23 " style="stroke-width: 1.42 ;&st7; " /><path d=" M  437.68,  315.67  L  441.93,  319.92  L  446.18,  315.67 " style="stroke-width: 1.42 ;&st7; " /><path d=" M  446.18,  319.07  L  441.93,  323.31  L  437.68,  319.07 " style="stroke-width: 1.42 ;&st7; " /><path d=" M  327.20,   78.27  L  327.20,   35.78  L  301.70,   35.78  L  301.70,   78.27  L  327.20,   78.27 " style="stroke-width: 1.42 ;&st7; " /><path d=" M  314.45,   90.37  L  311.61,   87.54  L  311.61,   91.79  L  314.45,   94.62  L  317.28,   91.79  L  317.28,   87.54  L  314.45,   90.37 " style="stroke-width: 0.28 ;&st9;" /><path d=" M  318.70,  319.07  L  314.45,  323.31  L  310.20,  319.07 " style="stroke-width: 1.42 ;&st7; " /><path d=" M  310.20,  315.67  L  314.45,  319.92  L  318.70,  315.67 " style="stroke-width: 1.42 ;&st7; " /><path d=" M  361.19,  315.67  L  365.44,  319.92  L  369.69,  315.67 " style="stroke-width: 1.42 ;&st7; " /><path d=" M  369.69,  319.07  L  365.44,  323.31  L  361.19,  319.07 " style="stroke-width: 1.42 ;&st7; " /><path d=" M  433.43,  497.74  L  428.40,  489.04 " style="stroke-width: 0.85 ;&st7; " /><path d=" M  394.41,  489.04  L  382.44,  489.04  L  382.44,  511.70  L  373.94,  511.70 " style="stroke-width: 0.85 ;&st7; " /><path d=" M  394.41,  545.69  L  390.93,  545.69  L  390.93,  523.03  L  356.94,  523.03 " style="stroke-width: 0.85 ;&st7; " /><path d=" M  229.46,  197.25  L  195.47,  197.25  L  195.47,  163.26  L  229.46,  163.26  L  229.46,  197.25 " style="stroke-width: 1.42 ;&st7; " /><path d=" M  365.44,  205.75  L  390.93,  205.75  L  390.93,  180.26  L  365.44,  180.26 " style="stroke-width: 0.85 ;&st7; " /><path d=" M  441.93,  435.21  L  441.93,  469.21  L  288.95,  469.21  L  288.95,  494.70 " style="stroke-width: 0.85 ;&st7; " /><path d=" M  365.44,  435.21  L  365.44,  460.71  L  271.95,  460.71  L  271.95,  494.70 " style="stroke-width: 0.85 ;&st7; " /><path d=" M  212.14,  359.62  L  212.14,  357.83  L  212.79,  357.83  L  212.79,  359.62 " style="stroke-width: 0.85 ;&st7; " /><path d=" M  288.95,  197.25  L  254.96,  197.25  L  254.96,  163.26  L  288.95,  163.26  L  288.95,  197.25 " style="stroke-width: 1.42 ;&st7; " /><path d=" M  208.22,  273.17  L  212.46,  277.42  L  216.71,  273.17 " style="stroke-width: 1.42 ;&st7; " /><path d=" M  216.71,  276.57  L  212.46,  280.82  L  208.22,  276.57 " style="stroke-width: 1.42 ;&st7; " /><path d=" M  203.97,  358.73  L  212.46,  358.73 " style="stroke-width: 0.85 ;&st7; " /><path d=" M  169.97,  197.25  L  135.98,  197.25  L  135.98,  163.26  L  169.97,  163.26  L  169.97,  197.25 " style="stroke-width: 1.42 ;&st7; " /><path d=" M   50.99,  197.25  L   17.00,  197.25  L   17.00,  163.26  L   50.99,  163.26  L   50.99,  197.25 " style="stroke-width: 1.42 ;&st7; " /><path d=" M  288.95,  333.23  L  254.96,  333.23  L  254.96,  299.24  L  288.95,  299.24  L  288.95,  333.23 " style="stroke-width: 1.42 ;&st7; " /><path d=" M  364.25,  179.25  L  363.97,  179.72  L  363.88,  180.26  L  363.97,  180.79  L  364.25,  181.26  L  364.66,  181.60  L  365.17,  181.79  L  365.71,  181.79  L  366.22,  181.60  L  366.63,  181.26  L  366.90,  180.79  L  367.00,  180.26  L  366.90,  179.72  L  366.63,  179.25  L  366.22,  178.91  L  365.71,  178.72  L  365.17,  178.72  L  364.66,  178.91  L  364.25,  179.25  L  364.64,  179.96  L  364.64,  180.55  L  365.01,  180.99  L  365.59,  181.09  L  366.09,  180.80  L  366.29,  180.26  L  366.09,  179.71  L  365.59,  179.42  L  365.01,  179.52  L  365.44,  180.26 " style="stroke-width: 0.85 ;&st7; " /><path d=" M  364.25,  204.75  L  363.97,  205.22  L  363.88,  205.75  L  363.97,  206.28  L  364.25,  206.75  L  364.66,  207.10  L  365.17,  207.29  L  365.71,  207.29  L  366.22,  207.10  L  366.63,  206.75  L  366.90,  206.28  L  367.00,  205.75  L  366.90,  205.22  L  366.63,  204.75  L  366.22,  204.40  L  365.71,  204.22  L  365.17,  204.22  L  364.66,  204.40  L  364.25,  204.75  L  364.64,  205.46  L  364.64,  206.04  L  365.01,  206.49  L  365.59,  206.59  L  366.09,  206.30  L  366.29,  205.75  L  366.09,  205.20  L  365.59,  204.92  L  365.01,  205.01  L  365.44,  205.75 " style="stroke-width: 0.85 ;&st7; " /><path d=" M  390.93,  197.25  L  385.27,  188.75  L  396.60,  188.75  L  390.93,  197.25 " style="stroke-width: 0.28 ;&st9;" /><path d=" M  110.48,  197.25  L   76.49,  197.25  L   76.49,  163.26  L  110.48,  163.26  L  110.48,  197.25 " style="stroke-width: 1.42 ;&st7; " /><path d=" M  402.91,  545.69  C  402.91   547.65   404.49   549.24   406.45   549.24 " style="stroke-width: 0.85 ;&st7; " /><path d=" M  406.45,  549.24  C  408.40   549.24   409.99   547.65   409.99   545.69 " style="stroke-width: 0.85 ;&st7; " /><path d=" M  409.99,  545.69  C  409.99   544.70   409.63   543.86   408.93   543.16 " style="stroke-width: 0.85 ;&st7; " /><path d=" M  408.93,  543.16  C  407.53   544.53   407.51   546.78   408.88   548.17 " style="stroke-width: 0.85 ;&st7; " /><path d=" M  408.88,  548.17  C  410.24   549.57   412.49   549.59   413.88   548.22 " style="stroke-width: 0.85 ;&st7; " /><path d=" M  413.88,  548.22  C  415.28   546.85   415.30   544.61   413.93   543.22 " style="stroke-width: 0.85 ;&st7; " /><path d=" M  413.93,  543.22  C  413.92   543.20   413.90   543.18   413.88   543.16 " style="stroke-width: 0.85 ;&st7; " /><path d=" M  413.88,  543.16  C  412.49   544.53   412.46   546.78   413.83   548.17 " style="stroke-width: 0.85 ;&st7; " /><path d=" M  413.83,  548.17  C  415.20   549.57   417.44   549.59   418.84   548.22 " style="stroke-width: 0.85 ;&st7; " /><path d=" M  418.84,  548.22  C  419.55   547.53   419.90   546.68   419.90   545.69 " style="stroke-width: 0.85 ;&st7; " /><path d=" M  471.95,  430.68  C  471.95   428.18   469.93   426.15   467.42   426.15 " style="stroke-width: 1.42 ;&st7; " /><path d=" M  467.42,  426.15  C  464.92   426.15   462.89   428.18   462.89   430.68 " style="stroke-width: 1.42 ;&st7; " /><path d=" M  462.89,  430.68  C  462.89   433.18   464.92   435.21   467.42   435.21 " style="stroke-width: 1.42 ;&st7; " /><path d=" M  467.42,  435.21  C  469.93   435.21   471.95   433.18   471.95   430.68 " style="stroke-width: 1.42 ;&st7; " /><path d=" M  446.46,  430.68  C  446.46   428.18   444.43   426.15   441.93   426.15 " style="stroke-width: 1.42 ;&st7; " /><path d=" M  441.93,  426.15  C  439.42   426.15   437.39   428.18   437.39   430.68 " style="stroke-width: 1.42 ;&st7; " /><path d=" M  437.39,  430.68  C  437.39   433.18   439.42   435.21   441.93   435.21 " style="stroke-width: 1.42 ;&st7; " /><path d=" M  441.93,  435.21  C  444.43   435.21   446.46   433.18   446.46   430.68 " style="stroke-width: 1.42 ;&st7; " /><path d=" M  276.49,  201.78  C  276.49   199.28   274.46   197.25   271.95   197.25 " style="stroke-width: 1.42 ;&st7; " /><path d=" M  271.95,  197.25  C  269.45   197.25   267.42   199.28   267.42   201.78 " style="stroke-width: 1.42 ;&st7; " /><path d=" M  267.42,  201.78  C  267.42   204.29   269.45   206.32   271.95   206.32 " style="stroke-width: 1.42 ;&st7; " /><path d=" M  271.95,  206.32  C  274.46   206.32   276.49   204.29   276.49   201.78 " style="stroke-width: 1.42 ;&st7; " /><path d=" M  213.74,  358.73  C  213.74   358.02   213.17   357.45   212.46   357.45 " style="stroke-width: 0.85 ;&st7; " /><path d=" M  212.46,  357.45  C  211.76   357.45   211.19   358.02   211.19   358.73 " style="stroke-width: 0.85 ;&st7; " /><path d=" M  211.19,  358.73  C  211.19   359.43   211.76   360.00   212.46   360.00 " style="stroke-width: 0.85 ;&st7; " /><path d=" M  212.46,  360.00  C  213.17   360.00   213.74   359.43   213.74   358.73 " style="stroke-width: 0.85 ;&st7; " /><path d=" M  213.42,  358.73  C  213.42   358.20   212.99   357.77   212.46   357.77 " style="stroke-width: 0.85 ;&st7; " /><path d=" M  212.46,  357.77  C  211.94   357.77   211.51   358.20   211.51   358.73 " style="stroke-width: 0.85 ;&st7; " /><path d=" M  211.51,  358.73  C  211.51   359.25   211.94   359.68   212.46   359.68 " style="stroke-width: 0.85 ;&st7; " /><path d=" M  212.46,  359.68  C  212.99   359.68   213.42   359.25   213.42   358.73 " style="stroke-width: 0.85 ;&st7; " /><path d=" M  471.95,  421.61  C  471.95   419.11   469.93   417.08   467.42   417.08 " style="stroke-width: 1.42 ;&st7; " /><path d=" M  467.42,  417.08  C  464.92   417.08   462.89   419.11   462.89   421.61 " style="stroke-width: 1.42 ;&st7; " /><path d=" M  462.89,  421.61  C  462.89   424.12   464.92   426.15   467.42   426.15 " style="stroke-width: 1.42 ;&st7; " /><path d=" M  467.42,  426.15  C  469.93   426.15   471.95   424.12   471.95   421.61 " style="stroke-width: 1.42 ;&st7; " /><path d=" M  369.97,  158.73  C  369.97   156.22   367.94   154.19   365.44   154.19 " style="stroke-width: 1.42 ;&st7; " /><path d=" M  365.44,  154.19  C  362.94   154.19   360.91   156.22   360.91   158.73 " style="stroke-width: 1.42 ;&st7; " /><path d=" M  360.91,  158.73  C  360.91   161.23   362.94   163.26   365.44   163.26 " style="stroke-width: 1.42 ;&st7; " /><path d=" M  365.44,  163.26  C  367.94   163.26   369.97   161.23   369.97   158.73 " style="stroke-width: 1.42 ;&st7; " /><path d=" M  369.97,  149.66  C  369.97   147.16   367.94   145.13   365.44   145.13 " style="stroke-width: 1.42 ;&st7; " /><path d=" M  365.44,  145.13  C  362.94   145.13   360.91   147.16   360.91   149.66 " style="stroke-width: 1.42 ;&st7; " /><path d=" M  360.91,  149.66  C  360.91   152.16   362.94   154.19   365.44   154.19 " style="stroke-width: 1.42 ;&st7; " /><path d=" M  365.44,  154.19  C  367.94   154.19   369.97   152.16   369.97   149.66 " style="stroke-width: 1.42 ;&st7; " /><path d=" M  369.97,  269.77  C  369.97   267.27   367.94   265.24   365.44   265.24 " style="stroke-width: 1.42 ;&st7; " /><path d=" M  365.44,  265.24  C  362.94   265.24   360.91   267.27   360.91   269.77 " style="stroke-width: 1.42 ;&st7; " /><path d=" M  360.91,  269.77  C  360.91   272.28   362.94   274.31   365.44   274.31 " style="stroke-width: 1.42 ;&st7; " /><path d=" M  365.44,  274.31  C  367.94   274.31   369.97   272.28   369.97   269.77 " style="stroke-width: 1.42 ;&st7; " /><path d=" M  369.97,  278.84  C  369.97   276.34   367.94   274.31   365.44   274.31 " style="stroke-width: 1.42 ;&st7; " /><path d=" M  365.44,  274.31  C  362.94   274.31   360.91   276.34   360.91   278.84 " style="stroke-width: 1.42 ;&st7; " /><path d=" M  360.91,  278.84  C  360.91   281.34   362.94   283.37   365.44   283.37 " style="stroke-width: 1.42 ;&st7; " /><path d=" M  365.44,  283.37  C  367.94   283.37   369.97   281.34   369.97   278.84 " style="stroke-width: 1.42 ;&st7; " /><path d=" M  369.97,  430.68  C  369.97   428.18   367.94   426.15   365.44   426.15 " style="stroke-width: 1.42 ;&st7; " /><path d=" M  365.44,  426.15  C  362.94   426.15   360.91   428.18   360.91   430.68 " style="stroke-width: 1.42 ;&st7; " /><path d=" M  360.91,  430.68  C  360.91   433.18   362.94   435.21   365.44   435.21 " style="stroke-width: 1.42 ;&st7; " /><path d=" M  365.44,  435.21  C  367.94   435.21   369.97   433.18   369.97   430.68 " style="stroke-width: 1.42 ;&st7; " /><path d=" M  318.98,  430.68  C  318.98   428.18   316.95   426.15   314.45   426.15 " style="stroke-width: 1.42 ;&st7; " /><path d=" M  314.45,  426.15  C  311.94   426.15   309.91   428.18   309.91   430.68 " style="stroke-width: 1.42 ;&st7; " /><path d=" M  309.91,  430.68  C  309.91   433.18   311.94   435.21   314.45   435.21 " style="stroke-width: 1.42 ;&st7; " /><path d=" M  314.45,  435.21  C  316.95   435.21   318.98   433.18   318.98   430.68 " style="stroke-width: 1.42 ;&st7; " /><path d=" M  419.26,  571.19  C  419.26   569.23   417.68   567.65   415.72   567.65 " style="stroke-width: 0.85 ;&st7; " /><path d=" M  415.72,  567.65  C  413.77   567.65   412.18   569.23   412.18   571.19 " style="stroke-width: 0.85 ;&st7; " /><path d=" M  412.18,  571.19  C  412.18   572.18   412.54   573.03   413.24   573.72 " style="stroke-width: 0.85 ;&st7; " /><path d=" M  413.24,  573.72  C  414.64   572.35   414.66   570.11   413.29   568.71 " style="stroke-width: 0.85 ;&st7; " /><path d=" M  413.29,  568.71  C  411.93   567.31   409.68   567.29   408.29   568.66 " style="stroke-width: 0.85 ;&st7; " /><path d=" M  408.29,  568.66  C  406.89   570.03   406.87   572.27   408.23   573.67 " style="stroke-width: 0.85 ;&st7; " /><path d=" M  408.23,  573.67  C  408.25   573.69   408.27   573.70   408.29   573.72 " style="stroke-width: 0.85 ;&st7; " /><path d=" M  408.29,  573.72  C  409.68   572.35   409.71   570.11   408.34   568.71 " style="stroke-width: 0.85 ;&st7; " /><path d=" M  408.34,  568.71  C  406.97   567.31   404.73   567.29   403.33   568.66 " style="stroke-width: 0.85 ;&st7; " /><path d=" M  403.33,  568.66  C  402.62   569.35   402.27   570.20   402.27   571.19 " style="stroke-width: 0.85 ;&st7; " /><path d=" M  433.43,  536.99  C  435.12   537.97   437.29   537.39   438.26   535.70 " style="stroke-width: 0.85 ;&st7; " /><path d=" M  438.26,  535.70  C  439.24   534.00   438.66   531.84   436.97   530.86 " style="stroke-width: 0.85 ;&st7; " /><path d=" M  436.97,  530.86  C  436.11   530.37   435.20   530.25   434.25   530.52 " style="stroke-width: 0.85 ;&st7; " /><path d=" M  434.25,  530.52  C  434.73   532.41   436.67   533.55   438.56   533.06 " style="stroke-width: 0.85 ;&st7; " /><path d=" M  438.56,  533.06  C  440.46   532.57   441.60   530.64   441.11   528.75 " style="stroke-width: 0.85 ;&st7; " /><path d=" M  441.11,  528.75  C  440.62   526.85   438.69   525.71   436.79   526.20 " style="stroke-width: 0.85 ;&st7; " /><path d=" M  436.79,  526.20  C  436.77   526.21   436.75   526.21   436.72   526.22 " style="stroke-width: 0.85 ;&st7; " /><path d=" M  436.73,  526.22  C  437.21   528.12   439.14   529.26   441.04   528.77 " style="stroke-width: 0.85 ;&st7; " /><path d=" M  441.04,  528.77  C  442.93   528.28   444.07   526.35   443.59   524.46 " style="stroke-width: 0.85 ;&st7; " /><path d=" M  443.59,  524.46  C  443.34   523.50   442.78   522.77   441.93   522.27 " style="stroke-width: 0.85 ;&st7; " /><path d=" M  434.25,  504.22  C  436.13   504.74   438.08   503.64   438.61   501.76 " style="stroke-width: 0.85 ;&st7; " /><path d=" M  438.61,  501.76  C  439.13   499.87   438.03   497.92   436.15   497.39 " style="stroke-width: 0.85 ;&st7; " /><path d=" M  436.15,  497.39  C  435.20   497.13   434.29   497.24   433.43   497.74 " style="stroke-width: 0.85 ;&st7; " /><path d=" M  436.73,  508.51  C  438.61   509.04   440.56   507.93   441.09   506.05 " style="stroke-width: 0.85 ;&st7; " /><path d=" M  441.09,  506.05  C  441.61   504.17   440.51   502.21   438.63   501.69 " style="stroke-width: 0.85 ;&st7; " /><path d=" M  438.63,  501.69  C  436.75   501.16   434.79   502.26   434.27   504.15 " style="stroke-width: 0.85 ;&st7; " /><path d=" M  434.27,  504.15  C  434.26   504.17   434.25   504.19   434.25   504.22 " style="stroke-width: 0.85 ;&st7; " /><path d=" M  441.93,  512.46  C  443.62   511.48   444.20   509.31   443.22   507.62 " style="stroke-width: 0.85 ;&st7; " /><path d=" M  443.22,  507.62  C  442.25   505.93   440.08   505.35   438.39   506.32 " style="stroke-width: 0.85 ;&st7; " /><path d=" M  438.39,  506.32  C  437.53   506.82   436.97   507.55   436.72   508.51 " style="stroke-width: 0.85 ;&st7; " /><path d=" M  467.42,  517.37  C  467.42   515.41   465.84   513.82   463.88   513.82 " style="stroke-width: 0.85 ;&st7; " /><path d=" M  463.88,  513.82  C  461.93   513.82   460.34   515.41   460.34   517.37 " style="stroke-width: 0.85 ;&st7; " /><path d=" M  460.34,  517.37  C  460.34   518.36   460.70   519.20   461.40   519.89 " style="stroke-width: 0.85 ;&st7; " /><path d=" M  461.40,  519.90  C  462.80   518.53   462.82   516.28   461.45   514.89 " style="stroke-width: 0.85 ;&st7; " /><path d=" M  461.45,  514.89  C  460.08   513.49   457.84   513.47   456.44   514.84 " style="stroke-width: 0.85 ;&st7; " /><path d=" M  456.44,  514.84  C  455.05   516.20   455.02   518.45   456.39   519.84 " style="stroke-width: 0.85 ;&st7; " /><path d=" M  456.39,  519.84  C  456.41   519.86   456.43   519.88   456.44   519.90 " style="stroke-width: 0.85 ;&st7; " /><path d=" M  456.44,  519.90  C  457.84   518.53   457.86   516.28   456.50   514.89 " style="stroke-width: 0.85 ;&st7; " /><path d=" M  456.50,  514.89  C  455.13   513.49   452.88   513.47   451.49   514.84 " style="stroke-width: 0.85 ;&st7; " /><path d=" M  451.49,  514.84  C  450.78   515.53   450.42   516.37   450.42   517.37 " style="stroke-width: 0.85 ;&st7; " /><path d=" M  445.71,  517.37  C  445.71   516.84   445.29   516.41   444.76   516.41 " style="stroke-width: 0.85 ;&st7; " /><path d=" M  444.76,  516.41  C  444.23   516.41   443.80   516.84   443.80   517.37 " style="stroke-width: 0.85 ;&st7; " /><path d=" M  443.80,  517.37  C  443.80   517.89   444.23   518.32   444.76   518.32 " style="stroke-width: 0.85 ;&st7; " /><path d=" M  444.76,  518.32  C  445.29   518.32   445.71   517.89   445.71   517.37 " style="stroke-width: 0.85 ;&st7; " /><path d=" M  446.03,  517.37  C  446.03   516.66   445.46   516.09   444.76   516.09 " style="stroke-width: 0.85 ;&st7; " /><path d=" M  444.76,  516.09  C  444.05   516.09   443.48   516.66   443.48   517.37 " style="stroke-width: 0.85 ;&st7; " /><path d=" M  443.48,  517.37  C  443.48   518.07   444.05   518.64   444.76   518.64 " style="stroke-width: 0.85 ;&st7; " /><path d=" M  444.76,  518.64  C  445.46   518.64   446.03   518.07   446.03   517.37 " style="stroke-width: 0.85 ;&st7; " /><path d=" M  340.90,  517.37  C  340.90   516.84   340.47   516.41   339.94   516.41 " style="stroke-width: 0.85 ;&st7; " /><path d=" M  339.94,  516.41  C  339.42   516.41   338.99   516.84   338.99   517.37 " style="stroke-width: 0.85 ;&st7; " /><path d=" M  338.99,  517.37  C  338.99   517.89   339.42   518.32   339.94   518.32 " style="stroke-width: 0.85 ;&st7; " /><path d=" M  339.94,  518.32  C  340.47   518.32   340.90   517.89   340.90   517.37 " style="stroke-width: 0.85 ;&st7; " /><path d=" M  366.39,  554.19  C  366.39   553.67   365.97   553.24   365.44   553.24 " style="stroke-width: 0.85 ;&st7; " /><path d=" M  365.44,  553.24  C  364.91   553.24   364.48   553.67   364.48   554.19 " style="stroke-width: 0.85 ;&st7; " /><path d=" M  364.48,  554.19  C  364.48   554.72   364.91   555.15   365.44   555.15 " style="stroke-width: 0.85 ;&st7; " /><path d=" M  365.44,  555.15  C  365.97   555.15   366.39   554.72   366.39   554.19 " style="stroke-width: 0.85 ;&st7; " /><path d=" M  366.71,  554.19  C  366.71   553.49   366.14   552.92   365.44   552.92 " style="stroke-width: 0.85 ;&st7; " /><path d=" M  365.44,  552.92  C  364.73   552.92   364.16   553.49   364.16   554.19 " style="stroke-width: 0.85 ;&st7; " /><path d=" M  364.16,  554.19  C  364.16   554.90   364.73   555.47   365.44   555.47 " style="stroke-width: 0.85 ;&st7; " /><path d=" M  365.44,  555.47  C  366.14   555.47   366.71   554.90   366.71   554.19 " style="stroke-width: 0.85 ;&st7; " /><path d=" M  374.89,  511.70  C  374.89   511.17   374.46   510.75   373.94   510.75 " style="stroke-width: 0.85 ;&st7; " /><path d=" M  373.94,  510.75  C  373.41   510.75   372.98   511.17   372.98   511.70 " style="stroke-width: 0.85 ;&st7; " /><path d=" M  372.98,  511.70  C  372.98   512.23   373.41   512.65   373.94   512.65 " style="stroke-width: 0.85 ;&st7; " /><path d=" M  373.94,  512.65  C  374.46   512.65   374.89   512.23   374.89   511.70 " style="stroke-width: 0.85 ;&st7; " /><path d=" M  375.21,  511.70  C  375.21   511.00   374.64   510.43   373.94   510.43 " style="stroke-width: 0.85 ;&st7; " /><path d=" M  373.94,  510.43  C  373.23   510.43   372.66   511.00   372.66   511.70 " style="stroke-width: 0.85 ;&st7; " /><path d=" M  372.66,  511.70  C  372.66   512.40   373.23   512.97   373.94   512.97 " style="stroke-width: 0.85 ;&st7; " /><path d=" M  373.94,  512.97  C  374.64   512.97   375.21   512.40   375.21   511.70 " style="stroke-width: 0.85 ;&st7; " /><path d=" M  357.90,  523.03  C  357.90   522.50   357.47   522.08   356.94   522.08 " style="stroke-width: 0.85 ;&st7; " /><path d=" M  356.94,  522.08  C  356.41   522.08   355.99   522.50   355.99   523.03 " style="stroke-width: 0.85 ;&st7; " /><path d=" M  355.99,  523.03  C  355.99   523.56   356.41   523.99   356.94   523.99 " style="stroke-width: 0.85 ;&st7; " /><path d=" M  356.94,  523.99  C  357.47   523.99   357.90   523.56   357.90   523.03 " style="stroke-width: 0.85 ;&st7; " /><path d=" M  358.22,  523.03  C  358.22   522.33   357.64   521.76   356.94   521.76 " style="stroke-width: 0.85 ;&st7; " /><path d=" M  356.94,  521.76  C  356.24   521.76   355.67   522.33   355.67   523.03 " style="stroke-width: 0.85 ;&st7; " /><path d=" M  355.67,  523.03  C  355.67   523.74   356.24   524.31   356.94   524.31 " style="stroke-width: 0.85 ;&st7; " /><path d=" M  356.94,  524.31  C  357.64   524.31   358.22   523.74   358.22   523.03 " style="stroke-width: 0.85 ;&st7; " /><path d=" M  341.22,  517.37  C  341.22   516.66   340.65   516.09   339.94   516.09 " style="stroke-width: 0.85 ;&st7; " /><path d=" M  339.94,  516.09  C  339.24   516.09   338.67   516.66   338.67   517.37 " style="stroke-width: 0.85 ;&st7; " /><path d=" M  338.67,  517.37  C  338.67   518.07   339.24   518.64   339.94   518.64 " style="stroke-width: 0.85 ;&st7; " /><path d=" M  339.94,  518.64  C  340.65   518.64   341.22   518.07   341.22   517.37 " style="stroke-width: 0.85 ;&st7; " /><path d=" M  366.39,  517.37  C  366.39   516.84   365.97   516.41   365.44   516.41 " style="stroke-width: 0.85 ;&st7; " /><path d=" M  365.44,  516.41  C  364.91   516.41   364.48   516.84   364.48   517.37 " style="stroke-width: 0.85 ;&st7; " /><path d=" M  364.48,  517.37  C  364.48   517.89   364.91   518.32   365.44   518.32 " style="stroke-width: 0.85 ;&st7; " /><path d=" M  365.44,  518.32  C  365.97   518.32   366.39   517.89   366.39   517.37 " style="stroke-width: 0.85 ;&st7; " /><path d=" M  366.71,  517.37  C  366.71   516.66   366.14   516.09   365.44   516.09 " style="stroke-width: 0.85 ;&st7; " /><path d=" M  365.44,  516.09  C  364.73   516.09   364.16   516.66   364.16   517.37 " style="stroke-width: 0.85 ;&st7; " /><path d=" M  364.16,  517.37  C  364.16   518.07   364.73   518.64   365.44   518.64 " style="stroke-width: 0.85 ;&st7; " /><path d=" M  365.44,  518.64  C  366.14   518.64   366.71   518.07   366.71   517.37 " style="stroke-width: 0.85 ;&st7; " /><path d=" M  366.39,  486.20  C  366.39   485.68   365.97   485.25   365.44   485.25 " style="stroke-width: 0.85 ;&st7; " /><path d=" M  365.44,  485.25  C  364.91   485.25   364.48   485.68   364.48   486.20 " style="stroke-width: 0.85 ;&st7; " /><path d=" M  364.48,  486.20  C  364.48   486.73   364.91   487.16   365.44   487.16 " style="stroke-width: 0.85 ;&st7; " /><path d=" M  365.44,  487.16  C  365.97   487.16   366.39   486.73   366.39   486.20 " style="stroke-width: 0.85 ;&st7; " /><path d=" M  366.71,  486.20  C  366.71   485.50   366.14   484.93   365.44   484.93 " style="stroke-width: 0.85 ;&st7; " /><path d=" M  365.44,  484.93  C  364.73   484.93   364.16   485.50   364.16   486.20 " style="stroke-width: 0.85 ;&st7; " /><path d=" M  364.16,  486.20  C  364.16   486.91   364.73   487.48   365.44   487.48 " style="stroke-width: 0.85 ;&st7; " /><path d=" M  365.44,  487.48  C  366.14   487.48   366.71   486.91   366.71   486.20 " style="stroke-width: 0.85 ;&st7; " /><path d=" M  366.39,  477.71  C  366.39   477.18   365.97   476.75   365.44   476.75 " style="stroke-width: 0.85 ;&st7; " /><path d=" M  365.44,  476.75  C  364.91   476.75   364.48   477.18   364.48   477.71 " style="stroke-width: 0.85 ;&st7; " /><path d=" M  364.48,  477.71  C  364.48   478.23   364.91   478.66   365.44   478.66 " style="stroke-width: 0.85 ;&st7; " /><path d=" M  365.44,  478.66  C  365.97   478.66   366.39   478.23   366.39   477.71 " style="stroke-width: 0.85 ;&st7; " /><path d=" M  366.71,  477.71  C  366.71   477.00   366.14   476.43   365.44   476.43 " style="stroke-width: 0.85 ;&st7; " /><path d=" M  365.44,  476.43  C  364.73   476.43   364.16   477.00   364.16   477.71 " style="stroke-width: 0.85 ;&st7; " /><path d=" M  364.16,  477.71  C  364.16   478.41   364.73   478.98   365.44   478.98 " style="stroke-width: 0.85 ;&st7; " /><path d=" M  365.44,  478.98  C  366.14   478.98   366.71   478.41   366.71   477.71 " style="stroke-width: 0.85 ;&st7; " /><path d=" M  366.71,  579.69  C  366.71   578.98   366.14   578.41   365.44   578.41 " style="stroke-width: 0.85 ;&st7; " /><path d=" M  365.44,  578.41  C  364.73   578.41   364.16   578.98   364.16   579.69 " style="stroke-width: 0.85 ;&st7; " /><path d=" M  364.16,  579.69  C  364.16   580.39   364.73   580.96   365.44   580.96 " style="stroke-width: 0.85 ;&st7; " /><path d=" M  365.44,  580.96  C  366.14   580.96   366.71   580.39   366.71   579.69 " style="stroke-width: 0.85 ;&st7; " /><path d=" M  366.39,  579.69  C  366.39   579.16   365.97   578.73   365.44   578.73 " style="stroke-width: 0.85 ;&st7; " /><path d=" M  365.44,  578.73  C  364.91   578.73   364.48   579.16   364.48   579.69 " style="stroke-width: 0.85 ;&st7; " /><path d=" M  364.48,  579.69  C  364.48   580.22   364.91   580.64   365.44   580.64 " style="stroke-width: 0.85 ;&st7; " /><path d=" M  365.44,  580.64  C  365.97   580.64   366.39   580.22   366.39   579.69 " style="stroke-width: 0.85 ;&st7; " /><path d=" M  365.44,   47.11  C  362.70    48.72   361.79    52.25   363.40    54.99 " style="stroke-width: 1.42 ;&st7; " /><path d=" M  363.40,   54.99  C  363.92    55.87   364.56    56.51   365.44    57.03 " style="stroke-width: 1.42 ;&st7; " /><path d=" M  365.44,   66.94  C  368.18    65.33   369.09    61.80   367.48    59.06 " style="stroke-width: 1.42 ;&st7; " /><path d=" M  367.48,   59.06  C  366.96    58.18   366.32    57.55   365.44    57.03 " style="stroke-width: 1.42 ;&st7; " /><path d=" M  366.86,   45.69  C  366.86    44.91   366.22    44.28   365.44    44.28 " style="stroke-width: 0.85 ;&st7; " /><path d=" M  365.44,   44.28  C  364.66    44.28   364.02    44.91   364.02    45.69 " style="stroke-width: 0.85 ;&st7; " /><path d=" M  364.02,   45.69  C  364.02    46.48   364.66    47.11   365.44    47.11 " style="stroke-width: 0.85 ;&st7; " /><path d=" M  365.44,   47.11  C  366.22    47.11   366.86    46.48   366.86    45.69 " style="stroke-width: 0.85 ;&st7; " /><path d=" M  366.86,   68.36  C  366.86    67.57   366.22    66.94   365.44    66.94 " style="stroke-width: 0.85 ;&st7; " /><path d=" M  365.44,   66.94  C  364.66    66.94   364.02    67.57   364.02    68.36 " style="stroke-width: 0.85 ;&st7; " /><path d=" M  364.02,   68.36  C  364.02    69.14   364.66    69.77   365.44    69.77 " style="stroke-width: 0.85 ;&st7; " /><path d=" M  365.44,   69.77  C  366.22    69.77   366.86    69.14   366.86    68.36 " style="stroke-width: 0.85 ;&st7; " /><path d=" M  363.31,   95.27  C  360.97    95.27   359.07    97.17   359.07    99.52 " style="stroke-width: 1.42 ;&st7; " /><path d=" M  359.07,   99.52  C  359.07   101.87   360.97   103.77   363.31   103.77 " style="stroke-width: 1.42 ;&st7; " /><path d=" M  475.92,  545.69  C  477.88   545.69   479.46   544.11   479.46   542.15 " style="stroke-width: 0.85 ;&st7; " /><path d=" M  479.46,  542.15  C  479.46   540.20   477.88   538.61   475.92   538.61 " style="stroke-width: 0.85 ;&st7; " /><path d=" M  475.92,  538.61  C  474.93   538.61   474.08   538.97   473.39   539.67 " style="stroke-width: 0.85 ;&st7; " /><path d=" M  473.39,  539.67  C  474.76   541.07   477.00   541.09   478.40   539.73 " style="stroke-width: 0.85 ;&st7; " /><path d=" M  478.40,  539.73  C  479.80   538.36   479.82   536.11   478.45   534.72 " style="stroke-width: 0.85 ;&st7; " /><path d=" M  478.45,  534.72  C  477.08   533.32   474.84   533.30   473.44   534.67 " style="stroke-width: 0.85 ;&st7; " /><path d=" M  473.44,  534.67  C  473.42   534.68   473.41   534.70   473.39   534.72 " style="stroke-width: 0.85 ;&st7; " /><path d=" M  473.39,  534.72  C  474.76   536.11   477.00   536.14   478.40   534.77 " style="stroke-width: 0.85 ;&st7; " /><path d=" M  478.40,  534.77  C  479.80   533.40   479.82   531.16   478.45   529.76 " style="stroke-width: 0.85 ;&st7; " /><path d=" M  478.45,  529.76  C  477.76   529.05   476.91   528.70   475.92   528.70 " style="stroke-width: 0.85 ;&st7; " /><path d=" M  367.56,  103.77  C  369.91   103.77   371.81   101.87   371.81    99.52 " style="stroke-width: 1.42 ;&st7; " /><path d=" M  371.81,   99.52  C  371.81    97.17   369.91    95.27   367.56    95.27 " style="stroke-width: 1.42 ;&st7; " /><path d=" M  217.00,  430.68  C  217.00   428.18   214.97   426.15   212.46   426.15 " style="stroke-width: 1.42 ;&st7; " /><path d=" M  212.46,  426.15  C  209.96   426.15   207.93   428.18   207.93   430.68 " style="stroke-width: 1.42 ;&st7; " /><path d=" M  207.93,  430.68  C  207.93   433.18   209.96   435.21   212.46   435.21 " style="stroke-width: 1.42 ;&st7; " /><path d=" M  212.46,  435.21  C  214.97   435.21   217.00   433.18   217.00   430.68 " style="stroke-width: 1.42 ;&st7; " /><path d=" M  408.93,  491.57  C  410.32   490.20   410.35   487.96   408.98   486.56 " style="stroke-width: 0.85 ;&st7; " /><path d=" M  408.98,  486.56  C  407.61   485.16   405.37   485.14   403.97   486.51 " style="stroke-width: 0.85 ;&st7; " /><path d=" M  403.97,  486.51  C  403.26   487.20   402.91   488.05   402.91   489.04 " style="stroke-width: 0.85 ;&st7; " /><path d=" M  413.88,  491.57  C  415.28   490.20   415.30   487.96   413.93   486.56 " style="stroke-width: 0.85 ;&st7; " /><path d=" M  413.93,  486.56  C  412.57   485.16   410.32   485.14   408.93   486.51 " style="stroke-width: 0.85 ;&st7; " /><path d=" M  408.93,  486.51  C  407.53   487.88   407.51   490.12   408.88   491.52 " style="stroke-width: 0.85 ;&st7; " /><path d=" M  408.88,  491.52  C  408.89   491.53   408.91   491.55   408.93   491.57 " style="stroke-width: 0.85 ;&st7; " /><path d=" M  419.90,  489.04  C  419.90   487.08   418.32   485.50   416.36   485.50 " style="stroke-width: 0.85 ;&st7; " /><path d=" M  416.36,  485.50  C  414.41   485.50   412.82   487.08   412.82   489.04 " style="stroke-width: 0.85 ;&st7; " /><path d=" M  412.82,  489.04  C  412.82   490.03   413.18   490.87   413.88   491.57 " style="stroke-width: 0.85 ;&st7; " /><path d=" M  314.45,   47.11  C  311.71    48.72   310.80    52.25   312.41    54.99 " style="stroke-width: 1.42 ;&st7; " /><path d=" M  312.41,   54.99  C  312.93    55.87   313.57    56.51   314.45    57.03 " style="stroke-width: 1.42 ;&st7; " /><path d=" M  314.45,   66.94  C  317.19    65.33   318.10    61.80   316.48    59.06 " style="stroke-width: 1.42 ;&st7; " /><path d=" M  316.48,   59.06  C  315.96    58.18   315.33    57.55   314.45    57.03 " style="stroke-width: 1.42 ;&st7; " /><path d=" M  315.86,   45.69  C  315.86    44.91   315.23    44.28   314.45    44.28 " style="stroke-width: 0.85 ;&st7; " /><path d=" M  314.45,   44.28  C  313.67    44.28   313.03    44.91   313.03    45.69 " style="stroke-width: 0.85 ;&st7; " /><path d=" M  313.03,   45.69  C  313.03    46.48   313.67    47.11   314.45    47.11 " style="stroke-width: 0.85 ;&st7; " /><path d=" M  314.45,   47.11  C  315.23    47.11   315.86    46.48   315.86    45.69 " style="stroke-width: 0.85 ;&st7; " /><path d=" M  315.86,   68.36  C  315.86    67.57   315.23    66.94   314.45    66.94 " style="stroke-width: 0.85 ;&st7; " /><path d=" M  314.45,   66.94  C  313.67    66.94   313.03    67.57   313.03    68.36 " style="stroke-width: 0.85 ;&st7; " /><path d=" M  313.03,   68.36  C  313.03    69.14   313.67    69.77   314.45    69.77 " style="stroke-width: 0.85 ;&st7; " /><path d=" M  314.45,   69.77  C  315.23    69.77   315.86    69.14   315.86    68.36 " style="stroke-width: 0.85 ;&st7; " /><path d=" M  312.32,   95.27  C  309.98    95.27   308.07    97.17   308.07    99.52 " style="stroke-width: 1.42 ;&st7; " /><path d=" M  308.07,   99.52  C  308.07   101.87   309.98   103.77   312.32   103.77 " style="stroke-width: 1.42 ;&st7; " /><path d=" M  316.57,  103.77  C  318.92   103.77   320.82   101.87   320.82    99.52 " style="stroke-width: 1.42 ;&st7; " /><path d=" M  320.82,   99.52  C  320.82    97.17   318.92    95.27   316.57    95.27 " style="stroke-width: 1.42 ;&st7; " /><path d=" M  217.00,  201.78  C  217.00   199.28   214.97   197.25   212.46   197.25 " style="stroke-width: 1.42 ;&st7; " /><path d=" M  212.46,  197.25  C  209.96   197.25   207.93   199.28   207.93   201.78 " style="stroke-width: 1.42 ;&st7; " /><path d=" M  207.93,  201.78  C  207.93   204.29   209.96   206.32   212.46   206.32 " style="stroke-width: 1.42 ;&st7; " /><path d=" M  212.46,  206.32  C  214.97   206.32   217.00   204.29   217.00   201.78 " style="stroke-width: 1.42 ;&st7; " /><text style="&st18;" transform="matrix(&st16;  201.62  203.75 )">6</text><text style="&st18;" transform="matrix(&st16;  350.62  330.95 )">4</text><text style="&st18;" transform="matrix(&st16;  24.03  205.45 )">10</text><text style="&st18;" transform="matrix(&st16;  206.04  193.56 )">ALT</text><text style="&st18;" transform="matrix(&st17;  220.1  335.16 )">(*5)</text><text style="&st18;" transform="matrix(&st17;  208.77  331.74 )">G</text><text style="&st18;" transform="matrix(&st17;  208.77  391.23 )">G</text><text ewd:textID="11" style="&st18;" transform="matrix(&st16;  192.94  153.61 )">A/C Control <tspan dy="6" x="0">Assembly</tspan></text><text style="&st18;" transform="matrix(&st17;  279.59  245.93 )">(*4)</text><text ewd:textID="12" style="&st18;" transform="matrix(&st16;  226.94  611.4 )">Alternator</text><text style="&st18;" transform="matrix(&st17;  268.26  242.5 )">G</text><text style="&st18;" transform="matrix(&st16;  457.35  432.65 )">1</text><text style="&st18;" transform="matrix(&st16;  308.37  32.08 )">(IG)</text><text style="&st18;" transform="matrix(&st17;  220.1  245.93 )">(*3)</text><text style="&st18;" transform="matrix(&st17;  208.77  242.5 )">G</text><text style="&st18;" transform="matrix(&st16;  252.43  152.46 )">A33(A)</text><text style="&st18;" transform="matrix(&st16;  269.62  203.75 )">A</text><text style="&st18;" transform="matrix(&st16;  257.15  203.75 )">37</text><text style="&st18;" transform="matrix(&st16;  265.53  193.56 )">ALT</text><text ewd:textID="10" style="&st18;" transform="matrix(&st16;  252.43  159.56 )">A/C Amplifier</text><text style="&st18;" transform="matrix(&st16;  133.45  152.46 )">E 7</text><text style="&st18;" transform="matrix(&st16;  146.19  205.45 )">8</text><text style="&st18;" transform="matrix(&st16;  146.55  193.56 )">ALT</text><text ewd:textID="16" style="&st18;" transform="matrix(&st16;  133.45  159.56 )">Engine ECU</text><text style="&st18;" transform="matrix(&st16;  14.47  152.46 )">E11</text><text style="&st18;" transform="matrix(&st16;  27.57  193.56 )">ALT</text><text ewd:textID="16" style="&st18;" transform="matrix(&st16;  14.47  159.56 )">Engine ECU</text><text style="&st18;" transform="matrix(&st16;  194.47  288.46 )">13</text><text ewd:textID="15" style="&st18;" transform="matrix(&st17;  422.65  267.77 )">Combination Meter</text><text style="&st18;" transform="matrix(&st17;  415.54  267.77 )">C10(A),C26(C)</text><text style="&st18;" transform="matrix(&st17;  149.28  331.74 )">G</text><text style="&st18;" transform="matrix(&st17;  160.61  336.75 )">(*15)</text><text style="&st18;" transform="matrix(&st16;  197.17  355.03 )">5</text><text style="&st18;" transform="matrix(&st16;  473.4  423.58 )">(*6)</text><text style="&st18;" transform="matrix(&st16;  464.95  423.58 )">C</text><text style="&st18;" transform="matrix(&st16;  457.32  423.58 )">1</text><text style="&st18;" transform="matrix(&st16;  473.4  432.65 )">(*8)</text><text ewd:textID="18" style="&st18;" transform="matrix(&st17;  235.68  369.75 )">Junction <tspan dy="6" x="0">Connector</tspan></text><text style="&st18;" transform="matrix(&st17;  228.57  369.75 )">J 7</text><text style="&st18;" transform="matrix(&st16;  252.43  288.43 )">E20</text><text style="&st18;" transform="matrix(&st16;  261.99  341.42 )">19</text><text style="&st18;" transform="matrix(&st16;  265.53  329.53 )">ALT</text><text ewd:textID="16" style="&st18;" transform="matrix(&st16;  252.43  295.54 )">Engine ECU</text><text style="&st18;" transform="matrix(&st17;  268.26  378.48 )">G</text><text style="&st18;" transform="matrix(&st17;  279.59  381.9 )">(*7)</text><text style="&st18;" transform="matrix(&st16;  371.41  160.69 )">(*10)</text><text style="&st18;" transform="matrix(&st16;  362.97  160.69 )">C</text><text style="&st18;" transform="matrix(&st16;  351.38  160.69 )">21</text><text style="&st18;" transform="matrix(&st16;  371.41  151.63 )">(*9)</text><text style="&st18;" transform="matrix(&st16;  363.11  151.63 )">A</text><text style="&st18;" transform="matrix(&st16;  351.38  151.63 )">21</text><text style="&st18;" transform="matrix(&st16;  371.41  271.74 )">(*9)</text><text style="&st18;" transform="matrix(&st16;  363.11  271.74 )">A</text><text style="&st18;" transform="matrix(&st16;  350.61  271.74 )">37</text><text style="&st18;" transform="matrix(&st16;  371.41  280.81 )">(*10)</text><text style="&st18;" transform="matrix(&st16;  362.97  280.81 )">C</text><text style="&st18;" transform="matrix(&st16;  350.61  280.81 )">37</text><text style="&st18;" transform="matrix(&st16;  370.42  187.89 )">(*10)</text><text style="&st18;" transform="matrix(&st16;  370.42  213.39 )">(*10)</text><text style="&st18;" transform="matrix(&st17;  373.08  203.43 )">(*9)</text><text style="&st18;" transform="matrix(&st16;  73.96  152.46 )">E30</text><text style="&st18;" transform="matrix(&st16;  82.74  205.45 )">23</text><text style="&st18;" transform="matrix(&st16;  87.06  193.56 )">ALT</text><text ewd:textID="16" style="&st18;" transform="matrix(&st16;  73.96  159.56 )">Engine ECU</text><text style="&st18;" transform="matrix(&st17;  89.79  331.74 )">G</text><text style="&st18;" transform="matrix(&st17;  101.12  336.36 )">(*11)</text><text style="&st18;" transform="matrix(&st17;  123.78  331.74 )">G</text><text style="&st18;" transform="matrix(&st17;  135.12  336.75 )">(*14)</text><text style="&st18;" transform="matrix(&st16;  489.56  236.05 )">W</text><text style="&st18;" transform="matrix(&st16;  490.59  261.54 )">B</text><text style="&st18;" transform="matrix(&st17;  322.08  128.54 )">(*16)</text><text style="&st18;" transform="matrix(&st17;  322.08  383.49 )">(*16)</text><text style="&st18;" transform="matrix(&st16;  486.45  397.52 )">R-L</text><text style="&st18;" transform="matrix(&st16;  485.15  408.85 )">(*17)</text><text style="&st18;" transform="matrix(&st16;  465.09  432.65 )">A</text><text style="&st18;" transform="matrix(&st16;  431.85  432.65 )">1</text><text style="&st18;" transform="matrix(&st16;  439.59  432.65 )">B</text><text style="&st18;" transform="matrix(&st16;  354.59  432.65 )">4</text><text style="&st18;" transform="matrix(&st16;  363.11  432.65 )">B</text><text style="&st18;" transform="matrix(&st16;  303.6  432.65 )">2</text><text style="&st18;" transform="matrix(&st16;  312.12  432.65 )">B</text><text ewd:textID="17" style="&st18;" transform="matrix(&st16;  222.32  543.41 )">IC Regulator</text><text style="&st18;" transform="matrix(&st16;  459.93  443.41 )">B</text><text style="&st18;" transform="matrix(&st16;  434.43  443.41 )">S</text><text style="&st18;" transform="matrix(&st16;  358.65  443.41 )">L</text><text style="&st18;" transform="matrix(&st16;  304.13  443.41 )">IG</text><text style="&st18;" transform="matrix(&st16;  192.94  146.51 )">A34(C)</text><text ewd:textID="14" style="&st18;" transform="matrix(&st17;  357.5  238.58 )">Charge</text><text style="&st18;" transform="matrix(&st16;  226.94  604.3 )">A12(A),A13(B),A37(C)</text><text style="&st18;" transform="matrix(&st17;  310.75  127.23 )">R-L</text><text style="&st18;" transform="matrix(&st17;  220.1  401.12 )">(*2,*13)</text><text style="&st18;" transform="matrix(&st16;  205.68  375.42 )">4</text><text style="&st18;" transform="matrix(&st17;  361.74  304.46 )">GR</text><text style="&st18;" transform="matrix(&st17;  310.75  382.19 )">R-L</text><text style="&st18;" transform="matrix(&st17;  361.74  380.95 )">GR</text><text style="&st18;" transform="matrix(&st17;  438.23  379.08 )">W</text><text style="&st18;" transform="matrix(&st17;  463.73  378.05 )">B</text><text style="&st18;" transform="matrix(&st17;  361.74  127.86 )">B-O</text><text style="&st18;" transform="matrix(&st17;  438.23  302.59 )">W</text><text style="&st18;" transform="matrix(&st16;  205.68  346.54 )">6</text><text style="&st18;" transform="matrix(&st16;  333.44  56.17 )">7.5A <tspan dy="6" x="0">MET</tspan></text><text style="&st18;" transform="matrix(&st16;  360.99  101.49 )">2D</text><text style="&st18;" transform="matrix(&st16;  353.53  101.49 )">1</text><text style="&st18;" transform="matrix(&st17;  30.3  331.74 )">G</text><text style="&st18;" transform="matrix(&st17;  41.63  334.77 )">(*1)</text><text style="&st18;" transform="matrix(&st16;  209.99  203.75 )">C</text><text style="&st18;" transform="matrix(&st16;  203.84  443.41 )">M</text><text style="&st18;" transform="matrix(&st16;  210.13  432.65 )">B</text><text style="&st18;" transform="matrix(&st16;  201.62  432.65 )">3</text><text style="&st18;" transform="matrix(&st16;  423.93  330.95 )">13</text><text style="&st18;" transform="matrix(&st16;  240.84  56.17 )">10A <tspan dy="6" x="0">ECU-IG&amp;GAUGE</tspan></text><text style="&st18;" transform="matrix(&st16;  359.36  32.08 )">(IG)</text><text style="&st18;" transform="matrix(&st16;  310.14  101.49 )">2S</text><text style="&st18;" transform="matrix(&st16;  297.8  101.49 )">32</text><text style="&st18;" transform="matrix(&st16;  299.63  330.95 )">3</text></svg>