﻿<?xml version="1.0" encoding="utf-8"?>
<!DOCTYPE svg PUBLIC "-//W3C//DTD SVG 1.0//EN" "http://www.w3.org/TR/2001/REC-SVG-20010904/DTD/svg10.dtd"[
	<!ENTITY ns_flows "http://ns.adobe.com/Flows/1.0/">
	<!ENTITY ns_svg "http://www.w3.org/2000/svg">
	<!ENTITY ns_xlink "http://www.w3.org/1999/xlink">
	<!ENTITY st0 "font-size:7px;font-family:'MS-PGothic';adobe-font-script:japanese;">
	<!ENTITY st1 "font-size:6px;font-family:'ArialMT';">
	<!-- White fill  -->
	<!ENTITY st2 "fill:#FFFFFF;stroke:#000000; stroke-width:1.41;stroke-linecap:round;stroke-linejoin:round;">
	<!-- Yellow fill  -->
	<!ENTITY st3 "fill:#FFFFCC;stroke:#FFFFCC; stroke-width:0.1;stroke-linecap:round;stroke-linejoin:round;">
	<!-- Gray fill  -->
	<!ENTITY st4 "fill:#CCCCCC;stroke:#CCCCCC; stroke-width:0.1;stroke-linecap:round;stroke-linejoin:round;">
	<!-- Light-blue fill -->
	<!ENTITY st5 "fill:#CCECF4;stroke:#000000; stroke-width:1.133;stroke-linecap:round;stroke-linejoin:round;">
	<!ENTITY st6 "fill:none;stroke-linecap:butt; stroke-linejoin:round;">
	<!ENTITY st7 "fill:none;stroke:#000000;stroke-linecap:round;stroke-linejoin:round;">
	<!ENTITY st8 "enable-background:new    ;">
	<!-- Black fill -->
	<!ENTITY st9 "fill:#000000;stroke:#000000; stroke-linecap:round;stroke-linejoin:round;">
	<!-- SRS note   -->
	<!ENTITY st10 "font-size:9px;font-family:'ArialMT';">
	<!ENTITY st11 "font-size:9px;font-family:'Svg Symbol';">
	<!ENTITY st12 "font-size:6px;font-family:'Svg Symbol';">
	<!ENTITY st13 "fill:none;stroke:#ff0000;stroke-linecap:round;stroke-linejoin:round;">
	<!-- Yellow fill  -->
	<!ENTITY st14 "fill:#FFFF00;stroke:#FFFF00; stroke-width:0.1;stroke-linecap:round;stroke-linejoin:round;">
	<!ENTITY st15 "font-size:6px;font-family:'MS-PGothic';adobe-font-script:japanese;">
	<!ENTITY st16 "1.00 0.00 0.00 1.00">
	<!ENTITY st17 "0.00 -1.00 1.00 0.00">
	<!ENTITY st18 "font-size:6px;font-family:'Arial';">
	<!ENTITY st19 "font-size:9px;font-family:'Arial';">
	<!ENTITY st20 "font-size:6px;font-family:'MS-PGothic','MS PGothic';adobe-font-script:japanese;">
	<!ENTITY st21 "font-size:7px;font-family:'MS-PGothic','MS PGothic';adobe-font-script:japanese;">
	<!ATTLIST svg
		xmlns:ewd CDATA #FIXED "http://shcl.co.jp/ewd"
		xmlns:a CDATA #FIXED "http://ns.adobe.com/AdobeSVGViewerExtensions/3.0/"
		ewd:ver CDATA #IMPLIED
	>
	<!ATTLIST a
		ewd:lineID CDATA #IMPLIED
		ewd:groupID CDATA #IMPLIED
		ewd:figtype CDATA #IMPLIED
		ewd:code CDATA #IMPLIED
		ewd:figID CDATA #IMPLIED
		ewd:pinNo CDATA #IMPLIED
		ewd:comment CDATA #IMPLIED >
	<!ATTLIST g
		ewd:lineID CDATA #IMPLIED
		ewd:groupID CDATA #IMPLIED
		ewd:figtype CDATA #IMPLIED
		ewd:code CDATA #IMPLIED
		ewd:figID CDATA #IMPLIED
		ewd:pinNo CDATA #IMPLIED
		ewd:comment CDATA #IMPLIED >
	<!ATTLIST text
		ewd:textID CDATA #IMPLIED >
	<!ATTLIST title
		ewd:textID CDATA #IMPLIED >
]>
<!-- Generator: Shintec Hozumi YS   -->
<svg onload="call_execInitLoadProc_svg('system')" style="overflow:visible;  enable-background:new 0 0 4122.520 710.000" viewBox="0 0 4122.520 710.000" height="710.000" width="4122.520" xml:space="preserve" ewd:ver="L2.1.2.7" xmlns="&ns_svg;" xmlns:a="http://ns.adobe.com/AdobeSVGViewerExtensions/3.0/" xmlns:ewd="http://shcl.co.jp/ewd" xmlns:xlink="&ns_xlink;">
<path d=" M 1512.75,  554.19  L 1427.76,  554.19  L 1427.76,  579.69  L 1512.75,  579.69  L 1512.75,  554.19 " style="stroke:#000000;stroke-width: 0.85 ;&st7;stroke-dasharray:3, 1.5;" /><path d=" M 2694.05,  673.17  L 2694.05,  630.68  L 1844.19,  630.68  L 1844.19,  528.70  L 1189.80,  528.70  L 1189.80,  554.19  L 1232.29,  554.19  L 1232.29,  528.70 " style="stroke:#000000;stroke-width: 0.85 ;&st7;stroke-dasharray:3, 1.5;" /><path d=" M 1458.23,  103.77  L 1453.26,  108.74 " style="stroke-width: 1.42 ;&st7; " /><path d=" M 1465.28,  120.77  L 1470.25,  115.80 " style="stroke-width: 1.42 ;&st7; " /><path d=" M 1453.26,  115.80  L 1458.23,  120.77 " style="stroke-width: 1.42 ;&st7; " /><path d=" M 1470.25,  108.74  L 1465.28,  103.77 " style="stroke-width: 1.42 ;&st7; " /><path d=" M 1500.72,  103.77  L 1495.75,  108.74 " style="stroke-width: 1.42 ;&st7; " /><path d=" M 1495.75,  115.80  L 1500.72,  120.77 " style="stroke-width: 1.42 ;&st7; " /><path d=" M 1242.92,  154.76  L 1238.67,  154.76 " style="stroke-width: 1.42 ;&st7; " /><path d=" M 1240.79,  112.27  L 1240.79,  146.26 " style="stroke-width: 0.85 ;&st7; " /><path d=" M 1242.92,  307.73  L 1238.67,  307.73 " style="stroke-width: 1.42 ;&st7; " /><path d=" M 1242.92,  273.74  L 1238.67,  273.74 " style="stroke-width: 1.42 ;&st7; " /><path d=" M 1242.92,  282.24  L 1238.67,  282.24 " style="stroke-width: 1.42 ;&st7; " /><path d=" M 1242.92,  146.26  L 1238.67,  146.26 " style="stroke-width: 1.42 ;&st7; " /><path d=" M 1242.92,  316.23  L 1238.67,  316.23 " style="stroke-width: 1.42 ;&st7; " /><path d=" M 1240.79,  201.50  L 1240.79,  197.25 " style="stroke-width: 0.85 ;&st7; " /><path d=" M 1240.79,  231.25  L 1240.79,  227.00 " style="stroke-width: 0.85 ;&st7; " /><path d=" M 1240.79,  224.16  L 1235.13,  201.50 " style="stroke-width: 1.42 ;&st7; " /><path d=" M 1183.43,  154.76  L 1179.18,  154.76 " style="stroke-width: 1.42 ;&st7; " /><path d=" M 1183.43,  146.26  L 1179.18,  146.26 " style="stroke-width: 1.42 ;&st7; " /><path d=" M 1181.30,  112.27  L 1181.30,  146.26 " style="stroke-width: 0.85 ;&st7; " /><path d=" M 1310.91,  154.76  L 1306.66,  154.76 " style="stroke-width: 1.42 ;&st7; " /><path d=" M 1115.44,  154.76  L 1111.19,  154.76 " style="stroke-width: 1.42 ;&st7; " /><path d=" M 1115.44,  146.26  L 1111.19,  146.26 " style="stroke-width: 1.42 ;&st7; " /><path d=" M 1310.91,  146.26  L 1306.66,  146.26 " style="stroke-width: 1.42 ;&st7; " /><path d=" M 1308.78,  112.27  L 1308.78,  146.26 " style="stroke-width: 0.85 ;&st7; " /><path d=" M 1149.43,  146.26  L 1145.18,  146.26 " style="stroke-width: 1.42 ;&st7; " /><path d=" M 1149.43,  154.76  L 1145.18,  154.76 " style="stroke-width: 1.42 ;&st7; " /><path d=" M 1181.30,  224.16  L 1183.00,  200.05 " style="stroke-width: 1.42 ;&st7; " /><path d=" M 1181.30,  201.50  L 1181.30,  197.25 " style="stroke-width: 0.85 ;&st7; " /><path d=" M 1181.30,  231.25  L 1181.30,  227.00 " style="stroke-width: 0.85 ;&st7; " /><path d=" M 1121.81,  474.18  L 1116.84,  469.21 " style="stroke-width: 1.42 ;&st7; " /><path d=" M 1104.82,  481.24  L 1109.78,  486.20 " style="stroke-width: 1.42 ;&st7; " /><path d=" M 1116.84,  486.20  L 1121.81,  481.24 " style="stroke-width: 1.42 ;&st7; " /><path d=" M 1109.78,  469.21  L 1104.82,  474.18 " style="stroke-width: 1.42 ;&st7; " /><path d=" M 1189.80,  299.24  L 1181.30,  299.24 " style="stroke-width: 1.42 ;&st7; " /><path d=" M 1283.29,  248.24  L 1274.79,  248.24 " style="stroke-width: 1.42 ;&st7; " /><path d=" M 1464.59,  208.58  L 1458.92,  211.42 " style="stroke-width: 0.85 ;&st7; " /><path d=" M 1470.25,  201.50  L 1470.25,  218.50 " style="stroke-width: 0.85 ;&st7; " /><path d=" M 1453.26,  201.50  L 1453.26,  218.50 " style="stroke-width: 0.85 ;&st7; " /><path d=" M 1464.59,  202.92  L 1458.92,  205.75 " style="stroke-width: 0.85 ;&st7; " /><path d=" M 1458.92,  205.75  L 1464.59,  208.58 " style="stroke-width: 0.85 ;&st7; " /><path d=" M 1461.76,  231.25  L 1461.76,  218.50 " style="stroke-width: 0.85 ;&st7; " /><path d=" M 1458.92,  211.42  L 1464.59,  214.25 " style="stroke-width: 0.85 ;&st7; " /><path d=" M 1464.59,  214.25  L 1458.92,  217.08 " style="stroke-width: 0.85 ;&st7; " /><path d=" M 1461.76,  201.50  L 1461.76,  188.75 " style="stroke-width: 0.85 ;&st7; " /><path d=" M 1458.92,  217.08  L 1461.76,  218.50 " style="stroke-width: 0.85 ;&st7; " /><path d=" M 1461.76,  201.50  L 1464.59,  202.92 " style="stroke-width: 0.85 ;&st7; " /><path d=" M 1449.01,  231.25  L 1449.01,  188.75  L 1474.50,  188.75  L 1474.50,  231.25  L 1449.01,  231.25 " style="stroke-width: 1.42 ;&st7; " /><path d=" M 1180.11,  128.26  L 1179.84,  128.73  L 1179.74,  129.26  L 1179.84,  129.80  L 1180.11,  130.27  L 1180.52,  130.61  L 1181.03,  130.80  L 1181.57,  130.80  L 1182.08,  130.61  L 1182.49,  130.27  L 1182.77,  129.80  L 1182.86,  129.26  L 1182.77,  128.73  L 1182.49,  128.26  L 1182.08,  127.92  L 1181.57,  127.73  L 1181.03,  127.73  L 1180.52,  127.92  L 1180.11,  128.26  L 1180.50,  128.97  L 1180.50,  129.56  L 1180.88,  130.00  L 1181.45,  130.10  L 1181.95,  129.81  L 1182.15,  129.26  L 1181.95,  128.72  L 1181.45,  128.43  L 1180.88,  128.53  L 1181.30,  129.26 " style="stroke-width: 0.85 ;&st7; " /><path d=" M 1436.26,  222.75  L 1351.27,  222.75  L 1351.27,  188.75  L 1436.26,  188.75  L 1436.26,  222.75 " style="stroke-width: 1.42 ;&st7; " /><path d=" M 1410.76,  605.18  L 1410.76,  571.19  L 1274.79,  571.19  L 1274.79,  605.18  L 1410.76,  605.18 " style="stroke-width: 1.42 ;&st7; " /><path d=" M 1147.31,  129.26  L 1113.31,  129.26 " style="stroke-width: 0.85 ;&st7; " /><path d=" M 1146.12,  128.26  L 1145.84,  128.73  L 1145.75,  129.26  L 1145.84,  129.80  L 1146.12,  130.27  L 1146.53,  130.61  L 1147.04,  130.80  L 1147.58,  130.80  L 1148.09,  130.61  L 1148.50,  130.27  L 1148.77,  129.80  L 1148.87,  129.26  L 1148.77,  128.73  L 1148.50,  128.26  L 1148.09,  127.92  L 1147.58,  127.73  L 1147.04,  127.73  L 1146.53,  127.92  L 1146.12,  128.26  L 1146.51,  128.97  L 1146.51,  129.56  L 1146.88,  130.00  L 1147.46,  130.10  L 1147.96,  129.81  L 1148.16,  129.26  L 1147.96,  128.72  L 1147.46,  128.43  L 1146.88,  128.53  L 1147.31,  129.26 " style="stroke-width: 0.85 ;&st7; " /><path d=" M 1253.54,  120.77  L 1253.54,   78.27  L 1228.04,   78.27  L 1228.04,  120.77  L 1253.54,  120.77 " style="stroke-width: 1.42 ;&st7; " /><path d=" M 1240.79,  307.73  L 1240.79,  282.24 " style="stroke-width: 0.85 ;&st7; " /><path d=" M 1240.79,  287.13  L 1243.63,  289.97  L 1243.63,  285.72  L 1240.79,  282.88  L 1237.96,  285.72  L 1237.96,  289.97  L 1240.79,  287.13 " style="stroke-width: 0.28 ;&st9;" /><path d=" M 1240.79,  141.37  L 1237.96,  138.53  L 1237.96,  142.78  L 1240.79,  145.62  L 1243.63,  142.78  L 1243.63,  138.53  L 1240.79,  141.37 " style="stroke-width: 0.28 ;&st9;" /><path d=" M 1240.79,  302.84  L 1237.96,  300.01  L 1237.96,  304.26  L 1240.79,  307.09  L 1243.63,  304.26  L 1243.63,  300.01  L 1240.79,  302.84 " style="stroke-width: 0.28 ;&st9;" /><path d=" M 1238.31,  214.25  L 1182.00,  214.25 " style="stroke-width: 0.85 ;&st7;stroke-dasharray:3, 1.5;" /><path d=" M 1249.29,  231.25  L 1249.29,  197.25  L 1172.80,  197.25  L 1172.80,  231.25  L 1249.29,  231.25 " style="stroke-width: 1.42 ;&st7; " /><path d=" M 1113.31,  141.37  L 1110.48,  138.53  L 1110.48,  142.78  L 1113.31,  145.62  L 1116.15,  142.78  L 1116.15,  138.53  L 1113.31,  141.37 " style="stroke-width: 0.28 ;&st9;" /><path d=" M 1147.31,  141.37  L 1144.47,  138.53  L 1144.47,  142.78  L 1147.31,  145.62  L 1150.14,  142.78  L 1150.14,  138.53  L 1147.31,  141.37 " style="stroke-width: 0.28 ;&st9;" /><path d=" M 1300.28,  222.75  L 1300.28,  248.24  L 1317.28,  248.24  L 1317.28,  222.75  L 1300.28,  222.75 " style="stroke-width: 1.42 ;&st7; " /><path d=" M 1300.28,  231.25  L 1317.28,  231.25 " style="stroke-width: 1.13 ;&st7;stroke-dasharray:3, 1.5;" /><path d=" M 1300.28,  239.75  L 1317.28,  239.75 " style="stroke-width: 1.13 ;&st7;stroke-dasharray:3, 1.5;" /><path d=" M 1181.30,  141.37  L 1178.47,  138.53  L 1178.47,  142.78  L 1181.30,  145.62  L 1184.13,  142.78  L 1184.13,  138.53  L 1181.30,  141.37 " style="stroke-width: 0.28 ;&st9;" /><path d=" M 1308.78,  222.75  L 1308.78,  248.24 " style="stroke-width: 0.85 ;&st7; " /><path d=" M 1194.05,  120.77  L 1194.05,   78.27  L 1168.55,   78.27  L 1168.55,  120.77  L 1194.05,  120.77 " style="stroke-width: 1.42 ;&st7; " /><path d=" M 1181.30,  129.26  L 1147.31,  129.26  L 1147.31,  146.26 " style="stroke-width: 0.85 ;&st7; " /><path d=" M 1113.31,  129.26  L 1113.31,  146.26 " style="stroke-width: 0.85 ;&st7; " /><path d=" M 1321.53,  120.77  L 1321.53,   78.27  L 1296.03,   78.27  L 1296.03,  120.77  L 1321.53,  120.77 " style="stroke-width: 1.42 ;&st7; " /><path d=" M 1308.78,  141.37  L 1305.95,  138.53  L 1305.95,  142.78  L 1308.78,  145.62  L 1311.61,  142.78  L 1311.61,  138.53  L 1308.78,  141.37 " style="stroke-width: 0.28 ;&st9;" /><path d=" M 1232.29,  605.18  L 1232.29,  571.19  L 1147.31,  571.19  L 1147.31,  605.18  L 1232.29,  605.18 " style="stroke-width: 1.42 ;&st7; " /><path d=" M 1206.80,  494.70  L 1461.76,  494.70 " style="stroke-width: 1.13 ;&st7;stroke-dasharray:3, 1.5;" /><path d=" M 1206.80,  477.71  L 1461.76,  477.71 " style="stroke-width: 1.13 ;&st7;stroke-dasharray:3, 1.5;" /><path d=" M 1206.80,  469.21  L 1206.80,  503.20  L 1461.76,  503.20  L 1461.76,  469.21  L 1206.80,  469.21 " style="stroke-width: 1.42 ;&st7; " /><path d=" M 1453.26,  469.21  L 1453.26,  503.20 " style="stroke-width: 0.85 ;&st7; " /><path d=" M 1279.04,  253.91  L 1274.79,  249.66  L 1270.54,  253.91 " style="stroke-width: 1.42 ;&st7; " /><path d=" M 1279.04,  257.31  L 1274.79,  253.06  L 1270.54,  257.31 " style="stroke-width: 1.42 ;&st7; " /><path d=" M 1215.30,  503.20  L 1215.30,  486.20  L 1453.26,  486.20 " style="stroke-width: 0.85 ;&st7; " /><path d=" M 1452.06,  485.20  L 1451.79,  485.67  L 1451.70,  486.20  L 1451.79,  486.74  L 1452.06,  487.21  L 1452.48,  487.55  L 1452.98,  487.74  L 1453.53,  487.74  L 1454.04,  487.55  L 1454.45,  487.21  L 1454.72,  486.74  L 1454.81,  486.20  L 1454.72,  485.67  L 1454.45,  485.20  L 1454.04,  484.86  L 1453.53,  484.67  L 1452.98,  484.67  L 1452.48,  484.86  L 1452.06,  485.20  L 1452.46,  485.91  L 1452.46,  486.50  L 1452.83,  486.94  L 1453.40,  487.04  L 1453.91,  486.75  L 1454.11,  486.20  L 1453.91,  485.66  L 1453.40,  485.37  L 1452.83,  485.47  L 1453.26,  486.20 " style="stroke-width: 0.85 ;&st7; " /><path d=" M 1231.10,  527.69  L 1230.83,  528.16  L 1230.74,  528.70  L 1230.83,  529.23  L 1231.10,  529.70  L 1231.51,  530.05  L 1232.02,  530.23  L 1232.57,  530.23  L 1233.07,  530.05  L 1233.49,  529.70  L 1233.76,  529.23  L 1233.85,  528.70  L 1233.76,  528.16  L 1233.49,  527.69  L 1233.07,  527.35  L 1232.57,  527.16  L 1232.02,  527.16  L 1231.51,  527.35  L 1231.10,  527.69  L 1231.49,  528.41  L 1231.49,  528.99  L 1231.87,  529.43  L 1232.44,  529.53  L 1232.95,  529.24  L 1233.14,  528.70  L 1232.95,  528.15  L 1232.44,  527.86  L 1231.87,  527.96  L 1232.29,  528.70 " style="stroke-width: 0.85 ;&st7; " /><path d=" M 1185.55,  304.90  L 1181.30,  300.65  L 1177.05,  304.90 " style="stroke-width: 1.42 ;&st7; " /><path d=" M 1185.55,  308.30  L 1181.30,  304.05  L 1177.05,  308.30 " style="stroke-width: 1.42 ;&st7; " /><path d=" M 1453.26,  218.50  C 1453.26   223.19  1457.06   227.00  1461.76   227.00 " style="stroke-width: 0.85 ;&st7; " /><path d=" M 1461.76,  227.00  C 1466.45   227.00  1470.25   223.19  1470.25   218.50 " style="stroke-width: 0.85 ;&st7; " /><path d=" M 1470.25,  201.50  C 1470.25   196.81  1466.45   193.00  1461.76   193.00 " style="stroke-width: 0.85 ;&st7; " /><path d=" M 1461.76,  193.00  C 1457.06   193.00  1453.26   196.81  1453.26   201.50 " style="stroke-width: 0.85 ;&st7; " /><path d=" M 1499.72,  354.19  C 1499.72   356.70  1501.75   358.73  1504.25   358.73 " style="stroke-width: 1.42 ;&st7; " /><path d=" M 1466.29,  354.19  C 1466.29   351.69  1464.26   349.66  1461.76   349.66 " style="stroke-width: 1.42 ;&st7; " /><path d=" M 1461.76,  349.66  C 1459.25   349.66  1457.22   351.69  1457.22   354.19 " style="stroke-width: 1.42 ;&st7; " /><path d=" M 1457.22,  354.19  C 1457.22   356.70  1459.25   358.73  1461.76   358.73 " style="stroke-width: 1.42 ;&st7; " /><path d=" M 1461.76,  358.73  C 1464.26   358.73  1466.29   356.70  1466.29   354.19 " style="stroke-width: 1.42 ;&st7; " /><path d=" M 1423.80,  354.19  C 1423.80   351.69  1421.77   349.66  1419.26   349.66 " style="stroke-width: 1.42 ;&st7; " /><path d=" M 1419.26,  349.66  C 1416.76   349.66  1414.73   351.69  1414.73   354.19 " style="stroke-width: 1.42 ;&st7; " /><path d=" M 1414.73,  354.19  C 1414.73   356.70  1416.76   358.73  1419.26   358.73 " style="stroke-width: 1.42 ;&st7; " /><path d=" M 1419.26,  358.73  C 1421.77   358.73  1423.80   356.70  1423.80   354.19 " style="stroke-width: 1.42 ;&st7; " /><path d=" M 1398.30,  354.19  C 1398.30   351.69  1396.27   349.66  1393.77   349.66 " style="stroke-width: 1.42 ;&st7; " /><path d=" M 1393.77,  349.66  C 1391.26   349.66  1389.23   351.69  1389.23   354.19 " style="stroke-width: 1.42 ;&st7; " /><path d=" M 1389.23,  354.19  C 1389.23   356.70  1391.26   358.73  1393.77   358.73 " style="stroke-width: 1.42 ;&st7; " /><path d=" M 1393.77,  358.73  C 1396.27   358.73  1398.30   356.70  1398.30   354.19 " style="stroke-width: 1.42 ;&st7; " /><path d=" M 1372.80,  354.19  C 1372.80   351.69  1370.77   349.66  1368.27   349.66 " style="stroke-width: 1.42 ;&st7; " /><path d=" M 1368.27,  349.66  C 1365.77   349.66  1363.74   351.69  1363.74   354.19 " style="stroke-width: 1.42 ;&st7; " /><path d=" M 1363.74,  354.19  C 1363.74   356.70  1365.77   358.73  1368.27   358.73 " style="stroke-width: 1.42 ;&st7; " /><path d=" M 1368.27,  358.73  C 1370.77   358.73  1372.80   356.70  1372.80   354.19 " style="stroke-width: 1.42 ;&st7; " /><path d=" M 1117.85,  422.75  C 1117.85   420.24  1115.82   418.22  1113.31   418.22 " style="stroke-width: 1.42 ;&st7; " /><path d=" M 1113.31,  418.22  C 1110.81   418.22  1108.78   420.24  1108.78   422.75 " style="stroke-width: 1.42 ;&st7; " /><path d=" M 1108.78,  422.75  C 1108.78   425.25  1110.81   427.28  1113.31   427.28 " style="stroke-width: 1.42 ;&st7; " /><path d=" M 1113.31,  427.28  C 1115.82   427.28  1117.85   425.25  1117.85   422.75 " style="stroke-width: 1.42 ;&st7; " /><path d=" M 1313.31,  354.19  C 1313.31   351.69  1311.28   349.66  1308.78   349.66 " style="stroke-width: 1.42 ;&st7; " /><path d=" M 1308.78,  349.66  C 1306.28   349.66  1304.25   351.69  1304.25   354.19 " style="stroke-width: 1.42 ;&st7; " /><path d=" M 1304.25,  354.19  C 1304.25   356.70  1306.28   358.73  1308.78   358.73 " style="stroke-width: 1.42 ;&st7; " /><path d=" M 1308.78,  358.73  C 1311.28   358.73  1313.31   356.70  1313.31   354.19 " style="stroke-width: 1.42 ;&st7; " /><path d=" M 1247.17,  150.51  C 1247.17   148.16  1245.26   146.26  1242.92   146.26 " style="stroke-width: 1.42 ;&st7; " /><path d=" M 1242.21,  110.85  C 1242.21   110.07  1241.57   109.43  1240.79   109.43 " style="stroke-width: 0.85 ;&st7; " /><path d=" M 1240.79,  109.43  C 1240.01   109.43  1239.38   110.07  1239.38   110.85 " style="stroke-width: 0.85 ;&st7; " /><path d=" M 1239.38,  110.85  C 1239.38   111.63  1240.01   112.27  1240.79   112.27 " style="stroke-width: 0.85 ;&st7; " /><path d=" M 1240.79,  112.27  C 1241.57   112.27  1242.21   111.63  1242.21   110.85 " style="stroke-width: 0.85 ;&st7; " /><path d=" M 1240.79,   89.60  C 1238.05    91.22  1237.14    94.74  1238.76    97.48 " style="stroke-width: 1.42 ;&st7; " /><path d=" M 1238.76,   97.48  C 1239.28    98.36  1239.91    99.00  1240.79    99.52 " style="stroke-width: 1.42 ;&st7; " /><path d=" M 1238.67,  146.26  C 1236.32   146.26  1234.42   148.16  1234.42   150.51 " style="stroke-width: 1.42 ;&st7; " /><path d=" M 1234.42,  150.51  C 1234.42   152.86  1236.32   154.76  1238.67   154.76 " style="stroke-width: 1.42 ;&st7; " /><path d=" M 1242.92,  282.24  C 1245.26   282.24  1247.17   280.34  1247.17   277.99 " style="stroke-width: 1.42 ;&st7; " /><path d=" M 1242.92,  154.76  C 1245.26   154.76  1247.17   152.86  1247.17   150.51 " style="stroke-width: 1.42 ;&st7; " /><path d=" M 1242.21,   88.19  C 1242.21    87.40  1241.57    86.77  1240.79    86.77 " style="stroke-width: 0.85 ;&st7; " /><path d=" M 1240.79,   86.77  C 1240.01    86.77  1239.38    87.40  1239.38    88.19 " style="stroke-width: 0.85 ;&st7; " /><path d=" M 1239.38,   88.19  C 1239.38    88.97  1240.01    89.60  1240.79    89.60 " style="stroke-width: 0.85 ;&st7; " /><path d=" M 1240.79,   89.60  C 1241.57    89.60  1242.21    88.97  1242.21    88.19 " style="stroke-width: 0.85 ;&st7; " /><path d=" M 1240.79,  109.43  C 1243.53   107.82  1244.44   104.29  1242.83   101.56 " style="stroke-width: 1.42 ;&st7; " /><path d=" M 1242.83,  101.56  C 1242.31   100.67  1241.67   100.04  1240.79    99.52 " style="stroke-width: 1.42 ;&st7; " /><path d=" M 1242.21,  202.92  C 1242.21   202.14  1241.57   201.50  1240.79   201.50 " style="stroke-width: 0.85 ;&st7; " /><path d=" M 1240.79,  201.50  C 1240.01   201.50  1239.38   202.14  1239.38   202.92 " style="stroke-width: 0.85 ;&st7; " /><path d=" M 1239.38,  202.92  C 1239.38   203.70  1240.01   204.33  1240.79   204.33 " style="stroke-width: 0.85 ;&st7; " /><path d=" M 1240.79,  204.33  C 1241.57   204.33  1242.21   203.70  1242.21   202.92 " style="stroke-width: 0.85 ;&st7; " /><path d=" M 1234.42,  277.99  C 1234.42   280.34  1236.32   282.24  1238.67   282.24 " style="stroke-width: 1.42 ;&st7; " /><path d=" M 1238.67,  273.74  C 1236.32   273.74  1234.42   275.64  1234.42   277.99 " style="stroke-width: 1.42 ;&st7; " /><path d=" M 1234.42,  311.98  C 1234.42   314.33  1236.32   316.23  1238.67   316.23 " style="stroke-width: 1.42 ;&st7; " /><path d=" M 1238.67,  307.73  C 1236.32   307.73  1234.42   309.64  1234.42   311.98 " style="stroke-width: 1.42 ;&st7; " /><path d=" M 1247.17,  277.99  C 1247.17   275.64  1245.26   273.74  1242.92   273.74 " style="stroke-width: 1.42 ;&st7; " /><path d=" M 1247.17,  311.98  C 1247.17   309.64  1245.26   307.73  1242.92   307.73 " style="stroke-width: 1.42 ;&st7; " /><path d=" M 1242.21,  225.58  C 1242.21   224.80  1241.57   224.16  1240.79   224.16 " style="stroke-width: 0.85 ;&st7; " /><path d=" M 1240.79,  224.16  C 1240.01   224.16  1239.38   224.80  1239.38   225.58 " style="stroke-width: 0.85 ;&st7; " /><path d=" M 1239.38,  225.58  C 1239.38   226.36  1240.01   227.00  1240.79   227.00 " style="stroke-width: 0.85 ;&st7; " /><path d=" M 1240.79,  227.00  C 1241.57   227.00  1242.21   226.36  1242.21   225.58 " style="stroke-width: 0.85 ;&st7; " /><path d=" M 1242.92,  316.23  C 1245.26   316.23  1247.17   314.33  1247.17   311.98 " style="stroke-width: 1.42 ;&st7; " /><path d=" M 1245.33,  354.19  C 1245.33   351.69  1243.30   349.66  1240.79   349.66 " style="stroke-width: 1.42 ;&st7; " /><path d=" M 1240.79,  349.66  C 1238.29   349.66  1236.26   351.69  1236.26   354.19 " style="stroke-width: 1.42 ;&st7; " /><path d=" M 1236.26,  354.19  C 1236.26   356.70  1238.29   358.73  1240.79   358.73 " style="stroke-width: 1.42 ;&st7; " /><path d=" M 1240.79,  358.73  C 1243.30   358.73  1245.33   356.70  1245.33   354.19 " style="stroke-width: 1.42 ;&st7; " /><path d=" M 1185.84,  354.19  C 1185.84   351.69  1183.81   349.66  1181.30   349.66 " style="stroke-width: 1.42 ;&st7; " /><path d=" M 1181.30,  349.66  C 1178.80   349.66  1176.77   351.69  1176.77   354.19 " style="stroke-width: 1.42 ;&st7; " /><path d=" M 1176.77,  354.19  C 1176.77   356.70  1178.80   358.73  1181.30   358.73 " style="stroke-width: 1.42 ;&st7; " /><path d=" M 1181.30,  358.73  C 1183.81   358.73  1185.84   356.70  1185.84   354.19 " style="stroke-width: 1.42 ;&st7; " /><path d=" M 1151.84,  354.19  C 1151.84   351.69  1149.81   349.66  1147.31   349.66 " style="stroke-width: 1.42 ;&st7; " /><path d=" M 1147.31,  349.66  C 1144.81   349.66  1142.78   351.69  1142.78   354.19 " style="stroke-width: 1.42 ;&st7; " /><path d=" M 1142.78,  354.19  C 1142.78   356.70  1144.81   358.73  1147.31   358.73 " style="stroke-width: 1.42 ;&st7; " /><path d=" M 1147.31,  358.73  C 1149.81   358.73  1151.84   356.70  1151.84   354.19 " style="stroke-width: 1.42 ;&st7; " /><path d=" M 1187.68,  150.51  C 1187.68   148.16  1185.77   146.26  1183.43   146.26 " style="stroke-width: 1.42 ;&st7; " /><path d=" M 1308.78,  109.43  C 1311.52   107.82  1312.43   104.29  1310.82   101.56 " style="stroke-width: 1.42 ;&st7; " /><path d=" M 1310.82,  101.56  C 1310.30   100.67  1309.66   100.04  1308.78    99.52 " style="stroke-width: 1.42 ;&st7; " /><path d=" M 1183.43,  154.76  C 1185.77   154.76  1187.68   152.86  1187.68   150.51 " style="stroke-width: 1.42 ;&st7; " /><path d=" M 1119.69,  150.51  C 1119.69   148.16  1117.79   146.26  1115.44   146.26 " style="stroke-width: 1.42 ;&st7; " /><path d=" M 1115.44,  154.76  C 1117.79   154.76  1119.69   152.86  1119.69   150.51 " style="stroke-width: 1.42 ;&st7; " /><path d=" M 1106.94,  150.51  C 1106.94   152.86  1108.84   154.76  1111.19   154.76 " style="stroke-width: 1.42 ;&st7; " /><path d=" M 1111.19,  146.26  C 1108.84   146.26  1106.94   148.16  1106.94   150.51 " style="stroke-width: 1.42 ;&st7; " /><path d=" M 1174.93,  150.51  C 1174.93   152.86  1176.83   154.76  1179.18   154.76 " style="stroke-width: 1.42 ;&st7; " /><path d=" M 1179.18,  146.26  C 1176.83   146.26  1174.93   148.16  1174.93   150.51 " style="stroke-width: 1.42 ;&st7; " /><path d=" M 1182.72,  110.85  C 1182.72   110.07  1182.08   109.43  1181.30   109.43 " style="stroke-width: 0.85 ;&st7; " /><path d=" M 1181.30,  109.43  C 1180.52   109.43  1179.89   110.07  1179.89   110.85 " style="stroke-width: 0.85 ;&st7; " /><path d=" M 1179.89,  110.85  C 1179.89   111.63  1180.52   112.27  1181.30   112.27 " style="stroke-width: 0.85 ;&st7; " /><path d=" M 1181.30,  112.27  C 1182.08   112.27  1182.72   111.63  1182.72   110.85 " style="stroke-width: 0.85 ;&st7; " /><path d=" M 1182.72,   88.19  C 1182.72    87.40  1182.08    86.77  1181.30    86.77 " style="stroke-width: 0.85 ;&st7; " /><path d=" M 1181.30,   86.77  C 1180.52    86.77  1179.89    87.40  1179.89    88.19 " style="stroke-width: 0.85 ;&st7; " /><path d=" M 1179.89,   88.19  C 1179.89    88.97  1180.52    89.60  1181.30    89.60 " style="stroke-width: 0.85 ;&st7; " /><path d=" M 1181.30,   89.60  C 1182.08    89.60  1182.72    88.97  1182.72    88.19 " style="stroke-width: 0.85 ;&st7; " /><path d=" M 1181.30,  109.43  C 1184.04   107.82  1184.95   104.29  1183.34   101.56 " style="stroke-width: 1.42 ;&st7; " /><path d=" M 1183.34,  101.56  C 1182.82   100.67  1182.18   100.04  1181.30    99.52 " style="stroke-width: 1.42 ;&st7; " /><path d=" M 1181.30,   89.60  C 1178.56    91.22  1177.65    94.74  1179.27    97.48 " style="stroke-width: 1.42 ;&st7; " /><path d=" M 1179.27,   97.48  C 1179.79    98.36  1180.42    99.00  1181.30    99.52 " style="stroke-width: 1.42 ;&st7; " /><path d=" M 1302.41,  150.51  C 1302.41   152.86  1304.31   154.76  1306.66   154.76 " style="stroke-width: 1.42 ;&st7; " /><path d=" M 1145.18,  146.26  C 1142.84   146.26  1140.93   148.16  1140.93   150.51 " style="stroke-width: 1.42 ;&st7; " /><path d=" M 1140.93,  150.51  C 1140.93   152.86  1142.84   154.76  1145.18   154.76 " style="stroke-width: 1.42 ;&st7; " /><path d=" M 1149.43,  154.76  C 1151.78   154.76  1153.68   152.86  1153.68   150.51 " style="stroke-width: 1.42 ;&st7; " /><path d=" M 1153.68,  150.51  C 1153.68   148.16  1151.78   146.26  1149.43   146.26 " style="stroke-width: 1.42 ;&st7; " /><path d=" M 1313.31,  218.22  C 1313.31   215.71  1311.28   213.68  1308.78   213.68 " style="stroke-width: 1.42 ;&st7; " /><path d=" M 1308.78,  213.68  C 1306.28   213.68  1304.25   215.71  1304.25   218.22 " style="stroke-width: 1.42 ;&st7; " /><path d=" M 1304.25,  218.22  C 1304.25   220.72  1306.28   222.75  1308.78   222.75 " style="stroke-width: 1.42 ;&st7; " /><path d=" M 1308.78,  222.75  C 1311.28   222.75  1313.31   220.72  1313.31   218.22 " style="stroke-width: 1.42 ;&st7; " /><path d=" M 1313.31,  252.78  C 1313.31   250.27  1311.28   248.24  1308.78   248.24 " style="stroke-width: 1.42 ;&st7; " /><path d=" M 1308.78,  248.24  C 1306.28   248.24  1304.25   250.27  1304.25   252.78 " style="stroke-width: 1.42 ;&st7; " /><path d=" M 1304.25,  252.78  C 1304.25   255.28  1306.28   257.31  1308.78   257.31 " style="stroke-width: 1.42 ;&st7; " /><path d=" M 1308.78,  257.31  C 1311.28   257.31  1313.31   255.28  1313.31   252.78 " style="stroke-width: 1.42 ;&st7; " /><path d=" M 1182.72,  202.92  C 1182.72   202.14  1182.08   201.50  1181.30   201.50 " style="stroke-width: 0.85 ;&st7; " /><path d=" M 1181.30,  201.50  C 1180.52   201.50  1179.89   202.14  1179.89   202.92 " style="stroke-width: 0.85 ;&st7; " /><path d=" M 1179.89,  202.92  C 1179.89   203.70  1180.52   204.33  1181.30   204.33 " style="stroke-width: 0.85 ;&st7; " /><path d=" M 1181.30,  204.33  C 1182.08   204.33  1182.72   203.70  1182.72   202.92 " style="stroke-width: 0.85 ;&st7; " /><path d=" M 1182.72,  225.58  C 1182.72   224.80  1182.08   224.16  1181.30   224.16 " style="stroke-width: 0.85 ;&st7; " /><path d=" M 1181.30,  224.16  C 1180.52   224.16  1179.89   224.80  1179.89   225.58 " style="stroke-width: 0.85 ;&st7; " /><path d=" M 1179.89,  225.58  C 1179.89   226.36  1180.52   227.00  1181.30   227.00 " style="stroke-width: 0.85 ;&st7; " /><path d=" M 1181.30,  227.00  C 1182.08   227.00  1182.72   226.36  1182.72   225.58 " style="stroke-width: 0.85 ;&st7; " /><path d=" M 1308.78,   89.60  C 1306.04    91.22  1305.13    94.74  1306.74    97.48 " style="stroke-width: 1.42 ;&st7; " /><path d=" M 1306.74,   97.48  C 1307.26    98.36  1307.90    99.00  1308.78    99.52 " style="stroke-width: 1.42 ;&st7; " /><path d=" M 1306.66,  146.26  C 1304.31   146.26  1302.41   148.16  1302.41   150.51 " style="stroke-width: 1.42 ;&st7; " /><path d=" M 1310.20,  110.85  C 1310.20   110.07  1309.56   109.43  1308.78   109.43 " style="stroke-width: 0.85 ;&st7; " /><path d=" M 1308.78,  109.43  C 1308.00   109.43  1307.36   110.07  1307.36   110.85 " style="stroke-width: 0.85 ;&st7; " /><path d=" M 1307.36,  110.85  C 1307.36   111.63  1308.00   112.27  1308.78   112.27 " style="stroke-width: 0.85 ;&st7; " /><path d=" M 1308.78,  112.27  C 1309.56   112.27  1310.20   111.63  1310.20   110.85 " style="stroke-width: 0.85 ;&st7; " /><path d=" M 1310.91,  154.76  C 1313.25   154.76  1315.16   152.86  1315.16   150.51 " style="stroke-width: 1.42 ;&st7; " /><path d=" M 1315.16,  150.51  C 1315.16   148.16  1313.25   146.26  1310.91   146.26 " style="stroke-width: 1.42 ;&st7; " /><path d=" M 1310.20,   88.19  C 1310.20    87.40  1309.56    86.77  1308.78    86.77 " style="stroke-width: 0.85 ;&st7; " /><path d=" M 1308.78,   86.77  C 1308.00    86.77  1307.36    87.40  1307.36    88.19 " style="stroke-width: 0.85 ;&st7; " /><path d=" M 1307.36,   88.19  C 1307.36    88.97  1308.00    89.60  1308.78    89.60 " style="stroke-width: 0.85 ;&st7; " /><path d=" M 1308.78,   89.60  C 1309.56    89.60  1310.20    88.97  1310.20    88.19 " style="stroke-width: 0.85 ;&st7; " /><path d=" M 1457.79,  464.67  C 1457.79   462.17  1455.76   460.14  1453.26   460.14 " style="stroke-width: 1.42 ;&st7; " /><path d=" M 1453.26,  460.14  C 1450.75   460.14  1448.72   462.17  1448.72   464.67 " style="stroke-width: 1.42 ;&st7; " /><path d=" M 1448.72,  464.67  C 1448.72   467.18  1450.75   469.21  1453.26   469.21 " style="stroke-width: 1.42 ;&st7; " /><path d=" M 1453.26,  469.21  C 1455.76   469.21  1457.79   467.18  1457.79   464.67 " style="stroke-width: 1.42 ;&st7; " /><path d=" M 1457.79,  507.73  C 1457.79   505.23  1455.76   503.20  1453.26   503.20 " style="stroke-width: 1.42 ;&st7; " /><path d=" M 1453.26,  503.20  C 1450.75   503.20  1448.72   505.23  1448.72   507.73 " style="stroke-width: 1.42 ;&st7; " /><path d=" M 1448.72,  507.73  C 1448.72   510.24  1450.75   512.27  1453.26   512.27 " style="stroke-width: 1.42 ;&st7; " /><path d=" M 1453.26,  512.27  C 1455.76   512.27  1457.79   510.24  1457.79   507.73 " style="stroke-width: 1.42 ;&st7; " /><path d=" M 1083.85,  354.19  C 1083.85   351.69  1081.82   349.66  1079.32   349.66 " style="stroke-width: 1.42 ;&st7; " /><path d=" M 1079.32,  349.66  C 1076.82   349.66  1074.79   351.69  1074.79   354.19 " style="stroke-width: 1.42 ;&st7; " /><path d=" M 1074.79,  354.19  C 1074.79   356.70  1076.82   358.73  1079.32   358.73 " style="stroke-width: 1.42 ;&st7; " /><path d=" M 1079.32,  358.73  C 1081.82   358.73  1083.85   356.70  1083.85   354.19 " style="stroke-width: 1.42 ;&st7; " /><path d=" M 1219.83,  507.73  C 1219.83   505.23  1217.80   503.20  1215.30   503.20 " style="stroke-width: 1.42 ;&st7; " /><path d=" M 1215.30,  503.20  C 1212.79   503.20  1210.76   505.23  1210.76   507.73 " style="stroke-width: 1.42 ;&st7; " /><path d=" M 1210.76,  507.73  C 1210.76   510.24  1212.79   512.27  1215.30   512.27 " style="stroke-width: 1.42 ;&st7; " /><path d=" M 1215.30,  512.27  C 1217.80   512.27  1219.83   510.24  1219.83   507.73 " style="stroke-width: 1.42 ;&st7; " /><path d=" M 1457.79,  422.75  C 1457.79   420.24  1455.76   418.22  1453.26   418.22 " style="stroke-width: 1.42 ;&st7; " /><path d=" M 1453.26,  418.22  C 1450.75   418.22  1448.72   420.24  1448.72   422.75 " style="stroke-width: 1.42 ;&st7; " /><path d=" M 1448.72,  422.75  C 1448.72   425.25  1450.75   427.28  1453.26   427.28 " style="stroke-width: 1.42 ;&st7; " /><path d=" M 1453.26,  427.28  C 1455.76   427.28  1457.79   425.25  1457.79   422.75 " style="stroke-width: 1.42 ;&st7; " /><path d=" M 1495.75,  418.22  C 1493.25   418.22  1491.22   420.24  1491.22   422.75 " style="stroke-width: 1.42 ;&st7; " /><path d=" M 1491.22,  422.75  C 1491.22   425.25  1493.25   427.28  1495.75   427.28 " style="stroke-width: 1.42 ;&st7; " /><path d=" M 1495.75,  427.28  C 1498.25   427.28  1500.28   425.25  1500.28   422.75 " style="stroke-width: 1.42 ;&st7; " /><text style="&st18;" transform="matrix(&st16;  1009.35  49.08 )">L</text><text style="&st18;" transform="matrix(&st16;  1060.34  49.08 )">L</text><text style="&st18;" transform="matrix(&st16;  1007.06  176.56 )">B-O</text><text style="&st18;" transform="matrix(&st16;  1009.0  32.08 )">B</text><text style="&st18;" transform="matrix(&st16;  1006.53  15.09 )">BR</text><text style="&st18;" transform="matrix(&st16;  1001.62  660.98 )">B(*11)</text><text style="&st18;" transform="matrix(&st17;  1469.37  514.22 )">J15(A),J16(B)</text><text ewd:textID="53" style="&st18;" transform="matrix(&st17;  1476.47  514.22 )">Junction <tspan dy="6" x="0">Connector</tspan></text><text style="&st18;" transform="matrix(&st16;  1454.97  239.44 )">2</text><text style="&st18;" transform="matrix(&st16;  1212.97  509.7 )">A</text><text style="&st18;" transform="matrix(&st16;  1175.23  74.58 )">(IG)</text><text style="&st18;" transform="matrix(&st16;  1159.96  601.49 )">+B</text><text style="&st18;" transform="matrix(&st16;  1299.67  74.58 )">(BAT)</text><text style="&st18;" transform="matrix(&st16;  1231.68  74.58 )">(BAT)</text><text style="&st18;" transform="matrix(&st16;  1442.38  466.64 )">9</text><text style="&st18;" transform="matrix(&st16;  1450.93  466.64 )">B</text><text style="&st18;" transform="matrix(&st16;  1206.29  578.82 )">OX1A</text><text style="&st18;" transform="matrix(&st16;  1283.06  601.49 )">HA1A</text><text style="&st18;" transform="matrix(&st16;  1487.48  414.52 )">A1A-</text><text style="&st18;" transform="matrix(&st16;  1321.43  601.49 )">+B</text><text style="&st18;" transform="matrix(&st16;  1318.99  613.38 )">2</text><text style="&st18;" transform="matrix(&st17;  1449.56  569.27 )">B</text><text style="&st18;" transform="matrix(&st17;  1109.62  458.79 )">Y</text><text style="&st18;" transform="matrix(&st16;  1110.84  424.72 )">D</text><text style="&st18;" transform="matrix(&st16;  1103.24  424.72 )">1</text><text style="&st18;" transform="matrix(&st16;  1104.59  414.52 )">HA1A</text><text style="&st18;" transform="matrix(&st16;  1052.61  660.98 )">B(*11)</text><text style="&st18;" transform="matrix(&st16;  1057.52  15.09 )">BR</text><text style="&st18;" transform="matrix(&st17;  1492.05  570.3 )">W</text><text style="&st18;" transform="matrix(&st16;  1444.99  414.24 )">A1A+</text><text style="&st18;" transform="matrix(&st16;  1158.29  567.5 )">1</text><text ewd:textID="53" style="&st18;" transform="matrix(&st17;  1332.0  250.77 )">Junction <tspan dy="6" x="0">Connector</tspan></text><text ewd:textID="40" style="&st18;" transform="matrix(&st16;  1246.77  390.44 )">Engine ECU</text><text style="&st18;" transform="matrix(&st17;  1324.89  250.77 )">J 5(A),J 6(B)</text><text style="&st18;" transform="matrix(&st16;  1055.22  176.56 )">B-O</text><text style="&st18;" transform="matrix(&st16;  1004.87  635.48 )">R-L</text><text style="&st18;" transform="matrix(&st16;  1005.54  440.01 )">(*1)</text><text style="&st18;" transform="matrix(&st16;  1455.74  185.06 )">1</text><text style="&st18;" transform="matrix(&st16;  1076.99  356.16 )">A</text><text style="&st18;" transform="matrix(&st16;  1068.47  356.16 )">3</text><text style="&st18;" transform="matrix(&st16;  1070.42  366.36 )">BATT</text><text style="&st18;" transform="matrix(&st17;  1075.62  326.71 )">L</text><text style="&st18;" transform="matrix(&st16;  1297.93  356.16 )">7</text><text style="&st18;" transform="matrix(&st16;  1306.45  356.16 )">A</text><text style="&st18;" transform="matrix(&st16;  1234.78  239.44 )">1</text><text style="&st18;" transform="matrix(&st16;  1234.0  193.56 )">2</text><text style="&st18;" transform="matrix(&st16;  1236.7  152.48 )">2F</text><text style="&st18;" transform="matrix(&st16;  1228.1  152.48 )">2</text><text style="&st18;" transform="matrix(&st16;  1204.41  98.66 )">10A <tspan dy="6" x="0">STOP</tspan></text><text style="&st18;" transform="matrix(&st16;  1235.92  279.96 )">2M</text><text style="&st18;" transform="matrix(&st17;  1237.1  264.87 )">G-W</text><text style="&st18;" transform="matrix(&st17;  1237.1  178.86 )">G-B</text><text style="&st18;" transform="matrix(&st16;  1224.92  313.95 )">21</text><text style="&st18;" transform="matrix(&st16;  1228.1  279.96 )">5</text><text style="&st18;" transform="matrix(&st16;  1236.48  313.95 )">2S</text><text style="&st18;" transform="matrix(&st16;  1229.94  356.16 )">4</text><text style="&st18;" transform="matrix(&st16;  1238.46  356.16 )">B</text><text style="&st18;" transform="matrix(&st16;  1234.01  366.36 )">STP</text><text style="&st18;" transform="matrix(&st17;  1237.1  341.35 )">G-W</text><text style="&st18;" transform="matrix(&st16;  1174.51  193.56 )">3</text><text style="&st18;" transform="matrix(&st16;  1174.51  239.44 )">4</text><text style="&st18;" transform="matrix(&st17;  1177.61  263.21 )">R-L</text><text style="&st18;" transform="matrix(&st17;  1177.61  331.19 )">R-L</text><text style="&st18;" transform="matrix(&st16;  1167.28  356.16 )">16</text><text style="&st18;" transform="matrix(&st16;  1173.25  366.36 )">ST1-</text><text style="&st18;" transform="matrix(&st16;  1301.54  366.36 )">+BM</text><text style="&st18;" transform="matrix(&st16;  1272.97  98.66 )">10A <tspan dy="6" x="0">ETCS</tspan></text><text style="&st18;" transform="matrix(&st16;  1144.98  356.16 )">A</text><text style="&st18;" transform="matrix(&st16;  1136.46  356.16 )">9</text><text style="&st18;" transform="matrix(&st16;  1307.19  152.48 )">1</text><text style="&st18;" transform="matrix(&st16;  1301.99  128.96 )">2</text><text style="&st18;" transform="matrix(&st16;  1178.97  356.16 )">A</text><text style="&st18;" transform="matrix(&st16;  1137.88  366.36 )">IGSW</text><text style="&st18;" transform="matrix(&st17;  1143.61  331.83 )">B-O</text><text style="&st18;" transform="matrix(&st16;  1246.77  383.33 )">E 8(A),E 9(B),E10(C),E11(D)</text><text style="&st18;" transform="matrix(&st16;  1100.62  152.48 )">6</text><text style="&st18;" transform="matrix(&st16;  1109.36  152.48 )">2L</text><text style="&st18;" transform="matrix(&st16;  1143.0  152.48 )">2S</text><text style="&st18;" transform="matrix(&st16;  1130.66  152.48 )">22</text><text style="&st18;" transform="matrix(&st17;  1177.61  178.86 )">B-O</text><text style="&st18;" transform="matrix(&st17;  1143.61  178.86 )">B-O</text><text style="&st18;" transform="matrix(&st16;  1306.45  220.18 )">A</text><text style="&st18;" transform="matrix(&st16;  1297.93  220.18 )">8</text><text style="&st18;" transform="matrix(&st16;  1306.45  254.75 )">B</text><text style="&st18;" transform="matrix(&st16;  1295.53  254.75 )">11</text><text style="&st18;" transform="matrix(&st16;  1168.61  152.48 )">6</text><text style="&st18;" transform="matrix(&st16;  1176.43  152.48 )">2M</text><text style="&st18;" transform="matrix(&st16;  1149.37  98.66 )">7.5A <tspan dy="6" x="0">IGN</tspan></text><text style="&st18;" transform="matrix(&st16;  1059.99  32.08 )">B</text><text style="&st18;" transform="matrix(&st17;  1458.06  310.06 )">B</text><text style="&st18;" transform="matrix(&st17;  1415.57  314.06 )">L-B</text><text style="&st18;" transform="matrix(&st17;  1390.07  314.2 )">L-R</text><text style="&st18;" transform="matrix(&st17;  1364.58  315.08 )">L-W</text><text style="&st18;" transform="matrix(&st17;  1458.06  159.56 )">BR</text><text style="&st18;" transform="matrix(&st16;  1499.94  366.36 )">E2</text><text style="&st18;" transform="matrix(&st16;  1412.47  230.94 )">4</text><text style="&st18;" transform="matrix(&st17;  1415.57  159.56 )">BR</text><text style="&st18;" transform="matrix(&st16;  1412.47  185.06 )">5</text><text style="&st18;" transform="matrix(&st16;  1361.48  230.94 )">3</text><text style="&st18;" transform="matrix(&st16;  1362.26  185.06 )">1</text><text style="&st18;" transform="matrix(&st17;  1364.58  157.09 )">B</text><text style="&st18;" transform="matrix(&st16;  1386.98  230.94 )">2</text><text style="&st18;" transform="matrix(&st16;  1363.18  366.36 )">VG</text><text style="&st18;" transform="matrix(&st16;  1386.7  366.36 )">E2G</text><text style="&st18;" transform="matrix(&st16;  1412.34  366.36 )">THA</text><text style="&st18;" transform="matrix(&st16;  1453.81  366.36 )">THW</text><text style="&st18;" transform="matrix(&st16;  1482.45  108.57 )">BR</text><text style="&st18;" transform="matrix(&st17;  1482.11  233.77 )">W 1</text><text style="&st18;" transform="matrix(&st16;  1353.47  356.16 )">28</text><text style="&st18;" transform="matrix(&st16;  1365.8  356.16 )">C</text><text style="&st18;" transform="matrix(&st16;  1391.29  356.16 )">C</text><text style="&st18;" transform="matrix(&st16;  1378.96  356.16 )">30</text><text style="&st18;" transform="matrix(&st16;  1416.79  356.16 )">C</text><text style="&st18;" transform="matrix(&st16;  1404.46  356.16 )">29</text><text style="&st18;" transform="matrix(&st16;  1459.28  356.16 )">D</text><text style="&st18;" transform="matrix(&st16;  1446.95  356.16 )">32</text><text style="&st18;" transform="matrix(&st16;  1489.44  356.16 )">28</text><text ewd:textID="67" style="&st18;" transform="matrix(&st17;  1489.22  233.77 )">Water Temp. Sensor</text><text style="&st18;" transform="matrix(&st17;  1458.06  74.58 )">BR</text><text style="&st18;" transform="matrix(&st16;  1055.86  635.48 )">R-L</text><text style="&st18;" transform="matrix(&st16;  1056.53  440.01 )">(*1)</text><text style="&st18;" transform="matrix(&st16;  1363.18  219.05 )">VG</text><text style="&st18;" transform="matrix(&st16;  1386.7  219.05 )">E2G</text><text style="&st18;" transform="matrix(&st16;  1412.34  219.05 )">THA</text><text style="&st18;" transform="matrix(&st16;  1363.93  196.39 )">+B</text><text style="&st18;" transform="matrix(&st16;  1414.95  196.39 )">E2</text><text ewd:textID="25" style="&st18;" transform="matrix(&st16;  1374.25  179.11 )">Air Flow <tspan dy="6" x="0">Meter</tspan></text><text style="&st18;" transform="matrix(&st16;  1374.25  172.0 )">A 4</text><text style="&st18;" transform="matrix(&st16;  1439.2  509.7 )">10</text><text style="&st18;" transform="matrix(&st16;  1450.93  509.7 )">A</text><text style="&st18;" transform="matrix(&st16;  1285.77  613.38 )">1</text><text style="&st18;" transform="matrix(&st17;  1449.56  454.54 )">B</text><text style="&st18;" transform="matrix(&st17;  1424.07  572.73 )">(*1)</text><text style="&st18;" transform="matrix(&st16;  1204.42  509.7 )">9</text><text style="&st18;" transform="matrix(&st16;  1155.79  578.82 )">HT1A</text><text style="&st18;" transform="matrix(&st16;  1210.99  601.49 )">E2</text><text style="&st18;" transform="matrix(&st16;  1208.51  613.38 )">4</text><text style="&st18;" transform="matrix(&st16;  1208.51  567.5 )">3</text><text style="&st18;" transform="matrix(&st16;  1157.52  613.38 )">2</text><text ewd:textID="47" style="&st18;" transform="matrix(&st17;  1247.01  607.71 )">Heated Oxygen <tspan dy="6" x="0">Sensor </tspan><tspan dy="6" x="0">(Bank 1 </tspan><tspan dy="6" x="-0.01">Sensor 1)</tspan></text><text style="&st18;" transform="matrix(&st17;  1239.91  607.71 )">H24</text><text style="&st18;" transform="matrix(&st16;  1050.14  677.97 )">BR(*11)</text><text style="&st18;" transform="matrix(&st16;  1046.85  694.97 )">W-B(*10)</text><text style="&st18;" transform="matrix(&st16;  1054.55  646.81 )">(*10)</text><text style="&st18;" transform="matrix(&st16;  1003.56  646.81 )">(*10)</text><text style="&st18;" transform="matrix(&st16;  1140.99  474.01 )">L-Y</text><text style="&st18;" transform="matrix(&st16;  1003.56  451.35 )">(*10)</text><text style="&st18;" transform="matrix(&st16;  1054.55  451.35 )">(*10)</text><text style="&st18;" transform="matrix(&st16;  1139.93  485.34 )">(*11)</text><text style="&st18;" transform="matrix(&st17;  1109.62  573.52 )">Y</text><text style="&st18;" transform="matrix(&st17;  1120.95  578.96 )">(*10)</text><text style="&st18;" transform="matrix(&st17;  1460.89  574.71 )">(*10)</text><text ewd:textID="61" style="&st18;" transform="matrix(&st17;  1169.11  233.77 )">Stop Lamp SW</text><text style="&st18;" transform="matrix(&st17;  1162.0  233.77 )">S14</text><text style="&st18;" transform="matrix(&st17;  1282.42  288.42 )">(*3)</text><text style="&st18;" transform="matrix(&st17;  1271.09  290.08 )">R-W</text><text style="&st18;" transform="matrix(&st17;  1316.42  288.42 )">(*2)</text><text style="&st18;" transform="matrix(&st17;  1305.09  290.08 )">R-W</text><text style="&st18;" transform="matrix(&st17;  1316.42  194.93 )">(*2)</text><text style="&st18;" transform="matrix(&st17;  1305.09  196.59 )">R-W</text><text style="&st18;" transform="matrix(&st17;  1282.42  194.93 )">(*3)</text><text style="&st18;" transform="matrix(&st17;  1271.09  196.59 )">R-W</text><text style="&st18;" transform="matrix(&st16;  1256.79  245.96 )">18</text><text style="&st18;" transform="matrix(&st17;  1160.61  547.77 )">L-Y</text><text style="&st18;" transform="matrix(&st17;  1211.6  544.8 )">W</text><text style="&st18;" transform="matrix(&st17;  1171.94  548.83 )">(*11)</text><text style="&st18;" transform="matrix(&st17;  1222.93  548.83 )">(*11)</text><text style="&st18;" transform="matrix(&st16;  1351.51  601.49 )">A1A-</text><text style="&st18;" transform="matrix(&st16;  1385.5  601.49 )">A1A+</text><text style="&st18;" transform="matrix(&st16;  1386.98  613.38 )">3</text><text style="&st18;" transform="matrix(&st16;  1352.98  613.38 )">4</text><text ewd:textID="26" style="&st18;" transform="matrix(&st16;  1280.76  561.54 )">Air Fuel Ratio Sensor <tspan dy="6" x="0">(Bank 1 Sensor 1)</tspan></text><text style="&st18;" transform="matrix(&st16;  1280.76  554.44 )">A 5</text><text style="&st18;" transform="matrix(&st17;  1186.11  547.24 )">(*1)</text><text style="&st18;" transform="matrix(&st17;  1197.44  548.83 )">(*11)</text><text style="&st18;" transform="matrix(&st17;  1160.61  654.26 )">B</text><text style="&st18;" transform="matrix(&st17;  1171.94  659.31 )">(*11)</text><text style="&st18;" transform="matrix(&st17;  1211.6  656.73 )">BR</text><text style="&st18;" transform="matrix(&st17;  1222.93  659.31 )">(*11)</text><text style="&st18;" transform="matrix(&st16;  1191.21  296.96 )">(*9)</text><text style="&st18;" transform="matrix(&st16;  1191.21  288.46 )">(*8)</text><text style="&st18;" transform="matrix(&st16;  1166.49  288.46 )">4</text><text style="&st18;" transform="matrix(&st16;  1163.31  296.96 )">19</text><text style="&st18;" transform="matrix(&st17;  1435.4  574.71 )">(*10)</text><text style="&st18;" transform="matrix(&st16;  1450.78  424.72 )">D</text><text style="&st18;" transform="matrix(&st16;  1439.2  424.72 )">21</text><text style="&st18;" transform="matrix(&st16;  1493.28  424.72 )">D</text><text style="&st18;" transform="matrix(&st16;  1481.69  424.72 )">31</text><text style="&st18;" transform="matrix(&st16;  1004.25  211.97 )">(*9)</text><text style="&st18;" transform="matrix(&st16;  1004.25  203.47 )">(*8)</text></svg>