﻿<?xml version="1.0" encoding="utf-8"?>
<!DOCTYPE svg PUBLIC "-//W3C//DTD SVG 1.0//EN" "http://www.w3.org/TR/2001/REC-SVG-20010904/DTD/svg10.dtd"[
	<!ENTITY ns_flows "http://ns.adobe.com/Flows/1.0/">
	<!ENTITY ns_svg "http://www.w3.org/2000/svg">
	<!ENTITY ns_xlink "http://www.w3.org/1999/xlink">
	<!ENTITY st0 "font-size:7px;font-family:'MS-PGothic';adobe-font-script:japanese;">
	<!ENTITY st1 "font-size:6px;font-family:'ArialMT';">
	<!-- White fill  -->
	<!ENTITY st2 "fill:#FFFFFF;stroke:#000000; stroke-width:1.41;stroke-linecap:round;stroke-linejoin:round;">
	<!-- Yellow fill  -->
	<!ENTITY st3 "fill:#FFFFCC;stroke:#FFFFCC; stroke-width:0.1;stroke-linecap:round;stroke-linejoin:round;">
	<!-- Gray fill  -->
	<!ENTITY st4 "fill:#CCCCCC;stroke:#CCCCCC; stroke-width:0.1;stroke-linecap:round;stroke-linejoin:round;">
	<!-- Light-blue fill -->
	<!ENTITY st5 "fill:#CCECF4;stroke:#000000; stroke-width:1.133;stroke-linecap:round;stroke-linejoin:round;">
	<!ENTITY st6 "fill:none;stroke-linecap:butt; stroke-linejoin:round;">
	<!ENTITY st7 "fill:none;stroke:#000000;stroke-linecap:round;stroke-linejoin:round;">
	<!ENTITY st8 "enable-background:new    ;">
	<!-- Black fill -->
	<!ENTITY st9 "fill:#000000;stroke:#000000; stroke-linecap:round;stroke-linejoin:round;">
	<!-- SRS note   -->
	<!ENTITY st10 "font-size:9px;font-family:'ArialMT';">
	<!ENTITY st11 "font-size:9px;font-family:'Svg Symbol';">
	<!ENTITY st12 "font-size:6px;font-family:'Svg Symbol';">
	<!ENTITY st13 "fill:none;stroke:#ff0000;stroke-linecap:round;stroke-linejoin:round;">
	<!-- Yellow fill  -->
	<!ENTITY st14 "fill:#FFFF00;stroke:#FFFF00; stroke-width:0.1;stroke-linecap:round;stroke-linejoin:round;">
	<!ENTITY st15 "font-size:6px;font-family:'MS-PGothic';adobe-font-script:japanese;">
	<!ENTITY st16 "1.00 0.00 0.00 1.00">
	<!ENTITY st17 "0.00 -1.00 1.00 0.00">
	<!ENTITY st18 "font-size:6px;font-family:'Arial';">
	<!ENTITY st19 "font-size:9px;font-family:'Arial';">
	<!ENTITY st20 "font-size:6px;font-family:'MS-PGothic','MS PGothic';adobe-font-script:japanese;">
	<!ENTITY st21 "font-size:7px;font-family:'MS-PGothic','MS PGothic';adobe-font-script:japanese;">
	<!ATTLIST svg
		xmlns:ewd CDATA #FIXED "http://shcl.co.jp/ewd"
		xmlns:a CDATA #FIXED "http://ns.adobe.com/AdobeSVGViewerExtensions/3.0/"
		ewd:ver CDATA #IMPLIED
	>
	<!ATTLIST a
		ewd:lineID CDATA #IMPLIED
		ewd:groupID CDATA #IMPLIED
		ewd:figtype CDATA #IMPLIED
		ewd:code CDATA #IMPLIED
		ewd:figID CDATA #IMPLIED
		ewd:pinNo CDATA #IMPLIED
		ewd:comment CDATA #IMPLIED >
	<!ATTLIST g
		ewd:lineID CDATA #IMPLIED
		ewd:groupID CDATA #IMPLIED
		ewd:figtype CDATA #IMPLIED
		ewd:code CDATA #IMPLIED
		ewd:figID CDATA #IMPLIED
		ewd:pinNo CDATA #IMPLIED
		ewd:comment CDATA #IMPLIED >
	<!ATTLIST text
		ewd:textID CDATA #IMPLIED >
	<!ATTLIST title
		ewd:textID CDATA #IMPLIED >
]>
<!-- Generator: Shintec Hozumi YS   -->
<svg onload="call_execInitLoadProc_svg('system')" style="overflow:visible;  enable-background:new 0 0 4113.838 710.000" viewBox="0 0 4113.838 710.000" height="710.000" width="4113.838" xml:space="preserve" ewd:ver="L2.1.2.7" xmlns="&ns_svg;" xmlns:a="http://ns.adobe.com/AdobeSVGViewerExtensions/3.0/" xmlns:ewd="http://shcl.co.jp/ewd" xmlns:xlink="&ns_xlink;">
<path d=" M  475.92,  469.21  L  467.42,  469.21 " style="stroke-width: 1.42 ;&st7; " /><path d=" M  288.95,  460.71  L  297.45,  460.71 " style="stroke-width: 1.42 ;&st7; " /><path d=" M  469.55,  418.22  L  465.30,  418.22 " style="stroke-width: 1.42 ;&st7; " /><path d=" M  469.55,  409.72  L  465.30,  409.72 " style="stroke-width: 1.42 ;&st7; " /><path d=" M  427.05,  418.22  L  422.80,  418.22 " style="stroke-width: 1.42 ;&st7; " /><path d=" M  427.05,  409.72  L  422.80,  409.72 " style="stroke-width: 1.42 ;&st7; " /><path d=" M  367.56,  418.22  L  363.31,  418.22 " style="stroke-width: 1.42 ;&st7; " /><path d=" M  367.56,  409.72  L  363.31,  409.72 " style="stroke-width: 1.42 ;&st7; " /><path d=" M  299.57,  418.22  L  295.33,  418.22 " style="stroke-width: 1.42 ;&st7; " /><path d=" M  299.57,  409.72  L  295.33,  409.72 " style="stroke-width: 1.42 ;&st7; " /><path d=" M   87.11,  384.22  L   82.86,  384.22 " style="stroke-width: 1.42 ;&st7; " /><path d=" M   87.11,  392.72  L   82.86,  392.72 " style="stroke-width: 1.42 ;&st7; " /><path d=" M  112.61,  392.72  L  108.36,  392.72 " style="stroke-width: 1.42 ;&st7; " /><path d=" M  112.61,  384.22  L  108.36,  384.22 " style="stroke-width: 1.42 ;&st7; " /><path d=" M   87.11,  282.24  L   82.86,  282.24 " style="stroke-width: 1.42 ;&st7; " /><path d=" M   87.11,  273.74  L   82.86,  273.74 " style="stroke-width: 1.42 ;&st7; " /><path d=" M  112.61,  282.24  L  108.36,  282.24 " style="stroke-width: 1.42 ;&st7; " /><path d=" M  112.61,  273.74  L  108.36,  273.74 " style="stroke-width: 1.42 ;&st7; " /><path d=" M  110.48,  341.73  L  110.48,  350.23 " style="stroke-width: 0.85 ;&st7; " /><path d=" M  110.48,  316.23  L  110.48,  324.73 " style="stroke-width: 0.85 ;&st7; " /><path d=" M   84.99,  320.48  L   84.99,  316.23 " style="stroke-width: 0.85 ;&st7; " /><path d=" M   84.99,  350.23  L   84.99,  345.98 " style="stroke-width: 0.85 ;&st7; " /><path d=" M   84.99,  343.14  L   79.32,  320.48 " style="stroke-width: 1.42 ;&st7; " /><path d=" M  441.93,  360.14  L  436.26,  337.48 " style="stroke-width: 1.42 ;&st7; " /><path d=" M  441.93,  367.22  L  441.93,  362.97 " style="stroke-width: 0.85 ;&st7; " /><path d=" M  441.93,  337.48  L  441.93,  333.23 " style="stroke-width: 0.85 ;&st7; " /><path d=" M  467.42,  333.23  L  467.42,  341.73 " style="stroke-width: 0.85 ;&st7; " /><path d=" M  467.42,  358.73  L  467.42,  367.22 " style="stroke-width: 0.85 ;&st7; " /><path d=" M  339.94,  360.14  L  334.28,  337.48 " style="stroke-width: 1.42 ;&st7; " /><path d=" M  339.94,  367.22  L  339.94,  362.97 " style="stroke-width: 0.85 ;&st7; " /><path d=" M  339.94,  337.48  L  339.94,  333.23 " style="stroke-width: 0.85 ;&st7; " /><path d=" M  365.44,  333.23  L  365.44,  341.73 " style="stroke-width: 0.85 ;&st7; " /><path d=" M  365.44,  358.73  L  365.44,  367.22 " style="stroke-width: 0.85 ;&st7; " /><path d=" M   76.49,  452.21  L   84.99,  452.21 " style="stroke-width: 1.42 ;&st7; " /><path d=" M  299.57,  299.24  L  295.33,  299.24 " style="stroke-width: 1.42 ;&st7; " /><path d=" M  299.57,  290.74  L  295.33,  290.74 " style="stroke-width: 1.42 ;&st7; " /><path d=" M  367.56,  299.24  L  363.31,  299.24 " style="stroke-width: 1.42 ;&st7; " /><path d=" M  367.56,  290.74  L  363.31,  290.74 " style="stroke-width: 1.42 ;&st7; " /><path d=" M   87.11,  103.77  L   82.86,  103.77 " style="stroke-width: 1.42 ;&st7; " /><path d=" M   87.11,   95.27  L   82.86,   95.27 " style="stroke-width: 1.42 ;&st7; " /><path d=" M   84.99,   69.77  L   84.99,   95.27 " style="stroke-width: 0.85 ;&st7; " /><path d=" M  257.08,  299.24  L  252.83,  299.24 " style="stroke-width: 1.42 ;&st7; " /><path d=" M  257.08,  290.74  L  252.83,  290.74 " style="stroke-width: 1.42 ;&st7; " /><path d=" M  467.42,  404.82  L  464.59,  401.99  L  464.59,  406.24  L  467.42,  409.07  L  470.25,  406.24  L  470.25,  401.99  L  467.42,  404.82 " style="stroke-width: 0.28 ;&st9;" /><path d=" M  424.93,  404.82  L  422.10,  401.99  L  422.10,  406.24  L  424.93,  409.07  L  427.76,  406.24  L  427.76,  401.99  L  424.93,  404.82 " style="stroke-width: 0.28 ;&st9;" /><path d=" M  365.44,  404.82  L  362.61,  401.99  L  362.61,  406.24  L  365.44,  409.07  L  368.27,  406.24  L  368.27,  401.99  L  365.44,  404.82 " style="stroke-width: 0.28 ;&st9;" /><path d=" M  297.45,  404.82  L  294.62,  401.99  L  294.62,  406.24  L  297.45,  409.07  L  300.28,  406.24  L  300.28,  401.99  L  297.45,  404.82 " style="stroke-width: 0.28 ;&st9;" /><path d=" M   84.99,  379.33  L   82.15,  376.49  L   82.15,  380.74  L   84.99,  383.58  L   87.82,  380.74  L   87.82,  376.49  L   84.99,  379.33 " style="stroke-width: 0.28 ;&st9;" /><path d=" M  110.48,  379.33  L  107.65,  376.49  L  107.65,  380.74  L  110.48,  383.58  L  113.31,  380.74  L  113.31,  376.49  L  110.48,  379.33 " style="stroke-width: 0.28 ;&st9;" /><path d=" M   84.99,  287.13  L   87.82,  289.97  L   87.82,  285.72  L   84.99,  282.88  L   82.15,  285.72  L   82.15,  289.97  L   84.99,  287.13 " style="stroke-width: 0.28 ;&st9;" /><path d=" M  110.48,  287.13  L  113.31,  289.97  L  113.31,  285.72  L  110.48,  282.88  L  107.65,  285.72  L  107.65,  289.97  L  110.48,  287.13 " style="stroke-width: 0.28 ;&st9;" /><path d=" M  135.65,  572.09  L  135.65,  570.29  L  136.30,  570.29  L  136.30,  572.09 " style="stroke-width: 0.85 ;&st7; " /><path d=" M   67.67,  563.59  L   67.67,  561.79  L   68.31,  561.79  L   68.31,  563.59 " style="stroke-width: 0.85 ;&st7; " /><path d=" M   50.67,  563.59  L   50.67,  561.79  L   51.31,  561.79  L   51.31,  563.59 " style="stroke-width: 0.85 ;&st7; " /><path d=" M   33.67,  563.59  L   33.67,  561.79  L   34.32,  561.79  L   34.32,  563.59 " style="stroke-width: 0.85 ;&st7; " /><path d=" M   50.67,  529.60  L   50.67,  527.80  L   51.31,  527.80  L   51.31,  529.60 " style="stroke-width: 0.85 ;&st7; " /><path d=" M   67.67,  529.60  L   67.67,  527.80  L   68.31,  527.80  L   68.31,  529.60 " style="stroke-width: 0.85 ;&st7; " /><path d=" M   84.66,  529.60  L   84.66,  527.80  L   85.31,  527.80  L   85.31,  529.60 " style="stroke-width: 0.85 ;&st7; " /><path d=" M  134.56,  710.00  L  137.39,  710.00 " style="stroke-width: 0.85 ;&st7; " /><path d=" M  133.14,  707.17  L  138.81,  707.17 " style="stroke-width: 0.85 ;&st7; " /><path d=" M  131.73,  704.33  L  140.23,  704.33 " style="stroke-width: 0.85 ;&st7; " /><path d=" M  127.48,  701.50  L  144.48,  701.50 " style="stroke-width: 0.85 ;&st7; " /><path d=" M  135.98,  697.25  L  135.98,  701.50 " style="stroke-width: 0.85 ;&st7; " /><path d=" M  246.46,  231.25  L  263.46,  231.25 " style="stroke-width: 1.13 ;&st7;stroke-dasharray:3, 1.5;" /><path d=" M  254.96,  222.75  L  254.96,  248.24 " style="stroke-width: 0.85 ;&st7; " /><path d=" M  297.45,  304.13  L  300.28,  306.96  L  300.28,  302.71  L  297.45,  299.88  L  294.62,  302.71  L  294.62,  306.96  L  297.45,  304.13 " style="stroke-width: 0.28 ;&st9;" /><path d=" M  246.46,  222.75  L  246.46,  248.24  L  263.46,  248.24  L  263.46,  222.75  L  246.46,  222.75 " style="stroke-width: 1.42 ;&st7; " /><path d=" M   80.74,  443.14  L   84.99,  447.39  L   89.24,  443.14 " style="stroke-width: 1.42 ;&st7; " /><path d=" M   84.99,   90.37  L   82.15,   87.54  L   82.15,   91.79  L   84.99,   94.62  L   87.82,   91.79  L   87.82,   87.54  L   84.99,   90.37 " style="stroke-width: 0.28 ;&st9;" /><path d=" M  441.60,  317.13  L  441.60,  315.33  L  442.25,  315.33  L  442.25,  317.13 " style="stroke-width: 0.85 ;&st7; " /><path d=" M   84.99,  562.69  L   33.99,  562.69  L   33.99,  571.19 " style="stroke-width: 0.85 ;&st7; " /><path d=" M   84.99,  520.20  L   84.99,  528.70  L   33.99,  528.70 " style="stroke-width: 0.85 ;&st7; " /><path d=" M   93.48,  520.20  L   25.50,  520.20  L   25.50,  571.19  L   93.48,  571.19  L   93.48,  520.20 " style="stroke-width: 1.42 ;&st7; " /><path d=" M   32.58,  588.19  L   35.41,  588.19 " style="stroke-width: 0.85 ;&st7; " /><path d=" M   31.16,  585.35  L   36.83,  585.35 " style="stroke-width: 0.85 ;&st7; " /><path d=" M   29.75,  582.52  L   38.24,  582.52 " style="stroke-width: 0.85 ;&st7; " /><path d=" M   25.50,  579.69  L   42.49,  579.69 " style="stroke-width: 0.85 ;&st7; " /><path d=" M   33.99,  571.19  L   33.99,  579.69 " style="stroke-width: 0.85 ;&st7; " /><path d=" M   33.99,  562.69  L   33.99,  554.19  L   31.16,  552.78  L   36.83,  549.94  L   31.16,  547.11  L   36.83,  544.28  L   31.16,  541.44  L   36.83,  538.61  L   33.99,  537.20  L   33.99,  528.70 " style="stroke-width: 0.85 ;&st7; " /><path d=" M   50.99,  562.69  L   50.99,  554.19  L   48.16,  552.78  L   53.82,  549.94  L   48.16,  547.11  L   53.82,  544.28  L   48.16,  541.44  L   53.82,  538.61  L   50.99,  537.20  L   50.99,  528.70 " style="stroke-width: 0.85 ;&st7; " /><path d=" M   67.99,  562.69  L   67.99,  554.19  L   65.16,  552.78  L   70.82,  549.94  L   65.16,  547.11  L   70.82,  544.28  L   65.16,  541.44  L   70.82,  538.61  L   67.99,  537.20  L   67.99,  528.70 " style="stroke-width: 0.85 ;&st7; " /><path d=" M   84.99,  562.69  L   84.99,  554.19  L   82.15,  552.78  L   87.82,  549.94  L   82.15,  547.11  L   87.82,  544.28  L   82.15,  541.44  L   87.82,  538.61  L   84.99,  537.20  L   84.99,  528.70 " style="stroke-width: 0.85 ;&st7; " /><path d=" M   84.99,  350.23  L   84.99,  384.22 " style="stroke-width: 0.85 ;&st7; " /><path d=" M  246.46,  239.75  L  263.46,  239.75 " style="stroke-width: 1.13 ;&st7;stroke-dasharray:3, 1.5;" /><path d=" M   84.99,  282.24  L   84.99,  316.23 " style="stroke-width: 0.85 ;&st7; " /><path d=" M  110.48,  350.23  L  110.48,  384.22 " style="stroke-width: 0.85 ;&st7; " /><path d=" M  110.48,  316.23  L  110.48,  282.24 " style="stroke-width: 0.85 ;&st7; " /><path d=" M  118.98,  316.23  L   76.49,  316.23  L   76.49,  350.23  L  118.98,  350.23  L  118.98,  316.23 " style="stroke-width: 1.42 ;&st7; " /><path d=" M  441.93,  316.23  L  441.93,  333.23 " style="stroke-width: 0.85 ;&st7; " /><path d=" M  144.48,  571.19  L  135.98,  571.19 " style="stroke-width: 0.85 ;&st7; " /><path d=" M  467.42,  409.72  L  467.42,  367.22 " style="stroke-width: 0.85 ;&st7; " /><path d=" M  339.62,  385.12  L  339.62,  383.32  L  340.27,  383.32  L  340.27,  385.12 " style="stroke-width: 0.85 ;&st7; " /><path d=" M  467.42,  316.23  L  399.43,  316.23  L  399.43,  384.22  L  339.94,  384.22 " style="stroke-width: 0.85 ;&st7; " /><path d=" M  441.93,  367.22  L  441.93,  384.22  L  424.93,  384.22  L  424.93,  409.72 " style="stroke-width: 0.85 ;&st7; " /><path d=" M  475.92,  333.23  L  475.92,  367.22  L  433.43,  367.22  L  433.43,  333.23  L  475.92,  333.23 " style="stroke-width: 1.42 ;&st7; " /><path d=" M  467.42,  316.23  L  467.42,  333.23 " style="stroke-width: 0.85 ;&st7; " /><path d=" M  195.47,  205.75  L  195.47,  214.25 " style="stroke-width: 0.85 ;&st7; " /><path d=" M  254.63,  317.13  L  254.63,  315.33  L  255.28,  315.33  L  255.28,  317.13 " style="stroke-width: 0.85 ;&st7; " /><path d=" M  365.44,  367.22  L  365.44,  409.72 " style="stroke-width: 0.85 ;&st7; " /><path d=" M  365.44,  299.24  L  365.44,  333.23 " style="stroke-width: 0.85 ;&st7; " /><path d=" M   97.73,   78.27  L   97.73,   35.78  L   72.24,   35.78  L   72.24,   78.27  L   97.73,   78.27 " style="stroke-width: 1.42 ;&st7; " /><path d=" M  208.22,  214.25  L  182.72,  214.25  L  182.72,  171.76  L  208.22,  171.76  L  208.22,  214.25 " style="stroke-width: 1.42 ;&st7; " /><path d=" M  297.45,  409.72  L  297.45,  384.22 " style="stroke-width: 0.85 ;&st7; " /><path d=" M  339.94,  384.22  L  339.94,  367.22 " style="stroke-width: 0.85 ;&st7; " /><path d=" M  195.47,  214.25  L  195.47,  231.25 " style="stroke-width: 0.85 ;&st7; " /><path d=" M  254.96,  299.24  L  254.96,  316.23  L  195.47,  316.23  L  195.47,  231.25 " style="stroke-width: 0.85 ;&st7; " /><path d=" M  373.94,  333.23  L  331.44,  333.23  L  331.44,  367.22  L  373.94,  367.22  L  373.94,  333.23 " style="stroke-width: 1.42 ;&st7; " /><path d=" M  339.94,  384.22  L  297.45,  384.22  L  297.45,  299.24 " style="stroke-width: 0.85 ;&st7; " /><path d=" M  254.96,  304.13  L  257.79,  306.96  L  257.79,  302.71  L  254.96,  299.88  L  252.12,  302.71  L  252.12,  306.96  L  254.96,  304.13 " style="stroke-width: 0.28 ;&st9;" /><path d=" M  339.94,  333.23  L  339.94,  316.23  L  254.96,  316.23 " style="stroke-width: 0.85 ;&st7; " /><path d=" M  127.48,  562.69  L  127.48,  579.69  L  144.48,  579.69  L  144.48,  562.69  L  127.48,  562.69 " style="stroke-width: 1.42 ;&st7; " /><path d=" M  135.98,  579.69  L  135.98,  562.69 " style="stroke-width: 0.85 ;&st7; " /><path d=" M   89.24,  446.54  L   84.99,  450.79  L   80.74,  446.54 " style="stroke-width: 1.42 ;&st7; " /><path d=" M  297.13,  385.12  L  297.13,  383.32  L  297.77,  383.32  L  297.77,  385.12 " style="stroke-width: 0.85 ;&st7; " /><path d=" M  365.44,  304.13  L  368.27,  306.96  L  368.27,  302.71  L  365.44,  299.88  L  362.61,  302.71  L  362.61,  306.96  L  365.44,  304.13 " style="stroke-width: 0.28 ;&st9;" /><path d=" M  471.67,  474.87  L  467.42,  470.62  L  463.17,  474.87 " style="stroke-width: 1.42 ;&st7; " /><path d=" M  471.67,  478.27  L  467.42,  474.02  L  463.17,  478.27 " style="stroke-width: 1.42 ;&st7; " /><path d=" M  301.70,  455.04  L  297.45,  459.29  L  293.20,  455.04 " style="stroke-width: 1.42 ;&st7; " /><path d=" M  293.20,  451.64  L  297.45,  455.89  L  301.70,  451.64 " style="stroke-width: 1.42 ;&st7; " /><path d=" M   84.99,   47.11  C   82.81    50.13    82.81    54.00    84.99    57.03 " style="stroke-width: 1.42 ;&st7; " /><path d=" M   84.99,   47.11  C   81.27    49.88    80.45    55.10    83.15    58.87 " style="stroke-width: 1.42 ;&st7; " /><path d=" M  195.47,  183.09  C  192.73   184.70   191.82   188.23   193.43   190.97 " style="stroke-width: 1.42 ;&st7; " /><path d=" M  193.43,  190.97  C  193.95   191.85   194.59   192.48   195.47   193.00 " style="stroke-width: 1.42 ;&st7; " /><path d=" M  195.47,  202.92  C  198.21   201.31   199.12   197.78   197.50   195.04 " style="stroke-width: 1.42 ;&st7; " /><path d=" M  197.50,  195.04  C  196.98   194.16   196.35   193.52   195.47   193.00 " style="stroke-width: 1.42 ;&st7; " /><path d=" M  196.88,  181.67  C  196.88   180.89   196.25   180.26   195.47   180.26 " style="stroke-width: 0.85 ;&st7; " /><path d=" M  195.47,  180.26  C  194.69   180.26   194.05   180.89   194.05   181.67 " style="stroke-width: 0.85 ;&st7; " /><path d=" M  194.05,  181.67  C  194.05   182.45   194.69   183.09   195.47   183.09 " style="stroke-width: 0.85 ;&st7; " /><path d=" M  195.47,  183.09  C  196.25   183.09   196.88   182.45   196.88   181.67 " style="stroke-width: 0.85 ;&st7; " /><path d=" M  196.88,  204.33  C  196.88   203.55   196.25   202.92   195.47   202.92 " style="stroke-width: 0.85 ;&st7; " /><path d=" M  195.47,  202.92  C  194.69   202.92   194.05   203.55   194.05   204.33 " style="stroke-width: 0.85 ;&st7; " /><path d=" M  194.05,  204.33  C  194.05   205.12   194.69   205.75   195.47   205.75 " style="stroke-width: 0.85 ;&st7; " /><path d=" M  195.47,  205.75  C  196.25   205.75   196.88   205.12   196.88   204.33 " style="stroke-width: 0.85 ;&st7; " /><path d=" M  299.57,  299.24  C  301.92   299.24   303.82   297.33   303.82   294.99 " style="stroke-width: 1.42 ;&st7; " /><path d=" M  291.08,  294.99  C  291.08   297.33   292.98   299.24   295.33   299.24 " style="stroke-width: 1.42 ;&st7; " /><path d=" M  295.33,  290.74  C  292.98   290.74   291.08   292.64   291.08   294.99 " style="stroke-width: 1.42 ;&st7; " /><path d=" M  341.36,  361.56  C  341.36   360.78   340.73   360.14   339.94   360.14 " style="stroke-width: 0.85 ;&st7; " /><path d=" M  339.94,  360.14  C  339.16   360.14   338.53   360.78   338.53   361.56 " style="stroke-width: 0.85 ;&st7; " /><path d=" M  338.53,  361.56  C  338.53   362.34   339.16   362.97   339.94   362.97 " style="stroke-width: 0.85 ;&st7; " /><path d=" M  339.94,  362.97  C  340.73   362.97   341.36   362.34   341.36   361.56 " style="stroke-width: 0.85 ;&st7; " /><path d=" M  341.36,  338.90  C  341.36   338.11   340.73   337.48   339.94   337.48 " style="stroke-width: 0.85 ;&st7; " /><path d=" M  339.94,  337.48  C  339.16   337.48   338.53   338.11   338.53   338.90 " style="stroke-width: 0.85 ;&st7; " /><path d=" M  338.53,  338.90  C  338.53   339.68   339.16   340.31   339.94   340.31 " style="stroke-width: 0.85 ;&st7; " /><path d=" M  339.94,  340.31  C  340.73   340.31   341.36   339.68   341.36   338.90 " style="stroke-width: 0.85 ;&st7; " /><path d=" M  362.91,  347.75  C  364.28   349.15   366.52   349.17   367.92   347.80 " style="stroke-width: 0.85 ;&st7; " /><path d=" M  367.92,  347.80  C  369.31   346.43   369.34   344.19   367.97   342.79 " style="stroke-width: 0.85 ;&st7; " /><path d=" M  367.97,  342.79  C  367.28   342.08   366.43   341.73   365.44   341.73 " style="stroke-width: 0.85 ;&st7; " /><path d=" M  362.91,  352.71  C  364.28   354.10   366.52   354.13   367.92   352.76 " style="stroke-width: 0.85 ;&st7; " /><path d=" M  367.92,  352.76  C  369.31   351.39   369.34   349.15   367.97   347.75 " style="stroke-width: 0.85 ;&st7; " /><path d=" M  367.97,  347.75  C  366.60   346.35   364.36   346.33   362.96   347.70 " style="stroke-width: 0.85 ;&st7; " /><path d=" M  362.96,  347.70  C  362.94   347.71   362.93   347.73   362.91   347.75 " style="stroke-width: 0.85 ;&st7; " /><path d=" M  365.44,  358.73  C  367.39   358.73   368.98   357.14   368.98   355.18 " style="stroke-width: 0.85 ;&st7; " /><path d=" M  368.98,  355.18  C  368.98   353.23   367.39   351.64   365.44   351.64 " style="stroke-width: 0.85 ;&st7; " /><path d=" M  365.44,  351.64  C  364.45   351.64   363.60   352.00   362.91   352.71 " style="stroke-width: 0.85 ;&st7; " /><path d=" M  340.90,  384.22  C  340.90   383.69   340.47   383.27   339.94   383.27 " style="stroke-width: 0.85 ;&st7; " /><path d=" M  339.94,  383.27  C  339.42   383.27   338.99   383.69   338.99   384.22 " style="stroke-width: 0.85 ;&st7; " /><path d=" M  338.99,  384.22  C  338.99   384.75   339.42   385.18   339.94   385.18 " style="stroke-width: 0.85 ;&st7; " /><path d=" M  339.94,  385.18  C  340.47   385.18   340.90   384.75   340.90   384.22 " style="stroke-width: 0.85 ;&st7; " /><path d=" M  443.20,  316.23  C  443.20   315.53   442.63   314.96   441.93   314.96 " style="stroke-width: 0.85 ;&st7; " /><path d=" M  441.93,  314.96  C  441.22   314.96   440.65   315.53   440.65   316.23 " style="stroke-width: 0.85 ;&st7; " /><path d=" M  440.65,  316.23  C  440.65   316.94   441.22   317.51   441.93   317.51 " style="stroke-width: 0.85 ;&st7; " /><path d=" M  441.93,  317.51  C  442.63   317.51   443.20   316.94   443.20   316.23 " style="stroke-width: 0.85 ;&st7; " /><path d=" M  442.88,  316.23  C  442.88   315.71   442.45   315.28   441.93   315.28 " style="stroke-width: 0.85 ;&st7; " /><path d=" M  441.93,  315.28  C  441.40   315.28   440.97   315.71   440.97   316.23 " style="stroke-width: 0.85 ;&st7; " /><path d=" M  440.97,  316.23  C  440.97   316.76   441.40   317.19   441.93   317.19 " style="stroke-width: 0.85 ;&st7; " /><path d=" M  441.93,  317.19  C  442.45   317.19   442.88   316.76   442.88   316.23 " style="stroke-width: 0.85 ;&st7; " /><path d=" M  341.22,  384.22  C  341.22   383.52   340.65   382.95   339.94   382.95 " style="stroke-width: 0.85 ;&st7; " /><path d=" M  339.94,  382.95  C  339.24   382.95   338.67   383.52   338.67   384.22 " style="stroke-width: 0.85 ;&st7; " /><path d=" M  338.67,  384.22  C  338.67   384.93   339.24   385.50   339.94   385.50 " style="stroke-width: 0.85 ;&st7; " /><path d=" M  339.94,  385.50  C  340.65   385.50   341.22   384.93   341.22   384.22 " style="stroke-width: 0.85 ;&st7; " /><path d=" M  298.73,  384.22  C  298.73   383.52   298.15   382.95   297.45   382.95 " style="stroke-width: 0.85 ;&st7; " /><path d=" M  297.45,  382.95  C  296.75   382.95   296.18   383.52   296.18   384.22 " style="stroke-width: 0.85 ;&st7; " /><path d=" M  296.18,  384.22  C  296.18   384.93   296.75   385.50   297.45   385.50 " style="stroke-width: 0.85 ;&st7; " /><path d=" M  297.45,  385.50  C  298.15   385.50   298.73   384.93   298.73   384.22 " style="stroke-width: 0.85 ;&st7; " /><path d=" M  298.40,  384.22  C  298.40   383.69   297.98   383.27   297.45   383.27 " style="stroke-width: 0.85 ;&st7; " /><path d=" M  297.45,  383.27  C  296.92   383.27   296.50   383.69   296.50   384.22 " style="stroke-width: 0.85 ;&st7; " /><path d=" M  296.50,  384.22  C  296.50   384.75   296.92   385.18   297.45   385.18 " style="stroke-width: 0.85 ;&st7; " /><path d=" M  297.45,  385.18  C  297.98   385.18   298.40   384.75   298.40   384.22 " style="stroke-width: 0.85 ;&st7; " /><path d=" M  255.91,  316.23  C  255.91   315.71   255.48   315.28   254.96   315.28 " style="stroke-width: 0.85 ;&st7; " /><path d=" M  254.96,  315.28  C  254.43   315.28   254.00   315.71   254.00   316.23 " style="stroke-width: 0.85 ;&st7; " /><path d=" M  254.00,  316.23  C  254.00   316.76   254.43   317.19   254.96   317.19 " style="stroke-width: 0.85 ;&st7; " /><path d=" M  254.96,  317.19  C  255.48   317.19   255.91   316.76   255.91   316.23 " style="stroke-width: 0.85 ;&st7; " /><path d=" M  256.23,  316.23  C  256.23   315.53   255.66   314.96   254.96   314.96 " style="stroke-width: 0.85 ;&st7; " /><path d=" M  254.96,  314.96  C  254.25   314.96   253.68   315.53   253.68   316.23 " style="stroke-width: 0.85 ;&st7; " /><path d=" M  253.68,  316.23  C  253.68   316.94   254.25   317.51   254.96   317.51 " style="stroke-width: 0.85 ;&st7; " /><path d=" M  254.96,  317.51  C  255.66   317.51   256.23   316.94   256.23   316.23 " style="stroke-width: 0.85 ;&st7; " /><path d=" M   84.99,   66.94  C   88.70    64.17    89.52    58.96    86.83    55.19 " style="stroke-width: 1.42 ;&st7; " /><path d=" M   84.99,   66.94  C   87.16    63.92    87.16    60.05    84.99    57.03 " style="stroke-width: 1.42 ;&st7; " /><path d=" M   84.99,   66.94  C   85.84    64.02    85.18    61.13    83.14    58.87 " style="stroke-width: 1.42 ;&st7; " /><path d=" M   86.40,   45.69  C   86.40    44.91    85.77    44.28    84.99    44.28 " style="stroke-width: 0.85 ;&st7; " /><path d=" M   84.99,   44.28  C   84.20    44.28    83.57    44.91    83.57    45.69 " style="stroke-width: 0.85 ;&st7; " /><path d=" M   83.57,   45.69  C   83.57    46.48    84.20    47.11    84.99    47.11 " style="stroke-width: 0.85 ;&st7; " /><path d=" M   84.99,   47.11  C   85.77    47.11    86.40    46.48    86.40    45.69 " style="stroke-width: 0.85 ;&st7; " /><path d=" M   86.40,   68.36  C   86.40    67.57    85.77    66.94    84.99    66.94 " style="stroke-width: 0.85 ;&st7; " /><path d=" M   84.99,   66.94  C   84.20    66.94    83.57    67.57    83.57    68.36 " style="stroke-width: 0.85 ;&st7; " /><path d=" M   83.57,   68.36  C   83.57    69.14    84.20    69.77    84.99    69.77 " style="stroke-width: 0.85 ;&st7; " /><path d=" M   84.99,   69.77  C   85.77    69.77    86.40    69.14    86.40    68.36 " style="stroke-width: 0.85 ;&st7; " /><path d=" M   91.36,   99.52  C   91.36    97.17    89.46    95.27    87.11    95.27 " style="stroke-width: 1.42 ;&st7; " /><path d=" M   87.11,  103.77  C   89.46   103.77    91.36   101.87    91.36    99.52 " style="stroke-width: 1.42 ;&st7; " /><path d=" M   78.61,   99.52  C   78.61   101.87    80.51   103.77    82.86   103.77 " style="stroke-width: 1.42 ;&st7; " /><path d=" M   82.86,   95.27  C   80.51    95.27    78.61    97.17    78.61    99.52 " style="stroke-width: 1.42 ;&st7; " /><path d=" M  371.81,  294.99  C  371.81   292.64   369.91   290.74   367.56   290.74 " style="stroke-width: 1.42 ;&st7; " /><path d=" M  367.56,  299.24  C  369.91   299.24   371.81   297.33   371.81   294.99 " style="stroke-width: 1.42 ;&st7; " /><path d=" M  359.07,  294.99  C  359.07   297.33   360.97   299.24   363.31   299.24 " style="stroke-width: 1.42 ;&st7; " /><path d=" M  363.31,  290.74  C  360.97   290.74   359.07   292.64   359.07   294.99 " style="stroke-width: 1.42 ;&st7; " /><path d=" M  261.33,  294.99  C  261.33   292.64   259.43   290.74   257.08   290.74 " style="stroke-width: 1.42 ;&st7; " /><path d=" M  257.08,  299.24  C  259.43   299.24   261.33   297.33   261.33   294.99 " style="stroke-width: 1.42 ;&st7; " /><path d=" M  248.58,  294.99  C  248.58   297.33   250.49   299.24   252.83   299.24 " style="stroke-width: 1.42 ;&st7; " /><path d=" M  252.83,  290.74  C  250.49   290.74   248.58   292.64   248.58   294.99 " style="stroke-width: 1.42 ;&st7; " /><path d=" M  473.80,  413.97  C  473.80   411.62   471.89   409.72   469.55   409.72 " style="stroke-width: 1.42 ;&st7; " /><path d=" M  469.55,  418.22  C  471.89   418.22   473.80   416.31   473.80   413.97 " style="stroke-width: 1.42 ;&st7; " /><path d=" M  461.05,  413.97  C  461.05   416.31   462.95   418.22   465.30   418.22 " style="stroke-width: 1.42 ;&st7; " /><path d=" M  465.30,  409.72  C  462.95   409.72   461.05   411.62   461.05   413.97 " style="stroke-width: 1.42 ;&st7; " /><path d=" M  431.30,  413.97  C  431.30   411.62   429.40   409.72   427.05   409.72 " style="stroke-width: 1.42 ;&st7; " /><path d=" M  427.05,  418.22  C  429.40   418.22   431.30   416.31   431.30   413.97 " style="stroke-width: 1.42 ;&st7; " /><path d=" M  418.56,  413.97  C  418.56   416.31   420.46   418.22   422.80   418.22 " style="stroke-width: 1.42 ;&st7; " /><path d=" M  422.80,  409.72  C  420.46   409.72   418.56   411.62   418.56   413.97 " style="stroke-width: 1.42 ;&st7; " /><path d=" M  371.81,  413.97  C  371.81   411.62   369.91   409.72   367.56   409.72 " style="stroke-width: 1.42 ;&st7; " /><path d=" M  367.56,  418.22  C  369.91   418.22   371.81   416.31   371.81   413.97 " style="stroke-width: 1.42 ;&st7; " /><path d=" M  359.07,  413.97  C  359.07   416.31   360.97   418.22   363.31   418.22 " style="stroke-width: 1.42 ;&st7; " /><path d=" M  363.31,  409.72  C  360.97   409.72   359.07   411.62   359.07   413.97 " style="stroke-width: 1.42 ;&st7; " /><path d=" M  303.82,  413.97  C  303.82   411.62   301.92   409.72   299.57   409.72 " style="stroke-width: 1.42 ;&st7; " /><path d=" M  299.57,  418.22  C  301.92   418.22   303.82   416.31   303.82   413.97 " style="stroke-width: 1.42 ;&st7; " /><path d=" M  291.08,  413.97  C  291.08   416.31   292.98   418.22   295.33   418.22 " style="stroke-width: 1.42 ;&st7; " /><path d=" M  295.33,  409.72  C  292.98   409.72   291.08   411.62   291.08   413.97 " style="stroke-width: 1.42 ;&st7; " /><path d=" M   82.86,  384.22  C   80.51   384.22    78.61   386.12    78.61   388.47 " style="stroke-width: 1.42 ;&st7; " /><path d=" M   78.61,  388.47  C   78.61   390.82    80.51   392.72    82.86   392.72 " style="stroke-width: 1.42 ;&st7; " /><path d=" M   87.11,  392.72  C   89.46   392.72    91.36   390.82    91.36   388.47 " style="stroke-width: 1.42 ;&st7; " /><path d=" M   91.36,  388.47  C   91.36   386.12    89.46   384.22    87.11   384.22 " style="stroke-width: 1.42 ;&st7; " /><path d=" M  116.86,  388.47  C  116.86   386.12   114.95   384.22   112.61   384.22 " style="stroke-width: 1.42 ;&st7; " /><path d=" M  112.61,  392.72  C  114.95   392.72   116.86   390.82   116.86   388.47 " style="stroke-width: 1.42 ;&st7; " /><path d=" M  104.11,  388.47  C  104.11   390.82   106.01   392.72   108.36   392.72 " style="stroke-width: 1.42 ;&st7; " /><path d=" M  108.36,  384.22  C  106.01   384.22   104.11   386.12   104.11   388.47 " style="stroke-width: 1.42 ;&st7; " /><path d=" M   91.36,  277.99  C   91.36   275.64    89.46   273.74    87.11   273.74 " style="stroke-width: 1.42 ;&st7; " /><path d=" M   87.11,  282.24  C   89.46   282.24    91.36   280.34    91.36   277.99 " style="stroke-width: 1.42 ;&st7; " /><path d=" M   78.61,  277.99  C   78.61   280.34    80.51   282.24    82.86   282.24 " style="stroke-width: 1.42 ;&st7; " /><path d=" M   82.86,  273.74  C   80.51   273.74    78.61   275.64    78.61   277.99 " style="stroke-width: 1.42 ;&st7; " /><path d=" M  116.86,  277.99  C  116.86   275.64   114.95   273.74   112.61   273.74 " style="stroke-width: 1.42 ;&st7; " /><path d=" M  112.61,  282.24  C  114.95   282.24   116.86   280.34   116.86   277.99 " style="stroke-width: 1.42 ;&st7; " /><path d=" M  104.11,  277.99  C  104.11   280.34   106.01   282.24   108.36   282.24 " style="stroke-width: 1.42 ;&st7; " /><path d=" M  108.36,  273.74  C  106.01   273.74   104.11   275.64   104.11   277.99 " style="stroke-width: 1.42 ;&st7; " /><path d=" M  136.93,  571.19  C  136.93   570.66   136.50   570.24   135.98   570.24 " style="stroke-width: 0.85 ;&st7; " /><path d=" M  135.98,  570.24  C  135.45   570.24   135.02   570.66   135.02   571.19 " style="stroke-width: 0.85 ;&st7; " /><path d=" M  135.02,  571.19  C  135.02   571.72   135.45   572.14   135.98   572.14 " style="stroke-width: 0.85 ;&st7; " /><path d=" M  135.98,  572.14  C  136.50   572.14   136.93   571.72   136.93   571.19 " style="stroke-width: 0.85 ;&st7; " /><path d=" M  137.25,  571.19  C  137.25   570.49   136.68   569.92   135.98   569.92 " style="stroke-width: 0.85 ;&st7; " /><path d=" M  135.98,  569.92  C  135.27   569.92   134.70   570.49   134.70   571.19 " style="stroke-width: 0.85 ;&st7; " /><path d=" M  134.70,  571.19  C  134.70   571.89   135.27   572.46   135.98   572.46 " style="stroke-width: 0.85 ;&st7; " /><path d=" M  135.98,  572.46  C  136.68   572.46   137.25   571.89   137.25   571.19 " style="stroke-width: 0.85 ;&st7; " /><path d=" M   68.94,  562.69  C   68.94   562.16    68.52   561.74    67.99   561.74 " style="stroke-width: 0.85 ;&st7; " /><path d=" M   67.99,  561.74  C   67.46   561.74    67.03   562.16    67.03   562.69 " style="stroke-width: 0.85 ;&st7; " /><path d=" M   67.03,  562.69  C   67.03   563.22    67.46   563.65    67.99   563.65 " style="stroke-width: 0.85 ;&st7; " /><path d=" M   67.99,  563.65  C   68.52   563.65    68.94   563.22    68.94   562.69 " style="stroke-width: 0.85 ;&st7; " /><path d=" M   69.26,  562.69  C   69.26   561.99    68.69   561.42    67.99   561.42 " style="stroke-width: 0.85 ;&st7; " /><path d=" M   67.99,  561.42  C   67.28   561.42    66.71   561.99    66.71   562.69 " style="stroke-width: 0.85 ;&st7; " /><path d=" M   66.71,  562.69  C   66.71   563.40    67.28   563.97    67.99   563.97 " style="stroke-width: 0.85 ;&st7; " /><path d=" M   67.99,  563.97  C   68.69   563.97    69.26   563.40    69.26   562.69 " style="stroke-width: 0.85 ;&st7; " /><path d=" M   51.95,  562.69  C   51.95   562.16    51.52   561.74    50.99   561.74 " style="stroke-width: 0.85 ;&st7; " /><path d=" M   50.99,  561.74  C   50.46   561.74    50.04   562.16    50.04   562.69 " style="stroke-width: 0.85 ;&st7; " /><path d=" M   50.04,  562.69  C   50.04   563.22    50.46   563.65    50.99   563.65 " style="stroke-width: 0.85 ;&st7; " /><path d=" M   50.99,  563.65  C   51.52   563.65    51.95   563.22    51.95   562.69 " style="stroke-width: 0.85 ;&st7; " /><path d=" M   52.27,  562.69  C   52.27   561.99    51.70   561.42    50.99   561.42 " style="stroke-width: 0.85 ;&st7; " /><path d=" M   50.99,  561.42  C   50.29   561.42    49.72   561.99    49.72   562.69 " style="stroke-width: 0.85 ;&st7; " /><path d=" M   49.72,  562.69  C   49.72   563.40    50.29   563.97    50.99   563.97 " style="stroke-width: 0.85 ;&st7; " /><path d=" M   50.99,  563.97  C   51.70   563.97    52.27   563.40    52.27   562.69 " style="stroke-width: 0.85 ;&st7; " /><path d=" M   34.95,  562.69  C   34.95   562.16    34.52   561.74    33.99   561.74 " style="stroke-width: 0.85 ;&st7; " /><path d=" M   33.99,  561.74  C   33.47   561.74    33.04   562.16    33.04   562.69 " style="stroke-width: 0.85 ;&st7; " /><path d=" M   33.04,  562.69  C   33.04   563.22    33.47   563.65    33.99   563.65 " style="stroke-width: 0.85 ;&st7; " /><path d=" M   33.99,  563.65  C   34.52   563.65    34.95   563.22    34.95   562.69 " style="stroke-width: 0.85 ;&st7; " /><path d=" M   35.27,  562.69  C   35.27   561.99    34.70   561.42    33.99   561.42 " style="stroke-width: 0.85 ;&st7; " /><path d=" M   33.99,  561.42  C   33.29   561.42    32.72   561.99    32.72   562.69 " style="stroke-width: 0.85 ;&st7; " /><path d=" M   32.72,  562.69  C   32.72   563.40    33.29   563.97    33.99   563.97 " style="stroke-width: 0.85 ;&st7; " /><path d=" M   33.99,  563.97  C   34.70   563.97    35.27   563.40    35.27   562.69 " style="stroke-width: 0.85 ;&st7; " /><path d=" M   51.95,  528.70  C   51.95   528.17    51.52   527.74    50.99   527.74 " style="stroke-width: 0.85 ;&st7; " /><path d=" M   50.99,  527.74  C   50.46   527.74    50.04   528.17    50.04   528.70 " style="stroke-width: 0.85 ;&st7; " /><path d=" M   50.04,  528.70  C   50.04   529.22    50.46   529.65    50.99   529.65 " style="stroke-width: 0.85 ;&st7; " /><path d=" M   50.99,  529.65  C   51.52   529.65    51.95   529.22    51.95   528.70 " style="stroke-width: 0.85 ;&st7; " /><path d=" M   52.27,  528.70  C   52.27   527.99    51.70   527.42    50.99   527.42 " style="stroke-width: 0.85 ;&st7; " /><path d=" M   50.99,  527.42  C   50.29   527.42    49.72   527.99    49.72   528.70 " style="stroke-width: 0.85 ;&st7; " /><path d=" M   49.72,  528.70  C   49.72   529.40    50.29   529.97    50.99   529.97 " style="stroke-width: 0.85 ;&st7; " /><path d=" M   50.99,  529.97  C   51.70   529.97    52.27   529.40    52.27   528.70 " style="stroke-width: 0.85 ;&st7; " /><path d=" M   68.94,  528.70  C   68.94   528.17    68.52   527.74    67.99   527.74 " style="stroke-width: 0.85 ;&st7; " /><path d=" M   67.99,  527.74  C   67.46   527.74    67.03   528.17    67.03   528.70 " style="stroke-width: 0.85 ;&st7; " /><path d=" M   67.03,  528.70  C   67.03   529.22    67.46   529.65    67.99   529.65 " style="stroke-width: 0.85 ;&st7; " /><path d=" M   67.99,  529.65  C   68.52   529.65    68.94   529.22    68.94   528.70 " style="stroke-width: 0.85 ;&st7; " /><path d=" M   69.26,  528.70  C   69.26   527.99    68.69   527.42    67.99   527.42 " style="stroke-width: 0.85 ;&st7; " /><path d=" M   67.99,  527.42  C   67.28   527.42    66.71   527.99    66.71   528.70 " style="stroke-width: 0.85 ;&st7; " /><path d=" M   66.71,  528.70  C   66.71   529.40    67.28   529.97    67.99   529.97 " style="stroke-width: 0.85 ;&st7; " /><path d=" M   67.99,  529.97  C   68.69   529.97    69.26   529.40    69.26   528.70 " style="stroke-width: 0.85 ;&st7; " /><path d=" M   85.94,  528.70  C   85.94   528.17    85.51   527.74    84.99   527.74 " style="stroke-width: 0.85 ;&st7; " /><path d=" M   84.99,  527.74  C   84.46   527.74    84.03   528.17    84.03   528.70 " style="stroke-width: 0.85 ;&st7; " /><path d=" M   84.03,  528.70  C   84.03   529.22    84.46   529.65    84.99   529.65 " style="stroke-width: 0.85 ;&st7; " /><path d=" M   84.99,  529.65  C   85.51   529.65    85.94   529.22    85.94   528.70 " style="stroke-width: 0.85 ;&st7; " /><path d=" M   86.26,  528.70  C   86.26   527.99    85.69   527.42    84.99   527.42 " style="stroke-width: 0.85 ;&st7; " /><path d=" M   84.99,  527.42  C   84.28   527.42    83.71   527.99    83.71   528.70 " style="stroke-width: 0.85 ;&st7; " /><path d=" M   83.71,  528.70  C   83.71   529.40    84.28   529.97    84.99   529.97 " style="stroke-width: 0.85 ;&st7; " /><path d=" M   84.99,  529.97  C   85.69   529.97    86.26   529.40    86.26   528.70 " style="stroke-width: 0.85 ;&st7; " /><path d=" M  259.49,  252.78  C  259.49   250.27   257.46   248.24   254.96   248.24 " style="stroke-width: 1.42 ;&st7; " /><path d=" M  254.96,  248.24  C  252.45   248.24   250.42   250.27   250.42   252.78 " style="stroke-width: 1.42 ;&st7; " /><path d=" M  250.42,  252.78  C  250.42   255.28   252.45   257.31   254.96   257.31 " style="stroke-width: 1.42 ;&st7; " /><path d=" M  254.96,  257.31  C  257.46   257.31   259.49   255.28   259.49   252.78 " style="stroke-width: 1.42 ;&st7; " /><path d=" M  303.82,  294.99  C  303.82   292.64   301.92   290.74   299.57   290.74 " style="stroke-width: 1.42 ;&st7; " /><path d=" M  259.49,  218.22  C  259.49   215.71   257.46   213.68   254.96   213.68 " style="stroke-width: 1.42 ;&st7; " /><path d=" M  254.96,  213.68  C  252.45   213.68   250.42   215.71   250.42   218.22 " style="stroke-width: 1.42 ;&st7; " /><path d=" M  250.42,  218.22  C  250.42   220.72   252.45   222.75   254.96   222.75 " style="stroke-width: 1.42 ;&st7; " /><path d=" M  254.96,  222.75  C  257.46   222.75   259.49   220.72   259.49   218.22 " style="stroke-width: 1.42 ;&st7; " /><path d=" M  110.48,  341.73  C  112.44   341.73   114.02   340.14   114.02   338.19 " style="stroke-width: 0.85 ;&st7; " /><path d=" M  114.02,  338.19  C  114.02   336.23   112.44   334.65   110.48   334.65 " style="stroke-width: 0.85 ;&st7; " /><path d=" M  110.48,  334.65  C  109.49   334.65   108.65   335.00   107.95   335.71 " style="stroke-width: 0.85 ;&st7; " /><path d=" M  107.95,  335.71  C  109.32   337.11   111.56   337.13   112.96   335.76 " style="stroke-width: 0.85 ;&st7; " /><path d=" M  112.96,  335.76  C  114.36   334.39   114.38   332.15   113.01   330.75 " style="stroke-width: 0.85 ;&st7; " /><path d=" M  113.01,  330.75  C  111.64   329.35   109.40   329.33   108.00   330.70 " style="stroke-width: 0.85 ;&st7; " /><path d=" M  108.00,  330.70  C  107.98   330.72   107.97   330.73   107.95   330.75 " style="stroke-width: 0.85 ;&st7; " /><path d=" M  107.95,  330.75  C  109.32   332.15   111.56   332.17   112.96   330.80 " style="stroke-width: 0.85 ;&st7; " /><path d=" M  112.96,  330.80  C  114.36   329.43   114.38   327.19   113.01   325.79 " style="stroke-width: 0.85 ;&st7; " /><path d=" M  113.01,  325.79  C  112.32   325.09   111.47   324.73   110.48   324.73 " style="stroke-width: 0.85 ;&st7; " /><path d=" M   86.40,  321.90  C   86.40   321.12    85.77   320.48    84.99   320.48 " style="stroke-width: 0.85 ;&st7; " /><path d=" M   84.99,  320.48  C   84.20   320.48    83.57   321.12    83.57   321.90 " style="stroke-width: 0.85 ;&st7; " /><path d=" M   83.57,  321.90  C   83.57   322.68    84.20   323.31    84.99   323.31 " style="stroke-width: 0.85 ;&st7; " /><path d=" M   84.99,  323.31  C   85.77   323.31    86.40   322.68    86.40   321.90 " style="stroke-width: 0.85 ;&st7; " /><path d=" M   86.40,  344.56  C   86.40   343.78    85.77   343.14    84.99   343.14 " style="stroke-width: 0.85 ;&st7; " /><path d=" M   84.99,  343.14  C   84.20   343.14    83.57   343.78    83.57   344.56 " style="stroke-width: 0.85 ;&st7; " /><path d=" M   83.57,  344.56  C   83.57   345.34    84.20   345.98    84.99   345.98 " style="stroke-width: 0.85 ;&st7; " /><path d=" M   84.99,  345.98  C   85.77   345.98    86.40   345.34    86.40   344.56 " style="stroke-width: 0.85 ;&st7; " /><path d=" M  443.34,  361.56  C  443.34   360.78   442.71   360.14   441.93   360.14 " style="stroke-width: 0.85 ;&st7; " /><path d=" M  441.93,  360.14  C  441.14   360.14   440.51   360.78   440.51   361.56 " style="stroke-width: 0.85 ;&st7; " /><path d=" M  440.51,  361.56  C  440.51   362.34   441.14   362.97   441.93   362.97 " style="stroke-width: 0.85 ;&st7; " /><path d=" M  441.93,  362.97  C  442.71   362.97   443.34   362.34   443.34   361.56 " style="stroke-width: 0.85 ;&st7; " /><path d=" M  443.34,  338.90  C  443.34   338.11   442.71   337.48   441.93   337.48 " style="stroke-width: 0.85 ;&st7; " /><path d=" M  441.93,  337.48  C  441.14   337.48   440.51   338.11   440.51   338.90 " style="stroke-width: 0.85 ;&st7; " /><path d=" M  440.51,  338.90  C  440.51   339.68   441.14   340.31   441.93   340.31 " style="stroke-width: 0.85 ;&st7; " /><path d=" M  441.93,  340.31  C  442.71   340.31   443.34   339.68   443.34   338.90 " style="stroke-width: 0.85 ;&st7; " /><path d=" M  464.89,  347.75  C  466.26   349.15   468.50   349.17   469.90   347.80 " style="stroke-width: 0.85 ;&st7; " /><path d=" M  469.90,  347.80  C  471.30   346.43   471.32   344.19   469.95   342.79 " style="stroke-width: 0.85 ;&st7; " /><path d=" M  469.95,  342.79  C  469.26   342.08   468.41   341.73   467.42   341.73 " style="stroke-width: 0.85 ;&st7; " /><path d=" M  464.89,  352.71  C  466.26   354.10   468.50   354.13   469.90   352.76 " style="stroke-width: 0.85 ;&st7; " /><path d=" M  469.90,  352.76  C  471.30   351.39   471.32   349.15   469.95   347.75 " style="stroke-width: 0.85 ;&st7; " /><path d=" M  469.95,  347.75  C  468.58   346.35   466.34   346.33   464.94   347.70 " style="stroke-width: 0.85 ;&st7; " /><path d=" M  464.94,  347.70  C  464.93   347.71   464.91   347.73   464.89   347.75 " style="stroke-width: 0.85 ;&st7; " /><path d=" M  467.42,  358.73  C  469.38   358.73   470.96   357.14   470.96   355.18 " style="stroke-width: 0.85 ;&st7; " /><path d=" M  470.96,  355.18  C  470.96   353.23   469.38   351.64   467.42   351.64 " style="stroke-width: 0.85 ;&st7; " /><path d=" M  467.42,  351.64  C  466.43   351.64   465.59   352.00   464.89   352.71 " style="stroke-width: 0.85 ;&st7; " /><path d=" M   84.99,   47.11  C   84.13    50.03    84.79    52.92    86.83    55.18 " style="stroke-width: 1.42 ;&st7; " /><text style="&st18;" transform="matrix(&st16;  252.63  220.18 )">B</text><text style="&st18;" transform="matrix(&st16;  73.07  101.49 )">1</text><text style="&st18;" transform="matrix(&st16;  80.64  101.49 )">1G</text><text style="&st18;" transform="matrix(&st16;  45.99  56.17 )">80A <tspan dy="6" x="0">GLOW</tspan></text><text style="&st18;" transform="matrix(&st16;  243.04  296.96 )">1</text><text style="&st18;" transform="matrix(&st16;  251.6  296.96 )">1J</text><text style="&st18;" transform="matrix(&st16;  147.31  567.5 )">7</text><text style="&st18;" transform="matrix(&st16;  490.59  550.5 )">B</text><text style="&st18;" transform="matrix(&st16;  196.27  567.49 )">W-B</text><text style="&st18;" transform="matrix(&st16;  78.97  516.51 )">1</text><text style="&st18;" transform="matrix(&st17;  106.79  259.21 )">R</text><text style="&st18;" transform="matrix(&st17;  81.29  259.07 )">B</text><text style="&st18;" transform="matrix(&st17;  106.79  425.92 )">W-B</text><text style="&st18;" transform="matrix(&st17;  81.29  425.03 )">B-R</text><text ewd:textID="30" style="&st18;" transform="matrix(&st16;  51.66  332.37 )">GLOW <tspan dy="6" x="0">Relay</tspan></text><text style="&st18;" transform="matrix(&st16;  252.63  254.75 )">A</text><text style="&st18;" transform="matrix(&st16;  78.2  312.54 )">5</text><text style="&st18;" transform="matrix(&st16;  78.2  358.42 )">3</text><text style="&st18;" transform="matrix(&st16;  103.69  312.54 )">2</text><text style="&st18;" transform="matrix(&st16;  104.47  358.42 )">1</text><text style="&st18;" transform="matrix(&st17;  421.23  437.54 )">B</text><text style="&st18;" transform="matrix(&st16;  490.59  185.06 )">B</text><text style="&st18;" transform="matrix(&st16;  484.79  202.05 )">W-G</text><text style="&st18;" transform="matrix(&st16;  485.22  508.0 )">B-W</text><text style="&st18;" transform="matrix(&st16;  352.75  296.96 )">2</text><text style="&st18;" transform="matrix(&st17;  463.73  438.66 )">B-W</text><text style="&st18;" transform="matrix(&st16;  490.45  142.56 )">R</text><text style="&st18;" transform="matrix(&st17;  132.28  638.38 )">W-B</text><text style="&st18;" transform="matrix(&st17;  81.29  493.02 )">B-R</text><text style="&st18;" transform="matrix(&st16;  362.08  296.96 )">1J</text><text style="&st18;" transform="matrix(&st17;  293.75  437.54 )">B</text><text style="&st18;" transform="matrix(&st17;  361.74  442.91 )">W-B</text><text style="&st18;" transform="matrix(&st17;  361.74  264.87 )">W-G</text><text style="&st18;" transform="matrix(&st17;  251.26  275.72 )">L</text><text style="&st18;" transform="matrix(&st17;  271.07  259.27 )">J 5(A),J 6(B)</text><text style="&st18;" transform="matrix(&st17;  293.75  259.07 )">B</text><text style="&st18;" transform="matrix(&st16;  188.68  222.44 )">2</text><text ewd:textID="22" style="&st18;" transform="matrix(&st16;  412.48  349.37 )">EDU <tspan dy="6" x="0">Relay</tspan></text><text style="&st18;" transform="matrix(&st17;  251.26  199.23 )">L</text><text style="&st18;" transform="matrix(&st16;  490.94  168.06 )">L</text><text style="&st18;" transform="matrix(&st16;  212.77  192.15 )">25A <tspan dy="6" x="0">EFI</tspan></text><text style="&st18;" transform="matrix(&st16;  490.59  91.57 )">B</text><text style="&st18;" transform="matrix(&st16;  129.97  587.88 )">1</text><text style="&st18;" transform="matrix(&st16;  129.19  559.0 )">4</text><text ewd:textID="36" style="&st18;" transform="matrix(&st16;  310.5  349.37 )">MAIN <tspan dy="6" x="0">Relay</tspan></text><text style="&st18;" transform="matrix(&st16;  269.62  491.01 )">B</text><text ewd:textID="32" style="&st18;" transform="matrix(&st16;  31.47  516.5 )">Glow Plug</text><text ewd:textID="35" style="&st18;" transform="matrix(&st16;  141.95  594.41 )">Junction <tspan dy="6" x="0">Connector</tspan></text><text ewd:textID="35" style="&st18;" transform="matrix(&st17;  278.17  259.27 )">Junction <tspan dy="6" x="0">Connector</tspan></text><text style="&st18;" transform="matrix(&st16;  186.35  168.06 )">(BAT)</text><text style="&st18;" transform="matrix(&st16;  454.73  415.94 )">7</text><text style="&st18;" transform="matrix(&st16;  464.07  415.94 )">1J</text><text style="&st18;" transform="matrix(&st16;  412.24  415.94 )">8</text><text style="&st18;" transform="matrix(&st16;  421.57  415.94 )">1J</text><text style="&st18;" transform="matrix(&st16;  352.75  415.94 )">3</text><text style="&st18;" transform="matrix(&st16;  362.08  415.94 )">1J</text><text style="&st18;" transform="matrix(&st16;  284.76  415.94 )">5</text><text style="&st18;" transform="matrix(&st16;  294.09  415.94 )">1J</text><text style="&st18;" transform="matrix(&st16;  83.4  390.44 )">1</text><text style="&st18;" transform="matrix(&st16;  108.89  390.44 )">1</text><text style="&st18;" transform="matrix(&st16;  83.4  279.96 )">1</text><text style="&st18;" transform="matrix(&st16;  108.89  279.96 )">1</text><text style="&st18;" transform="matrix(&st16;  141.95  587.3 )">J 1</text><text style="&st18;" transform="matrix(&st16;  31.47  509.4 )">G 1</text><text style="&st18;" transform="matrix(&st16;  244.11  220.18 )">2</text><text style="&st18;" transform="matrix(&st16;  70.95  458.43 )">1</text><text style="&st18;" transform="matrix(&st16;  284.76  296.96 )">4</text><text style="&st18;" transform="matrix(&st16;  294.09  296.96 )">1J</text><text style="&st18;" transform="matrix(&st16;  244.11  254.75 )">6</text><text style="&st18;" transform="matrix(&st16;  307.36  475.43 )">(*10)</text><text style="&st18;" transform="matrix(&st16;  307.36  466.93 )">(*9)</text><text style="&st18;" transform="matrix(&st16;  282.64  475.43 )">8</text><text style="&st18;" transform="matrix(&st16;  279.46  466.93 )">12</text><text style="&st18;" transform="matrix(&st16;  75.87  32.08 )">(BAT)</text><text style="&st18;" transform="matrix(&st16;  477.33  466.93 )">(*8)</text><text style="&st18;" transform="matrix(&st16;  477.33  458.43 )">(*7)</text><text style="&st18;" transform="matrix(&st16;  449.43  458.43 )">12</text><text style="&st18;" transform="matrix(&st16;  452.61  466.93 )">2</text></svg>