﻿<?xml version="1.0" encoding="utf-8"?>
<!DOCTYPE svg PUBLIC "-//W3C//DTD SVG 1.0//EN" "http://www.w3.org/TR/2001/REC-SVG-20010904/DTD/svg10.dtd"[
	<!ENTITY ns_flows "http://ns.adobe.com/Flows/1.0/">
	<!ENTITY ns_svg "http://www.w3.org/2000/svg">
	<!ENTITY ns_xlink "http://www.w3.org/1999/xlink">
	<!ENTITY st0 "font-size:7px;font-family:'MS-PGothic';adobe-font-script:japanese;">
	<!ENTITY st1 "font-size:6px;font-family:'ArialMT';">
	<!-- White fill  -->
	<!ENTITY st2 "fill:#FFFFFF;stroke:#000000; stroke-width:1.41;stroke-linecap:round;stroke-linejoin:round;">
	<!-- Yellow fill  -->
	<!ENTITY st3 "fill:#FFFFCC;stroke:#FFFFCC; stroke-width:0.1;stroke-linecap:round;stroke-linejoin:round;">
	<!-- Gray fill  -->
	<!ENTITY st4 "fill:#CCCCCC;stroke:#CCCCCC; stroke-width:0.1;stroke-linecap:round;stroke-linejoin:round;">
	<!-- Light-blue fill -->
	<!ENTITY st5 "fill:#CCECF4;stroke:#000000; stroke-width:1.133;stroke-linecap:round;stroke-linejoin:round;">
	<!ENTITY st6 "fill:none;stroke-linecap:butt; stroke-linejoin:round;">
	<!ENTITY st7 "fill:none;stroke:#000000;stroke-linecap:round;stroke-linejoin:round;">
	<!ENTITY st8 "enable-background:new    ;">
	<!-- Black fill -->
	<!ENTITY st9 "fill:#000000;stroke:#000000; stroke-linecap:round;stroke-linejoin:round;">
	<!-- SRS note   -->
	<!ENTITY st10 "font-size:9px;font-family:'ArialMT';">
	<!ENTITY st11 "font-size:9px;font-family:'Svg Symbol';">
	<!ENTITY st12 "font-size:6px;font-family:'Svg Symbol';">
	<!ENTITY st13 "fill:none;stroke:#ff0000;stroke-linecap:round;stroke-linejoin:round;">
	<!-- Yellow fill  -->
	<!ENTITY st14 "fill:#FFFF00;stroke:#FFFF00; stroke-width:0.1;stroke-linecap:round;stroke-linejoin:round;">
	<!ENTITY st15 "font-size:6px;font-family:'MS-PGothic';adobe-font-script:japanese;">
	<!ENTITY st16 "1.00 0.00 0.00 1.00">
	<!ENTITY st17 "0.00 -1.00 1.00 0.00">
	<!ENTITY st18 "font-size:6px;font-family:'Arial';">
	<!ENTITY st19 "font-size:9px;font-family:'Arial';">
	<!ENTITY st20 "font-size:6px;font-family:'MS-PGothic','MS PGothic';adobe-font-script:japanese;">
	<!ENTITY st21 "font-size:7px;font-family:'MS-PGothic','MS PGothic';adobe-font-script:japanese;">
	<!ATTLIST svg
		xmlns:ewd CDATA #FIXED "http://shcl.co.jp/ewd"
		xmlns:a CDATA #FIXED "http://ns.adobe.com/AdobeSVGViewerExtensions/3.0/"
		ewd:ver CDATA #IMPLIED
	>
	<!ATTLIST a
		ewd:lineID CDATA #IMPLIED
		ewd:groupID CDATA #IMPLIED
		ewd:figtype CDATA #IMPLIED
		ewd:code CDATA #IMPLIED
		ewd:figID CDATA #IMPLIED
		ewd:pinNo CDATA #IMPLIED
		ewd:comment CDATA #IMPLIED >
	<!ATTLIST g
		ewd:lineID CDATA #IMPLIED
		ewd:groupID CDATA #IMPLIED
		ewd:figtype CDATA #IMPLIED
		ewd:code CDATA #IMPLIED
		ewd:figID CDATA #IMPLIED
		ewd:pinNo CDATA #IMPLIED
		ewd:comment CDATA #IMPLIED >
	<!ATTLIST text
		ewd:textID CDATA #IMPLIED >
	<!ATTLIST title
		ewd:textID CDATA #IMPLIED >
]>
<!-- Generator: Shintec Hozumi YS   -->
<svg onload="call_execInitLoadProc_svg('system')" style="overflow:visible;  enable-background:new 0 0 7768.227 710.000" viewBox="0 0 7768.227 710.000" height="710.000" width="7768.227" xml:space="preserve" ewd:ver="L2.1.2.7" xmlns="&ns_svg;" xmlns:a="http://ns.adobe.com/AdobeSVGViewerExtensions/3.0/" xmlns:ewd="http://shcl.co.jp/ewd" xmlns:xlink="&ns_xlink;">
<path d=" M 7002.83,  435.21  L 7011.33,  435.21 " style="stroke-width: 1.42 ;&st7; " /><path d=" M 7389.50,  332.07  L 7382.14,  336.31 " style="stroke-width: 0.85 ;&st7; " /><path d=" M 7384.14,  339.78  L 7391.50,  335.53 " style="stroke-width: 0.85 ;&st7; " /><path d=" M 7381.02,  341.73  L 7372.52,  341.73 " style="stroke-width: 0.85 ;&st7; " /><path d=" M 7378.89,  112.27  L 7374.64,  112.27 " style="stroke-width: 1.42 ;&st7; " /><path d=" M 7378.89,  103.77  L 7374.64,  103.77 " style="stroke-width: 1.42 ;&st7; " /><path d=" M 7376.77,   69.77  L 7376.77,  103.77 " style="stroke-width: 0.85 ;&st7; " /><path d=" M 7463.88,  511.70  L 7459.63,  511.70 " style="stroke-width: 1.42 ;&st7; " /><path d=" M 7463.88,  503.20  L 7459.63,  503.20 " style="stroke-width: 1.42 ;&st7; " /><path d=" M 7463.88,  469.21  L 7459.63,  469.21 " style="stroke-width: 1.42 ;&st7; " /><path d=" M 7463.88,  460.71  L 7459.63,  460.71 " style="stroke-width: 1.42 ;&st7; " /><path d=" M 7480.88,  146.26  L 7476.63,  146.26 " style="stroke-width: 1.42 ;&st7; " /><path d=" M 7480.88,  154.76  L 7476.63,  154.76 " style="stroke-width: 1.42 ;&st7; " /><path d=" M 7480.88,  180.26  L 7476.63,  180.26 " style="stroke-width: 1.42 ;&st7; " /><path d=" M 7480.88,  188.75  L 7476.63,  188.75 " style="stroke-width: 1.42 ;&st7; " /><path d=" M 7478.75,   69.77  L 7478.75,  103.77 " style="stroke-width: 0.85 ;&st7; " /><path d=" M 7480.88,  103.77  L 7476.63,  103.77 " style="stroke-width: 1.42 ;&st7; " /><path d=" M 7480.88,  112.27  L 7476.63,  112.27 " style="stroke-width: 1.42 ;&st7; " /><path d=" M 7355.50,  332.07  L 7348.14,  336.31 " style="stroke-width: 0.85 ;&st7; " /><path d=" M 7350.15,  339.78  L 7357.51,  335.53 " style="stroke-width: 0.85 ;&st7; " /><path d=" M 7347.02,  341.73  L 7338.52,  341.73 " style="stroke-width: 0.85 ;&st7; " /><path d=" M 7381.02,  282.24  L 7372.52,  282.24 " style="stroke-width: 0.85 ;&st7; " /><path d=" M 7013.45,  222.75  L 7009.20,  222.75 " style="stroke-width: 1.42 ;&st7; " /><path d=" M 7013.45,  231.25  L 7009.20,  231.25 " style="stroke-width: 1.42 ;&st7; " /><path d=" M 7013.45,  265.24  L 7009.20,  265.24 " style="stroke-width: 1.42 ;&st7; " /><path d=" M 7013.45,  273.74  L 7009.20,  273.74 " style="stroke-width: 1.42 ;&st7; " /><path d=" M 7047.45,  222.75  L 7043.20,  222.75 " style="stroke-width: 1.42 ;&st7; " /><path d=" M 7047.45,  231.25  L 7043.20,  231.25 " style="stroke-width: 1.42 ;&st7; " /><path d=" M 7047.45,  265.24  L 7043.20,  265.24 " style="stroke-width: 1.42 ;&st7; " /><path d=" M 7047.45,  273.74  L 7043.20,  273.74 " style="stroke-width: 1.42 ;&st7; " /><path d=" M 7208.92,  265.24  L 7204.67,  265.24 " style="stroke-width: 1.42 ;&st7; " /><path d=" M 7208.92,  273.74  L 7204.67,  273.74 " style="stroke-width: 1.42 ;&st7; " /><path d=" M 7453.25,  243.99  L 7453.25,  252.49 " style="stroke-width: 0.85 ;&st7; " /><path d=" M 7007.08,  426.15  L 7011.33,  430.40  L 7015.57,  426.15 " style="stroke-width: 1.42 ;&st7; " /><path d=" M 7015.57,  429.55  L 7011.33,  433.80  L 7007.08,  429.55 " style="stroke-width: 1.42 ;&st7; " /><path d=" M 7104.81,  701.50  L 7121.81,  701.50 " style="stroke-width: 0.85 ;&st7; " /><path d=" M 7113.31,  697.25  L 7113.31,  701.50 " style="stroke-width: 0.85 ;&st7; " /><path d=" M 7109.06,  704.33  L 7117.56,  704.33 " style="stroke-width: 0.85 ;&st7; " /><path d=" M 7110.48,  707.17  L 7116.14,  707.17 " style="stroke-width: 0.85 ;&st7; " /><path d=" M 7111.89,  710.00  L 7114.72,  710.00 " style="stroke-width: 0.85 ;&st7; " /><path d=" M 7376.76,  282.24  L 7371.10,  273.74  L 7382.43,  273.74  L 7376.76,  282.24 " style="stroke-width: 0.28 ;&st9;" /><path d=" M 7418.06,  306.73  L 7417.79,  307.20  L 7417.70,  307.73  L 7417.79,  308.27  L 7418.06,  308.74  L 7418.48,  309.08  L 7418.99,  309.27  L 7419.53,  309.27  L 7420.04,  309.08  L 7420.45,  308.74  L 7420.72,  308.27  L 7420.82,  307.73  L 7420.72,  307.20  L 7420.45,  306.73  L 7420.04,  306.39  L 7419.53,  306.20  L 7418.99,  306.20  L 7418.48,  306.39  L 7418.06,  306.73  L 7418.46,  307.44  L 7418.46,  308.03  L 7418.83,  308.47  L 7419.40,  308.57  L 7419.91,  308.28  L 7420.11,  307.73  L 7419.91,  307.19  L 7419.40,  306.90  L 7418.83,  307.00  L 7419.26,  307.73 " style="stroke-width: 0.85 ;&st7; " /><path d=" M 7375.57,  247.24  L 7375.30,  247.71  L 7375.21,  248.24  L 7375.30,  248.78  L 7375.57,  249.25  L 7375.99,  249.59  L 7376.50,  249.78  L 7377.03,  249.78  L 7377.54,  249.59  L 7377.96,  249.25  L 7378.23,  248.78  L 7378.32,  248.24  L 7378.23,  247.71  L 7377.96,  247.24  L 7377.54,  246.90  L 7377.03,  246.71  L 7376.50,  246.71  L 7375.99,  246.90  L 7375.57,  247.24  L 7375.97,  247.95  L 7375.97,  248.54  L 7376.34,  248.98  L 7376.91,  249.08  L 7377.42,  248.79  L 7377.61,  248.24  L 7377.42,  247.70  L 7376.91,  247.41  L 7376.34,  247.51  L 7376.76,  248.24 " style="stroke-width: 0.85 ;&st7; " /><path d=" M 7477.55,  247.24  L 7477.28,  247.71  L 7477.19,  248.24  L 7477.28,  248.78  L 7477.55,  249.25  L 7477.97,  249.59  L 7478.48,  249.78  L 7479.02,  249.78  L 7479.53,  249.59  L 7479.94,  249.25  L 7480.21,  248.78  L 7480.31,  248.24  L 7480.21,  247.71  L 7479.94,  247.24  L 7479.53,  246.90  L 7479.02,  246.71  L 7478.48,  246.71  L 7477.97,  246.90  L 7477.55,  247.24  L 7477.95,  247.95  L 7477.95,  248.54  L 7478.32,  248.98  L 7478.89,  249.08  L 7479.40,  248.79  L 7479.60,  248.24  L 7479.40,  247.70  L 7478.89,  247.41  L 7478.32,  247.51  L 7478.75,  248.24 " style="stroke-width: 0.85 ;&st7; " /><path d=" M 7376.76,   98.87  L 7373.93,   96.04  L 7373.93,  100.29  L 7376.76,  103.12  L 7379.60,  100.29  L 7379.60,   96.04  L 7376.76,   98.87 " style="stroke-width: 0.28 ;&st9;" /><path d=" M 7389.51,   78.27  L 7389.51,   35.78  L 7364.02,   35.78  L 7364.02,   78.27  L 7389.51,   78.27 " style="stroke-width: 1.42 ;&st7; " /><path d=" M 7391.50,  335.53  L 7389.17,  338.58  L 7387.70,  336.03  L 7391.50,  335.53  L 7390.22,  336.28  L 7389.23,  337.56  L 7388.61,  336.48  L 7390.22,  336.28  L 7389.58,  336.64  L 7389.27,  337.05  L 7389.07,  336.71  L 7389.58,  336.64 " style="stroke-width: 0.85 ;&st7; " /><path d=" M 7389.50,  332.07  L 7387.16,  335.11  L 7385.70,  332.56  L 7389.50,  332.07  L 7388.21,  332.80  L 7387.23,  334.09  L 7386.61,  333.01  L 7388.21,  332.80  L 7387.57,  333.18  L 7387.26,  333.58  L 7387.07,  333.24  L 7387.57,  333.18 " style="stroke-width: 0.85 ;&st7; " /><path d=" M 7376.76,  341.73  L 7371.10,  333.23  L 7382.43,  333.23  L 7376.76,  341.73 " style="stroke-width: 0.28 ;&st9;" /><path d=" M 7376.76,  384.22  L 7376.76,  231.25 " style="stroke-width: 0.85 ;&st7; " /><path d=" M 7376.76,  248.24  L 7419.26,  248.24  L 7419.26,  324.73 " style="stroke-width: 0.85 ;&st7; " /><path d=" M 7699.71,  384.22  L 7317.27,  384.22  L 7317.27,  231.25  L 7699.71,  231.25  L 7699.71,  384.22 " style="stroke-width: 1.42 ;&st7; " /><path d=" M 7461.75,  503.20  L 7461.75,  469.21 " style="stroke-width: 0.85 ;&st7; " /><path d=" M 7461.75,  498.31  L 7458.92,  495.47  L 7458.92,  499.72  L 7461.75,  502.56  L 7464.58,  499.72  L 7464.58,  495.47  L 7461.75,  498.31 " style="stroke-width: 0.28 ;&st9;" /><path d=" M 7461.75,  474.10  L 7464.58,  476.94  L 7464.58,  472.69  L 7461.75,  469.85  L 7458.92,  472.69  L 7458.92,  476.94  L 7461.75,  474.10 " style="stroke-width: 0.28 ;&st9;" /><path d=" M 7478.75,  159.65  L 7481.58,  162.49  L 7481.58,  158.24  L 7478.75,  155.41  L 7475.91,  158.24  L 7475.91,  162.49  L 7478.75,  159.65 " style="stroke-width: 0.28 ;&st9;" /><path d=" M 7478.75,  175.36  L 7475.91,  172.53  L 7475.91,  176.78  L 7478.75,  179.61  L 7481.58,  176.78  L 7481.58,  172.53  L 7478.75,  175.36 " style="stroke-width: 0.28 ;&st9;" /><path d=" M 7461.75,  375.72  L 7461.75,  384.22 " style="stroke-width: 0.85 ;&st7; " /><path d=" M 7648.72,  350.23  L 7402.26,  350.23  L 7402.26,  324.73  L 7648.72,  324.73  L 7648.72,  350.23 " style="stroke-width: 1.42 ;&st7; " /><path d=" M 7461.75,  350.23  L 7461.75,  358.73 " style="stroke-width: 0.85 ;&st7; " /><path d=" M 7470.25,  358.73  L 7453.25,  358.73  L 7453.25,  375.72  L 7470.25,  375.72  L 7470.25,  358.73 " style="stroke-width: 1.42 ;&st7; " /><path d=" M 7419.26,  248.24  L 7521.24,  248.24  L 7521.24,  324.73 " style="stroke-width: 0.85 ;&st7; " /><path d=" M 7375.57,  306.73  L 7375.30,  307.20  L 7375.21,  307.73  L 7375.30,  308.27  L 7375.57,  308.74  L 7375.99,  309.08  L 7376.50,  309.27  L 7377.03,  309.27  L 7377.54,  309.08  L 7377.96,  308.74  L 7378.23,  308.27  L 7378.32,  307.73  L 7378.23,  307.20  L 7377.96,  306.73  L 7377.54,  306.39  L 7377.03,  306.20  L 7376.50,  306.20  L 7375.99,  306.39  L 7375.57,  306.73  L 7375.97,  307.44  L 7375.97,  308.03  L 7376.34,  308.47  L 7376.91,  308.57  L 7377.42,  308.28  L 7377.61,  307.73  L 7377.42,  307.19  L 7376.91,  306.90  L 7376.34,  307.00  L 7376.76,  307.73 " style="stroke-width: 0.85 ;&st7; " /><path d=" M 7478.75,  231.25  L 7478.75,  324.73 " style="stroke-width: 0.85 ;&st7; " /><path d=" M 7419.26,  350.23  L 7419.26,  384.22 " style="stroke-width: 0.85 ;&st7; " /><path d=" M 7478.75,  180.26  L 7478.75,  154.76 " style="stroke-width: 0.85 ;&st7; " /><path d=" M 7491.50,   78.27  L 7491.50,   35.78  L 7466.00,   35.78  L 7466.00,   78.27  L 7491.50,   78.27 " style="stroke-width: 1.42 ;&st7; " /><path d=" M 7478.75,   98.87  L 7475.91,   96.04  L 7475.91,  100.29  L 7478.75,  103.12  L 7481.58,  100.29  L 7481.58,   96.04  L 7478.75,   98.87 " style="stroke-width: 0.28 ;&st9;" /><path d=" M 7495.74,  350.23  L 7495.74,  384.22 " style="stroke-width: 0.85 ;&st7; " /><path d=" M 7376.76,  307.73  L 7342.77,  307.73  L 7342.77,  384.22 " style="stroke-width: 0.85 ;&st7; " /><path d=" M 7357.51,  335.53  L 7355.17,  338.58  L 7353.70,  336.03  L 7357.51,  335.53  L 7356.22,  336.28  L 7355.24,  337.56  L 7354.62,  336.48  L 7356.22,  336.28  L 7355.58,  336.64  L 7355.27,  337.05  L 7355.08,  336.71  L 7355.58,  336.64 " style="stroke-width: 0.85 ;&st7; " /><path d=" M 7355.50,  332.07  L 7353.17,  335.11  L 7351.70,  332.56  L 7355.50,  332.07  L 7354.22,  332.80  L 7353.23,  334.09  L 7352.62,  333.01  L 7354.22,  332.80  L 7353.58,  333.18  L 7353.27,  333.58  L 7353.07,  333.24  L 7353.58,  333.18 " style="stroke-width: 0.85 ;&st7; " /><path d=" M 7342.77,  341.73  L 7337.10,  333.23  L 7348.44,  333.23  L 7342.77,  341.73 " style="stroke-width: 0.28 ;&st9;" /><path d=" M 7419.26,  307.73  L 7376.76,  307.73 " style="stroke-width: 0.85 ;&st7; " /><path d=" M 7155.80,  426.71  L 7155.80,  443.71  L 7172.80,  443.71  L 7172.80,  426.71  L 7155.80,  426.71 " style="stroke-width: 1.42 ;&st7; " /><path d=" M 7164.30,  443.71  L 7164.30,  426.71 " style="stroke-width: 0.85 ;&st7; " /><path d=" M 7011.33,  236.14  L 7014.16,  238.97  L 7014.16,  234.73  L 7011.33,  231.89  L 7008.49,  234.73  L 7008.49,  238.97  L 7011.33,  236.14 " style="stroke-width: 0.28 ;&st9;" /><path d=" M 7011.33,  260.35  L 7008.49,  257.51  L 7008.49,  261.76  L 7011.33,  264.60  L 7014.16,  261.76  L 7014.16,  257.51  L 7011.33,  260.35 " style="stroke-width: 0.28 ;&st9;" /><path d=" M 7011.33,  265.24  L 7011.33,  231.25 " style="stroke-width: 0.85 ;&st7; " /><path d=" M 7045.32,  236.14  L 7048.15,  238.97  L 7048.15,  234.73  L 7045.32,  231.89  L 7042.49,  234.73  L 7042.49,  238.97  L 7045.32,  236.14 " style="stroke-width: 0.28 ;&st9;" /><path d=" M 7045.32,  260.35  L 7042.49,  257.51  L 7042.49,  261.76  L 7045.32,  264.60  L 7048.15,  261.76  L 7048.15,  257.51  L 7045.32,  260.35 " style="stroke-width: 0.28 ;&st9;" /><path d=" M 7045.32,  265.24  L 7045.32,  231.25 " style="stroke-width: 0.85 ;&st7; " /><path d=" M 7045.32,  248.24  L 7206.79,  248.24  L 7206.79,  265.24 " style="stroke-width: 0.85 ;&st7; " /><path d=" M 7044.13,  247.24  L 7043.86,  247.71  L 7043.76,  248.24  L 7043.86,  248.78  L 7044.13,  249.25  L 7044.54,  249.59  L 7045.05,  249.78  L 7045.59,  249.78  L 7046.10,  249.59  L 7046.51,  249.25  L 7046.78,  248.78  L 7046.88,  248.24  L 7046.78,  247.71  L 7046.51,  247.24  L 7046.10,  246.90  L 7045.59,  246.71  L 7045.05,  246.71  L 7044.54,  246.90  L 7044.13,  247.24  L 7044.52,  247.95  L 7044.52,  248.54  L 7044.89,  248.98  L 7045.47,  249.08  L 7045.97,  248.79  L 7046.17,  248.24  L 7045.97,  247.70  L 7045.47,  247.41  L 7044.89,  247.51  L 7045.32,  248.24 " style="stroke-width: 0.85 ;&st7; " /><path d=" M 7206.79,  260.35  L 7203.96,  257.51  L 7203.96,  261.76  L 7206.79,  264.60  L 7209.63,  261.76  L 7209.63,  257.51  L 7206.79,  260.35 " style="stroke-width: 0.28 ;&st9;" /><path d=" M 7385.26,  217.65  L 7466.00,  217.65 " style="stroke-width: 0.85 ;&st7;stroke-dasharray:3, 1.5;" /><path d=" M 7385.26,  226.71  L 7466.00,  226.71 " style="stroke-width: 0.85 ;&st7;stroke-dasharray:3, 1.5;" /><path d=" M 7427.76,  397.82  L 7449.00,  397.82 " style="stroke-width: 0.85 ;&st7;stroke-dasharray:3, 1.5;" /><path d=" M 7385.26,  397.82  L 7406.51,  397.82 " style="stroke-width: 0.85 ;&st7;stroke-dasharray:3, 1.5;" /><path d=" M 7470.25,  397.82  L 7478.75,  397.82 " style="stroke-width: 0.85 ;&st7;stroke-dasharray:3, 1.5;" /><path d=" M 7427.76,  388.75  L 7449.00,  388.75 " style="stroke-width: 0.85 ;&st7;stroke-dasharray:3, 1.5;" /><path d=" M 7418.06,  247.24  L 7417.79,  247.71  L 7417.70,  248.24  L 7417.79,  248.78  L 7418.06,  249.25  L 7418.48,  249.59  L 7418.99,  249.78  L 7419.53,  249.78  L 7420.04,  249.59  L 7420.45,  249.25  L 7420.72,  248.78  L 7420.82,  248.24  L 7420.72,  247.71  L 7420.45,  247.24  L 7420.04,  246.90  L 7419.53,  246.71  L 7418.99,  246.71  L 7418.48,  246.90  L 7418.06,  247.24  L 7418.46,  247.95  L 7418.46,  248.54  L 7418.83,  248.98  L 7419.40,  249.08  L 7419.91,  248.79  L 7420.11,  248.24  L 7419.91,  247.70  L 7419.40,  247.41  L 7418.83,  247.51  L 7419.26,  248.24 " style="stroke-width: 0.85 ;&st7; " /><path d=" M 7385.26,  388.75  L 7406.51,  388.75 " style="stroke-width: 0.85 ;&st7;stroke-dasharray:3, 1.5;" /><path d=" M 7351.27,  397.82  L 7359.77,  397.82 " style="stroke-width: 0.85 ;&st7;stroke-dasharray:3, 1.5;" /><path d=" M 7682.71,  384.22  L 7682.71,  307.73  L 7419.26,  307.73 " style="stroke-width: 0.85 ;&st7; " /><path d=" M 7470.25,  388.75  L 7483.00,  388.75 " style="stroke-width: 0.85 ;&st7;stroke-dasharray:3, 1.5;" /><path d=" M 7351.27,  388.75  L 7359.77,  388.75 " style="stroke-width: 0.85 ;&st7;stroke-dasharray:3, 1.5;" /><path d=" M 7104.81,  426.71  L 7104.81,  443.71  L 7121.81,  443.71  L 7121.81,  426.71  L 7104.81,  426.71 " style="stroke-width: 1.42 ;&st7; " /><path d=" M 7113.31,  443.71  L 7113.31,  426.71 " style="stroke-width: 0.85 ;&st7; " /><path d=" M 7453.25,  248.24  L 7444.75,  253.91  L 7444.75,  242.58  L 7453.25,  248.24 " style="stroke-width: 0.28 ;&st9;" /><path d=" M 7485.12,  184.50  C 7485.12   182.16  7483.22   180.26  7480.88   180.26 " style="stroke-width: 1.42 ;&st7; " /><path d=" M 7478.75,   47.11  C 7476.01    48.72  7475.10    52.25  7476.71    54.99 " style="stroke-width: 1.42 ;&st7; " /><path d=" M 7476.71,   54.99  C 7477.23    55.87  7477.87    56.51  7478.75    57.03 " style="stroke-width: 1.42 ;&st7; " /><path d=" M 7478.75,   66.94  C 7481.49    65.33  7482.40    61.80  7480.79    59.06 " style="stroke-width: 1.42 ;&st7; " /><path d=" M 7480.79,   59.06  C 7480.27    58.18  7479.63    57.55  7478.75    57.03 " style="stroke-width: 1.42 ;&st7; " /><path d=" M 7480.17,   45.69  C 7480.17    44.91  7479.53    44.28  7478.75    44.28 " style="stroke-width: 0.85 ;&st7; " /><path d=" M 7478.75,   44.28  C 7477.97    44.28  7477.33    44.91  7477.33    45.69 " style="stroke-width: 0.85 ;&st7; " /><path d=" M 7477.33,   45.69  C 7477.33    46.48  7477.97    47.11  7478.75    47.11 " style="stroke-width: 0.85 ;&st7; " /><path d=" M 7478.75,   47.11  C 7479.53    47.11  7480.17    46.48  7480.17    45.69 " style="stroke-width: 0.85 ;&st7; " /><path d=" M 7480.17,   68.36  C 7480.17    67.57  7479.53    66.94  7478.75    66.94 " style="stroke-width: 0.85 ;&st7; " /><path d=" M 7478.75,   66.94  C 7477.97    66.94  7477.33    67.57  7477.33    68.36 " style="stroke-width: 0.85 ;&st7; " /><path d=" M 7477.33,   68.36  C 7477.33    69.14  7477.97    69.77  7478.75    69.77 " style="stroke-width: 0.85 ;&st7; " /><path d=" M 7478.75,   69.77  C 7479.53    69.77  7480.17    69.14  7480.17    68.36 " style="stroke-width: 0.85 ;&st7; " /><path d=" M 7476.63,  103.77  C 7474.28   103.77  7472.38   105.67  7472.38   108.02 " style="stroke-width: 1.42 ;&st7; " /><path d=" M 7472.38,  108.02  C 7472.38   110.36  7474.28   112.27  7476.63   112.27 " style="stroke-width: 1.42 ;&st7; " /><path d=" M 7480.88,  112.27  C 7483.22   112.27  7485.12   110.36  7485.12   108.02 " style="stroke-width: 1.42 ;&st7; " /><path d=" M 7485.12,  108.02  C 7485.12   105.67  7483.22   103.77  7480.88   103.77 " style="stroke-width: 1.42 ;&st7; " /><path d=" M 7347.31,  388.75  C 7347.31   386.25  7345.28   384.22  7342.77   384.22 " style="stroke-width: 1.42 ;&st7; " /><path d=" M 7342.77,  384.22  C 7340.27   384.22  7338.24   386.25  7338.24   388.75 " style="stroke-width: 1.42 ;&st7; " /><path d=" M 7338.24,  388.75  C 7338.24   391.26  7340.27   393.29  7342.77   393.29 " style="stroke-width: 1.42 ;&st7; " /><path d=" M 7342.77,  393.29  C 7345.28   393.29  7347.31   391.26  7347.31   388.75 " style="stroke-width: 1.42 ;&st7; " /><path d=" M 7383.14,  108.02  C 7383.14   105.67  7381.24   103.77  7378.89   103.77 " style="stroke-width: 1.42 ;&st7; " /><path d=" M 7378.89,  112.27  C 7381.24   112.27  7383.14   110.36  7383.14   108.02 " style="stroke-width: 1.42 ;&st7; " /><path d=" M 7370.39,  108.02  C 7370.39   110.36  7372.30   112.27  7374.64   112.27 " style="stroke-width: 1.42 ;&st7; " /><path d=" M 7374.64,  103.77  C 7372.30   103.77  7370.39   105.67  7370.39   108.02 " style="stroke-width: 1.42 ;&st7; " /><path d=" M 7378.18,   68.36  C 7378.18    67.57  7377.55    66.94  7376.77    66.94 " style="stroke-width: 0.85 ;&st7; " /><path d=" M 7376.77,   66.94  C 7375.99    66.94  7375.35    67.57  7375.35    68.36 " style="stroke-width: 0.85 ;&st7; " /><path d=" M 7375.35,   68.36  C 7375.35    69.14  7375.99    69.77  7376.77    69.77 " style="stroke-width: 0.85 ;&st7; " /><path d=" M 7376.77,   69.77  C 7377.55    69.77  7378.18    69.14  7378.18    68.36 " style="stroke-width: 0.85 ;&st7; " /><path d=" M 7378.18,   45.69  C 7378.18    44.91  7377.55    44.28  7376.77    44.28 " style="stroke-width: 0.85 ;&st7; " /><path d=" M 7376.77,   44.28  C 7375.99    44.28  7375.35    44.91  7375.35    45.69 " style="stroke-width: 0.85 ;&st7; " /><path d=" M 7375.35,   45.69  C 7375.35    46.48  7375.99    47.11  7376.77    47.11 " style="stroke-width: 0.85 ;&st7; " /><path d=" M 7376.77,   47.11  C 7377.55    47.11  7378.18    46.48  7378.18    45.69 " style="stroke-width: 0.85 ;&st7; " /><path d=" M 7376.77,   66.94  C 7379.51    65.33  7380.42    61.80  7378.80    59.06 " style="stroke-width: 1.42 ;&st7; " /><path d=" M 7378.80,   59.06  C 7378.28    58.18  7377.65    57.55  7376.77    57.03 " style="stroke-width: 1.42 ;&st7; " /><path d=" M 7376.77,   47.11  C 7374.03    48.72  7373.12    52.25  7374.73    54.99 " style="stroke-width: 1.42 ;&st7; " /><path d=" M 7374.73,   54.99  C 7375.25    55.87  7375.89    56.51  7376.77    57.03 " style="stroke-width: 1.42 ;&st7; " /><path d=" M 7381.30,  226.71  C 7381.30   224.21  7379.27   222.18  7376.77   222.18 " style="stroke-width: 1.42 ;&st7; " /><path d=" M 7376.77,  222.18  C 7374.26   222.18  7372.23   224.21  7372.23   226.71 " style="stroke-width: 1.42 ;&st7; " /><path d=" M 7372.23,  226.71  C 7372.23   229.22  7374.26   231.25  7376.77   231.25 " style="stroke-width: 1.42 ;&st7; " /><path d=" M 7376.77,  231.25  C 7379.27   231.25  7381.30   229.22  7381.30   226.71 " style="stroke-width: 1.42 ;&st7; " /><path d=" M 7381.30,  388.75  C 7381.30   386.25  7379.27   384.22  7376.77   384.22 " style="stroke-width: 1.42 ;&st7; " /><path d=" M 7376.77,  384.22  C 7374.26   384.22  7372.23   386.25  7372.23   388.75 " style="stroke-width: 1.42 ;&st7; " /><path d=" M 7372.23,  388.75  C 7372.23   391.26  7374.26   393.29  7376.77   393.29 " style="stroke-width: 1.42 ;&st7; " /><path d=" M 7376.77,  393.29  C 7379.27   393.29  7381.30   391.26  7381.30   388.75 " style="stroke-width: 1.42 ;&st7; " /><path d=" M 7495.75,  384.22  C 7493.24   384.22  7491.21   386.25  7491.21   388.75 " style="stroke-width: 1.42 ;&st7; " /><path d=" M 7491.21,  388.75  C 7491.21   391.26  7493.24   393.29  7495.75   393.29 " style="stroke-width: 1.42 ;&st7; " /><path d=" M 7495.75,  393.29  C 7498.25   393.29  7500.28   391.26  7500.28   388.75 " style="stroke-width: 1.42 ;&st7; " /><path d=" M 7466.29,  388.75  C 7466.29   386.25  7464.26   384.22  7461.75   384.22 " style="stroke-width: 1.42 ;&st7; " /><path d=" M 7461.75,  384.22  C 7459.25   384.22  7457.22   386.25  7457.22   388.75 " style="stroke-width: 1.42 ;&st7; " /><path d=" M 7457.22,  388.75  C 7457.22   391.26  7459.25   393.29  7461.75   393.29 " style="stroke-width: 1.42 ;&st7; " /><path d=" M 7461.75,  393.29  C 7464.26   393.29  7466.29   391.26  7466.29   388.75 " style="stroke-width: 1.42 ;&st7; " /><path d=" M 7423.79,  388.75  C 7423.79   386.25  7421.76   384.22  7419.26   384.22 " style="stroke-width: 1.42 ;&st7; " /><path d=" M 7419.26,  384.22  C 7416.76   384.22  7414.73   386.25  7414.73   388.75 " style="stroke-width: 1.42 ;&st7; " /><path d=" M 7414.73,  388.75  C 7414.73   391.26  7416.76   393.29  7419.26   393.29 " style="stroke-width: 1.42 ;&st7; " /><path d=" M 7419.26,  393.29  C 7421.76   393.29  7423.79   391.26  7423.79   388.75 " style="stroke-width: 1.42 ;&st7; " /><path d=" M 7468.13,  507.45  C 7468.13   505.10  7466.22   503.20  7463.88   503.20 " style="stroke-width: 1.42 ;&st7; " /><path d=" M 7463.88,  511.70  C 7466.22   511.70  7468.13   509.80  7468.13   507.45 " style="stroke-width: 1.42 ;&st7; " /><path d=" M 7455.38,  507.45  C 7455.38   509.80  7457.28   511.70  7459.63   511.70 " style="stroke-width: 1.42 ;&st7; " /><path d=" M 7459.63,  503.20  C 7457.28   503.20  7455.38   505.10  7455.38   507.45 " style="stroke-width: 1.42 ;&st7; " /><path d=" M 7468.13,  464.96  C 7468.13   462.61  7466.22   460.71  7463.88   460.71 " style="stroke-width: 1.42 ;&st7; " /><path d=" M 7463.88,  469.21  C 7466.22   469.21  7468.13   467.30  7468.13   464.96 " style="stroke-width: 1.42 ;&st7; " /><path d=" M 7455.38,  464.96  C 7455.38   467.30  7457.28   469.21  7459.63   469.21 " style="stroke-width: 1.42 ;&st7; " /><path d=" M 7459.63,  460.71  C 7457.28   460.71  7455.38   462.61  7455.38   464.96 " style="stroke-width: 1.42 ;&st7; " /><path d=" M 7476.63,  146.26  C 7474.28   146.26  7472.38   148.16  7472.38   150.51 " style="stroke-width: 1.42 ;&st7; " /><path d=" M 7483.28,  226.71  C 7483.28   224.21  7481.25   222.18  7478.75   222.18 " style="stroke-width: 1.42 ;&st7; " /><path d=" M 7478.75,  222.18  C 7476.25   222.18  7474.22   224.21  7474.22   226.71 " style="stroke-width: 1.42 ;&st7; " /><path d=" M 7474.22,  226.71  C 7474.22   229.22  7476.25   231.25  7478.75   231.25 " style="stroke-width: 1.42 ;&st7; " /><path d=" M 7478.75,  231.25  C 7481.25   231.25  7483.28   229.22  7483.28   226.71 " style="stroke-width: 1.42 ;&st7; " /><path d=" M 7472.38,  150.51  C 7472.38   152.86  7474.28   154.76  7476.63   154.76 " style="stroke-width: 1.42 ;&st7; " /><path d=" M 7480.88,  154.76  C 7483.22   154.76  7485.12   152.86  7485.12   150.51 " style="stroke-width: 1.42 ;&st7; " /><path d=" M 7485.12,  150.51  C 7485.12   148.16  7483.22   146.26  7480.88   146.26 " style="stroke-width: 1.42 ;&st7; " /><path d=" M 7476.63,  180.26  C 7474.28   180.26  7472.38   182.16  7472.38   184.50 " style="stroke-width: 1.42 ;&st7; " /><path d=" M 7472.38,  184.50  C 7472.38   186.85  7474.28   188.75  7476.63   188.75 " style="stroke-width: 1.42 ;&st7; " /><path d=" M 7480.88,  188.75  C 7483.22   188.75  7485.12   186.85  7485.12   184.50 " style="stroke-width: 1.42 ;&st7; " /><path d=" M 7009.20,  222.75  C 7006.86   222.75  7004.95   224.65  7004.95   227.00 " style="stroke-width: 1.42 ;&st7; " /><path d=" M 7004.95,  227.00  C 7004.95   229.34  7006.86   231.25  7009.20   231.25 " style="stroke-width: 1.42 ;&st7; " /><path d=" M 7013.45,  231.25  C 7015.80   231.25  7017.70   229.34  7017.70   227.00 " style="stroke-width: 1.42 ;&st7; " /><path d=" M 7017.70,  227.00  C 7017.70   224.65  7015.80   222.75  7013.45   222.75 " style="stroke-width: 1.42 ;&st7; " /><path d=" M 7009.20,  265.24  C 7006.86   265.24  7004.95   267.14  7004.95   269.49 " style="stroke-width: 1.42 ;&st7; " /><path d=" M 7004.95,  269.49  C 7004.95   271.84  7006.86   273.74  7009.20   273.74 " style="stroke-width: 1.42 ;&st7; " /><path d=" M 7013.45,  273.74  C 7015.80   273.74  7017.70   271.84  7017.70   269.49 " style="stroke-width: 1.42 ;&st7; " /><path d=" M 7017.70,  269.49  C 7017.70   267.14  7015.80   265.24  7013.45   265.24 " style="stroke-width: 1.42 ;&st7; " /><path d=" M 7043.20,  222.75  C 7040.85   222.75  7038.95   224.65  7038.95   227.00 " style="stroke-width: 1.42 ;&st7; " /><path d=" M 7038.95,  227.00  C 7038.95   229.34  7040.85   231.25  7043.20   231.25 " style="stroke-width: 1.42 ;&st7; " /><path d=" M 7047.45,  231.25  C 7049.79   231.25  7051.70   229.34  7051.70   227.00 " style="stroke-width: 1.42 ;&st7; " /><path d=" M 7051.70,  227.00  C 7051.70   224.65  7049.79   222.75  7047.45   222.75 " style="stroke-width: 1.42 ;&st7; " /><path d=" M 7043.20,  265.24  C 7040.85   265.24  7038.95   267.14  7038.95   269.49 " style="stroke-width: 1.42 ;&st7; " /><path d=" M 7038.95,  269.49  C 7038.95   271.84  7040.85   273.74  7043.20   273.74 " style="stroke-width: 1.42 ;&st7; " /><path d=" M 7047.45,  273.74  C 7049.79   273.74  7051.70   271.84  7051.70   269.49 " style="stroke-width: 1.42 ;&st7; " /><path d=" M 7051.70,  269.49  C 7051.70   267.14  7049.79   265.24  7047.45   265.24 " style="stroke-width: 1.42 ;&st7; " /><path d=" M 7015.86,   91.30  C 7015.86    88.80  7013.83    86.77  7011.33    86.77 " style="stroke-width: 1.42 ;&st7; " /><path d=" M 7011.33,   86.77  C 7008.83    86.77  7006.80    88.80  7006.80    91.30 " style="stroke-width: 1.42 ;&st7; " /><path d=" M 7006.80,   91.30  C 7006.80    93.81  7008.83    95.84  7011.33    95.84 " style="stroke-width: 1.42 ;&st7; " /><path d=" M 7011.33,   95.84  C 7013.83    95.84  7015.86    93.81  7015.86    91.30 " style="stroke-width: 1.42 ;&st7; " /><path d=" M 7049.86,   91.30  C 7049.86    88.80  7047.83    86.77  7045.32    86.77 " style="stroke-width: 1.42 ;&st7; " /><path d=" M 7045.32,   86.77  C 7042.82    86.77  7040.79    88.80  7040.79    91.30 " style="stroke-width: 1.42 ;&st7; " /><path d=" M 7040.79,   91.30  C 7040.79    93.81  7042.82    95.84  7045.32    95.84 " style="stroke-width: 1.42 ;&st7; " /><path d=" M 7045.32,   95.84  C 7047.83    95.84  7049.86    93.81  7049.86    91.30 " style="stroke-width: 1.42 ;&st7; " /><path d=" M 7204.67,  265.24  C 7202.32   265.24  7200.42   267.14  7200.42   269.49 " style="stroke-width: 1.42 ;&st7; " /><path d=" M 7200.42,  269.49  C 7200.42   271.84  7202.32   273.74  7204.67   273.74 " style="stroke-width: 1.42 ;&st7; " /><path d=" M 7208.92,  273.74  C 7211.27   273.74  7213.17   271.84  7213.17   269.49 " style="stroke-width: 1.42 ;&st7; " /><path d=" M 7213.17,  269.49  C 7213.17   267.14  7211.27   265.24  7208.92   265.24 " style="stroke-width: 1.42 ;&st7; " /><path d=" M 7483.28,  217.65  C 7483.28   215.15  7481.25   213.12  7478.75   213.12 " style="stroke-width: 1.42 ;&st7; " /><path d=" M 7478.75,  213.12  C 7476.25   213.12  7474.22   215.15  7474.22   217.65 " style="stroke-width: 1.42 ;&st7; " /><path d=" M 7474.22,  217.65  C 7474.22   220.15  7476.25   222.18  7478.75   222.18 " style="stroke-width: 1.42 ;&st7; " /><path d=" M 7478.75,  222.18  C 7481.25   222.18  7483.28   220.15  7483.28   217.65 " style="stroke-width: 1.42 ;&st7; " /><path d=" M 7381.30,  217.65  C 7381.30   215.15  7379.27   213.12  7376.77   213.12 " style="stroke-width: 1.42 ;&st7; " /><path d=" M 7376.77,  213.12  C 7374.26   213.12  7372.23   215.15  7372.23   217.65 " style="stroke-width: 1.42 ;&st7; " /><path d=" M 7372.23,  217.65  C 7372.23   220.15  7374.26   222.18  7376.77   222.18 " style="stroke-width: 1.42 ;&st7; " /><path d=" M 7376.77,  222.18  C 7379.27   222.18  7381.30   220.15  7381.30   217.65 " style="stroke-width: 1.42 ;&st7; " /><path d=" M 7347.31,  397.82  C 7347.31   395.32  7345.28   393.29  7342.77   393.29 " style="stroke-width: 1.42 ;&st7; " /><path d=" M 7342.77,  393.29  C 7340.27   393.29  7338.24   395.32  7338.24   397.82 " style="stroke-width: 1.42 ;&st7; " /><path d=" M 7338.24,  397.82  C 7338.24   400.32  7340.27   402.35  7342.77   402.35 " style="stroke-width: 1.42 ;&st7; " /><path d=" M 7342.77,  402.35  C 7345.28   402.35  7347.31   400.32  7347.31   397.82 " style="stroke-width: 1.42 ;&st7; " /><path d=" M 7381.30,  397.82  C 7381.30   395.32  7379.27   393.29  7376.77   393.29 " style="stroke-width: 1.42 ;&st7; " /><path d=" M 7376.77,  393.29  C 7374.26   393.29  7372.23   395.32  7372.23   397.82 " style="stroke-width: 1.42 ;&st7; " /><path d=" M 7372.23,  397.82  C 7372.23   400.32  7374.26   402.35  7376.77   402.35 " style="stroke-width: 1.42 ;&st7; " /><path d=" M 7376.77,  402.35  C 7379.27   402.35  7381.30   400.32  7381.30   397.82 " style="stroke-width: 1.42 ;&st7; " /><path d=" M 7423.79,  397.82  C 7423.79   395.32  7421.76   393.29  7419.26   393.29 " style="stroke-width: 1.42 ;&st7; " /><path d=" M 7419.26,  393.29  C 7416.76   393.29  7414.73   395.32  7414.73   397.82 " style="stroke-width: 1.42 ;&st7; " /><path d=" M 7414.73,  397.82  C 7414.73   400.32  7416.76   402.35  7419.26   402.35 " style="stroke-width: 1.42 ;&st7; " /><path d=" M 7419.26,  402.35  C 7421.76   402.35  7423.79   400.32  7423.79   397.82 " style="stroke-width: 1.42 ;&st7; " /><path d=" M 7466.29,  397.82  C 7466.29   395.32  7464.26   393.29  7461.75   393.29 " style="stroke-width: 1.42 ;&st7; " /><path d=" M 7461.75,  393.29  C 7459.25   393.29  7457.22   395.32  7457.22   397.82 " style="stroke-width: 1.42 ;&st7; " /><path d=" M 7457.22,  397.82  C 7457.22   400.32  7459.25   402.35  7461.75   402.35 " style="stroke-width: 1.42 ;&st7; " /><path d=" M 7461.75,  402.35  C 7464.26   402.35  7466.29   400.32  7466.29   397.82 " style="stroke-width: 1.42 ;&st7; " /><path d=" M 7495.75,  393.29  C 7493.24   393.29  7491.21   395.32  7491.21   397.82 " style="stroke-width: 1.42 ;&st7; " /><path d=" M 7491.21,  397.82  C 7491.21   400.32  7493.24   402.35  7495.75   402.35 " style="stroke-width: 1.42 ;&st7; " /><path d=" M 7495.75,  402.35  C 7498.25   402.35  7500.28   400.32  7500.28   397.82 " style="stroke-width: 1.42 ;&st7; " /><path d=" M 7117.84,  422.18  C 7117.84   419.68  7115.81   417.65  7113.31   417.65 " style="stroke-width: 1.42 ;&st7; " /><path d=" M 7113.31,  417.65  C 7110.81   417.65  7108.78   419.68  7108.78   422.18 " style="stroke-width: 1.42 ;&st7; " /><path d=" M 7108.78,  422.18  C 7108.78   424.68  7110.81   426.71  7113.31   426.71 " style="stroke-width: 1.42 ;&st7; " /><path d=" M 7113.31,  426.71  C 7115.81   426.71  7117.84   424.68  7117.84   422.18 " style="stroke-width: 1.42 ;&st7; " /><path d=" M 7117.84,  448.24  C 7117.84   445.74  7115.81   443.71  7113.31   443.71 " style="stroke-width: 1.42 ;&st7; " /><path d=" M 7113.31,  443.71  C 7110.81   443.71  7108.78   445.74  7108.78   448.24 " style="stroke-width: 1.42 ;&st7; " /><path d=" M 7108.78,  448.24  C 7108.78   450.75  7110.81   452.78  7113.31   452.78 " style="stroke-width: 1.42 ;&st7; " /><path d=" M 7113.31,  452.78  C 7115.81   452.78  7117.84   450.75  7117.84   448.24 " style="stroke-width: 1.42 ;&st7; " /><text style="&st18;" transform="matrix(&st16;  7374.44  390.72 )">A</text><text style="&st18;" transform="matrix(&st16;  7361.96  390.72 )">40</text><text style="&st18;" transform="matrix(&st17;  7491.81  443.3 )">G-B</text><text style="&st18;" transform="matrix(&st16;  7493.42  390.72 )">B</text><text style="&st18;" transform="matrix(&st16;  7484.9  390.72 )">9</text><text style="&st18;" transform="matrix(&st16;  7450.9  390.72 )">6</text><text style="&st18;" transform="matrix(&st16;  7459.42  390.72 )">A</text><text style="&st18;" transform="matrix(&st16;  7408.41  390.72 )">7</text><text style="&st18;" transform="matrix(&st16;  7416.93  390.72 )">A</text><text style="&st18;" transform="matrix(&st16;  7445.11  509.42 )">26</text><text style="&st18;" transform="matrix(&st16;  7457.44  509.42 )">2P</text><text style="&st18;" transform="matrix(&st16;  7445.11  466.93 )">26</text><text style="&st18;" transform="matrix(&st16;  7457.02  466.93 )">2Q</text><text style="&st18;" transform="matrix(&st17;  7458.06  442.03 )">V-R</text><text style="&st18;" transform="matrix(&st17;  7458.06  535.51 )">V-R</text><text style="&st18;" transform="matrix(&st17;  7475.05  135.99 )">R</text><text style="&st18;" transform="matrix(&st17;  7415.32  443.96 )">B-W</text><text style="&st18;" transform="matrix(&st17;  7475.05  203.97 )">R</text><text style="&st18;" transform="matrix(&st16;  7476.28  228.68 )">C</text><text style="&st18;" transform="matrix(&st16;  7468.68  228.68 )">1</text><text style="&st18;" transform="matrix(&st16;  7469.64  32.08 )">(BAT)</text><text style="&st18;" transform="matrix(&st16;  7475.01  152.48 )">2J</text><text style="&st18;" transform="matrix(&st16;  7466.06  152.48 )">8</text><text style="&st18;" transform="matrix(&st16;  7474.02  186.47 )">2Q</text><text style="&st18;" transform="matrix(&st16;  7462.1  186.47 )">25</text><text style="&st18;" transform="matrix(&st16;  7440.53  56.17 )">7.5A <tspan dy="6" x="0">DOME</tspan></text><text style="&st18;" transform="matrix(&st16;  7477.16  109.99 )">1</text><text style="&st18;" transform="matrix(&st16;  7471.96  86.47 )">2</text><text style="&st18;" transform="matrix(&st16;  7280.95  592.99 )">P</text><text style="&st18;" transform="matrix(&st16;  7275.58  474.01 )">B-W</text><text style="&st18;" transform="matrix(&st16;  7268.69  508.0 )">R-B(*13)</text><text style="&st18;" transform="matrix(&st16;  7276.47  542.0 )">V-R</text><text style="&st18;" transform="matrix(&st16;  7276.18  567.49 )">G-B</text><text ewd:textID="19" style="&st18;" transform="matrix(&st17;  7334.83  359.63 )">Check Engine</text><text style="&st18;" transform="matrix(&st17;  7338.84  443.15 )">R-B</text><text style="&st18;" transform="matrix(&st16;  7340.44  390.72 )">A</text><text style="&st18;" transform="matrix(&st16;  7327.97  390.72 )">39</text><text style="&st18;" transform="matrix(&st16;  7276.47  525.0 )">Y-R</text><text style="&st18;" transform="matrix(&st16;  7277.1  578.82 )">(*6)</text><text style="&st18;" transform="matrix(&st17;  7160.61  629.88 )">W-B</text><text style="&st18;" transform="matrix(&st17;  7007.63  465.51 )">BR</text><text style="&st18;" transform="matrix(&st16;  7229.96  592.99 )">P</text><text style="&st18;" transform="matrix(&st17;  7109.62  629.88 )">W-B</text><text style="&st18;" transform="matrix(&st17;  7007.63  418.77 )">BR</text><text style="&st18;" transform="matrix(&st16;  7004.54  400.91 )">5</text><text style="&st18;" transform="matrix(&st16;  7006.24  389.02 )">SG</text><text style="&st18;" transform="matrix(&st17;  7203.1  319.68 )">B-W</text><text style="&st18;" transform="matrix(&st16;  7224.59  474.01 )">B-W</text><text style="&st18;" transform="matrix(&st16;  7217.7  508.0 )">R-B(*13)</text><text style="&st18;" transform="matrix(&st16;  7225.47  542.0 )">V-R</text><text style="&st18;" transform="matrix(&st16;  7225.19  567.49 )">G-B</text><text style="&st18;" transform="matrix(&st16;  7225.47  525.0 )">Y-R</text><text style="&st18;" transform="matrix(&st16;  7226.11  578.82 )">(*6)</text><text style="&st18;" transform="matrix(&st16;  7065.59  366.36 )">CG</text><text style="&st18;" transform="matrix(&st16;  7370.69  32.08 )">(IG)</text><text style="&st18;" transform="matrix(&st16;  7364.85  109.99 )">1</text><text style="&st18;" transform="matrix(&st16;  7372.32  109.99 )">2D</text><text style="&st18;" transform="matrix(&st16;  7344.77  56.17 )">7.5A <tspan dy="6" x="0">MET</tspan></text><text ewd:textID="34" style="&st18;" transform="matrix(&st17;  7368.82  345.46 )">Glow</text><text style="&st18;" transform="matrix(&st17;  7373.07  208.6 )">B-O</text><text style="&st18;" transform="matrix(&st16;  7362.74  228.68 )">21</text><text style="&st18;" transform="matrix(&st16;  7374.29  228.68 )">C</text><text style="&st18;" transform="matrix(&st17;  7372.83  443.12 )">Y-R</text><text style="&st18;" transform="matrix(&st16;  7202.06  271.46 )">2O</text><text style="&st18;" transform="matrix(&st16;  7190.15  271.46 )">22</text><text style="&st18;" transform="matrix(&st16;  7157.51  423.02 )">6</text><text style="&st18;" transform="matrix(&st16;  7038.4  366.36 )">TAC</text><text style="&st18;" transform="matrix(&st16;  7006.74  366.36 )">TC</text><text style="&st18;" transform="matrix(&st16;  7038.53  355.04 )">9</text><text style="&st18;" transform="matrix(&st16;  7001.36  355.04 )">13</text><text style="&st18;" transform="matrix(&st17;  7007.63  318.66 )">P-B</text><text style="&st18;" transform="matrix(&st17;  7041.63  319.68 )">B-W</text><text style="&st18;" transform="matrix(&st16;  7006.6  228.97 )">2Q</text><text style="&st18;" transform="matrix(&st16;  7006.6  271.46 )">2Q</text><text style="&st18;" transform="matrix(&st16;  7040.87  228.97 )">2N</text><text style="&st18;" transform="matrix(&st16;  7032.63  228.97 )">6</text><text style="&st18;" transform="matrix(&st16;  7040.59  271.46 )">2O</text><text style="&st18;" transform="matrix(&st16;  7032.63  271.46 )">6</text><text style="&st18;" transform="matrix(&st17;  7041.63  119.97 )">B-W</text><text style="&st18;" transform="matrix(&st17;  7007.63  118.94 )">P-B</text><text style="&st18;" transform="matrix(&st16;  7009.0  93.27 )">A</text><text style="&st18;" transform="matrix(&st16;  7034.45  93.27 )">4</text><text style="&st18;" transform="matrix(&st16;  7042.99  93.27 )">A</text><text style="&st18;" transform="matrix(&st16;  7006.74  83.07 )">TC</text><text style="&st18;" transform="matrix(&st16;  7035.93  83.07 )">TACH</text><text style="&st18;" transform="matrix(&st17;  7129.42  447.65 )">J29(B)</text><text ewd:textID="38" style="&st18;" transform="matrix(&st17;  7136.53  447.65 )">Junction <tspan dy="6" x="0">Connector</tspan></text><text style="&st18;" transform="matrix(&st16;  7110.98  424.15 )">B</text><text style="&st18;" transform="matrix(&st16;  7103.24  424.15 )">1</text><text style="&st18;" transform="matrix(&st16;  7110.98  450.21 )">B</text><text style="&st18;" transform="matrix(&st16;  7102.46  450.21 )">4</text><text style="&st18;" transform="matrix(&st17;  7109.62  374.23 )">G</text><text style="&st18;" transform="matrix(&st17;  7120.95  379.24 )">(*13)</text><text style="&st18;" transform="matrix(&st17;  7160.61  374.23 )">G</text><text style="&st18;" transform="matrix(&st16;  7064.03  355.04 )">4</text><text style="&st18;" transform="matrix(&st17;  7180.41  447.65 )">J58</text><text ewd:textID="38" style="&st18;" transform="matrix(&st17;  7187.52  447.65 )">Junction <tspan dy="6" x="0">Connector</tspan></text><text style="&st18;" transform="matrix(&st16;  7155.11  451.9 )">11</text><text style="&st18;" transform="matrix(&st17;  7120.95  629.95 )">(*13)</text><text style="&st18;" transform="matrix(&st17;  7171.94  629.95 )">(*14)</text><text style="&st18;" transform="matrix(&st17;  7171.94  379.24 )">(*14)</text><text style="&st18;" transform="matrix(&st16;  7484.72  219.62 )">(*13)</text><text style="&st18;" transform="matrix(&st16;  7476.42  219.62 )">A</text><text style="&st18;" transform="matrix(&st16;  7468.65  219.62 )">1</text><text style="&st18;" transform="matrix(&st16;  7374.44  219.62 )">A</text><text style="&st18;" transform="matrix(&st16;  7362.71  219.62 )">21</text><text style="&st18;" transform="matrix(&st16;  7484.72  228.68 )">(*14)</text><text style="&st18;" transform="matrix(&st16;  7340.3  399.79 )">C</text><text style="&st18;" transform="matrix(&st16;  7327.94  399.79 )">39</text><text style="&st18;" transform="matrix(&st16;  7374.29  399.79 )">C</text><text style="&st18;" transform="matrix(&st16;  7361.93  399.79 )">40</text><text style="&st18;" transform="matrix(&st16;  7416.79  399.79 )">C</text><text style="&st18;" transform="matrix(&st16;  7408.38  399.79 )">7</text><text style="&st18;" transform="matrix(&st16;  7459.28  399.79 )">C</text><text style="&st18;" transform="matrix(&st16;  7450.88  399.79 )">6</text><text style="&st18;" transform="matrix(&st16;  7493.28  399.79 )">D</text><text style="&st18;" transform="matrix(&st16;  7481.69  399.79 )">18</text><text style="&st18;" transform="matrix(&st17;  7350.41  442.98 )">(*13)</text><text style="&st18;" transform="matrix(&st17;  7313.58  442.03 )">R-B</text><text style="&st18;" transform="matrix(&st17;  7324.91  442.98 )">(*14)</text><text style="&st18;" transform="matrix(&st16;  7217.7  491.01 )">R-B(*14)</text><text style="&st18;" transform="matrix(&st16;  7268.69  491.01 )">R-B(*14)</text><text ewd:textID="7" style="&st18;" transform="matrix(&st16;  7085.29  148.23 )">*11 :w/ Blocking System</text><text ewd:textID="8" style="&st18;" transform="matrix(&st16;  7085.29  156.73 )">*12 :w/o Blocking System</text><text ewd:textID="6" style="&st18;" transform="matrix(&st16;  7085.29  139.73 )">* 6 :w/ Accessory Meter</text><text ewd:textID="12" style="&st18;" transform="matrix(&st16;  7085.29  190.72 )">*16 :w/o EGR Cooler</text><text ewd:textID="11" style="&st18;" transform="matrix(&st16;  7085.29  182.22 )">*15 :w/ EGR Cooler</text><text ewd:textID="9" style="&st18;" transform="matrix(&st16;  7085.29  165.23 )">*13 :Before Oct. 2011 Production</text><text ewd:textID="10" style="&st18;" transform="matrix(&st16;  7085.29  173.73 )">*14 :From Oct. 2011 Production</text><text style="&st18;" transform="matrix(&st17;  7384.4  302.76 )">(*14)</text><text style="&st18;" transform="matrix(&st17;  7384.4  268.76 )">(*14)</text><text style="&st18;" transform="matrix(&st17;  7426.9  302.76 )">(*13)</text><text style="&st18;" transform="matrix(&st16;  7424.24  255.88 )">(*14)</text><text style="&st18;" transform="matrix(&st16;  7458.23  255.88 )">(*14)</text><text style="&st18;" transform="matrix(&st16;  7492.23  255.88 )">(*14)</text><text style="&st18;" transform="matrix(&st17;  7486.39  302.76 )">(*13)</text></svg>