﻿<?xml version="1.0" encoding="utf-8"?>
<!DOCTYPE svg PUBLIC "-//W3C//DTD SVG 1.0//EN" "http://www.w3.org/TR/2001/REC-SVG-20010904/DTD/svg10.dtd"[
	<!ENTITY ns_flows "http://ns.adobe.com/Flows/1.0/">
	<!ENTITY ns_svg "http://www.w3.org/2000/svg">
	<!ENTITY ns_xlink "http://www.w3.org/1999/xlink">
	<!ENTITY st0 "font-size:7px;font-family:'MS-PGothic';adobe-font-script:japanese;">
	<!ENTITY st1 "font-size:6px;font-family:'ArialMT';">
	<!-- White fill  -->
	<!ENTITY st2 "fill:#FFFFFF;stroke:#000000; stroke-width:1.41;stroke-linecap:round;stroke-linejoin:round;">
	<!-- Yellow fill  -->
	<!ENTITY st3 "fill:#FFFFCC;stroke:#FFFFCC; stroke-width:0.1;stroke-linecap:round;stroke-linejoin:round;">
	<!-- Gray fill  -->
	<!ENTITY st4 "fill:#CCCCCC;stroke:#CCCCCC; stroke-width:0.1;stroke-linecap:round;stroke-linejoin:round;">
	<!-- Light-blue fill -->
	<!ENTITY st5 "fill:#CCECF4;stroke:#000000; stroke-width:1.133;stroke-linecap:round;stroke-linejoin:round;">
	<!ENTITY st6 "fill:none;stroke-linecap:butt; stroke-linejoin:round;">
	<!ENTITY st7 "fill:none;stroke:#000000;stroke-linecap:round;stroke-linejoin:round;">
	<!ENTITY st8 "enable-background:new    ;">
	<!-- Black fill -->
	<!ENTITY st9 "fill:#000000;stroke:#000000; stroke-linecap:round;stroke-linejoin:round;">
	<!-- SRS note   -->
	<!ENTITY st10 "font-size:9px;font-family:'ArialMT';">
	<!ENTITY st11 "font-size:9px;font-family:'Svg Symbol';">
	<!ENTITY st12 "font-size:6px;font-family:'Svg Symbol';">
	<!ENTITY st13 "fill:none;stroke:#ff0000;stroke-linecap:round;stroke-linejoin:round;">
	<!-- Yellow fill  -->
	<!ENTITY st14 "fill:#FFFF00;stroke:#FFFF00; stroke-width:0.1;stroke-linecap:round;stroke-linejoin:round;">
	<!ENTITY st15 "font-size:6px;font-family:'MS-PGothic';adobe-font-script:japanese;">
	<!ENTITY st16 "1.00 0.00 0.00 1.00">
	<!ENTITY st17 "0.00 -1.00 1.00 0.00">
	<!ENTITY st18 "font-size:6px;font-family:'Arial';">
	<!ENTITY st19 "font-size:9px;font-family:'Arial';">
	<!ENTITY st20 "font-size:6px;font-family:'MS-PGothic','MS PGothic';adobe-font-script:japanese;">
	<!ENTITY st21 "font-size:7px;font-family:'MS-PGothic','MS PGothic';adobe-font-script:japanese;">
	<!ATTLIST svg
		xmlns:ewd CDATA #FIXED "http://shcl.co.jp/ewd"
		xmlns:a CDATA #FIXED "http://ns.adobe.com/AdobeSVGViewerExtensions/3.0/"
		ewd:ver CDATA #IMPLIED
	>
	<!ATTLIST a
		ewd:lineID CDATA #IMPLIED
		ewd:groupID CDATA #IMPLIED
		ewd:figtype CDATA #IMPLIED
		ewd:code CDATA #IMPLIED
		ewd:figID CDATA #IMPLIED
		ewd:pinNo CDATA #IMPLIED
		ewd:comment CDATA #IMPLIED >
	<!ATTLIST g
		ewd:lineID CDATA #IMPLIED
		ewd:groupID CDATA #IMPLIED
		ewd:figtype CDATA #IMPLIED
		ewd:code CDATA #IMPLIED
		ewd:figID CDATA #IMPLIED
		ewd:pinNo CDATA #IMPLIED
		ewd:comment CDATA #IMPLIED >
	<!ATTLIST text
		ewd:textID CDATA #IMPLIED >
	<!ATTLIST title
		ewd:textID CDATA #IMPLIED >
]>
<!-- Generator: Shintec Hozumi YS   -->
<svg onload="call_execInitLoadProc_svg('system')" style="overflow:visible;  enable-background:new 0 0 7768.227 710.000" viewBox="0 0 7768.227 710.000" height="710.000" width="7768.227" xml:space="preserve" ewd:ver="L2.1.2.7" xmlns="&ns_svg;" xmlns:a="http://ns.adobe.com/AdobeSVGViewerExtensions/3.0/" xmlns:ewd="http://shcl.co.jp/ewd" xmlns:xlink="&ns_xlink;">
<path d=" M  484.42,  367.22  L  475.92,  367.22 " style="stroke-width: 1.42 ;&st7; " /><path d=" M  305.95,  367.22  L  314.45,  367.22 " style="stroke-width: 1.42 ;&st7; " /><path d=" M  305.95,  137.76  L  314.45,  137.76 " style="stroke-width: 1.42 ;&st7; " /><path d=" M  373.94,  137.76  L  382.44,  137.76 " style="stroke-width: 1.42 ;&st7; " /><path d=" M  127.48,  154.76  L  135.98,  154.76 " style="stroke-width: 1.42 ;&st7; " /><path d=" M  478.05,  324.73  L  473.80,  324.73 " style="stroke-width: 1.42 ;&st7; " /><path d=" M  478.05,  316.23  L  473.80,  316.23 " style="stroke-width: 1.42 ;&st7; " /><path d=" M  435.55,  324.73  L  431.30,  324.73 " style="stroke-width: 1.42 ;&st7; " /><path d=" M  435.55,  316.23  L  431.30,  316.23 " style="stroke-width: 1.42 ;&st7; " /><path d=" M  384.56,  324.73  L  380.31,  324.73 " style="stroke-width: 1.42 ;&st7; " /><path d=" M  384.56,  316.23  L  380.31,  316.23 " style="stroke-width: 1.42 ;&st7; " /><path d=" M  316.57,  324.73  L  312.32,  324.73 " style="stroke-width: 1.42 ;&st7; " /><path d=" M  316.57,  316.23  L  312.32,  316.23 " style="stroke-width: 1.42 ;&st7; " /><path d=" M   78.61,  384.22  L   74.36,  384.22 " style="stroke-width: 1.42 ;&st7; " /><path d=" M   78.61,  392.72  L   74.36,  392.72 " style="stroke-width: 1.42 ;&st7; " /><path d=" M  104.11,  392.72  L   99.86,  392.72 " style="stroke-width: 1.42 ;&st7; " /><path d=" M  104.11,  384.22  L   99.86,  384.22 " style="stroke-width: 1.42 ;&st7; " /><path d=" M   78.61,  282.24  L   74.36,  282.24 " style="stroke-width: 1.42 ;&st7; " /><path d=" M   78.61,  273.74  L   74.36,  273.74 " style="stroke-width: 1.42 ;&st7; " /><path d=" M  104.11,  282.24  L   99.86,  282.24 " style="stroke-width: 1.42 ;&st7; " /><path d=" M  104.11,  273.74  L   99.86,  273.74 " style="stroke-width: 1.42 ;&st7; " /><path d=" M  101.98,  341.73  L  101.98,  350.23 " style="stroke-width: 0.85 ;&st7; " /><path d=" M  101.98,  316.23  L  101.98,  324.73 " style="stroke-width: 0.85 ;&st7; " /><path d=" M   76.49,  320.48  L   76.49,  316.23 " style="stroke-width: 0.85 ;&st7; " /><path d=" M   76.49,  350.23  L   76.49,  345.98 " style="stroke-width: 0.85 ;&st7; " /><path d=" M   76.49,  343.14  L   70.82,  320.48 " style="stroke-width: 1.42 ;&st7; " /><path d=" M  450.42,  275.16  L  444.76,  252.49 " style="stroke-width: 1.42 ;&st7; " /><path d=" M  450.42,  282.24  L  450.42,  277.99 " style="stroke-width: 0.85 ;&st7; " /><path d=" M  450.42,  252.49  L  450.42,  248.24 " style="stroke-width: 0.85 ;&st7; " /><path d=" M  475.92,  248.24  L  475.92,  256.74 " style="stroke-width: 0.85 ;&st7; " /><path d=" M  475.92,  273.74  L  475.92,  282.24 " style="stroke-width: 0.85 ;&st7; " /><path d=" M  356.94,  275.16  L  351.27,  252.49 " style="stroke-width: 1.42 ;&st7; " /><path d=" M  356.94,  282.24  L  356.94,  277.99 " style="stroke-width: 0.85 ;&st7; " /><path d=" M  356.94,  252.49  L  356.94,  248.24 " style="stroke-width: 0.85 ;&st7; " /><path d=" M  382.44,  248.24  L  382.44,  256.74 " style="stroke-width: 0.85 ;&st7; " /><path d=" M  382.44,  273.74  L  382.44,  282.24 " style="stroke-width: 0.85 ;&st7; " /><path d=" M   67.99,  452.21  L   76.49,  452.21 " style="stroke-width: 1.42 ;&st7; " /><path d=" M  316.57,  214.25  L  312.32,  214.25 " style="stroke-width: 1.42 ;&st7; " /><path d=" M  316.57,  205.75  L  312.32,  205.75 " style="stroke-width: 1.42 ;&st7; " /><path d=" M  384.56,  214.25  L  380.31,  214.25 " style="stroke-width: 1.42 ;&st7; " /><path d=" M  384.56,  205.75  L  380.31,  205.75 " style="stroke-width: 1.42 ;&st7; " /><path d=" M   78.61,  103.77  L   74.36,  103.77 " style="stroke-width: 1.42 ;&st7; " /><path d=" M   78.61,   95.27  L   74.36,   95.27 " style="stroke-width: 1.42 ;&st7; " /><path d=" M   76.49,   69.77  L   76.49,   95.27 " style="stroke-width: 0.85 ;&st7; " /><path d=" M  248.58,  214.25  L  244.33,  214.25 " style="stroke-width: 1.42 ;&st7; " /><path d=" M  248.58,  205.75  L  244.33,  205.75 " style="stroke-width: 1.42 ;&st7; " /><path d=" M  126.29,  536.19  L  126.01,  536.66  L  125.92,  537.20  L  126.01,  537.73  L  126.29,  538.20  L  126.70,  538.54  L  127.21,  538.73  L  127.75,  538.73  L  128.26,  538.54  L  128.67,  538.20  L  128.94,  537.73  L  129.04,  537.20  L  128.94,  536.66  L  128.67,  536.19  L  128.26,  535.85  L  127.75,  535.66  L  127.21,  535.66  L  126.70,  535.85  L  126.29,  536.19  L  126.68,  536.90  L  126.68,  537.49  L  127.05,  537.93  L  127.63,  538.03  L  128.13,  537.74  L  128.33,  537.20  L  128.13,  536.65  L  127.63,  536.36  L  127.05,  536.46  L  127.48,  537.20 " style="stroke-width: 0.85 ;&st7; " /><path d=" M   41.30,  561.69  L   41.03,  562.16  L   40.93,  562.69  L   41.03,  563.22  L   41.30,  563.69  L   41.71,  564.04  L   42.22,  564.23  L   42.76,  564.23  L   43.27,  564.04  L   43.69,  563.69  L   43.96,  563.22  L   44.05,  562.69  L   43.96,  562.16  L   43.69,  561.69  L   43.27,  561.34  L   42.76,  561.16  L   42.22,  561.16  L   41.71,  561.34  L   41.30,  561.69  L   41.69,  562.40  L   41.69,  562.98  L   42.07,  563.43  L   42.64,  563.53  L   43.14,  563.24  L   43.34,  562.69  L   43.14,  562.14  L   42.64,  561.86  L   42.07,  561.95  L   42.49,  562.69 " style="stroke-width: 0.85 ;&st7; " /><path d=" M   58.30,  561.69  L   58.03,  562.16  L   57.93,  562.69  L   58.03,  563.22  L   58.30,  563.69  L   58.71,  564.04  L   59.22,  564.23  L   59.76,  564.23  L   60.27,  564.04  L   60.68,  563.69  L   60.95,  563.22  L   61.05,  562.69  L   60.95,  562.16  L   60.68,  561.69  L   60.27,  561.34  L   59.76,  561.16  L   59.22,  561.16  L   58.71,  561.34  L   58.30,  561.69  L   58.69,  562.40  L   58.69,  562.98  L   59.07,  563.43  L   59.64,  563.53  L   60.14,  563.24  L   60.34,  562.69  L   60.14,  562.14  L   59.64,  561.86  L   59.07,  561.95  L   59.49,  562.69 " style="stroke-width: 0.85 ;&st7; " /><path d=" M   41.30,  527.69  L   41.03,  528.16  L   40.93,  528.70  L   41.03,  529.23  L   41.30,  529.70  L   41.71,  530.05  L   42.22,  530.23  L   42.76,  530.23  L   43.27,  530.05  L   43.69,  529.70  L   43.96,  529.23  L   44.05,  528.70  L   43.96,  528.16  L   43.69,  527.69  L   43.27,  527.35  L   42.76,  527.16  L   42.22,  527.16  L   41.71,  527.35  L   41.30,  527.69  L   41.69,  528.41  L   41.69,  528.99  L   42.07,  529.43  L   42.64,  529.53  L   43.14,  529.24  L   43.34,  528.70  L   43.14,  528.15  L   42.64,  527.86  L   42.07,  527.96  L   42.49,  528.70 " style="stroke-width: 0.85 ;&st7; " /><path d=" M  355.75,  298.23  L  355.48,  298.70  L  355.38,  299.24  L  355.48,  299.77  L  355.75,  300.24  L  356.16,  300.58  L  356.67,  300.77  L  357.21,  300.77  L  357.72,  300.58  L  358.13,  300.24  L  358.40,  299.77  L  358.50,  299.24  L  358.40,  298.70  L  358.13,  298.23  L  357.72,  297.89  L  357.21,  297.70  L  356.67,  297.70  L  356.16,  297.89  L  355.75,  298.23  L  356.14,  298.94  L  356.14,  299.53  L  356.52,  299.97  L  357.09,  300.07  L  357.59,  299.78  L  357.79,  299.24  L  357.59,  298.69  L  357.09,  298.40  L  356.52,  298.50  L  356.94,  299.24 " style="stroke-width: 0.85 ;&st7; " /><path d=" M  245.27,  230.24  L  244.99,  230.71  L  244.90,  231.25  L  244.99,  231.78  L  245.27,  232.25  L  245.68,  232.60  L  246.19,  232.78  L  246.73,  232.78  L  247.24,  232.60  L  247.65,  232.25  L  247.92,  231.78  L  248.02,  231.25  L  247.92,  230.71  L  247.65,  230.24  L  247.24,  229.90  L  246.73,  229.71  L  246.19,  229.71  L  245.68,  229.90  L  245.27,  230.24  L  245.66,  230.96  L  245.66,  231.54  L  246.03,  231.98  L  246.61,  232.08  L  247.11,  231.79  L  247.31,  231.25  L  247.11,  230.70  L  246.61,  230.41  L  246.03,  230.51  L  246.46,  231.25 " style="stroke-width: 0.85 ;&st7; " /><path d=" M  475.92,  311.34  L  473.09,  308.50  L  473.09,  312.75  L  475.92,  315.59  L  478.75,  312.75  L  478.75,  308.50  L  475.92,  311.34 " style="stroke-width: 0.28 ;&st9;" /><path d=" M  433.43,  311.34  L  430.59,  308.50  L  430.59,  312.75  L  433.43,  315.59  L  436.26,  312.75  L  436.26,  308.50  L  433.43,  311.34 " style="stroke-width: 0.28 ;&st9;" /><path d=" M  382.44,  311.34  L  379.60,  308.50  L  379.60,  312.75  L  382.44,  315.59  L  385.27,  312.75  L  385.27,  308.50  L  382.44,  311.34 " style="stroke-width: 0.28 ;&st9;" /><path d=" M  314.45,  311.34  L  311.61,  308.50  L  311.61,  312.75  L  314.45,  315.59  L  317.28,  312.75  L  317.28,  308.50  L  314.45,  311.34 " style="stroke-width: 0.28 ;&st9;" /><path d=" M   76.49,  379.33  L   73.65,  376.49  L   73.65,  380.74  L   76.49,  383.58  L   79.32,  380.74  L   79.32,  376.49  L   76.49,  379.33 " style="stroke-width: 0.28 ;&st9;" /><path d=" M  101.98,  379.33  L   99.15,  376.49  L   99.15,  380.74  L  101.98,  383.58  L  104.82,  380.74  L  104.82,  376.49  L  101.98,  379.33 " style="stroke-width: 0.28 ;&st9;" /><path d=" M   76.49,  287.13  L   79.32,  289.97  L   79.32,  285.72  L   76.49,  282.88  L   73.65,  285.72  L   73.65,  289.97  L   76.49,  287.13 " style="stroke-width: 0.28 ;&st9;" /><path d=" M  101.98,  287.13  L  104.82,  289.97  L  104.82,  285.72  L  101.98,  282.88  L   99.15,  285.72  L   99.15,  289.97  L  101.98,  287.13 " style="stroke-width: 0.28 ;&st9;" /><path d=" M   24.30,  561.69  L   24.03,  562.16  L   23.94,  562.69  L   24.03,  563.22  L   24.30,  563.69  L   24.72,  564.04  L   25.22,  564.23  L   25.77,  564.23  L   26.27,  564.04  L   26.69,  563.69  L   26.96,  563.22  L   27.05,  562.69  L   26.96,  562.16  L   26.69,  561.69  L   26.27,  561.34  L   25.77,  561.16  L   25.22,  561.16  L   24.72,  561.34  L   24.30,  561.69  L   24.70,  562.40  L   24.70,  562.98  L   25.07,  563.43  L   25.64,  563.53  L   26.15,  563.24  L   26.35,  562.69  L   26.15,  562.14  L   25.64,  561.86  L   25.07,  561.95  L   25.50,  562.69 " style="stroke-width: 0.85 ;&st7; " /><path d=" M   75.29,  527.69  L   75.02,  528.16  L   74.93,  528.70  L   75.02,  529.23  L   75.29,  529.70  L   75.71,  530.05  L   76.22,  530.23  L   76.76,  530.23  L   77.27,  530.05  L   77.68,  529.70  L   77.95,  529.23  L   78.05,  528.70  L   77.95,  528.16  L   77.68,  527.69  L   77.27,  527.35  L   76.76,  527.16  L   76.22,  527.16  L   75.71,  527.35  L   75.29,  527.69  L   75.69,  528.41  L   75.69,  528.99  L   76.06,  529.43  L   76.63,  529.53  L   77.14,  529.24  L   77.34,  528.70  L   77.14,  528.15  L   76.63,  527.86  L   76.06,  527.96  L   76.49,  528.70 " style="stroke-width: 0.85 ;&st7; " /><path d=" M   58.30,  527.69  L   58.03,  528.16  L   57.93,  528.70  L   58.03,  529.23  L   58.30,  529.70  L   58.71,  530.05  L   59.22,  530.23  L   59.76,  530.23  L   60.27,  530.05  L   60.68,  529.70  L   60.95,  529.23  L   61.05,  528.70  L   60.95,  528.16  L   60.68,  527.69  L   60.27,  527.35  L   59.76,  527.16  L   59.22,  527.16  L   58.71,  527.35  L   58.30,  527.69  L   58.69,  528.41  L   58.69,  528.99  L   59.07,  529.43  L   59.64,  529.53  L   60.14,  529.24  L   60.34,  528.70  L   60.14,  528.15  L   59.64,  527.86  L   59.07,  527.96  L   59.49,  528.70 " style="stroke-width: 0.85 ;&st7; " /><path d=" M  126.06,  710.00  L  128.90,  710.00 " style="stroke-width: 0.85 ;&st7; " /><path d=" M  124.65,  707.17  L  130.31,  707.17 " style="stroke-width: 0.85 ;&st7; " /><path d=" M  123.23,  704.33  L  131.73,  704.33 " style="stroke-width: 0.85 ;&st7; " /><path d=" M  118.98,  701.50  L  135.98,  701.50 " style="stroke-width: 0.85 ;&st7; " /><path d=" M  127.48,  697.25  L  127.48,  701.50 " style="stroke-width: 0.85 ;&st7; " /><path d=" M  237.96,  146.26  L  254.96,  146.26 " style="stroke-width: 1.13 ;&st7;stroke-dasharray:3, 1.5;" /><path d=" M  246.46,  137.76  L  246.46,  163.26 " style="stroke-width: 0.85 ;&st7; " /><path d=" M  314.45,  219.14  L  317.28,  221.98  L  317.28,  217.73  L  314.45,  214.90  L  311.61,  217.73  L  311.61,  221.98  L  314.45,  219.14 " style="stroke-width: 0.28 ;&st9;" /><path d=" M  237.96,  137.76  L  237.96,  163.26  L  254.96,  163.26  L  254.96,  137.76  L  237.96,  137.76 " style="stroke-width: 1.42 ;&st7; " /><path d=" M   72.24,  443.14  L   76.49,  447.39  L   80.74,  443.14 " style="stroke-width: 1.42 ;&st7; " /><path d=" M   76.49,   90.37  L   73.65,   87.54  L   73.65,   91.79  L   76.49,   94.62  L   79.32,   91.79  L   79.32,   87.54  L   76.49,   90.37 " style="stroke-width: 0.28 ;&st9;" /><path d=" M   76.49,  562.69  L   25.50,  562.69  L   25.50,  571.19 " style="stroke-width: 0.85 ;&st7; " /><path d=" M   76.49,  520.20  L   76.49,  528.70  L   25.50,  528.70 " style="stroke-width: 0.85 ;&st7; " /><path d=" M   84.99,  520.20  L   17.00,  520.20  L   17.00,  571.19  L   84.99,  571.19  L   84.99,  520.20 " style="stroke-width: 1.42 ;&st7; " /><path d=" M   24.08,  588.19  L   26.91,  588.19 " style="stroke-width: 0.85 ;&st7; " /><path d=" M   22.66,  585.35  L   28.33,  585.35 " style="stroke-width: 0.85 ;&st7; " /><path d=" M   21.25,  582.52  L   29.75,  582.52 " style="stroke-width: 0.85 ;&st7; " /><path d=" M   17.00,  579.69  L   33.99,  579.69 " style="stroke-width: 0.85 ;&st7; " /><path d=" M   25.50,  571.19  L   25.50,  579.69 " style="stroke-width: 0.85 ;&st7; " /><path d=" M   25.50,  562.69  L   25.50,  554.19  L   22.66,  552.78  L   28.33,  549.94  L   22.66,  547.11  L   28.33,  544.28  L   22.66,  541.44  L   28.33,  538.61  L   25.50,  537.20  L   25.50,  528.70 " style="stroke-width: 0.85 ;&st7; " /><path d=" M   42.49,  562.69  L   42.49,  554.19  L   39.66,  552.78  L   45.33,  549.94  L   39.66,  547.11  L   45.33,  544.28  L   39.66,  541.44  L   45.33,  538.61  L   42.49,  537.20  L   42.49,  528.70 " style="stroke-width: 0.85 ;&st7; " /><path d=" M   59.49,  562.69  L   59.49,  554.19  L   56.66,  552.78  L   62.32,  549.94  L   56.66,  547.11  L   62.32,  544.28  L   56.66,  541.44  L   62.32,  538.61  L   59.49,  537.20  L   59.49,  528.70 " style="stroke-width: 0.85 ;&st7; " /><path d=" M   76.49,  562.69  L   76.49,  554.19  L   73.65,  552.78  L   79.32,  549.94  L   73.65,  547.11  L   79.32,  544.28  L   73.65,  541.44  L   79.32,  538.61  L   76.49,  537.20  L   76.49,  528.70 " style="stroke-width: 0.85 ;&st7; " /><path d=" M   76.49,  350.23  L   76.49,  384.22 " style="stroke-width: 0.85 ;&st7; " /><path d=" M  237.96,  154.76  L  254.96,  154.76 " style="stroke-width: 1.13 ;&st7;stroke-dasharray:3, 1.5;" /><path d=" M   76.49,  282.24  L   76.49,  316.23 " style="stroke-width: 0.85 ;&st7; " /><path d=" M  101.98,  350.23  L  101.98,  384.22 " style="stroke-width: 0.85 ;&st7; " /><path d=" M  101.98,  316.23  L  101.98,  282.24 " style="stroke-width: 0.85 ;&st7; " /><path d=" M  110.48,  316.23  L   67.99,  316.23  L   67.99,  350.23  L  110.48,  350.23  L  110.48,  316.23 " style="stroke-width: 1.42 ;&st7; " /><path d=" M  450.42,  231.25  L  450.42,  248.24 " style="stroke-width: 0.85 ;&st7; " /><path d=" M  135.98,  537.20  L  127.48,  537.20 " style="stroke-width: 0.85 ;&st7; " /><path d=" M  475.92,  316.23  L  475.92,  282.24 " style="stroke-width: 0.85 ;&st7; " /><path d=" M  313.25,  298.23  L  312.98,  298.70  L  312.89,  299.24  L  312.98,  299.77  L  313.25,  300.24  L  313.67,  300.58  L  314.18,  300.77  L  314.72,  300.77  L  315.23,  300.58  L  315.64,  300.24  L  315.91,  299.77  L  316.01,  299.24  L  315.91,  298.70  L  315.64,  298.23  L  315.23,  297.89  L  314.72,  297.70  L  314.18,  297.70  L  313.67,  297.89  L  313.25,  298.23  L  313.65,  298.94  L  313.65,  299.53  L  314.02,  299.97  L  314.59,  300.07  L  315.10,  299.78  L  315.30,  299.24  L  315.10,  298.69  L  314.59,  298.40  L  314.02,  298.50  L  314.45,  299.24 " style="stroke-width: 0.85 ;&st7; " /><path d=" M  475.92,  231.25  L  407.93,  231.25  L  407.93,  299.24  L  356.94,  299.24 " style="stroke-width: 0.85 ;&st7; " /><path d=" M  450.42,  282.24  L  450.42,  299.24  L  433.43,  299.24  L  433.43,  316.23 " style="stroke-width: 0.85 ;&st7; " /><path d=" M  484.42,  248.24  L  484.42,  282.24  L  441.93,  282.24  L  441.93,  248.24  L  484.42,  248.24 " style="stroke-width: 1.42 ;&st7; " /><path d=" M  475.92,  231.25  L  475.92,  248.24 " style="stroke-width: 0.85 ;&st7; " /><path d=" M  382.44,  282.24  L  382.44,  316.23 " style="stroke-width: 0.85 ;&st7; " /><path d=" M  382.44,  214.25  L  382.44,  248.24 " style="stroke-width: 0.85 ;&st7; " /><path d=" M  246.46,  214.25  L  246.46,  231.25  L  186.97,  231.25  L  186.97,  154.76 " style="stroke-width: 0.85 ;&st7; " /><path d=" M   89.24,   78.27  L   89.24,   35.78  L   63.74,   35.78  L   63.74,   78.27  L   89.24,   78.27 " style="stroke-width: 1.42 ;&st7; " /><path d=" M  314.45,  316.23  L  314.45,  299.24 " style="stroke-width: 0.85 ;&st7; " /><path d=" M  356.94,  299.24  L  356.94,  282.24 " style="stroke-width: 0.85 ;&st7; " /><path d=" M  390.93,  248.24  L  348.44,  248.24  L  348.44,  282.24  L  390.93,  282.24  L  390.93,  248.24 " style="stroke-width: 1.42 ;&st7; " /><path d=" M  356.94,  299.24  L  314.45,  299.24  L  314.45,  214.25 " style="stroke-width: 0.85 ;&st7; " /><path d=" M  246.46,  219.14  L  249.29,  221.98  L  249.29,  217.73  L  246.46,  214.90  L  243.63,  217.73  L  243.63,  221.98  L  246.46,  219.14 " style="stroke-width: 0.28 ;&st9;" /><path d=" M  356.94,  248.24  L  356.94,  231.25  L  246.46,  231.25 " style="stroke-width: 0.85 ;&st7; " /><path d=" M  118.98,  528.70  L  118.98,  545.69  L  135.98,  545.69  L  135.98,  528.70  L  118.98,  528.70 " style="stroke-width: 1.42 ;&st7; " /><path d=" M  127.48,  545.69  L  127.48,  528.70 " style="stroke-width: 0.85 ;&st7; " /><path d=" M   80.74,  446.54  L   76.49,  450.79  L   72.24,  446.54 " style="stroke-width: 1.42 ;&st7; " /><path d=" M  382.44,  219.14  L  385.27,  221.98  L  385.27,  217.73  L  382.44,  214.90  L  379.60,  217.73  L  379.60,  221.98  L  382.44,  219.14 " style="stroke-width: 0.28 ;&st9;" /><path d=" M  118.98,   86.77  L 7062.32,   86.77  L 7062.32,   27.28  L  118.98,   27.28  L  118.98,   86.77 " style="stroke-width: 1.42 ;&st7; " /><path d=" M  480.17,  372.89  L  475.92,  368.64  L  471.67,  372.89 " style="stroke-width: 1.42 ;&st7; " /><path d=" M  480.17,  376.29  L  475.92,  372.04  L  471.67,  376.29 " style="stroke-width: 1.42 ;&st7; " /><path d=" M  310.20,  358.16  L  314.45,  362.41  L  318.70,  358.16 " style="stroke-width: 1.42 ;&st7; " /><path d=" M  318.70,  361.56  L  314.45,  365.81  L  310.20,  361.56 " style="stroke-width: 1.42 ;&st7; " /><path d=" M  186.97,  146.26  L  186.97,  154.76 " style="stroke-width: 0.85 ;&st7; " /><path d=" M  199.72,  154.76  L  174.22,  154.76  L  174.22,  112.27  L  199.72,  112.27  L  199.72,  154.76 " style="stroke-width: 1.42 ;&st7; " /><path d=" M  131.73,  145.69  L  135.98,  149.94  L  140.23,  145.69 " style="stroke-width: 1.42 ;&st7; " /><path d=" M  140.23,  149.09  L  135.98,  153.34  L  131.73,  149.09 " style="stroke-width: 1.42 ;&st7; " /><path d=" M  318.70,  132.10  L  314.45,  136.35  L  310.20,  132.10 " style="stroke-width: 1.42 ;&st7; " /><path d=" M  310.20,  128.70  L  314.45,  132.95  L  318.70,  128.70 " style="stroke-width: 1.42 ;&st7; " /><path d=" M  361.50,  150.51  L  326.88,  150.51 " style="stroke-width: 0.85 ;&st7;stroke-dasharray:3, 1.5;" /><path d=" M  326.88,  142.01  L  361.50,  142.01 " style="stroke-width: 0.85 ;&st7;stroke-dasharray:3, 1.5;" /><path d=" M  386.69,  132.10  L  382.44,  136.35  L  378.19,  132.10 " style="stroke-width: 1.42 ;&st7; " /><path d=" M  378.19,  128.70  L  382.44,  132.95  L  386.69,  128.70 " style="stroke-width: 1.42 ;&st7; " /><path d=" M  449.23,  230.24  L  448.96,  230.71  L  448.87,  231.25  L  448.96,  231.78  L  449.23,  232.25  L  449.65,  232.60  L  450.15,  232.78  L  450.70,  232.78  L  451.20,  232.60  L  451.62,  232.25  L  451.89,  231.78  L  451.98,  231.25  L  451.89,  230.71  L  451.62,  230.24  L  451.20,  229.90  L  450.70,  229.71  L  450.15,  229.71  L  449.65,  229.90  L  449.23,  230.24  L  449.63,  230.96  L  449.63,  231.54  L  450.00,  231.98  L  450.57,  232.08  L  451.08,  231.79  L  451.27,  231.25  L  451.08,  230.70  L  450.57,  230.41  L  450.00,  230.51  L  450.42,  231.25 " style="stroke-width: 0.85 ;&st7; " /><path d=" M   82.86,   99.52  C   82.86    97.17    80.96    95.27    78.61    95.27 " style="stroke-width: 1.42 ;&st7; " /><path d=" M   78.61,  103.77  C   80.96   103.77    82.86   101.87    82.86    99.52 " style="stroke-width: 1.42 ;&st7; " /><path d=" M   70.11,   99.52  C   70.11   101.87    72.02   103.77    74.36   103.77 " style="stroke-width: 1.42 ;&st7; " /><path d=" M   74.36,   95.27  C   72.02    95.27    70.11    97.17    70.11    99.52 " style="stroke-width: 1.42 ;&st7; " /><path d=" M  388.81,  210.00  C  388.81   207.65   386.91   205.75   384.56   205.75 " style="stroke-width: 1.42 ;&st7; " /><path d=" M  384.56,  214.25  C  386.91   214.25   388.81   212.35   388.81   210.00 " style="stroke-width: 1.42 ;&st7; " /><path d=" M  376.06,  210.00  C  376.06   212.35   377.96   214.25   380.31   214.25 " style="stroke-width: 1.42 ;&st7; " /><path d=" M  380.31,  205.75  C  377.96   205.75   376.06   207.65   376.06   210.00 " style="stroke-width: 1.42 ;&st7; " /><path d=" M  252.83,  210.00  C  252.83   207.65   250.93   205.75   248.58   205.75 " style="stroke-width: 1.42 ;&st7; " /><path d=" M  248.58,  214.25  C  250.93   214.25   252.83   212.35   252.83   210.00 " style="stroke-width: 1.42 ;&st7; " /><path d=" M  240.08,  210.00  C  240.08   212.35   241.99   214.25   244.33   214.25 " style="stroke-width: 1.42 ;&st7; " /><path d=" M  244.33,  205.75  C  241.99   205.75   240.08   207.65   240.08   210.00 " style="stroke-width: 1.42 ;&st7; " /><path d=" M  482.29,  320.48  C  482.29   318.13   480.39   316.23   478.05   316.23 " style="stroke-width: 1.42 ;&st7; " /><path d=" M  478.05,  324.73  C  480.39   324.73   482.29   322.83   482.29   320.48 " style="stroke-width: 1.42 ;&st7; " /><path d=" M  469.55,  320.48  C  469.55   322.83   471.45   324.73   473.80   324.73 " style="stroke-width: 1.42 ;&st7; " /><path d=" M  473.80,  316.23  C  471.45   316.23   469.55   318.13   469.55   320.48 " style="stroke-width: 1.42 ;&st7; " /><path d=" M  439.80,  320.48  C  439.80   318.13   437.90   316.23   435.55   316.23 " style="stroke-width: 1.42 ;&st7; " /><path d=" M  435.55,  324.73  C  437.90   324.73   439.80   322.83   439.80   320.48 " style="stroke-width: 1.42 ;&st7; " /><path d=" M  427.05,  320.48  C  427.05   322.83   428.96   324.73   431.30   324.73 " style="stroke-width: 1.42 ;&st7; " /><path d=" M  431.30,  316.23  C  428.96   316.23   427.05   318.13   427.05   320.48 " style="stroke-width: 1.42 ;&st7; " /><path d=" M  388.81,  320.48  C  388.81   318.13   386.91   316.23   384.56   316.23 " style="stroke-width: 1.42 ;&st7; " /><path d=" M  384.56,  324.73  C  386.91   324.73   388.81   322.83   388.81   320.48 " style="stroke-width: 1.42 ;&st7; " /><path d=" M  376.06,  320.48  C  376.06   322.83   377.96   324.73   380.31   324.73 " style="stroke-width: 1.42 ;&st7; " /><path d=" M  380.31,  316.23  C  377.96   316.23   376.06   318.13   376.06   320.48 " style="stroke-width: 1.42 ;&st7; " /><path d=" M  320.82,  320.48  C  320.82   318.13   318.92   316.23   316.57   316.23 " style="stroke-width: 1.42 ;&st7; " /><path d=" M  316.57,  324.73  C  318.92   324.73   320.82   322.83   320.82   320.48 " style="stroke-width: 1.42 ;&st7; " /><path d=" M  308.07,  320.48  C  308.07   322.83   309.98   324.73   312.32   324.73 " style="stroke-width: 1.42 ;&st7; " /><path d=" M  312.32,  316.23  C  309.98   316.23   308.07   318.13   308.07   320.48 " style="stroke-width: 1.42 ;&st7; " /><path d=" M   74.36,  384.22  C   72.02   384.22    70.11   386.12    70.11   388.47 " style="stroke-width: 1.42 ;&st7; " /><path d=" M   70.11,  388.47  C   70.11   390.82    72.02   392.72    74.36   392.72 " style="stroke-width: 1.42 ;&st7; " /><path d=" M   78.61,  392.72  C   80.96   392.72    82.86   390.82    82.86   388.47 " style="stroke-width: 1.42 ;&st7; " /><path d=" M   82.86,  388.47  C   82.86   386.12    80.96   384.22    78.61   384.22 " style="stroke-width: 1.42 ;&st7; " /><path d=" M  108.36,  388.47  C  108.36   386.12   106.45   384.22   104.11   384.22 " style="stroke-width: 1.42 ;&st7; " /><path d=" M  104.11,  392.72  C  106.45   392.72   108.36   390.82   108.36   388.47 " style="stroke-width: 1.42 ;&st7; " /><path d=" M   95.61,  388.47  C   95.61   390.82    97.51   392.72    99.86   392.72 " style="stroke-width: 1.42 ;&st7; " /><path d=" M   99.86,  384.22  C   97.51   384.22    95.61   386.12    95.61   388.47 " style="stroke-width: 1.42 ;&st7; " /><path d=" M   82.86,  277.99  C   82.86   275.64    80.96   273.74    78.61   273.74 " style="stroke-width: 1.42 ;&st7; " /><path d=" M   78.61,  282.24  C   80.96   282.24    82.86   280.34    82.86   277.99 " style="stroke-width: 1.42 ;&st7; " /><path d=" M   70.11,  277.99  C   70.11   280.34    72.02   282.24    74.36   282.24 " style="stroke-width: 1.42 ;&st7; " /><path d=" M   74.36,  273.74  C   72.02   273.74    70.11   275.64    70.11   277.99 " style="stroke-width: 1.42 ;&st7; " /><path d=" M  108.36,  277.99  C  108.36   275.64   106.45   273.74   104.11   273.74 " style="stroke-width: 1.42 ;&st7; " /><path d=" M  104.11,  282.24  C  106.45   282.24   108.36   280.34   108.36   277.99 " style="stroke-width: 1.42 ;&st7; " /><path d=" M   95.61,  277.99  C   95.61   280.34    97.51   282.24    99.86   282.24 " style="stroke-width: 1.42 ;&st7; " /><path d=" M   99.86,  273.74  C   97.51   273.74    95.61   275.64    95.61   277.99 " style="stroke-width: 1.42 ;&st7; " /><path d=" M  250.99,  167.79  C  250.99   165.29   248.96   163.26   246.46   163.26 " style="stroke-width: 1.42 ;&st7; " /><path d=" M  246.46,  163.26  C  243.96   163.26   241.93   165.29   241.93   167.79 " style="stroke-width: 1.42 ;&st7; " /><path d=" M  241.93,  167.79  C  241.93   170.29   243.96   172.32   246.46   172.32 " style="stroke-width: 1.42 ;&st7; " /><path d=" M  246.46,  172.32  C  248.96   172.32   250.99   170.29   250.99   167.79 " style="stroke-width: 1.42 ;&st7; " /><path d=" M  320.82,  210.00  C  320.82   207.65   318.92   205.75   316.57   205.75 " style="stroke-width: 1.42 ;&st7; " /><path d=" M  250.99,  133.23  C  250.99   130.73   248.96   128.70   246.46   128.70 " style="stroke-width: 1.42 ;&st7; " /><path d=" M  246.46,  128.70  C  243.96   128.70   241.93   130.73   241.93   133.23 " style="stroke-width: 1.42 ;&st7; " /><path d=" M  241.93,  133.23  C  241.93   135.73   243.96   137.76   246.46   137.76 " style="stroke-width: 1.42 ;&st7; " /><path d=" M  246.46,  137.76  C  248.96   137.76   250.99   135.73   250.99   133.23 " style="stroke-width: 1.42 ;&st7; " /><path d=" M  101.98,  341.73  C  103.94   341.73   105.52   340.14   105.52   338.19 " style="stroke-width: 0.85 ;&st7; " /><path d=" M  105.52,  338.19  C  105.52   336.23   103.94   334.65   101.98   334.65 " style="stroke-width: 0.85 ;&st7; " /><path d=" M  101.98,  334.65  C  100.99   334.65   100.15   335.00    99.45   335.71 " style="stroke-width: 0.85 ;&st7; " /><path d=" M   99.45,  335.71  C  100.82   337.11   103.06   337.13   104.46   335.76 " style="stroke-width: 0.85 ;&st7; " /><path d=" M  104.46,  335.76  C  105.86   334.39   105.88   332.15   104.51   330.75 " style="stroke-width: 0.85 ;&st7; " /><path d=" M  104.51,  330.75  C  103.14   329.35   100.90   329.33    99.50   330.70 " style="stroke-width: 0.85 ;&st7; " /><path d=" M   99.50,  330.70  C   99.49   330.72    99.47   330.73    99.45   330.75 " style="stroke-width: 0.85 ;&st7; " /><path d=" M   99.45,  330.75  C  100.82   332.15   103.06   332.17   104.46   330.80 " style="stroke-width: 0.85 ;&st7; " /><path d=" M  104.46,  330.80  C  105.86   329.43   105.88   327.19   104.51   325.79 " style="stroke-width: 0.85 ;&st7; " /><path d=" M  104.51,  325.79  C  103.82   325.09   102.97   324.73   101.98   324.73 " style="stroke-width: 0.85 ;&st7; " /><path d=" M   77.90,  321.90  C   77.90   321.12    77.27   320.48    76.49   320.48 " style="stroke-width: 0.85 ;&st7; " /><path d=" M   76.49,  320.48  C   75.70   320.48    75.07   321.12    75.07   321.90 " style="stroke-width: 0.85 ;&st7; " /><path d=" M   75.07,  321.90  C   75.07   322.68    75.70   323.31    76.49   323.31 " style="stroke-width: 0.85 ;&st7; " /><path d=" M   76.49,  323.31  C   77.27   323.31    77.90   322.68    77.90   321.90 " style="stroke-width: 0.85 ;&st7; " /><path d=" M   77.90,  344.56  C   77.90   343.78    77.27   343.14    76.49   343.14 " style="stroke-width: 0.85 ;&st7; " /><path d=" M   76.49,  343.14  C   75.70   343.14    75.07   343.78    75.07   344.56 " style="stroke-width: 0.85 ;&st7; " /><path d=" M   75.07,  344.56  C   75.07   345.34    75.70   345.98    76.49   345.98 " style="stroke-width: 0.85 ;&st7; " /><path d=" M   76.49,  345.98  C   77.27   345.98    77.90   345.34    77.90   344.56 " style="stroke-width: 0.85 ;&st7; " /><path d=" M  451.84,  276.57  C  451.84   275.79   451.21   275.16   450.42   275.16 " style="stroke-width: 0.85 ;&st7; " /><path d=" M  450.42,  275.16  C  449.64   275.16   449.01   275.79   449.01   276.57 " style="stroke-width: 0.85 ;&st7; " /><path d=" M  449.01,  276.57  C  449.01   277.35   449.64   277.99   450.42   277.99 " style="stroke-width: 0.85 ;&st7; " /><path d=" M  450.42,  277.99  C  451.21   277.99   451.84   277.35   451.84   276.57 " style="stroke-width: 0.85 ;&st7; " /><path d=" M  451.84,  253.91  C  451.84   253.13   451.21   252.49   450.42   252.49 " style="stroke-width: 0.85 ;&st7; " /><path d=" M  450.42,  252.49  C  449.64   252.49   449.01   253.13   449.01   253.91 " style="stroke-width: 0.85 ;&st7; " /><path d=" M  449.01,  253.91  C  449.01   254.69   449.64   255.33   450.42   255.33 " style="stroke-width: 0.85 ;&st7; " /><path d=" M  450.42,  255.33  C  451.21   255.33   451.84   254.69   451.84   253.91 " style="stroke-width: 0.85 ;&st7; " /><path d=" M  473.39,  262.76  C  474.76   264.16   477.00   264.18   478.40   262.81 " style="stroke-width: 0.85 ;&st7; " /><path d=" M  478.40,  262.81  C  479.80   261.44   479.82   259.20   478.45   257.80 " style="stroke-width: 0.85 ;&st7; " /><path d=" M  478.45,  257.80  C  477.76   257.10   476.91   256.74   475.92   256.74 " style="stroke-width: 0.85 ;&st7; " /><path d=" M  473.39,  267.72  C  474.76   269.12   477.00   269.14   478.40   267.77 " style="stroke-width: 0.85 ;&st7; " /><path d=" M  478.40,  267.77  C  479.80   266.40   479.82   264.16   478.45   262.76 " style="stroke-width: 0.85 ;&st7; " /><path d=" M  478.45,  262.76  C  477.08   261.37   474.84   261.34   473.44   262.71 " style="stroke-width: 0.85 ;&st7; " /><path d=" M  473.44,  262.71  C  473.42   262.73   473.41   262.74   473.39   262.76 " style="stroke-width: 0.85 ;&st7; " /><path d=" M  475.92,  273.74  C  477.88   273.74   479.46   272.15   479.46   270.20 " style="stroke-width: 0.85 ;&st7; " /><path d=" M  479.46,  270.20  C  479.46   268.24   477.88   266.66   475.92   266.66 " style="stroke-width: 0.85 ;&st7; " /><path d=" M  475.92,  266.66  C  474.93   266.66   474.08   267.01   473.39   267.72 " style="stroke-width: 0.85 ;&st7; " /><path d=" M   76.49,   47.11  C   75.63    50.03    76.29    52.92    78.33    55.18 " style="stroke-width: 1.42 ;&st7; " /><path d=" M   76.49,   47.11  C   74.32    50.13    74.32    54.00    76.49    57.03 " style="stroke-width: 1.42 ;&st7; " /><path d=" M   76.49,   47.11  C   72.77    49.88    71.95    55.10    74.65    58.87 " style="stroke-width: 1.42 ;&st7; " /><path d=" M  316.57,  214.25  C  318.92   214.25   320.82   212.35   320.82   210.00 " style="stroke-width: 1.42 ;&st7; " /><path d=" M  308.07,  210.00  C  308.07   212.35   309.98   214.25   312.32   214.25 " style="stroke-width: 1.42 ;&st7; " /><path d=" M  312.32,  205.75  C  309.98   205.75   308.07   207.65   308.07   210.00 " style="stroke-width: 1.42 ;&st7; " /><path d=" M  358.36,  276.57  C  358.36   275.79   357.72   275.16   356.94   275.16 " style="stroke-width: 0.85 ;&st7; " /><path d=" M  356.94,  275.16  C  356.16   275.16   355.52   275.79   355.52   276.57 " style="stroke-width: 0.85 ;&st7; " /><path d=" M  355.52,  276.57  C  355.52   277.35   356.16   277.99   356.94   277.99 " style="stroke-width: 0.85 ;&st7; " /><path d=" M  356.94,  277.99  C  357.72   277.99   358.36   277.35   358.36   276.57 " style="stroke-width: 0.85 ;&st7; " /><path d=" M  358.36,  253.91  C  358.36   253.13   357.72   252.49   356.94   252.49 " style="stroke-width: 0.85 ;&st7; " /><path d=" M  356.94,  252.49  C  356.16   252.49   355.52   253.13   355.52   253.91 " style="stroke-width: 0.85 ;&st7; " /><path d=" M  355.52,  253.91  C  355.52   254.69   356.16   255.33   356.94   255.33 " style="stroke-width: 0.85 ;&st7; " /><path d=" M  356.94,  255.33  C  357.72   255.33   358.36   254.69   358.36   253.91 " style="stroke-width: 0.85 ;&st7; " /><path d=" M  379.91,  262.76  C  381.28   264.16   383.52   264.18   384.91   262.81 " style="stroke-width: 0.85 ;&st7; " /><path d=" M  384.91,  262.81  C  386.31   261.44   386.33   259.20   384.97   257.80 " style="stroke-width: 0.85 ;&st7; " /><path d=" M  384.97,  257.80  C  384.27   257.10   383.43   256.74   382.44   256.74 " style="stroke-width: 0.85 ;&st7; " /><path d=" M  379.91,  267.72  C  381.28   269.12   383.52   269.14   384.91   267.77 " style="stroke-width: 0.85 ;&st7; " /><path d=" M  384.91,  267.77  C  386.31   266.40   386.33   264.16   384.97   262.76 " style="stroke-width: 0.85 ;&st7; " /><path d=" M  384.97,  262.76  C  383.60   261.37   381.35   261.34   379.96   262.71 " style="stroke-width: 0.85 ;&st7; " /><path d=" M  379.96,  262.71  C  379.94   262.73   379.92   262.74   379.91   262.76 " style="stroke-width: 0.85 ;&st7; " /><path d=" M  382.44,  273.74  C  384.39   273.74   385.98   272.15   385.98   270.20 " style="stroke-width: 0.85 ;&st7; " /><path d=" M  385.98,  270.20  C  385.98   268.24   384.39   266.66   382.44   266.66 " style="stroke-width: 0.85 ;&st7; " /><path d=" M  382.44,  266.66  C  381.45   266.66   380.60   267.01   379.91   267.72 " style="stroke-width: 0.85 ;&st7; " /><path d=" M   76.49,   66.94  C   80.20    64.17    81.02    58.96    78.33    55.19 " style="stroke-width: 1.42 ;&st7; " /><path d=" M   76.49,   66.94  C   78.66    63.92    78.66    60.05    76.49    57.03 " style="stroke-width: 1.42 ;&st7; " /><path d=" M   76.49,   66.94  C   77.34    64.02    76.68    61.13    74.64    58.87 " style="stroke-width: 1.42 ;&st7; " /><path d=" M   77.90,   45.69  C   77.90    44.91    77.27    44.28    76.49    44.28 " style="stroke-width: 0.85 ;&st7; " /><path d=" M   76.49,   44.28  C   75.70    44.28    75.07    44.91    75.07    45.69 " style="stroke-width: 0.85 ;&st7; " /><path d=" M   75.07,   45.69  C   75.07    46.48    75.70    47.11    76.49    47.11 " style="stroke-width: 0.85 ;&st7; " /><path d=" M   76.49,   47.11  C   77.27    47.11    77.90    46.48    77.90    45.69 " style="stroke-width: 0.85 ;&st7; " /><path d=" M   77.90,   68.36  C   77.90    67.57    77.27    66.94    76.49    66.94 " style="stroke-width: 0.85 ;&st7; " /><path d=" M   76.49,   66.94  C   75.70    66.94    75.07    67.57    75.07    68.36 " style="stroke-width: 0.85 ;&st7; " /><path d=" M   75.07,   68.36  C   75.07    69.14    75.70    69.77    76.49    69.77 " style="stroke-width: 0.85 ;&st7; " /><path d=" M   76.49,   69.77  C   77.27    69.77    77.90    69.14    77.90    68.36 " style="stroke-width: 0.85 ;&st7; " /><path d=" M  186.97,  123.60  C  184.23   125.21   183.32   128.74   184.93   131.48 " style="stroke-width: 1.42 ;&st7; " /><path d=" M  184.93,  131.48  C  185.45   132.36   186.09   132.99   186.97   133.51 " style="stroke-width: 1.42 ;&st7; " /><path d=" M  186.97,  143.43  C  189.71   141.81   190.62   138.29   189.01   135.55 " style="stroke-width: 1.42 ;&st7; " /><path d=" M  189.01,  135.55  C  188.49   134.67   187.85   134.03   186.97   133.51 " style="stroke-width: 1.42 ;&st7; " /><path d=" M  188.39,  122.18  C  188.39   121.40   187.75   120.77   186.97   120.77 " style="stroke-width: 0.85 ;&st7; " /><path d=" M  186.97,  120.77  C  186.19   120.77   185.55   121.40   185.55   122.18 " style="stroke-width: 0.85 ;&st7; " /><path d=" M  185.55,  122.18  C  185.55   122.96   186.19   123.60   186.97   123.60 " style="stroke-width: 0.85 ;&st7; " /><path d=" M  186.97,  123.60  C  187.75   123.60   188.39   122.96   188.39   122.18 " style="stroke-width: 0.85 ;&st7; " /><path d=" M  188.39,  144.84  C  188.39   144.06   187.75   143.43   186.97   143.43 " style="stroke-width: 0.85 ;&st7; " /><path d=" M  186.97,  143.43  C  186.19   143.43   185.55   144.06   185.55   144.84 " style="stroke-width: 0.85 ;&st7; " /><path d=" M  185.55,  144.84  C  185.55   145.63   186.19   146.26   186.97   146.26 " style="stroke-width: 0.85 ;&st7; " /><path d=" M  186.97,  146.26  C  187.75   146.26   188.39   145.63   188.39   144.84 " style="stroke-width: 0.85 ;&st7; " /><path d=" M  386.97,   91.30  C  386.97    88.80   384.94    86.77   382.44    86.77 " style="stroke-width: 1.42 ;&st7; " /><path d=" M  382.44,   86.77  C  379.93    86.77   377.90    88.80   377.90    91.30 " style="stroke-width: 1.42 ;&st7; " /><path d=" M  377.90,   91.30  C  377.90    93.81   379.93    95.84   382.44    95.84 " style="stroke-width: 1.42 ;&st7; " /><path d=" M  382.44,   95.84  C  384.94    95.84   386.97    93.81   386.97    91.30 " style="stroke-width: 1.42 ;&st7; " /><path d=" M  318.98,   91.30  C  318.98    88.80   316.95    86.77   314.45    86.77 " style="stroke-width: 1.42 ;&st7; " /><path d=" M  314.45,   86.77  C  311.94    86.77   309.91    88.80   309.91    91.30 " style="stroke-width: 1.42 ;&st7; " /><path d=" M  309.91,   91.30  C  309.91    93.81   311.94    95.84   314.45    95.84 " style="stroke-width: 1.42 ;&st7; " /><path d=" M  314.45,   95.84  C  316.95    95.84   318.98    93.81   318.98    91.30 " style="stroke-width: 1.42 ;&st7; " /><path d=" M  250.99,   91.30  C  250.99    88.80   248.96    86.77   246.46    86.77 " style="stroke-width: 1.42 ;&st7; " /><path d=" M  246.46,   86.77  C  243.96    86.77   241.93    88.80   241.93    91.30 " style="stroke-width: 1.42 ;&st7; " /><path d=" M  241.93,   91.30  C  241.93    93.81   243.96    95.84   246.46    95.84 " style="stroke-width: 1.42 ;&st7; " /><path d=" M  246.46,   95.84  C  248.96    95.84   250.99    93.81   250.99    91.30 " style="stroke-width: 1.42 ;&st7; " /><path d=" M  140.51,   91.30  C  140.51    88.80   138.48    86.77   135.98    86.77 " style="stroke-width: 1.42 ;&st7; " /><path d=" M  135.98,   86.77  C  133.47    86.77   131.44    88.80   131.44    91.30 " style="stroke-width: 1.42 ;&st7; " /><path d=" M  131.44,   91.30  C  131.44    93.81   133.47    95.84   135.98    95.84 " style="stroke-width: 1.42 ;&st7; " /><path d=" M  135.98,   95.84  C  138.48    95.84   140.51    93.81   140.51    91.30 " style="stroke-width: 1.42 ;&st7; " /><text style="&st18;" transform="matrix(&st16;  62.45  458.43 )">1</text><text style="&st18;" transform="matrix(&st16;  301.76  211.97 )">4</text><text style="&st18;" transform="matrix(&st16;  311.09  211.97 )">1J</text><text style="&st18;" transform="matrix(&st16;  235.61  169.76 )">6</text><text style="&st18;" transform="matrix(&st16;  244.13  135.2 )">B</text><text style="&st18;" transform="matrix(&st16;  64.57  101.49 )">1</text><text style="&st18;" transform="matrix(&st16;  72.14  101.49 )">1G</text><text style="&st18;" transform="matrix(&st16;  37.49  56.17 )">80A <tspan dy="6" x="0">GLOW</tspan></text><text style="&st18;" transform="matrix(&st16;  234.55  211.97 )">1</text><text style="&st18;" transform="matrix(&st16;  243.1  211.97 )">1J</text><text style="&st18;" transform="matrix(&st16;  138.81  533.51 )">7</text><text style="&st18;" transform="matrix(&st16;  187.77  533.5 )">W-B</text><text style="&st18;" transform="matrix(&st16;  70.48  516.51 )">1</text><text style="&st18;" transform="matrix(&st17;  98.29  259.21 )">R</text><text style="&st18;" transform="matrix(&st17;  72.79  259.07 )">B</text><text style="&st18;" transform="matrix(&st17;  98.29  425.92 )">W-B</text><text style="&st18;" transform="matrix(&st17;  72.79  425.03 )">B-R</text><text ewd:textID="33" style="&st18;" transform="matrix(&st16;  43.16  332.37 )">GLOW <tspan dy="6" x="0">Relay</tspan></text><text style="&st18;" transform="matrix(&st16;  244.13  169.76 )">A</text><text style="&st18;" transform="matrix(&st16;  69.7  312.54 )">5</text><text style="&st18;" transform="matrix(&st16;  69.7  358.42 )">3</text><text style="&st18;" transform="matrix(&st16;  95.19  312.54 )">2</text><text style="&st18;" transform="matrix(&st16;  95.97  358.42 )">1</text><text style="&st18;" transform="matrix(&st17;  429.73  344.06 )">B</text><text style="&st18;" transform="matrix(&st16;  369.75  211.97 )">2</text><text style="&st18;" transform="matrix(&st17;  472.23  349.43 )">B-W</text><text style="&st18;" transform="matrix(&st17;  123.78  621.38 )">W-B</text><text style="&st18;" transform="matrix(&st17;  72.79  493.02 )">B-R</text><text style="&st18;" transform="matrix(&st16;  379.08  211.97 )">1J</text><text style="&st18;" transform="matrix(&st17;  310.75  344.06 )">B</text><text style="&st18;" transform="matrix(&st17;  378.74  349.43 )">W-B</text><text style="&st18;" transform="matrix(&st17;  378.74  196.88 )">W-G</text><text style="&st18;" transform="matrix(&st17;  242.76  190.73 )">L</text><text style="&st18;" transform="matrix(&st17;  262.57  174.28 )">J 5(A),J 6(B)</text><text style="&st18;" transform="matrix(&st17;  310.75  191.08 )">B</text><text ewd:textID="24" style="&st18;" transform="matrix(&st16;  420.98  264.38 )">EDU <tspan dy="6" x="0">Relay</tspan></text><text style="&st18;" transform="matrix(&st17;  242.76  114.24 )">L</text><text style="&st18;" transform="matrix(&st16;  121.47  553.89 )">1</text><text style="&st18;" transform="matrix(&st16;  120.69  525.01 )">4</text><text ewd:textID="39" style="&st18;" transform="matrix(&st16;  327.5  264.38 )">MAIN <tspan dy="6" x="0">Relay</tspan></text><text ewd:textID="26" style="&st18;" transform="matrix(&st16;  243.93  58.99 )">Engine ECU</text><text ewd:textID="35" style="&st18;" transform="matrix(&st16;  22.97  516.5 )">Glow Plug</text><text ewd:textID="38" style="&st18;" transform="matrix(&st16;  133.45  560.41 )">Junction <tspan dy="6" x="0">Connector</tspan></text><text ewd:textID="38" style="&st18;" transform="matrix(&st17;  269.68  174.28 )">Junction <tspan dy="6" x="0">Connector</tspan></text><text ewd:textID="1" style="&st18;" transform="matrix(&st16;  303.42  632.65 )">* 1 :Shielded</text><text style="&st18;" transform="matrix(&st16;  243.93  51.89 )">E 4(A),E 5(B),E 6(C),E 7(D)</text><text style="&st18;" transform="matrix(&st16;  463.23  322.45 )">7</text><text style="&st18;" transform="matrix(&st16;  472.56  322.45 )">1J</text><text style="&st18;" transform="matrix(&st16;  420.74  322.45 )">8</text><text style="&st18;" transform="matrix(&st16;  430.07  322.45 )">1J</text><text style="&st18;" transform="matrix(&st16;  369.75  322.45 )">3</text><text style="&st18;" transform="matrix(&st16;  379.08  322.45 )">1J</text><text style="&st18;" transform="matrix(&st16;  301.76  322.45 )">5</text><text style="&st18;" transform="matrix(&st16;  311.09  322.45 )">1J</text><text style="&st18;" transform="matrix(&st16;  74.9  390.44 )">1</text><text style="&st18;" transform="matrix(&st16;  100.39  390.44 )">1</text><text style="&st18;" transform="matrix(&st16;  74.9  279.96 )">1</text><text style="&st18;" transform="matrix(&st16;  100.39  279.96 )">1</text><text style="&st18;" transform="matrix(&st16;  133.45  553.3 )">J 1</text><text style="&st18;" transform="matrix(&st16;  22.97  509.4 )">G 1</text><text style="&st18;" transform="matrix(&st16;  235.61  135.2 )">2</text><text style="&st18;" transform="matrix(&st16;  67.37  32.08 )">(BAT)</text><text style="&st18;" transform="matrix(&st16;  461.11  364.94 )">2</text><text style="&st18;" transform="matrix(&st16;  299.63  373.44 )">8</text><text style="&st18;" transform="matrix(&st16;  177.86  108.57 )">(BAT)</text><text style="&st18;" transform="matrix(&st16;  180.18  162.95 )">2</text><text style="&st18;" transform="matrix(&st16;  204.27  132.66 )">25A <tspan dy="6" x="0">EFI</tspan></text><text style="&st18;" transform="matrix(&st16;  117.98  160.98 )">12</text><text style="&st18;" transform="matrix(&st16;  372.76  83.07 )">MREL</text><text style="&st18;" transform="matrix(&st16;  380.1  93.27 )">A</text><text style="&st18;" transform="matrix(&st16;  371.59  93.27 )">8</text><text style="&st18;" transform="matrix(&st16;  310.1  83.07 )">+B</text><text style="&st18;" transform="matrix(&st16;  312.12  93.27 )">A</text><text style="&st18;" transform="matrix(&st16;  304.38  93.27 )">1</text><text style="&st18;" transform="matrix(&st16;  237.56  83.07 )">BATT</text><text style="&st18;" transform="matrix(&st16;  244.13  93.27 )">B</text><text style="&st18;" transform="matrix(&st16;  235.61  93.27 )">2</text><text style="&st18;" transform="matrix(&st16;  126.44  83.07 )">GREL</text><text style="&st18;" transform="matrix(&st16;  133.65  93.27 )">A</text><text style="&st18;" transform="matrix(&st16;  121.95  93.27 )">15</text><text style="&st18;" transform="matrix(&st17;  378.74  120.39 )">W-G</text><text style="&st18;" transform="matrix(&st17;  310.75  114.6 )">B</text><text style="&st18;" transform="matrix(&st17;  132.28  114.74 )">R</text><text style="&st18;" transform="matrix(&st16;  490.59  542.0 )">B</text><text style="&st18;" transform="matrix(&st16;  485.22  389.02 )">B-W</text><text ewd:textID="12" style="&st18;" transform="matrix(&st16;  303.42  666.64 )">*16 :w/o EGR Cooler</text><text ewd:textID="11" style="&st18;" transform="matrix(&st16;  303.42  658.14 )">*15 :w/ EGR Cooler</text><text ewd:textID="9" style="&st18;" transform="matrix(&st16;  303.42  641.15 )">*13 :Before Oct. 2011 Production</text><text ewd:textID="10" style="&st18;" transform="matrix(&st16;  303.42  649.65 )">*14 :From Oct. 2011 Production</text><text style="&st18;" transform="matrix(&st16;  490.59  406.02 )">B</text><text style="&st18;" transform="matrix(&st16;  300.41  152.48 )">1</text><text style="&st18;" transform="matrix(&st16;  300.41  143.98 )">1</text><text style="&st18;" transform="matrix(&st16;  392.35  152.48 )">(*14)</text><text style="&st18;" transform="matrix(&st16;  392.35  143.98 )">(*13)</text><text style="&st18;" transform="matrix(&st16;  365.22  152.48 )">11</text><text style="&st18;" transform="matrix(&st16;  364.44  143.98 )">14</text></svg>