﻿<?xml version="1.0" encoding="utf-8"?>
<!DOCTYPE svg PUBLIC "-//W3C//DTD SVG 1.0//EN" "http://www.w3.org/TR/2001/REC-SVG-20010904/DTD/svg10.dtd"[
	<!ENTITY ns_flows "http://ns.adobe.com/Flows/1.0/">
	<!ENTITY ns_svg "http://www.w3.org/2000/svg">
	<!ENTITY ns_xlink "http://www.w3.org/1999/xlink">
	<!ENTITY st0 "font-size:7px;font-family:'MS-PGothic';adobe-font-script:japanese;">
	<!ENTITY st1 "font-size:6px;font-family:'ArialMT';">
	<!-- White fill  -->
	<!ENTITY st2 "fill:#FFFFFF;stroke:#000000; stroke-width:1.41;stroke-linecap:round;stroke-linejoin:round;">
	<!-- Yellow fill  -->
	<!ENTITY st3 "fill:#FFFFCC;stroke:#FFFFCC; stroke-width:0.1;stroke-linecap:round;stroke-linejoin:round;">
	<!-- Gray fill  -->
	<!ENTITY st4 "fill:#CCCCCC;stroke:#CCCCCC; stroke-width:0.1;stroke-linecap:round;stroke-linejoin:round;">
	<!-- Light-blue fill -->
	<!ENTITY st5 "fill:#CCECF4;stroke:#000000; stroke-width:1.133;stroke-linecap:round;stroke-linejoin:round;">
	<!ENTITY st6 "fill:none;stroke-linecap:butt; stroke-linejoin:round;">
	<!ENTITY st7 "fill:none;stroke:#000000;stroke-linecap:round;stroke-linejoin:round;">
	<!ENTITY st8 "enable-background:new    ;">
	<!-- Black fill -->
	<!ENTITY st9 "fill:#000000;stroke:#000000; stroke-linecap:round;stroke-linejoin:round;">
	<!-- SRS note   -->
	<!ENTITY st10 "font-size:9px;font-family:'ArialMT';">
	<!ENTITY st11 "font-size:9px;font-family:'Svg Symbol';">
	<!ENTITY st12 "font-size:6px;font-family:'Svg Symbol';">
	<!ENTITY st13 "fill:none;stroke:#ff0000;stroke-linecap:round;stroke-linejoin:round;">
	<!-- Yellow fill  -->
	<!ENTITY st14 "fill:#FFFF00;stroke:#FFFF00; stroke-width:0.1;stroke-linecap:round;stroke-linejoin:round;">
	<!ENTITY st15 "font-size:6px;font-family:'MS-PGothic';adobe-font-script:japanese;">
	<!ENTITY st16 "1.00 0.00 0.00 1.00">
	<!ENTITY st17 "0.00 -1.00 1.00 0.00">
	<!ENTITY st18 "font-size:6px;font-family:'Arial';">
	<!ENTITY st19 "font-size:9px;font-family:'Arial';">
	<!ENTITY st20 "font-size:6px;font-family:'MS-PGothic','MS PGothic';adobe-font-script:japanese;">
	<!ENTITY st21 "font-size:7px;font-family:'MS-PGothic','MS PGothic';adobe-font-script:japanese;">
	<!ATTLIST svg
		xmlns:ewd CDATA #FIXED "http://shcl.co.jp/ewd"
		xmlns:a CDATA #FIXED "http://ns.adobe.com/AdobeSVGViewerExtensions/3.0/"
		ewd:ver CDATA #IMPLIED
	>
	<!ATTLIST a
		ewd:lineID CDATA #IMPLIED
		ewd:groupID CDATA #IMPLIED
		ewd:figtype CDATA #IMPLIED
		ewd:code CDATA #IMPLIED
		ewd:figID CDATA #IMPLIED
		ewd:pinNo CDATA #IMPLIED
		ewd:comment CDATA #IMPLIED >
	<!ATTLIST g
		ewd:lineID CDATA #IMPLIED
		ewd:groupID CDATA #IMPLIED
		ewd:figtype CDATA #IMPLIED
		ewd:code CDATA #IMPLIED
		ewd:figID CDATA #IMPLIED
		ewd:pinNo CDATA #IMPLIED
		ewd:comment CDATA #IMPLIED >
	<!ATTLIST text
		ewd:textID CDATA #IMPLIED >
	<!ATTLIST title
		ewd:textID CDATA #IMPLIED >
]>
<!-- Generator: Shintec Hozumi YS   -->
<svg onload="call_execInitLoadProc_svg('system')" style="overflow:visible;  enable-background:new 0 0 7768.227 710.000" viewBox="0 0 7768.227 710.000" height="710.000" width="7768.227" xml:space="preserve" ewd:ver="L2.1.2.7" xmlns="&ns_svg;" xmlns:a="http://ns.adobe.com/AdobeSVGViewerExtensions/3.0/" xmlns:ewd="http://shcl.co.jp/ewd" xmlns:xlink="&ns_xlink;">
<path d=" M 4854.81,  214.25  L 4850.56,  214.25 " style="stroke-width: 1.42 ;&st7; " /><path d=" M 4852.69,  171.76  L 4852.69,  205.75 " style="stroke-width: 0.85 ;&st7; " /><path d=" M 4854.81,  205.75  L 4850.56,  205.75 " style="stroke-width: 1.42 ;&st7; " /><path d=" M 4852.69,  294.99  L 4852.69,  290.74 " style="stroke-width: 0.85 ;&st7; " /><path d=" M 4852.69,  324.73  L 4852.69,  320.48 " style="stroke-width: 0.85 ;&st7; " /><path d=" M 4852.69,  317.65  L 4847.02,  294.99 " style="stroke-width: 1.42 ;&st7; " /><path d=" M 4795.32,  214.25  L 4791.07,  214.25 " style="stroke-width: 1.42 ;&st7; " /><path d=" M 4795.32,  205.75  L 4791.07,  205.75 " style="stroke-width: 1.42 ;&st7; " /><path d=" M 4793.20,  171.76  L 4793.20,  205.75 " style="stroke-width: 0.85 ;&st7; " /><path d=" M 4744.33,  205.75  L 4740.08,  205.75 " style="stroke-width: 1.42 ;&st7; " /><path d=" M 4744.33,  214.25  L 4740.08,  214.25 " style="stroke-width: 1.42 ;&st7; " /><path d=" M 4793.20,  317.65  L 4794.89,  293.53 " style="stroke-width: 1.42 ;&st7; " /><path d=" M 4793.20,  294.99  L 4793.20,  290.74 " style="stroke-width: 0.85 ;&st7; " /><path d=" M 4793.20,  324.73  L 4793.20,  320.48 " style="stroke-width: 0.85 ;&st7; " /><path d=" M 4534.71,  452.21  L 4529.74,  457.18 " style="stroke-width: 1.42 ;&st7; " /><path d=" M 4541.77,  469.21  L 4546.74,  464.24 " style="stroke-width: 1.42 ;&st7; " /><path d=" M 4529.74,  464.24  L 4534.71,  469.21 " style="stroke-width: 1.42 ;&st7; " /><path d=" M 4546.74,  457.18  L 4541.77,  452.21 " style="stroke-width: 1.42 ;&st7; " /><path d=" M 4931.30,  333.23  L 4927.05,  333.23 " style="stroke-width: 1.42 ;&st7; " /><path d=" M 4931.30,  299.24  L 4927.05,  299.24 " style="stroke-width: 1.42 ;&st7; " /><path d=" M 4931.30,  290.74  L 4927.05,  290.74 " style="stroke-width: 1.42 ;&st7; " /><path d=" M 4931.30,  324.73  L 4927.05,  324.73 " style="stroke-width: 1.42 ;&st7; " /><path d=" M 4971.67,  282.24  L 4980.17,  282.24 " style="stroke-width: 1.42 ;&st7; " /><path d=" M 4792.00,  187.75  L 4791.73,  188.22  L 4791.64,  188.75  L 4791.73,  189.29  L 4792.00,  189.76  L 4792.42,  190.10  L 4792.93,  190.29  L 4793.47,  190.29  L 4793.98,  190.10  L 4794.39,  189.76  L 4794.66,  189.29  L 4794.76,  188.75  L 4794.66,  188.22  L 4794.39,  187.75  L 4793.98,  187.41  L 4793.47,  187.22  L 4792.93,  187.22  L 4792.42,  187.41  L 4792.00,  187.75  L 4792.40,  188.46  L 4792.40,  189.05  L 4792.77,  189.49  L 4793.34,  189.59  L 4793.85,  189.30  L 4794.05,  188.75  L 4793.85,  188.21  L 4793.34,  187.92  L 4792.77,  188.02  L 4793.20,  188.75 " style="stroke-width: 0.85 ;&st7; " /><path d=" M 4929.17,  324.73  L 4929.17,  299.24 " style="stroke-width: 0.85 ;&st7; " /><path d=" M 4865.44,  180.26  L 4865.44,  137.76  L 4839.94,  137.76  L 4839.94,  180.26  L 4865.44,  180.26 " style="stroke-width: 1.42 ;&st7; " /><path d=" M 4852.69,  200.86  L 4849.85,  198.02  L 4849.85,  202.27  L 4852.69,  205.11  L 4855.52,  202.27  L 4855.52,  198.02  L 4852.69,  200.86 " style="stroke-width: 0.28 ;&st9;" /><path d=" M 4850.21,  307.73  L 4793.89,  307.73 " style="stroke-width: 0.85 ;&st7;stroke-dasharray:3, 1.5;" /><path d=" M 4861.19,  324.73  L 4861.19,  290.74  L 4784.70,  290.74  L 4784.70,  324.73  L 4861.19,  324.73 " style="stroke-width: 1.42 ;&st7; " /><path d=" M 4742.21,  200.86  L 4739.37,  198.02  L 4739.37,  202.27  L 4742.21,  205.11  L 4745.04,  202.27  L 4745.04,  198.02  L 4742.21,  200.86 " style="stroke-width: 0.28 ;&st9;" /><path d=" M 4793.20,  200.86  L 4790.36,  198.02  L 4790.36,  202.27  L 4793.20,  205.11  L 4796.03,  202.27  L 4796.03,  198.02  L 4793.20,  200.86 " style="stroke-width: 0.28 ;&st9;" /><path d=" M 4805.94,  180.26  L 4805.94,  137.76  L 4780.45,  137.76  L 4780.45,  180.26  L 4805.94,  180.26 " style="stroke-width: 1.42 ;&st7; " /><path d=" M 4793.20,  188.75  L 4742.21,  188.75  L 4742.21,  205.75 " style="stroke-width: 0.85 ;&st7; " /><path d=" M 4929.17,  319.84  L 4926.34,  317.00  L 4926.34,  321.25  L 4929.17,  324.09  L 4932.01,  321.25  L 4932.01,  317.00  L 4929.17,  319.84 " style="stroke-width: 0.28 ;&st9;" /><path d=" M 4929.17,  304.13  L 4932.01,  306.96  L 4932.01,  302.71  L 4929.17,  299.88  L 4926.34,  302.71  L 4926.34,  306.96  L 4929.17,  304.13 " style="stroke-width: 0.28 ;&st9;" /><path d=" M 4984.42,  276.57  L 4980.17,  280.82  L 4975.92,  276.57 " style="stroke-width: 1.42 ;&st7; " /><path d=" M 4975.92,  273.17  L 4980.17,  277.42  L 4984.42,  273.17 " style="stroke-width: 1.42 ;&st7; " /><path d=" M 4854.11,  319.07  C 4854.11   318.28  4853.47   317.65  4852.69   317.65 " style="stroke-width: 0.85 ;&st7; " /><path d=" M 4852.69,  317.65  C 4851.91   317.65  4851.27   318.28  4851.27   319.07 " style="stroke-width: 0.85 ;&st7; " /><path d=" M 4851.27,  319.07  C 4851.27   319.85  4851.91   320.48  4852.69   320.48 " style="stroke-width: 0.85 ;&st7; " /><path d=" M 4852.69,  320.48  C 4853.47   320.48  4854.11   319.85  4854.11   319.07 " style="stroke-width: 0.85 ;&st7; " /><path d=" M 4799.57,  210.00  C 4799.57   207.65  4797.67   205.75  4795.32   205.75 " style="stroke-width: 1.42 ;&st7; " /><path d=" M 4795.32,  214.25  C 4797.67   214.25  4799.57   212.35  4799.57   210.00 " style="stroke-width: 1.42 ;&st7; " /><path d=" M 4786.83,  210.00  C 4786.83   212.35  4788.73   214.25  4791.07   214.25 " style="stroke-width: 1.42 ;&st7; " /><path d=" M 4791.07,  205.75  C 4788.73   205.75  4786.83   207.65  4786.83   210.00 " style="stroke-width: 1.42 ;&st7; " /><path d=" M 4794.62,  170.34  C 4794.62   169.56  4793.98   168.92  4793.20   168.92 " style="stroke-width: 0.85 ;&st7; " /><path d=" M 4793.20,  168.92  C 4792.42   168.92  4791.78   169.56  4791.78   170.34 " style="stroke-width: 0.85 ;&st7; " /><path d=" M 4791.78,  170.34  C 4791.78   171.12  4792.42   171.76  4793.20   171.76 " style="stroke-width: 0.85 ;&st7; " /><path d=" M 4793.20,  171.76  C 4793.98   171.76  4794.62   171.12  4794.62   170.34 " style="stroke-width: 0.85 ;&st7; " /><path d=" M 4794.62,  147.68  C 4794.62   146.90  4793.98   146.26  4793.20   146.26 " style="stroke-width: 0.85 ;&st7; " /><path d=" M 4793.20,  146.26  C 4792.42   146.26  4791.78   146.90  4791.78   147.68 " style="stroke-width: 0.85 ;&st7; " /><path d=" M 4791.78,  147.68  C 4791.78   148.46  4792.42   149.09  4793.20   149.09 " style="stroke-width: 0.85 ;&st7; " /><path d=" M 4793.20,  149.09  C 4793.98   149.09  4794.62   148.46  4794.62   147.68 " style="stroke-width: 0.85 ;&st7; " /><path d=" M 4793.20,  168.92  C 4795.94   167.31  4796.85   163.78  4795.24   161.05 " style="stroke-width: 1.42 ;&st7; " /><path d=" M 4795.24,  161.05  C 4794.72   160.16  4794.08   159.53  4793.20   159.01 " style="stroke-width: 1.42 ;&st7; " /><path d=" M 4793.20,  149.09  C 4790.46   150.71  4789.55   154.23  4791.16   156.97 " style="stroke-width: 1.42 ;&st7; " /><path d=" M 4791.16,  156.97  C 4791.68   157.85  4792.32   158.49  4793.20   159.01 " style="stroke-width: 1.42 ;&st7; " /><path d=" M 4740.08,  205.75  C 4737.74   205.75  4735.83   207.65  4735.83   210.00 " style="stroke-width: 1.42 ;&st7; " /><path d=" M 4735.83,  210.00  C 4735.83   212.35  4737.74   214.25  4740.08   214.25 " style="stroke-width: 1.42 ;&st7; " /><path d=" M 4744.33,  214.25  C 4746.68   214.25  4748.58   212.35  4748.58   210.00 " style="stroke-width: 1.42 ;&st7; " /><path d=" M 4748.58,  210.00  C 4748.58   207.65  4746.68   205.75  4744.33   205.75 " style="stroke-width: 1.42 ;&st7; " /><path d=" M 4794.62,  296.40  C 4794.62   295.62  4793.98   294.99  4793.20   294.99 " style="stroke-width: 0.85 ;&st7; " /><path d=" M 4793.20,  294.99  C 4792.42   294.99  4791.78   295.62  4791.78   296.40 " style="stroke-width: 0.85 ;&st7; " /><path d=" M 4791.78,  296.40  C 4791.78   297.18  4792.42   297.82  4793.20   297.82 " style="stroke-width: 0.85 ;&st7; " /><path d=" M 4793.20,  297.82  C 4793.98   297.82  4794.62   297.18  4794.62   296.40 " style="stroke-width: 0.85 ;&st7; " /><path d=" M 4794.62,  319.07  C 4794.62   318.28  4793.98   317.65  4793.20   317.65 " style="stroke-width: 0.85 ;&st7; " /><path d=" M 4793.20,  317.65  C 4792.42   317.65  4791.78   318.28  4791.78   319.07 " style="stroke-width: 0.85 ;&st7; " /><path d=" M 4791.78,  319.07  C 4791.78   319.85  4792.42   320.48  4793.20   320.48 " style="stroke-width: 0.85 ;&st7; " /><path d=" M 4793.20,  320.48  C 4793.98   320.48  4794.62   319.85  4794.62   319.07 " style="stroke-width: 0.85 ;&st7; " /><path d=" M 4542.77,   91.30  C 4542.77    88.80  4540.74    86.77  4538.24    86.77 " style="stroke-width: 1.42 ;&st7; " /><path d=" M 4538.24,   86.77  C 4535.74    86.77  4533.71    88.80  4533.71    91.30 " style="stroke-width: 1.42 ;&st7; " /><path d=" M 4533.71,   91.30  C 4533.71    93.81  4535.74    95.84  4538.24    95.84 " style="stroke-width: 1.42 ;&st7; " /><path d=" M 4538.24,   95.84  C 4540.74    95.84  4542.77    93.81  4542.77    91.30 " style="stroke-width: 1.42 ;&st7; " /><path d=" M 4500.28,   91.30  C 4500.28    88.80  4498.25    86.77  4495.75    86.77 " style="stroke-width: 1.42 ;&st7; " /><path d=" M 4859.06,  210.00  C 4859.06   207.65  4857.16   205.75  4854.81   205.75 " style="stroke-width: 1.42 ;&st7; " /><path d=" M 4854.11,  170.34  C 4854.11   169.56  4853.47   168.92  4852.69   168.92 " style="stroke-width: 0.85 ;&st7; " /><path d=" M 4852.69,  168.92  C 4851.91   168.92  4851.27   169.56  4851.27   170.34 " style="stroke-width: 0.85 ;&st7; " /><path d=" M 4851.27,  170.34  C 4851.27   171.12  4851.91   171.76  4852.69   171.76 " style="stroke-width: 0.85 ;&st7; " /><path d=" M 4852.69,  171.76  C 4853.47   171.76  4854.11   171.12  4854.11   170.34 " style="stroke-width: 0.85 ;&st7; " /><path d=" M 4852.69,  149.09  C 4849.95   150.71  4849.04   154.23  4850.65   156.97 " style="stroke-width: 1.42 ;&st7; " /><path d=" M 4850.65,  156.97  C 4851.17   157.85  4851.81   158.49  4852.69   159.01 " style="stroke-width: 1.42 ;&st7; " /><path d=" M 4850.56,  205.75  C 4848.22   205.75  4846.32   207.65  4846.32   210.00 " style="stroke-width: 1.42 ;&st7; " /><path d=" M 4846.32,  210.00  C 4846.32   212.35  4848.22   214.25  4850.56   214.25 " style="stroke-width: 1.42 ;&st7; " /><path d=" M 4854.81,  214.25  C 4857.16   214.25  4859.06   212.35  4859.06   210.00 " style="stroke-width: 1.42 ;&st7; " /><path d=" M 4854.11,  147.68  C 4854.11   146.90  4853.47   146.26  4852.69   146.26 " style="stroke-width: 0.85 ;&st7; " /><path d=" M 4852.69,  146.26  C 4851.91   146.26  4851.27   146.90  4851.27   147.68 " style="stroke-width: 0.85 ;&st7; " /><path d=" M 4851.27,  147.68  C 4851.27   148.46  4851.91   149.09  4852.69   149.09 " style="stroke-width: 0.85 ;&st7; " /><path d=" M 4852.69,  149.09  C 4853.47   149.09  4854.11   148.46  4854.11   147.68 " style="stroke-width: 0.85 ;&st7; " /><path d=" M 4852.69,  168.92  C 4855.43   167.31  4856.34   163.78  4854.73   161.05 " style="stroke-width: 1.42 ;&st7; " /><path d=" M 4854.73,  161.05  C 4854.21   160.16  4853.57   159.53  4852.69   159.01 " style="stroke-width: 1.42 ;&st7; " /><path d=" M 4854.11,  296.40  C 4854.11   295.62  4853.47   294.99  4852.69   294.99 " style="stroke-width: 0.85 ;&st7; " /><path d=" M 4852.69,  294.99  C 4851.91   294.99  4851.27   295.62  4851.27   296.40 " style="stroke-width: 0.85 ;&st7; " /><path d=" M 4851.27,  296.40  C 4851.27   297.18  4851.91   297.82  4852.69   297.82 " style="stroke-width: 0.85 ;&st7; " /><path d=" M 4852.69,  297.82  C 4853.47   297.82  4854.11   297.18  4854.11   296.40 " style="stroke-width: 0.85 ;&st7; " /><path d=" M 4927.05,  290.74  C 4924.70   290.74  4922.80   292.64  4922.80   294.99 " style="stroke-width: 1.42 ;&st7; " /><path d=" M 4922.80,  294.99  C 4922.80   297.33  4924.70   299.24  4927.05   299.24 " style="stroke-width: 1.42 ;&st7; " /><path d=" M 4931.30,  299.24  C 4933.65   299.24  4935.55   297.33  4935.55   294.99 " style="stroke-width: 1.42 ;&st7; " /><path d=" M 4931.30,  333.23  C 4933.65   333.23  4935.55   331.33  4935.55   328.98 " style="stroke-width: 1.42 ;&st7; " /><path d=" M 4935.55,  328.98  C 4935.55   326.63  4933.65   324.73  4931.30   324.73 " style="stroke-width: 1.42 ;&st7; " /><path d=" M 4935.55,  294.99  C 4935.55   292.64  4933.65   290.74  4931.30   290.74 " style="stroke-width: 1.42 ;&st7; " /><path d=" M 4927.05,  324.73  C 4924.70   324.73  4922.80   326.63  4922.80   328.98 " style="stroke-width: 1.42 ;&st7; " /><path d=" M 4922.80,  328.98  C 4922.80   331.33  4924.70   333.23  4927.05   333.23 " style="stroke-width: 1.42 ;&st7; " /><path d=" M 4704.25,   91.30  C 4704.25    88.80  4702.22    86.77  4699.71    86.77 " style="stroke-width: 1.42 ;&st7; " /><path d=" M 4699.71,   86.77  C 4697.21    86.77  4695.18    88.80  4695.18    91.30 " style="stroke-width: 1.42 ;&st7; " /><path d=" M 4695.18,   91.30  C 4695.18    93.81  4697.21    95.84  4699.71    95.84 " style="stroke-width: 1.42 ;&st7; " /><path d=" M 4699.71,   95.84  C 4702.22    95.84  4704.25    93.81  4704.25    91.30 " style="stroke-width: 1.42 ;&st7; " /><path d=" M 4984.70,   91.30  C 4984.70    88.80  4982.67    86.77  4980.17    86.77 " style="stroke-width: 1.42 ;&st7; " /><path d=" M 4980.17,   86.77  C 4977.66    86.77  4975.64    88.80  4975.64    91.30 " style="stroke-width: 1.42 ;&st7; " /><path d=" M 4975.64,   91.30  C 4975.64    93.81  4977.66    95.84  4980.17    95.84 " style="stroke-width: 1.42 ;&st7; " /><path d=" M 4980.17,   95.84  C 4982.67    95.84  4984.70    93.81  4984.70    91.30 " style="stroke-width: 1.42 ;&st7; " /><path d=" M 4933.71,   91.30  C 4933.71    88.80  4931.68    86.77  4929.18    86.77 " style="stroke-width: 1.42 ;&st7; " /><path d=" M 4929.18,   86.77  C 4926.67    86.77  4924.64    88.80  4924.64    91.30 " style="stroke-width: 1.42 ;&st7; " /><path d=" M 4924.64,   91.30  C 4924.64    93.81  4926.67    95.84  4929.18    95.84 " style="stroke-width: 1.42 ;&st7; " /><path d=" M 4929.18,   95.84  C 4931.68    95.84  4933.71    93.81  4933.71    91.30 " style="stroke-width: 1.42 ;&st7; " /><text style="&st18;" transform="matrix(&st16;  4787.12  134.07 )">(IG)</text><text style="&st18;" transform="matrix(&st16;  4843.58  134.07 )">(BAT)</text><text style="&st18;" transform="matrix(&st16;  4527.39  93.27 )">7</text><text style="&st18;" transform="matrix(&st16;  4535.77  93.27 )">D</text><text style="&st18;" transform="matrix(&st17;  4534.55  519.4 )">W-B</text><text style="&st18;" transform="matrix(&st16;  4532.34  83.07 )">E01</text><text style="&st18;" transform="matrix(&st17;  4534.55  400.42 )">W-B</text><text style="&st18;" transform="matrix(&st16;  4846.68  332.92 )">1</text><text style="&st18;" transform="matrix(&st16;  4845.89  287.05 )">2</text><text style="&st18;" transform="matrix(&st16;  4848.59  211.97 )">2F</text><text style="&st18;" transform="matrix(&st16;  4840.0  211.97 )">2</text><text style="&st18;" transform="matrix(&st16;  4816.31  158.15 )">10A <tspan dy="6" x="0">STOP</tspan></text><text style="&st18;" transform="matrix(&st17;  4848.99  379.6 )">G-W</text><text style="&st18;" transform="matrix(&st17;  4848.99  255.34 )">G-B</text><text style="&st18;" transform="matrix(&st16;  4864.33  301.18 )">S14</text><text style="&st18;" transform="matrix(&st16;  4786.4  287.05 )">3</text><text style="&st18;" transform="matrix(&st16;  4786.41  332.92 )">4</text><text style="&st18;" transform="matrix(&st17;  4789.5  377.94 )">R-L</text><text style="&st18;" transform="matrix(&st16;  4690.28  83.07 )">IGSW</text><text style="&st18;" transform="matrix(&st16;  4688.84  93.27 )">9</text><text style="&st18;" transform="matrix(&st16;  4697.38  93.27 )">A</text><text style="&st18;" transform="matrix(&st16;  4737.9  211.97 )">2S</text><text style="&st18;" transform="matrix(&st16;  4725.56  211.97 )">22</text><text style="&st18;" transform="matrix(&st17;  4789.5  255.34 )">B-O</text><text style="&st18;" transform="matrix(&st17;  4738.51  255.34 )">B-O</text><text style="&st18;" transform="matrix(&st16;  4780.51  211.97 )">6</text><text style="&st18;" transform="matrix(&st16;  4788.32  211.97 )">2M</text><text style="&st18;" transform="matrix(&st16;  4761.27  158.15 )">7.5A <tspan dy="6" x="0">IGN</tspan></text><text ewd:textID="43" style="&st18;" transform="matrix(&st16;  4864.33  308.29 )">Stop <tspan dy="6" x="0">Lamp SW</tspan></text><text style="&st18;" transform="matrix(&st16;  4635.42  618.48 )">BR</text><text style="&st18;" transform="matrix(&st16;  4686.41  618.48 )">BR</text><text style="&st18;" transform="matrix(&st16;  4924.87  296.96 )">2S</text><text style="&st18;" transform="matrix(&st17;  4925.48  256.37 )">G-W</text><text style="&st18;" transform="matrix(&st16;  4916.49  330.95 )">5</text><text style="&st18;" transform="matrix(&st16;  4913.31  296.96 )">21</text><text style="&st18;" transform="matrix(&st16;  4924.3  330.95 )">2M</text><text style="&st18;" transform="matrix(&st17;  4925.48  379.6 )">G-W</text><text style="&st18;" transform="matrix(&st17;  4976.47  377.94 )">R-L</text><text style="&st18;" transform="matrix(&st17;  4976.47  254.71 )">R-L</text><text style="&st18;" transform="matrix(&st16;  4977.84  93.27 )">B</text><text style="&st18;" transform="matrix(&st16;  4966.11  93.27 )">14</text><text style="&st18;" transform="matrix(&st16;  4972.11  83.07 )">ST1-</text><text style="&st18;" transform="matrix(&st16;  4926.85  93.27 )">B</text><text style="&st18;" transform="matrix(&st16;  4915.12  93.27 )">15</text><text style="&st18;" transform="matrix(&st16;  4922.39  83.07 )">STP</text><text style="&st18;" transform="matrix(&st16;  4858.66  51.89 )">E 4(A),E 5(B),E 6(C),E 7(D)</text><text ewd:textID="26" style="&st18;" transform="matrix(&st16;  4858.66  58.99 )">Engine ECU</text><text style="&st18;" transform="matrix(&st17;  4560.04  516.5 )">BR</text><text style="&st18;" transform="matrix(&st16;  4990.08  296.96 )">(*14)</text><text style="&st18;" transform="matrix(&st16;  4990.08  288.46 )">(*13)</text><text style="&st18;" transform="matrix(&st16;  4962.17  296.96 )">19</text><text style="&st18;" transform="matrix(&st16;  4965.35  288.46 )">4</text><text ewd:textID="10" style="&st18;" transform="matrix(&st16;  4731.18  547.66 )">*14 :From Oct. 2011 Production</text><text ewd:textID="9" style="&st18;" transform="matrix(&st16;  4731.18  539.16 )">*13 :Before Oct. 2011 Production</text><text ewd:textID="1" style="&st18;" transform="matrix(&st16;  4731.18  530.67 )">* 1 :Shielded</text></svg>