﻿<?xml version="1.0" encoding="utf-8"?>
<!DOCTYPE svg PUBLIC "-//W3C//DTD SVG 1.0//EN" "http://www.w3.org/TR/2001/REC-SVG-20010904/DTD/svg10.dtd"[
	<!ENTITY ns_flows "http://ns.adobe.com/Flows/1.0/">
	<!ENTITY ns_svg "http://www.w3.org/2000/svg">
	<!ENTITY ns_xlink "http://www.w3.org/1999/xlink">
	<!ENTITY st0 "font-size:7px;font-family:'MS-PGothic';adobe-font-script:japanese;">
	<!ENTITY st1 "font-size:6px;font-family:'ArialMT';">
	<!-- White fill  -->
	<!ENTITY st2 "fill:#FFFFFF;stroke:#000000; stroke-width:1.41;stroke-linecap:round;stroke-linejoin:round;">
	<!-- Yellow fill  -->
	<!ENTITY st3 "fill:#FFFFCC;stroke:#FFFFCC; stroke-width:0.1;stroke-linecap:round;stroke-linejoin:round;">
	<!-- Gray fill  -->
	<!ENTITY st4 "fill:#CCCCCC;stroke:#CCCCCC; stroke-width:0.1;stroke-linecap:round;stroke-linejoin:round;">
	<!-- Light-blue fill -->
	<!ENTITY st5 "fill:#CCECF4;stroke:#000000; stroke-width:1.133;stroke-linecap:round;stroke-linejoin:round;">
	<!ENTITY st6 "fill:none;stroke-linecap:butt; stroke-linejoin:round;">
	<!ENTITY st7 "fill:none;stroke:#000000;stroke-linecap:round;stroke-linejoin:round;">
	<!ENTITY st8 "enable-background:new    ;">
	<!-- Black fill -->
	<!ENTITY st9 "fill:#000000;stroke:#000000; stroke-linecap:round;stroke-linejoin:round;">
	<!-- SRS note   -->
	<!ENTITY st10 "font-size:9px;font-family:'ArialMT';">
	<!ENTITY st11 "font-size:9px;font-family:'Svg Symbol';">
	<!ENTITY st12 "font-size:6px;font-family:'Svg Symbol';">
	<!ENTITY st13 "fill:none;stroke:#ff0000;stroke-linecap:round;stroke-linejoin:round;">
	<!-- Yellow fill  -->
	<!ENTITY st14 "fill:#FFFF00;stroke:#FFFF00; stroke-width:0.1;stroke-linecap:round;stroke-linejoin:round;">
	<!ENTITY st15 "font-size:6px;font-family:'MS-PGothic';adobe-font-script:japanese;">
	<!ENTITY st16 "1.00 0.00 0.00 1.00">
	<!ENTITY st17 "0.00 -1.00 1.00 0.00">
	<!ENTITY st18 "font-size:6px;font-family:'Arial';">
	<!ENTITY st19 "font-size:9px;font-family:'Arial';">
	<!ENTITY st20 "font-size:6px;font-family:'MS-PGothic','MS PGothic';adobe-font-script:japanese;">
	<!ENTITY st21 "font-size:7px;font-family:'MS-PGothic','MS PGothic';adobe-font-script:japanese;">
	<!ATTLIST svg
		xmlns:ewd CDATA #FIXED "http://shcl.co.jp/ewd"
		xmlns:a CDATA #FIXED "http://ns.adobe.com/AdobeSVGViewerExtensions/3.0/"
		ewd:ver CDATA #IMPLIED
	>
	<!ATTLIST a
		ewd:lineID CDATA #IMPLIED
		ewd:groupID CDATA #IMPLIED
		ewd:figtype CDATA #IMPLIED
		ewd:code CDATA #IMPLIED
		ewd:figID CDATA #IMPLIED
		ewd:pinNo CDATA #IMPLIED
		ewd:comment CDATA #IMPLIED >
	<!ATTLIST g
		ewd:lineID CDATA #IMPLIED
		ewd:groupID CDATA #IMPLIED
		ewd:figtype CDATA #IMPLIED
		ewd:code CDATA #IMPLIED
		ewd:figID CDATA #IMPLIED
		ewd:pinNo CDATA #IMPLIED
		ewd:comment CDATA #IMPLIED >
	<!ATTLIST text
		ewd:textID CDATA #IMPLIED >
	<!ATTLIST title
		ewd:textID CDATA #IMPLIED >
]>
<!-- Generator: Shintec Hozumi YS   -->
<svg onload="call_execInitLoadProc_svg('system')" style="overflow:visible;  enable-background:new 0 0 4113.838 710.000" viewBox="0 0 4113.838 710.000" height="710.000" width="4113.838" xml:space="preserve" ewd:ver="L2.1.2.7" xmlns="&ns_svg;" xmlns:a="http://ns.adobe.com/AdobeSVGViewerExtensions/3.0/" xmlns:ewd="http://shcl.co.jp/ewd" xmlns:xlink="&ns_xlink;">
<path d=" M 2235.13,  443.71  L 2133.14,  443.71  L 2133.14,  409.72  L 2235.13,  409.72  L 2235.13,  443.71 " style="stroke:#000000;stroke-width: 0.85 ;&st7;stroke-dasharray:3, 1.5;" /><path d=" M 2005.66,  571.76  L 2005.66,  605.18  L 2260.62,  605.18  L 2260.62,  452.21 " style="stroke:#000000;stroke-width: 0.85 ;&st7;stroke-dasharray:3, 1.5;" /><path d=" M 2031.16,  519.63  L 2031.16,  486.20  L 2133.14,  486.20  L 2133.14,  443.71 " style="stroke:#000000;stroke-width: 0.85 ;&st7;stroke-dasharray:3, 1.5;" /><path d=" M 2269.12,  443.71  L 2362.61,  443.71  L 2362.61,  409.72  L 2260.62,  409.72  L 2260.62,  435.21 " style="stroke:#000000;stroke-width: 0.85 ;&st7;stroke-dasharray:3, 1.5;" /><path d=" M 2296.74,  112.27  L 2292.49,  112.27 " style="stroke-width: 1.42 ;&st7; " /><path d=" M 2294.62,   69.77  L 2294.62,  103.77 " style="stroke-width: 0.85 ;&st7; " /><path d=" M 2296.74,  273.74  L 2292.49,  273.74 " style="stroke-width: 1.42 ;&st7; " /><path d=" M 2296.74,  239.75  L 2292.49,  239.75 " style="stroke-width: 1.42 ;&st7; " /><path d=" M 2296.74,  248.24  L 2292.49,  248.24 " style="stroke-width: 1.42 ;&st7; " /><path d=" M 2296.74,  103.77  L 2292.49,  103.77 " style="stroke-width: 1.42 ;&st7; " /><path d=" M 2296.74,  282.24  L 2292.49,  282.24 " style="stroke-width: 1.42 ;&st7; " /><path d=" M 2294.62,  159.01  L 2294.62,  154.76 " style="stroke-width: 0.85 ;&st7; " /><path d=" M 2294.62,  188.75  L 2294.62,  184.50 " style="stroke-width: 0.85 ;&st7; " /><path d=" M 2294.62,  181.67  L 2288.95,  159.01 " style="stroke-width: 1.42 ;&st7; " /><path d=" M 2237.25,  112.27  L 2233.00,  112.27 " style="stroke-width: 1.42 ;&st7; " /><path d=" M 2237.25,  103.77  L 2233.00,  103.77 " style="stroke-width: 1.42 ;&st7; " /><path d=" M 2235.13,   69.77  L 2235.13,  103.77 " style="stroke-width: 0.85 ;&st7; " /><path d=" M 2186.26,  103.77  L 2182.01,  103.77 " style="stroke-width: 1.42 ;&st7; " /><path d=" M 2186.26,  112.27  L 2182.01,  112.27 " style="stroke-width: 1.42 ;&st7; " /><path d=" M 2243.63,  248.24  L 2235.13,  248.24 " style="stroke-width: 1.42 ;&st7; " /><path d=" M 2235.13,  181.67  L 2236.82,  157.56 " style="stroke-width: 1.42 ;&st7; " /><path d=" M 2235.13,  159.01  L 2235.13,  154.76 " style="stroke-width: 0.85 ;&st7; " /><path d=" M 2235.13,  188.75  L 2235.13,  184.50 " style="stroke-width: 0.85 ;&st7; " /><path d=" M 2257.10,  435.21  L 2252.12,  440.18 " style="stroke-width: 1.42 ;&st7; " /><path d=" M 2264.15,  452.21  L 2269.12,  447.24 " style="stroke-width: 1.42 ;&st7; " /><path d=" M 2252.12,  447.24  L 2257.09,  452.21 " style="stroke-width: 1.42 ;&st7; " /><path d=" M 2269.12,  440.18  L 2264.15,  435.21 " style="stroke-width: 1.42 ;&st7; " /><path d=" M 2444.06,  486.20  L 2439.09,  491.18 " style="stroke-width: 1.42 ;&st7; " /><path d=" M 2451.12,  503.20  L 2456.09,  498.23 " style="stroke-width: 1.42 ;&st7; " /><path d=" M 2439.09,  498.23  L 2444.06,  503.20 " style="stroke-width: 1.42 ;&st7; " /><path d=" M 2456.09,  491.18  L 2451.12,  486.20 " style="stroke-width: 1.42 ;&st7; " /><path d=" M 2158.64,  486.20  L 2158.64,  494.70 " style="stroke-width: 0.85 ;&st7; " /><path d=" M 2158.64,  460.71  L 2158.64,  469.21 " style="stroke-width: 0.85 ;&st7; " /><path d=" M 2167.14,  486.20  L 2167.14,  477.71 " style="stroke-width: 1.42 ;&st7; " /><path d=" M 2150.14,  486.20  L 2150.14,  477.71 " style="stroke-width: 1.42 ;&st7; " /><path d=" M 2167.14,  469.21  L 2167.14,  477.71 " style="stroke-width: 1.42 ;&st7; " /><path d=" M 2150.14,  469.21  L 2150.14,  477.71 " style="stroke-width: 1.42 ;&st7; " /><path d=" M 2150.14,  248.24  L 2150.14,  239.75 " style="stroke-width: 0.85 ;&st7; " /><path d=" M 2150.14,  222.75  L 2150.14,  214.25 " style="stroke-width: 0.85 ;&st7; " /><path d=" M 2031.16,  562.69  L 2031.16,  528.70 " style="stroke-width: 0.85 ;&st7; " /><path d=" M 2005.66,  562.69  L 2005.66,  528.70 " style="stroke-width: 0.85 ;&st7; " /><path d=" M 2005.34,  546.59  L 2005.34,  544.80  L 2005.99,  544.80  L 2005.99,  546.59 " style="stroke-width: 0.85 ;&st7; " /><path d=" M 2030.84,  546.59  L 2030.84,  544.80  L 2031.48,  544.80  L 2031.48,  546.59 " style="stroke-width: 0.85 ;&st7; " /><path d=" M 2132.82,  444.61  L 2132.82,  442.81  L 2133.47,  442.81  L 2133.47,  444.61 " style="stroke-width: 0.85 ;&st7; " /><path d=" M 2446.17,  710.00  L 2449.01,  710.00 " style="stroke-width: 0.85 ;&st7; " /><path d=" M 2444.76,  707.17  L 2450.42,  707.17 " style="stroke-width: 0.85 ;&st7; " /><path d=" M 2443.34,  704.33  L 2451.84,  704.33 " style="stroke-width: 0.85 ;&st7; " /><path d=" M 2439.09,  701.50  L 2456.09,  701.50 " style="stroke-width: 0.85 ;&st7; " /><path d=" M 2447.59,  697.25  L 2447.59,  701.50 " style="stroke-width: 0.85 ;&st7; " /><path d=" M 2362.60,  460.71  L 2294.62,  460.71  L 2294.62,  494.70  L 2362.60,  494.70  L 2362.60,  460.71 " style="stroke-width: 1.42 ;&st7; " /><path d=" M 2307.36,   78.27  L 2307.36,   35.78  L 2281.87,   35.78  L 2281.87,   78.27  L 2307.36,   78.27 " style="stroke-width: 1.42 ;&st7; " /><path d=" M 2294.62,  273.74  L 2294.62,  248.24 " style="stroke-width: 0.85 ;&st7; " /><path d=" M 2294.62,  253.14  L 2297.45,  255.97  L 2297.45,  251.72  L 2294.62,  248.89  L 2291.78,  251.72  L 2291.78,  255.97  L 2294.62,  253.14 " style="stroke-width: 0.28 ;&st9;" /><path d=" M 2294.62,   98.87  L 2291.78,   96.04  L 2291.78,  100.29  L 2294.62,  103.12  L 2297.45,  100.29  L 2297.45,   96.04  L 2294.62,   98.87 " style="stroke-width: 0.28 ;&st9;" /><path d=" M 2294.62,  268.84  L 2291.78,  266.01  L 2291.78,  270.26  L 2294.62,  273.09  L 2297.45,  270.26  L 2297.45,  266.01  L 2294.62,  268.84 " style="stroke-width: 0.28 ;&st9;" /><path d=" M 2239.37,  253.91  L 2235.13,  249.66  L 2230.88,  253.91 " style="stroke-width: 1.42 ;&st7; " /><path d=" M 2234.80,   87.67  L 2234.80,   85.87  L 2235.45,   85.87  L 2235.45,   87.67 " style="stroke-width: 0.85 ;&st7; " /><path d=" M 2292.14,  171.76  L 2235.82,  171.76 " style="stroke-width: 0.85 ;&st7;stroke-dasharray:3, 1.5;" /><path d=" M 2303.11,  188.75  L 2303.11,  154.76  L 2226.63,  154.76  L 2226.63,  188.75  L 2303.11,  188.75 " style="stroke-width: 1.42 ;&st7; " /><path d=" M 2184.13,   98.87  L 2181.30,   96.04  L 2181.30,  100.29  L 2184.13,  103.12  L 2186.97,  100.29  L 2186.97,   96.04  L 2184.13,   98.87 " style="stroke-width: 0.28 ;&st9;" /><path d=" M 2235.13,   98.87  L 2232.29,   96.04  L 2232.29,  100.29  L 2235.13,  103.12  L 2237.96,  100.29  L 2237.96,   96.04  L 2235.13,   98.87 " style="stroke-width: 0.28 ;&st9;" /><path d=" M 2239.37,  257.31  L 2235.13,  253.06  L 2230.88,  257.31 " style="stroke-width: 1.42 ;&st7; " /><path d=" M 2247.87,   78.27  L 2247.87,   35.78  L 2222.38,   35.78  L 2222.38,   78.27  L 2247.87,   78.27 " style="stroke-width: 1.42 ;&st7; " /><path d=" M 2235.13,   86.77  L 2184.13,   86.77  L 2184.13,  103.77 " style="stroke-width: 0.85 ;&st7; " /><path d=" M 2158.64,  214.25  L 2158.64,  248.24  L 2141.64,  248.24  L 2141.64,  214.25  L 2158.64,  214.25 " style="stroke-width: 1.42 ;&st7; " /><path d=" M 2018.70,  320.20  C 2018.70   317.70  2016.67   315.67  2014.16   315.67 " style="stroke-width: 1.42 ;&st7; " /><path d=" M 2014.16,  315.67  C 2011.66   315.67  2009.63   317.70  2009.63   320.20 " style="stroke-width: 1.42 ;&st7; " /><path d=" M 2009.63,  320.20  C 2009.63   322.70  2011.66   324.73  2014.16   324.73 " style="stroke-width: 1.42 ;&st7; " /><path d=" M 2014.16,  324.73  C 2016.67   324.73  2018.70   322.70  2018.70   320.20 " style="stroke-width: 1.42 ;&st7; " /><path d=" M 2288.24,  277.99  C 2288.24   280.34  2290.15   282.24  2292.49   282.24 " style="stroke-width: 1.42 ;&st7; " /><path d=" M 2292.49,  273.74  C 2290.15   273.74  2288.24   275.64  2288.24   277.99 " style="stroke-width: 1.42 ;&st7; " /><path d=" M 2300.99,  243.99  C 2300.99   241.65  2299.09   239.75  2296.74   239.75 " style="stroke-width: 1.42 ;&st7; " /><path d=" M 2300.99,  277.99  C 2300.99   275.64  2299.09   273.74  2296.74   273.74 " style="stroke-width: 1.42 ;&st7; " /><path d=" M 2296.03,  183.09  C 2296.03   182.31  2295.40   181.67  2294.62   181.67 " style="stroke-width: 0.85 ;&st7; " /><path d=" M 2294.62,  181.67  C 2293.83   181.67  2293.20   182.31  2293.20   183.09 " style="stroke-width: 0.85 ;&st7; " /><path d=" M 2293.20,  183.09  C 2293.20   183.87  2293.83   184.50  2294.62   184.50 " style="stroke-width: 0.85 ;&st7; " /><path d=" M 2294.62,  184.50  C 2295.40   184.50  2296.03   183.87  2296.03   183.09 " style="stroke-width: 0.85 ;&st7; " /><path d=" M 2296.74,  282.24  C 2299.09   282.24  2300.99   280.34  2300.99   277.99 " style="stroke-width: 1.42 ;&st7; " /><path d=" M 2299.15,  320.20  C 2299.15   317.70  2297.12   315.67  2294.62   315.67 " style="stroke-width: 1.42 ;&st7; " /><path d=" M 2294.62,  315.67  C 2292.11   315.67  2290.08   317.70  2290.08   320.20 " style="stroke-width: 1.42 ;&st7; " /><path d=" M 2290.08,  320.20  C 2290.08   322.70  2292.11   324.73  2294.62   324.73 " style="stroke-width: 1.42 ;&st7; " /><path d=" M 2294.62,  324.73  C 2297.12   324.73  2299.15   322.70  2299.15   320.20 " style="stroke-width: 1.42 ;&st7; " /><path d=" M 2236.40,   86.77  C 2236.40    86.07  2235.83    85.50  2235.13    85.50 " style="stroke-width: 0.85 ;&st7; " /><path d=" M 2235.13,   85.50  C 2234.42    85.50  2233.85    86.07  2233.85    86.77 " style="stroke-width: 0.85 ;&st7; " /><path d=" M 2233.85,   86.77  C 2233.85    87.47  2234.42    88.05  2235.13    88.05 " style="stroke-width: 0.85 ;&st7; " /><path d=" M 2235.13,   88.05  C 2235.83    88.05  2236.40    87.47  2236.40    86.77 " style="stroke-width: 0.85 ;&st7; " /><path d=" M 2236.08,   86.77  C 2236.08    86.24  2235.65    85.82  2235.13    85.82 " style="stroke-width: 0.85 ;&st7; " /><path d=" M 2235.13,   85.82  C 2234.60    85.82  2234.17    86.24  2234.17    86.77 " style="stroke-width: 0.85 ;&st7; " /><path d=" M 2234.17,   86.77  C 2234.17    87.30  2234.60    87.73  2235.13    87.73 " style="stroke-width: 0.85 ;&st7; " /><path d=" M 2235.13,   87.73  C 2235.65    87.73  2236.08    87.30  2236.08    86.77 " style="stroke-width: 0.85 ;&st7; " /><path d=" M 2239.66,  320.20  C 2239.66   317.70  2237.63   315.67  2235.13   315.67 " style="stroke-width: 1.42 ;&st7; " /><path d=" M 2235.13,  315.67  C 2232.62   315.67  2230.59   317.70  2230.59   320.20 " style="stroke-width: 1.42 ;&st7; " /><path d=" M 2230.59,  320.20  C 2230.59   322.70  2232.62   324.73  2235.13   324.73 " style="stroke-width: 1.42 ;&st7; " /><path d=" M 2235.13,  324.73  C 2237.63   324.73  2239.66   322.70  2239.66   320.20 " style="stroke-width: 1.42 ;&st7; " /><path d=" M 2188.67,  320.20  C 2188.67   317.70  2186.64   315.67  2184.14   315.67 " style="stroke-width: 1.42 ;&st7; " /><path d=" M 2184.14,  315.67  C 2181.63   315.67  2179.60   317.70  2179.60   320.20 " style="stroke-width: 1.42 ;&st7; " /><path d=" M 2179.60,  320.20  C 2179.60   322.70  2181.63   324.73  2184.14   324.73 " style="stroke-width: 1.42 ;&st7; " /><path d=" M 2184.14,  324.73  C 2186.64   324.73  2188.67   322.70  2188.67   320.20 " style="stroke-width: 1.42 ;&st7; " /><path d=" M 2241.50,  108.02  C 2241.50   105.67  2239.60   103.77  2237.25   103.77 " style="stroke-width: 1.42 ;&st7; " /><path d=" M 2237.25,  112.27  C 2239.60   112.27  2241.50   110.36  2241.50   108.02 " style="stroke-width: 1.42 ;&st7; " /><path d=" M 2228.75,  108.02  C 2228.75   110.36  2230.66   112.27  2233.00   112.27 " style="stroke-width: 1.42 ;&st7; " /><path d=" M 2233.00,  103.77  C 2230.66   103.77  2228.75   105.67  2228.75   108.02 " style="stroke-width: 1.42 ;&st7; " /><path d=" M 2236.54,   68.36  C 2236.54    67.57  2235.91    66.94  2235.13    66.94 " style="stroke-width: 0.85 ;&st7; " /><path d=" M 2235.13,   66.94  C 2234.34    66.94  2233.71    67.57  2233.71    68.36 " style="stroke-width: 0.85 ;&st7; " /><path d=" M 2233.71,   68.36  C 2233.71    69.14  2234.34    69.77  2235.13    69.77 " style="stroke-width: 0.85 ;&st7; " /><path d=" M 2235.13,   69.77  C 2235.91    69.77  2236.54    69.14  2236.54    68.36 " style="stroke-width: 0.85 ;&st7; " /><path d=" M 2236.54,   45.69  C 2236.54    44.91  2235.91    44.28  2235.13    44.28 " style="stroke-width: 0.85 ;&st7; " /><path d=" M 2235.13,   44.28  C 2234.34    44.28  2233.71    44.91  2233.71    45.69 " style="stroke-width: 0.85 ;&st7; " /><path d=" M 2233.71,   45.69  C 2233.71    46.48  2234.34    47.11  2235.13    47.11 " style="stroke-width: 0.85 ;&st7; " /><path d=" M 2235.13,   47.11  C 2235.91    47.11  2236.54    46.48  2236.54    45.69 " style="stroke-width: 0.85 ;&st7; " /><path d=" M 2235.13,   66.94  C 2237.86    65.33  2238.78    61.80  2237.16    59.06 " style="stroke-width: 1.42 ;&st7; " /><path d=" M 2237.16,   59.06  C 2236.64    58.18  2236.01    57.55  2235.13    57.03 " style="stroke-width: 1.42 ;&st7; " /><path d=" M 2235.13,   47.11  C 2232.39    48.72  2231.48    52.25  2233.09    54.99 " style="stroke-width: 1.42 ;&st7; " /><path d=" M 2233.09,   54.99  C 2233.61    55.87  2234.24    56.51  2235.13    57.03 " style="stroke-width: 1.42 ;&st7; " /><path d=" M 2182.01,  103.77  C 2179.66   103.77  2177.76   105.67  2177.76   108.02 " style="stroke-width: 1.42 ;&st7; " /><path d=" M 2177.76,  108.02  C 2177.76   110.36  2179.66   112.27  2182.01   112.27 " style="stroke-width: 1.42 ;&st7; " /><path d=" M 2186.26,  112.27  C 2188.61   112.27  2190.51   110.36  2190.51   108.02 " style="stroke-width: 1.42 ;&st7; " /><path d=" M 2190.51,  108.02  C 2190.51   105.67  2188.61   103.77  2186.26   103.77 " style="stroke-width: 1.42 ;&st7; " /><path d=" M 2236.54,  160.43  C 2236.54   159.64  2235.91   159.01  2235.13   159.01 " style="stroke-width: 0.85 ;&st7; " /><path d=" M 2235.13,  159.01  C 2234.34   159.01  2233.71   159.64  2233.71   160.43 " style="stroke-width: 0.85 ;&st7; " /><path d=" M 2233.71,  160.43  C 2233.71   161.21  2234.34   161.84  2235.13   161.84 " style="stroke-width: 0.85 ;&st7; " /><path d=" M 2235.13,  161.84  C 2235.91   161.84  2236.54   161.21  2236.54   160.43 " style="stroke-width: 0.85 ;&st7; " /><path d=" M 2236.54,  183.09  C 2236.54   182.31  2235.91   181.67  2235.13   181.67 " style="stroke-width: 0.85 ;&st7; " /><path d=" M 2235.13,  181.67  C 2234.34   181.67  2233.71   182.31  2233.71   183.09 " style="stroke-width: 0.85 ;&st7; " /><path d=" M 2233.71,  183.09  C 2233.71   183.87  2234.34   184.50  2235.13   184.50 " style="stroke-width: 0.85 ;&st7; " /><path d=" M 2235.13,  184.50  C 2235.91   184.50  2236.54   183.87  2236.54   183.09 " style="stroke-width: 0.85 ;&st7; " /><path d=" M 2120.68,  388.75  C 2120.68   386.25  2118.65   384.22  2116.15   384.22 " style="stroke-width: 1.42 ;&st7; " /><path d=" M 2116.15,  384.22  C 2113.64   384.22  2111.61   386.25  2111.61   388.75 " style="stroke-width: 1.42 ;&st7; " /><path d=" M 2111.61,  388.75  C 2111.61   391.26  2113.64   393.29  2116.15   393.29 " style="stroke-width: 1.42 ;&st7; " /><path d=" M 2116.15,  393.29  C 2118.65   393.29  2120.68   391.26  2120.68   388.75 " style="stroke-width: 1.42 ;&st7; " /><path d=" M 2006.94,  545.69  C 2006.94   544.99  2006.37   544.42  2005.66   544.42 " style="stroke-width: 0.85 ;&st7; " /><path d=" M 2005.66,  544.42  C 2004.96   544.42  2004.39   544.99  2004.39   545.69 " style="stroke-width: 0.85 ;&st7; " /><path d=" M 2004.39,  545.69  C 2004.39   546.40  2004.96   546.97  2005.66   546.97 " style="stroke-width: 0.85 ;&st7; " /><path d=" M 2005.66,  546.97  C 2006.37   546.97  2006.94   546.40  2006.94   545.69 " style="stroke-width: 0.85 ;&st7; " /><path d=" M 2006.62,  545.69  C 2006.62   545.17  2006.19   544.74  2005.66   544.74 " style="stroke-width: 0.85 ;&st7; " /><path d=" M 2005.66,  544.74  C 2005.14   544.74  2004.71   545.17  2004.71   545.69 " style="stroke-width: 0.85 ;&st7; " /><path d=" M 2004.71,  545.69  C 2004.71   546.22  2005.14   546.65  2005.66   546.65 " style="stroke-width: 0.85 ;&st7; " /><path d=" M 2005.66,  546.65  C 2006.19   546.65  2006.62   546.22  2006.62   545.69 " style="stroke-width: 0.85 ;&st7; " /><path d=" M 2032.44,  545.69  C 2032.44   544.99  2031.86   544.42  2031.16   544.42 " style="stroke-width: 0.85 ;&st7; " /><path d=" M 2031.16,  544.42  C 2030.46   544.42  2029.89   544.99  2029.89   545.69 " style="stroke-width: 0.85 ;&st7; " /><path d=" M 2029.89,  545.69  C 2029.89   546.40  2030.46   546.97  2031.16   546.97 " style="stroke-width: 0.85 ;&st7; " /><path d=" M 2031.16,  546.97  C 2031.86   546.97  2032.44   546.40  2032.44   545.69 " style="stroke-width: 0.85 ;&st7; " /><path d=" M 2032.12,  545.69  C 2032.12   545.17  2031.69   544.74  2031.16   544.74 " style="stroke-width: 0.85 ;&st7; " /><path d=" M 2031.16,  544.74  C 2030.63   544.74  2030.21   545.17  2030.21   545.69 " style="stroke-width: 0.85 ;&st7; " /><path d=" M 2030.21,  545.69  C 2030.21   546.22  2030.63   546.65  2031.16   546.65 " style="stroke-width: 0.85 ;&st7; " /><path d=" M 2031.16,  546.65  C 2031.69   546.65  2032.12   546.22  2032.12   545.69 " style="stroke-width: 0.85 ;&st7; " /><path d=" M 2010.20,  567.22  C 2010.20   564.72  2008.17   562.69  2005.66   562.69 " style="stroke-width: 1.42 ;&st7; " /><path d=" M 2005.66,  562.69  C 2003.16   562.69  2001.13   564.72  2001.13   567.22 " style="stroke-width: 1.42 ;&st7; " /><path d=" M 2001.13,  567.22  C 2001.13   569.73  2003.16   571.76  2005.66   571.76 " style="stroke-width: 1.42 ;&st7; " /><path d=" M 2005.66,  571.76  C 2008.17   571.76  2010.20   569.73  2010.20   567.22 " style="stroke-width: 1.42 ;&st7; " /><path d=" M 2035.69,  567.22  C 2035.69   564.72  2033.66   562.69  2031.16   562.69 " style="stroke-width: 1.42 ;&st7; " /><path d=" M 2031.16,  562.69  C 2028.66   562.69  2026.63   564.72  2026.63   567.22 " style="stroke-width: 1.42 ;&st7; " /><path d=" M 2026.63,  567.22  C 2026.63   569.73  2028.66   571.76  2031.16   571.76 " style="stroke-width: 1.42 ;&st7; " /><path d=" M 2031.16,  571.76  C 2033.66   571.76  2035.69   569.73  2035.69   567.22 " style="stroke-width: 1.42 ;&st7; " /><path d=" M 2010.20,  524.16  C 2010.20   521.66  2008.17   519.63  2005.66   519.63 " style="stroke-width: 1.42 ;&st7; " /><path d=" M 2005.66,  519.63  C 2003.16   519.63  2001.13   521.66  2001.13   524.16 " style="stroke-width: 1.42 ;&st7; " /><path d=" M 2001.13,  524.16  C 2001.13   526.67  2003.16   528.70  2005.66   528.70 " style="stroke-width: 1.42 ;&st7; " /><path d=" M 2005.66,  528.70  C 2008.17   528.70  2010.20   526.67  2010.20   524.16 " style="stroke-width: 1.42 ;&st7; " /><path d=" M 2035.69,  524.16  C 2035.69   521.66  2033.66   519.63  2031.16   519.63 " style="stroke-width: 1.42 ;&st7; " /><path d=" M 2031.16,  519.63  C 2028.66   519.63  2026.63   521.66  2026.63   524.16 " style="stroke-width: 1.42 ;&st7; " /><path d=" M 2026.63,  524.16  C 2026.63   526.67  2028.66   528.70  2031.16   528.70 " style="stroke-width: 1.42 ;&st7; " /><path d=" M 2031.16,  528.70  C 2033.66   528.70  2035.69   526.67  2035.69   524.16 " style="stroke-width: 1.42 ;&st7; " /><path d=" M 2163.17,  388.75  C 2163.17   386.25  2161.14   384.22  2158.64   384.22 " style="stroke-width: 1.42 ;&st7; " /><path d=" M 2158.64,  384.22  C 2156.14   384.22  2154.11   386.25  2154.11   388.75 " style="stroke-width: 1.42 ;&st7; " /><path d=" M 2154.11,  388.75  C 2154.11   391.26  2156.14   393.29  2158.64   393.29 " style="stroke-width: 1.42 ;&st7; " /><path d=" M 2158.64,  393.29  C 2161.14   393.29  2163.17   391.26  2163.17   388.75 " style="stroke-width: 1.42 ;&st7; " /><path d=" M 2222.66,  388.75  C 2222.66   386.25  2220.63   384.22  2218.13   384.22 " style="stroke-width: 1.42 ;&st7; " /><path d=" M 2218.13,  384.22  C 2215.63   384.22  2213.60   386.25  2213.60   388.75 " style="stroke-width: 1.42 ;&st7; " /><path d=" M 2213.60,  388.75  C 2213.60   391.26  2215.63   393.29  2218.13   393.29 " style="stroke-width: 1.42 ;&st7; " /><path d=" M 2218.13,  393.29  C 2220.63   393.29  2222.66   391.26  2222.66   388.75 " style="stroke-width: 1.42 ;&st7; " /><path d=" M 2316.15,  388.75  C 2316.15   386.25  2314.12   384.22  2311.61   384.22 " style="stroke-width: 1.42 ;&st7; " /><path d=" M 2311.61,  384.22  C 2309.11   384.22  2307.08   386.25  2307.08   388.75 " style="stroke-width: 1.42 ;&st7; " /><path d=" M 2307.08,  388.75  C 2307.08   391.26  2309.11   393.29  2311.61   393.29 " style="stroke-width: 1.42 ;&st7; " /><path d=" M 2311.61,  393.29  C 2314.12   393.29  2316.15   391.26  2316.15   388.75 " style="stroke-width: 1.42 ;&st7; " /><path d=" M 2350.14,  388.75  C 2350.14   386.25  2348.11   384.22  2345.61   384.22 " style="stroke-width: 1.42 ;&st7; " /><path d=" M 2345.61,  384.22  C 2343.10   384.22  2341.08   386.25  2341.08   388.75 " style="stroke-width: 1.42 ;&st7; " /><path d=" M 2341.08,  388.75  C 2341.08   391.26  2343.10   393.29  2345.61   393.29 " style="stroke-width: 1.42 ;&st7; " /><path d=" M 2345.61,  393.29  C 2348.11   393.29  2350.14   391.26  2350.14   388.75 " style="stroke-width: 1.42 ;&st7; " /><path d=" M 2134.10,  443.71  C 2134.10   443.18  2133.67   442.76  2133.14   442.76 " style="stroke-width: 0.85 ;&st7; " /><path d=" M 2133.14,  442.76  C 2132.62   442.76  2132.19   443.18  2132.19   443.71 " style="stroke-width: 0.85 ;&st7; " /><path d=" M 2132.19,  443.71  C 2132.19   444.24  2132.62   444.67  2133.14   444.67 " style="stroke-width: 0.85 ;&st7; " /><path d=" M 2133.14,  444.67  C 2133.67   444.67  2134.10   444.24  2134.10   443.71 " style="stroke-width: 0.85 ;&st7; " /><path d=" M 2134.42,  443.71  C 2134.42   443.01  2133.85   442.44  2133.14   442.44 " style="stroke-width: 0.85 ;&st7; " /><path d=" M 2133.14,  442.44  C 2132.44   442.44  2131.87   443.01  2131.87   443.71 " style="stroke-width: 0.85 ;&st7; " /><path d=" M 2131.87,  443.71  C 2131.87   444.42  2132.44   444.99  2133.14   444.99 " style="stroke-width: 0.85 ;&st7; " /><path d=" M 2133.14,  444.99  C 2133.85   444.99  2134.42   444.42  2134.42   443.71 " style="stroke-width: 0.85 ;&st7; " /><path d=" M 2452.12,  388.75  C 2452.12   386.25  2450.09   384.22  2447.59   384.22 " style="stroke-width: 1.42 ;&st7; " /><path d=" M 2447.59,  384.22  C 2445.09   384.22  2443.06   386.25  2443.06   388.75 " style="stroke-width: 1.42 ;&st7; " /><path d=" M 2443.06,  388.75  C 2443.06   391.26  2445.09   393.29  2447.59   393.29 " style="stroke-width: 1.42 ;&st7; " /><path d=" M 2447.59,  393.29  C 2450.09   393.29  2452.12   391.26  2452.12   388.75 " style="stroke-width: 1.42 ;&st7; " /><path d=" M 2409.63,  388.75  C 2409.63   386.25  2407.60   384.22  2405.10   384.22 " style="stroke-width: 1.42 ;&st7; " /><path d=" M 2405.10,  384.22  C 2402.59   384.22  2400.57   386.25  2400.57   388.75 " style="stroke-width: 1.42 ;&st7; " /><path d=" M 2400.57,  388.75  C 2400.57   391.26  2402.59   393.29  2405.10   393.29 " style="stroke-width: 1.42 ;&st7; " /><path d=" M 2405.10,  393.29  C 2407.60   393.29  2409.63   391.26  2409.63   388.75 " style="stroke-width: 1.42 ;&st7; " /><path d=" M 2158.64,  486.20  C 2160.59   486.20  2162.18   484.62  2162.18   482.66 " style="stroke-width: 0.85 ;&st7; " /><path d=" M 2162.18,  482.66  C 2162.18   480.71  2160.59   479.12  2158.64   479.12 " style="stroke-width: 0.85 ;&st7; " /><path d=" M 2158.64,  479.12  C 2157.65   479.12  2156.80   479.48  2156.11   480.18 " style="stroke-width: 0.85 ;&st7; " /><path d=" M 2156.11,  480.18  C 2157.48   481.58  2159.72   481.60  2161.12   480.24 " style="stroke-width: 0.85 ;&st7; " /><path d=" M 2161.12,  480.24  C 2162.52   478.87  2162.54   476.62  2161.17   475.23 " style="stroke-width: 0.85 ;&st7; " /><path d=" M 2161.17,  475.23  C 2159.80   473.83  2157.56   473.81  2156.16   475.18 " style="stroke-width: 0.85 ;&st7; " /><path d=" M 2156.16,  475.18  C 2156.14   475.19  2156.13   475.21  2156.11   475.23 " style="stroke-width: 0.85 ;&st7; " /><path d=" M 2156.11,  475.23  C 2157.48   476.62  2159.72   476.65  2161.12   475.28 " style="stroke-width: 0.85 ;&st7; " /><path d=" M 2161.12,  475.28  C 2162.52   473.91  2162.54   471.67  2161.17   470.27 " style="stroke-width: 0.85 ;&st7; " /><path d=" M 2161.17,  470.27  C 2160.48   469.56  2159.63   469.21  2158.64   469.21 " style="stroke-width: 0.85 ;&st7; " /><path d=" M 2150.14,  486.20  C 2150.14   490.90  2153.95   494.70  2158.64   494.70 " style="stroke-width: 1.42 ;&st7; " /><path d=" M 2158.64,  494.70  C 2163.33   494.70  2167.14   490.90  2167.14   486.20 " style="stroke-width: 1.42 ;&st7; " /><path d=" M 2167.14,  469.21  C 2167.14   464.51  2163.33   460.71  2158.64   460.71 " style="stroke-width: 1.42 ;&st7; " /><path d=" M 2158.64,  460.71  C 2153.95   460.71  2150.14   464.51  2150.14   469.21 " style="stroke-width: 1.42 ;&st7; " /><path d=" M 2300.99,  108.02  C 2300.99   105.67  2299.09   103.77  2296.74   103.77 " style="stroke-width: 1.42 ;&st7; " /><path d=" M 2296.03,   68.36  C 2296.03    67.57  2295.40    66.94  2294.62    66.94 " style="stroke-width: 0.85 ;&st7; " /><path d=" M 2294.62,   66.94  C 2293.83    66.94  2293.20    67.57  2293.20    68.36 " style="stroke-width: 0.85 ;&st7; " /><path d=" M 2293.20,   68.36  C 2293.20    69.14  2293.83    69.77  2294.62    69.77 " style="stroke-width: 0.85 ;&st7; " /><path d=" M 2294.62,   69.77  C 2295.40    69.77  2296.03    69.14  2296.03    68.36 " style="stroke-width: 0.85 ;&st7; " /><path d=" M 2294.62,   47.11  C 2291.88    48.72  2290.97    52.25  2292.58    54.99 " style="stroke-width: 1.42 ;&st7; " /><path d=" M 2292.58,   54.99  C 2293.10    55.87  2293.73    56.51  2294.62    57.03 " style="stroke-width: 1.42 ;&st7; " /><path d=" M 2292.49,  103.77  C 2290.15   103.77  2288.24   105.67  2288.24   108.02 " style="stroke-width: 1.42 ;&st7; " /><path d=" M 2288.24,  108.02  C 2288.24   110.36  2290.15   112.27  2292.49   112.27 " style="stroke-width: 1.42 ;&st7; " /><path d=" M 2296.74,  248.24  C 2299.09   248.24  2300.99   246.34  2300.99   243.99 " style="stroke-width: 1.42 ;&st7; " /><path d=" M 2296.74,  112.27  C 2299.09   112.27  2300.99   110.36  2300.99   108.02 " style="stroke-width: 1.42 ;&st7; " /><path d=" M 2296.03,   45.69  C 2296.03    44.91  2295.40    44.28  2294.62    44.28 " style="stroke-width: 0.85 ;&st7; " /><path d=" M 2294.62,   44.28  C 2293.83    44.28  2293.20    44.91  2293.20    45.69 " style="stroke-width: 0.85 ;&st7; " /><path d=" M 2293.20,   45.69  C 2293.20    46.48  2293.83    47.11  2294.62    47.11 " style="stroke-width: 0.85 ;&st7; " /><path d=" M 2294.62,   47.11  C 2295.40    47.11  2296.03    46.48  2296.03    45.69 " style="stroke-width: 0.85 ;&st7; " /><path d=" M 2294.62,   66.94  C 2297.35    65.33  2298.27    61.80  2296.65    59.06 " style="stroke-width: 1.42 ;&st7; " /><path d=" M 2296.65,   59.06  C 2296.13    58.18  2295.50    57.55  2294.62    57.03 " style="stroke-width: 1.42 ;&st7; " /><path d=" M 2296.03,  160.43  C 2296.03   159.64  2295.40   159.01  2294.62   159.01 " style="stroke-width: 0.85 ;&st7; " /><path d=" M 2294.62,  159.01  C 2293.83   159.01  2293.20   159.64  2293.20   160.43 " style="stroke-width: 0.85 ;&st7; " /><path d=" M 2293.20,  160.43  C 2293.20   161.21  2293.83   161.84  2294.62   161.84 " style="stroke-width: 0.85 ;&st7; " /><path d=" M 2294.62,  161.84  C 2295.40   161.84  2296.03   161.21  2296.03   160.43 " style="stroke-width: 0.85 ;&st7; " /><path d=" M 2288.24,  243.99  C 2288.24   246.34  2290.15   248.24  2292.49   248.24 " style="stroke-width: 1.42 ;&st7; " /><path d=" M 2292.49,  239.75  C 2290.15   239.75  2288.24   241.65  2288.24   243.99 " style="stroke-width: 1.42 ;&st7; " /><path d=" M 2120.68,  320.20  C 2120.68   317.70  2118.65   315.67  2116.15   315.67 " style="stroke-width: 1.42 ;&st7; " /><path d=" M 2116.15,  315.67  C 2113.64   315.67  2111.61   317.70  2111.61   320.20 " style="stroke-width: 1.42 ;&st7; " /><path d=" M 2111.61,  320.20  C 2111.61   322.70  2113.64   324.73  2116.15   324.73 " style="stroke-width: 1.42 ;&st7; " /><path d=" M 2116.15,  324.73  C 2118.65   324.73  2120.68   322.70  2120.68   320.20 " style="stroke-width: 1.42 ;&st7; " /><path d=" M 2154.67,  320.20  C 2154.67   317.70  2152.64   315.67  2150.14   315.67 " style="stroke-width: 1.42 ;&st7; " /><path d=" M 2150.14,  315.67  C 2147.64   315.67  2145.61   317.70  2145.61   320.20 " style="stroke-width: 1.42 ;&st7; " /><path d=" M 2145.61,  320.20  C 2145.61   322.70  2147.64   324.73  2150.14   324.73 " style="stroke-width: 1.42 ;&st7; " /><path d=" M 2150.14,  324.73  C 2152.64   324.73  2154.67   322.70  2154.67   320.20 " style="stroke-width: 1.42 ;&st7; " /><path d=" M 2147.61,  228.77  C 2148.98   230.17  2151.22   230.19  2152.62   228.82 " style="stroke-width: 0.85 ;&st7; " /><path d=" M 2152.62,  228.82  C 2154.02   227.45  2154.04   225.21  2152.67   223.81 " style="stroke-width: 0.85 ;&st7; " /><path d=" M 2152.67,  223.81  C 2151.98   223.10  2151.13   222.75  2150.14   222.75 " style="stroke-width: 0.85 ;&st7; " /><path d=" M 2150.14,  239.75  C 2152.10   239.75  2153.68   238.16  2153.68   236.20 " style="stroke-width: 0.85 ;&st7; " /><path d=" M 2153.68,  236.20  C 2153.68   234.25  2152.10   232.66  2150.14   232.66 " style="stroke-width: 0.85 ;&st7; " /><path d=" M 2150.14,  232.66  C 2149.15   232.66  2148.30   233.02  2147.61   233.73 " style="stroke-width: 0.85 ;&st7; " /><path d=" M 2147.61,  233.73  C 2148.98   235.12  2151.22   235.15  2152.62   233.78 " style="stroke-width: 0.85 ;&st7; " /><path d=" M 2152.62,  233.78  C 2154.02   232.41  2154.04   230.17  2152.67   228.77 " style="stroke-width: 0.85 ;&st7; " /><path d=" M 2152.67,  228.77  C 2151.30   227.37  2149.06   227.35  2147.66   228.72 " style="stroke-width: 0.85 ;&st7; " /><path d=" M 2147.66,  228.72  C 2147.64   228.73  2147.63   228.75  2147.61   228.77 " style="stroke-width: 0.85 ;&st7; " /><text style="&st18;" transform="matrix(&st16;  2040.46  660.98 )">W-B</text><text style="&st18;" transform="matrix(&st16;  2043.35  618.48 )">BR</text><text style="&st18;" transform="matrix(&st16;  2042.36  601.49 )">(*1)</text><text style="&st18;" transform="matrix(&st16;  2043.35  584.49 )">BR</text><text style="&st18;" transform="matrix(&st16;  2042.36  482.51 )">(*1)</text><text style="&st18;" transform="matrix(&st16;  2007.37  222.44 )">2</text><text style="&st18;" transform="matrix(&st16;  2229.05  32.08 )">(IG)</text><text style="&st18;" transform="matrix(&st16;  2285.5  32.08 )">(BAT)</text><text style="&st18;" transform="matrix(&st16;  2113.67  390.72 )">C</text><text style="&st18;" transform="matrix(&st16;  2105.3  390.72 )">7</text><text style="&st18;" transform="matrix(&st16;  2143.83  390.72 )">23</text><text style="&st18;" transform="matrix(&st16;  2156.17  390.72 )">C</text><text style="&st18;" transform="matrix(&st16;  2204.1  390.72 )">31</text><text style="&st18;" transform="matrix(&st16;  2215.66  390.72 )">C</text><text style="&st18;" transform="matrix(&st16;  2296.81  390.72 )">27</text><text style="&st18;" transform="matrix(&st16;  2309.14  390.72 )">D</text><text style="&st18;" transform="matrix(&st16;  2330.8  390.72 )">34</text><text style="&st18;" transform="matrix(&st16;  2011.69  322.17 )">D</text><text style="&st18;" transform="matrix(&st16;  2005.3  332.37 )">PCR1</text><text style="&st18;" transform="matrix(&st17;  2010.47  297.55 )">R-Y</text><text style="&st18;" transform="matrix(&st16;  2009.36  210.55 )">PR</text><text style="&st18;" transform="matrix(&st17;  2001.97  508.99 )">(*1)</text><text style="&st18;" transform="matrix(&st17;  2027.47  508.99 )">(*1)</text><text style="&st18;" transform="matrix(&st17;  2001.97  593.98 )">(*1)</text><text style="&st18;" transform="matrix(&st16;  2003.33  569.19 )">B</text><text style="&st18;" transform="matrix(&st16;  2028.83  569.19 )">B</text><text style="&st18;" transform="matrix(&st16;  2021.09  569.19 )">1</text><text style="&st18;" transform="matrix(&st16;  2003.33  526.13 )">A</text><text style="&st18;" transform="matrix(&st16;  2028.83  526.13 )">A</text><text style="&st18;" transform="matrix(&st16;  2020.31  526.13 )">6</text><text ewd:textID="40" style="&st18;" transform="matrix(&st16;  2306.26  172.31 )">Stop <tspan dy="6" x="0">Lamp SW</tspan></text><text ewd:textID="18" style="&st18;" transform="matrix(&st16;  2170.28  479.67 )">Camshaft <tspan dy="6" x="0">Position </tspan><tspan dy="6" x="0">Sensor</tspan></text><text style="&st18;" transform="matrix(&st16;  2170.28  472.57 )">C 1</text><text ewd:textID="21" style="&st18;" transform="matrix(&st17;  2377.32  497.23 )">Crankshaft <tspan dy="6" x="0">Position Sensor</tspan></text><text style="&st18;" transform="matrix(&st17;  2370.22  497.23 )">C 5</text><text style="&st18;" transform="matrix(&st17;  2256.93  432.51 )">(*1)</text><text style="&st18;" transform="matrix(&st17;  2129.45  432.51 )">(*1)</text><text style="&st18;" transform="matrix(&st16;  2343.28  491.01 )">E</text><text style="&st18;" transform="matrix(&st16;  2304.8  468.34 )">NE+</text><text style="&st18;" transform="matrix(&st16;  2338.79  468.34 )">NE-</text><text style="&st18;" transform="matrix(&st16;  2113.67  322.17 )">D</text><text style="&st18;" transform="matrix(&st16;  2105.3  322.17 )">2</text><text style="&st18;" transform="matrix(&st16;  2107.0  332.37 )">PCV+</text><text style="&st18;" transform="matrix(&st17;  2112.45  298.86 )">G-W</text><text style="&st18;" transform="matrix(&st16;  2147.67  322.17 )">D</text><text style="&st18;" transform="matrix(&st16;  2140.07  322.17 )">1</text><text style="&st18;" transform="matrix(&st16;  2140.99  332.37 )">PCV-</text><text style="&st18;" transform="matrix(&st17;  2146.45  297.84 )">G-Y</text><text style="&st18;" transform="matrix(&st16;  2143.35  256.44 )">2</text><text style="&st18;" transform="matrix(&st16;  2144.13  210.56 )">1</text><text ewd:textID="41" style="&st18;" transform="matrix(&st17;  2173.36  250.77 )">Suction Control Valve</text><text style="&st18;" transform="matrix(&st17;  2166.25  250.77 )">S 8</text><text style="&st18;" transform="matrix(&st16;  2085.27  643.98 )">W-B(*8)</text><text style="&st18;" transform="matrix(&st16;  2382.72  643.98 )">W-B(*8)</text><text style="&st18;" transform="matrix(&st16;  2034.28  643.98 )">W-B(*8)</text><text style="&st18;" transform="matrix(&st16;  2343.14  390.72 )">D</text><text style="&st18;" transform="matrix(&st16;  2436.74  390.72 )">7</text><text style="&st18;" transform="matrix(&st16;  2445.12  390.72 )">D</text><text style="&st18;" transform="matrix(&st16;  2394.25  390.72 )">6</text><text style="&st18;" transform="matrix(&st16;  2402.63  390.72 )">D</text><text style="&st18;" transform="matrix(&st16;  2275.09  349.34 )">E 4(A),E 5(B),E 6(C),E 7(D)</text><text style="&st18;" transform="matrix(&st16;  2391.8  618.48 )">BR</text><text style="&st18;" transform="matrix(&st17;  2443.9  604.39 )">W-B</text><text style="&st18;" transform="matrix(&st16;  2398.81  380.52 )">E02</text><text style="&st18;" transform="matrix(&st16;  2441.69  380.52 )">E01</text><text style="&st18;" transform="matrix(&st17;  2443.9  425.92 )">W-B</text><text style="&st18;" transform="matrix(&st17;  2401.4  421.57 )">W</text><text style="&st18;" transform="matrix(&st16;  2304.8  380.52 )">NE+</text><text style="&st18;" transform="matrix(&st17;  2256.93  525.99 )">(*1)</text><text style="&st18;" transform="matrix(&st16;  2153.87  380.52 )">G+</text><text style="&st18;" transform="matrix(&st16;  2151.85  502.9 )">2</text><text style="&st18;" transform="matrix(&st16;  2152.63  457.02 )">1</text><text style="&st18;" transform="matrix(&st16;  2213.36  380.52 )">G-</text><text style="&st18;" transform="matrix(&st17;  2341.91  527.9 )">W-B</text><text style="&st18;" transform="matrix(&st16;  2305.6  457.02 )">1</text><text style="&st18;" transform="matrix(&st17;  2307.92  429.04 )">Y</text><text style="&st18;" transform="matrix(&st17;  2341.91  428.69 )">L</text><text style="&st18;" transform="matrix(&st16;  2338.79  380.52 )">NE-</text><text style="&st18;" transform="matrix(&st16;  2338.82  457.02 )">2</text><text style="&st18;" transform="matrix(&st16;  2338.82  502.9 )">3</text><text style="&st18;" transform="matrix(&st17;  2154.94  429.04 )">Y</text><text style="&st18;" transform="matrix(&st17;  2214.43  428.69 )">L</text><text style="&st18;" transform="matrix(&st16;  2112.23  380.52 )">E1</text><text style="&st18;" transform="matrix(&st17;  2112.45  427.27 )">BR</text><text style="&st18;" transform="matrix(&st16;  2288.6  196.95 )">1</text><text style="&st18;" transform="matrix(&st16;  2287.82  151.07 )">2</text><text style="&st18;" transform="matrix(&st16;  2290.52  109.99 )">2F</text><text style="&st18;" transform="matrix(&st16;  2281.93  109.99 )">2</text><text style="&st18;" transform="matrix(&st16;  2258.24  56.17 )">10A <tspan dy="6" x="0">STOP</tspan></text><text style="&st18;" transform="matrix(&st16;  2289.74  245.96 )">2M</text><text style="&st18;" transform="matrix(&st17;  2290.92  226.62 )">G-W</text><text style="&st18;" transform="matrix(&st17;  2290.92  136.36 )">G-B</text><text style="&st18;" transform="matrix(&st16;  2278.75  279.96 )">21</text><text style="&st18;" transform="matrix(&st16;  2281.93  245.96 )">5</text><text style="&st18;" transform="matrix(&st16;  2290.31  279.96 )">2S</text><text style="&st18;" transform="matrix(&st16;  2306.26  165.2 )">S14</text><text style="&st18;" transform="matrix(&st16;  2280.59  322.17 )">15</text><text style="&st18;" transform="matrix(&st16;  2292.29  322.17 )">B</text><text style="&st18;" transform="matrix(&st16;  2220.31  245.96 )">4</text><text style="&st18;" transform="matrix(&st16;  2287.83  332.37 )">STP</text><text style="&st18;" transform="matrix(&st17;  2290.92  307.36 )">G-W</text><text style="&st18;" transform="matrix(&st16;  2228.33  151.07 )">3</text><text style="&st18;" transform="matrix(&st16;  2228.34  196.95 )">4</text><text style="&st18;" transform="matrix(&st17;  2231.43  224.96 )">R-L</text><text style="&st18;" transform="matrix(&st17;  2231.43  297.2 )">R-L</text><text style="&st18;" transform="matrix(&st16;  2221.1  322.17 )">14</text><text style="&st18;" transform="matrix(&st16;  2227.07  332.37 )">ST1-</text><text style="&st18;" transform="matrix(&st16;  2181.8  322.17 )">A</text><text style="&st18;" transform="matrix(&st16;  2173.29  322.17 )">9</text><text style="&st18;" transform="matrix(&st16;  2232.8  322.17 )">B</text><text style="&st18;" transform="matrix(&st16;  2174.7  332.37 )">IGSW</text><text style="&st18;" transform="matrix(&st17;  2180.44  297.84 )">B-O</text><text style="&st18;" transform="matrix(&st16;  2179.83  109.99 )">2S</text><text style="&st18;" transform="matrix(&st16;  2167.49  109.99 )">22</text><text style="&st18;" transform="matrix(&st17;  2231.43  136.36 )">B-O</text><text style="&st18;" transform="matrix(&st17;  2180.44  136.36 )">B-O</text><text style="&st18;" transform="matrix(&st16;  2222.44  109.99 )">6</text><text style="&st18;" transform="matrix(&st16;  2230.25  109.99 )">2M</text><text style="&st18;" transform="matrix(&st16;  2203.2  56.17 )">7.5A <tspan dy="6" x="0">IGN</tspan></text><text style="&st18;" transform="matrix(&st16;  2093.36  482.51 )">(*1)</text><text style="&st18;" transform="matrix(&st16;  2094.35  584.49 )">BR</text><text style="&st18;" transform="matrix(&st16;  2093.36  601.49 )">(*1)</text><text style="&st18;" transform="matrix(&st16;  2094.35  618.48 )">BR</text><text style="&st18;" transform="matrix(&st16;  2091.45  660.98 )">W-B</text><text style="&st18;" transform="matrix(&st16;  2388.9  660.98 )">W-B</text><text ewd:textID="23" style="&st18;" transform="matrix(&st16;  2275.09  356.45 )">Engine ECU</text></svg>