﻿<?xml version="1.0" encoding="utf-8"?>
<!DOCTYPE svg PUBLIC "-//W3C//DTD SVG 1.0//EN" "http://www.w3.org/TR/2001/REC-SVG-20010904/DTD/svg10.dtd"[
	<!ENTITY ns_flows "http://ns.adobe.com/Flows/1.0/">
	<!ENTITY ns_svg "http://www.w3.org/2000/svg">
	<!ENTITY ns_xlink "http://www.w3.org/1999/xlink">
	<!ENTITY st0 "font-size:7px;font-family:'MS-PGothic';adobe-font-script:japanese;">
	<!ENTITY st1 "font-size:6px;font-family:'ArialMT';">
	<!-- White fill  -->
	<!ENTITY st2 "fill:#FFFFFF;stroke:#000000; stroke-width:1.41;stroke-linecap:round;stroke-linejoin:round;">
	<!-- Yellow fill  -->
	<!ENTITY st3 "fill:#FFFFCC;stroke:#FFFFCC; stroke-width:0.1;stroke-linecap:round;stroke-linejoin:round;">
	<!-- Gray fill  -->
	<!ENTITY st4 "fill:#CCCCCC;stroke:#CCCCCC; stroke-width:0.1;stroke-linecap:round;stroke-linejoin:round;">
	<!-- Light-blue fill -->
	<!ENTITY st5 "fill:#CCECF4;stroke:#000000; stroke-width:1.133;stroke-linecap:round;stroke-linejoin:round;">
	<!ENTITY st6 "fill:none;stroke-linecap:butt; stroke-linejoin:round;">
	<!ENTITY st7 "fill:none;stroke:#000000;stroke-linecap:round;stroke-linejoin:round;">
	<!ENTITY st8 "enable-background:new    ;">
	<!-- Black fill -->
	<!ENTITY st9 "fill:#000000;stroke:#000000; stroke-linecap:round;stroke-linejoin:round;">
	<!-- SRS note   -->
	<!ENTITY st10 "font-size:9px;font-family:'ArialMT';">
	<!ENTITY st11 "font-size:9px;font-family:'Svg Symbol';">
	<!ENTITY st12 "font-size:6px;font-family:'Svg Symbol';">
	<!ENTITY st13 "fill:none;stroke:#ff0000;stroke-linecap:round;stroke-linejoin:round;">
	<!-- Yellow fill  -->
	<!ENTITY st14 "fill:#FFFF00;stroke:#FFFF00; stroke-width:0.1;stroke-linecap:round;stroke-linejoin:round;">
	<!ENTITY st15 "font-size:6px;font-family:'MS-PGothic';adobe-font-script:japanese;">
	<!ENTITY st16 "1.00 0.00 0.00 1.00">
	<!ENTITY st17 "0.00 -1.00 1.00 0.00">
	<!ENTITY st18 "font-size:6px;font-family:'Arial';">
	<!ENTITY st19 "font-size:9px;font-family:'Arial';">
	<!ENTITY st20 "font-size:6px;font-family:'MS-PGothic','MS PGothic';adobe-font-script:japanese;">
	<!ENTITY st21 "font-size:7px;font-family:'MS-PGothic','MS PGothic';adobe-font-script:japanese;">
	<!ATTLIST svg
		xmlns:ewd CDATA #FIXED "http://shcl.co.jp/ewd"
		xmlns:a CDATA #FIXED "http://ns.adobe.com/AdobeSVGViewerExtensions/3.0/"
		ewd:ver CDATA #IMPLIED
	>
	<!ATTLIST a
		ewd:lineID CDATA #IMPLIED
		ewd:groupID CDATA #IMPLIED
		ewd:figtype CDATA #IMPLIED
		ewd:code CDATA #IMPLIED
		ewd:figID CDATA #IMPLIED
		ewd:pinNo CDATA #IMPLIED
		ewd:comment CDATA #IMPLIED >
	<!ATTLIST g
		ewd:lineID CDATA #IMPLIED
		ewd:groupID CDATA #IMPLIED
		ewd:figtype CDATA #IMPLIED
		ewd:code CDATA #IMPLIED
		ewd:figID CDATA #IMPLIED
		ewd:pinNo CDATA #IMPLIED
		ewd:comment CDATA #IMPLIED >
	<!ATTLIST text
		ewd:textID CDATA #IMPLIED >
	<!ATTLIST title
		ewd:textID CDATA #IMPLIED >
]>
<!-- Generator: Shintec Hozumi YS   -->
<svg onload="call_execInitLoadProc_svg('system')" style="overflow:visible;  enable-background:new 0 0 4139.517 710.000" viewBox="0 0 4139.517 710.000" height="710.000" width="4139.517" xml:space="preserve" ewd:ver="L2.1.2.7" xmlns="&ns_svg;" xmlns:a="http://ns.adobe.com/AdobeSVGViewerExtensions/3.0/" xmlns:ewd="http://shcl.co.jp/ewd" xmlns:xlink="&ns_xlink;">
<path d=" M  679.89,  384.22  L  739.38,  384.22 " style="stroke:#000000;stroke-width: 0.85 ;&st7;stroke-dasharray:3, 1.5;" /><path d=" M  671.39,  639.18  L  671.39,  643.43 " style="stroke-width: 1.42 ;&st7; " /><path d=" M  671.39,  664.67  L  671.39,  668.92 " style="stroke-width: 1.42 ;&st7; " /><path d=" M  807.37,  236.22  L  802.39,  231.25 " style="stroke-width: 1.42 ;&st7; " /><path d=" M  790.37,  243.27  L  795.34,  248.24 " style="stroke-width: 1.42 ;&st7; " /><path d=" M  802.39,  248.24  L  807.37,  243.27 " style="stroke-width: 1.42 ;&st7; " /><path d=" M  795.34,  231.25  L  790.37,  236.22 " style="stroke-width: 1.42 ;&st7; " /><path d=" M  795.34,  282.24  L  790.37,  287.21 " style="stroke-width: 1.42 ;&st7; " /><path d=" M  802.39,  299.24  L  807.37,  294.27 " style="stroke-width: 1.42 ;&st7; " /><path d=" M  790.37,  294.27  L  795.34,  299.24 " style="stroke-width: 1.42 ;&st7; " /><path d=" M  807.37,  287.21  L  802.39,  282.24 " style="stroke-width: 1.42 ;&st7; " /><path d=" M  679.89,  380.69  L  674.91,  375.72 " style="stroke-width: 1.42 ;&st7; " /><path d=" M  662.89,  387.75  L  667.86,  392.72 " style="stroke-width: 1.42 ;&st7; " /><path d=" M  674.91,  392.72  L  679.89,  387.75 " style="stroke-width: 1.42 ;&st7; " /><path d=" M  667.86,  375.72  L  662.89,  380.69 " style="stroke-width: 1.42 ;&st7; " /><path d=" M  662.89,  418.22  L  662.89,  422.46 " style="stroke-width: 1.42 ;&st7; " /><path d=" M  807.37,  117.24  L  802.39,  112.27 " style="stroke-width: 1.42 ;&st7; " /><path d=" M  790.37,  124.29  L  795.34,  129.26 " style="stroke-width: 1.42 ;&st7; " /><path d=" M  802.39,  129.26  L  807.37,  124.29 " style="stroke-width: 1.42 ;&st7; " /><path d=" M  795.34,  112.27  L  790.37,  117.24 " style="stroke-width: 1.42 ;&st7; " /><path d=" M  857.16,  434.21  L  856.89,  434.68  L  856.80,  435.21  L  856.89,  435.75  L  857.16,  436.22  L  857.58,  436.56  L  858.08,  436.75  L  858.63,  436.75  L  859.14,  436.56  L  859.55,  436.22  L  859.82,  435.75  L  859.91,  435.21  L  859.82,  434.68  L  859.55,  434.21  L  859.14,  433.86  L  858.63,  433.68  L  858.08,  433.68  L  857.58,  433.86  L  857.16,  434.21  L  857.56,  434.92  L  857.56,  435.50  L  857.93,  435.95  L  858.50,  436.05  L  859.01,  435.76  L  859.21,  435.21  L  859.01,  434.67  L  858.50,  434.38  L  857.93,  434.48  L  858.36,  435.21 " style="stroke-width: 0.85 ;&st7; " /><path d=" M  746.68,  485.20  L  746.41,  485.67  L  746.32,  486.20  L  746.41,  486.74  L  746.68,  487.21  L  747.10,  487.55  L  747.60,  487.74  L  748.15,  487.74  L  748.65,  487.55  L  749.07,  487.21  L  749.34,  486.74  L  749.43,  486.20  L  749.34,  485.67  L  749.07,  485.20  L  748.65,  484.86  L  748.15,  484.67  L  747.60,  484.67  L  747.10,  484.86  L  746.68,  485.20  L  747.08,  485.91  L  747.08,  486.50  L  747.45,  486.94  L  748.02,  487.04  L  748.53,  486.75  L  748.72,  486.20  L  748.53,  485.66  L  748.02,  485.37  L  747.45,  485.47  L  747.87,  486.20 " style="stroke-width: 0.85 ;&st7; " /><path d=" M  746.68,  417.21  L  746.41,  417.68  L  746.32,  418.22  L  746.41,  418.75  L  746.68,  419.22  L  747.10,  419.56  L  747.60,  419.75  L  748.15,  419.75  L  748.65,  419.56  L  749.07,  419.22  L  749.34,  418.75  L  749.43,  418.22  L  749.34,  417.68  L  749.07,  417.21  L  748.65,  416.87  L  748.15,  416.68  L  747.60,  416.68  L  747.10,  416.87  L  746.68,  417.21  L  747.08,  417.92  L  747.08,  418.51  L  747.45,  418.95  L  748.02,  419.05  L  748.53,  418.76  L  748.72,  418.22  L  748.53,  417.67  L  748.02,  417.38  L  747.45,  417.48  L  747.87,  418.22 " style="stroke-width: 0.85 ;&st7; " /><path d=" M  943.34,  205.75  L  943.34,  222.75  L 1028.33,  222.75  L 1028.33,  205.75  L  943.34,  205.75 " style="stroke-width: 1.42 ;&st7; " /><path d=" M  943.34,  231.25  L  943.34,  248.24  L 1028.33,  248.24  L 1028.33,  231.25  L  943.34,  231.25 " style="stroke-width: 1.42 ;&st7; " /><path d=" M  943.34,  256.74  L  943.34,  273.74  L 1028.33,  273.74  L 1028.33,  256.74  L  943.34,  256.74 " style="stroke-width: 1.42 ;&st7; " /><path d=" M  943.34,  282.24  L  943.34,  299.24  L 1028.33,  299.24  L 1028.33,  282.24  L  943.34,  282.24 " style="stroke-width: 1.42 ;&st7; " /><path d=" M  943.34,  307.73  L  943.34,  401.22  L 1028.33,  401.22  L 1028.33,  307.73  L  943.34,  307.73 " style="stroke-width: 1.42 ;&st7; " /><path d=" M  526.91,  375.72  L  526.91,  392.72  L  611.90,  392.72  L  611.90,  375.72  L  526.91,  375.72 " style="stroke-width: 1.42 ;&st7; " /><path d=" M  526.91,  409.72  L  526.91,  426.71  L  611.90,  426.71  L  611.90,  409.72  L  526.91,  409.72 " style="stroke-width: 1.42 ;&st7; " /><path d=" M  526.91,  435.21  L  526.91,  452.21  L  611.90,  452.21  L  611.90,  435.21  L  526.91,  435.21 " style="stroke-width: 1.42 ;&st7; " /><path d=" M  526.91,  477.71  L  526.91,  545.69  L  611.90,  545.69  L  611.90,  477.71  L  526.91,  477.71 " style="stroke-width: 1.42 ;&st7; " /><path d=" M  815.86,  569.77  L  815.86,  574.02 " style="stroke-width: 0.85 ;&st7; " /><path d=" M  807.36,  574.02  L  824.36,  574.02 " style="stroke-width: 0.85 ;&st7; " /><path d=" M  811.61,  576.86  L  820.11,  576.86 " style="stroke-width: 0.85 ;&st7; " /><path d=" M  813.03,  579.69  L  818.70,  579.69 " style="stroke-width: 0.85 ;&st7; " /><path d=" M  814.45,  582.52  L  817.28,  582.52 " style="stroke-width: 0.85 ;&st7; " /><path d=" M  858.36,  435.21  L  883.85,  435.21  L  883.85,  418.22 " style="stroke-width: 0.85 ;&st7; " /><path d=" M  849.86,  443.71  L  892.35,  443.71 " style="stroke-width: 1.13 ;&st7;stroke-dasharray:3, 1.5;" /><path d=" M  849.86,  426.71  L  892.35,  426.71 " style="stroke-width: 1.13 ;&st7;stroke-dasharray:3, 1.5;" /><path d=" M  858.36,  418.22  L  858.36,  452.21 " style="stroke-width: 0.85 ;&st7; " /><path d=" M  849.86,  418.22  L  849.86,  452.21  L  892.35,  452.21  L  892.35,  418.22  L  849.86,  418.22 " style="stroke-width: 1.42 ;&st7; " /><path d=" M  746.46,  582.52  L  749.29,  582.52 " style="stroke-width: 0.85 ;&st7; " /><path d=" M  745.04,  579.69  L  750.71,  579.69 " style="stroke-width: 0.85 ;&st7; " /><path d=" M  743.63,  576.86  L  752.12,  576.86 " style="stroke-width: 0.85 ;&st7; " /><path d=" M  739.38,  574.02  L  756.37,  574.02 " style="stroke-width: 0.85 ;&st7; " /><path d=" M  747.87,  569.77  L  747.87,  574.02 " style="stroke-width: 0.85 ;&st7; " /><path d=" M  756.37,  494.70  L  739.38,  494.70  L  739.38,  375.72  L  756.37,  375.72  L  756.37,  494.70 " style="stroke-width: 1.42 ;&st7; " /><path d=" M  657.22,  413.97  L  661.47,  418.22  L  657.22,  422.46 " style="stroke-width: 1.42 ;&st7; " /><path d=" M  653.82,  413.97  L  658.07,  418.22  L  653.82,  422.46 " style="stroke-width: 1.42 ;&st7; " /><path d=" M  739.38,  384.22  L  747.87,  384.22  L  747.87,  494.70 " style="stroke-width: 0.85 ;&st7; " /><path d=" M  739.38,  418.22  L  747.87,  418.22 " style="stroke-width: 0.85 ;&st7; " /><path d=" M  739.38,  443.71  L  747.87,  443.71 " style="stroke-width: 0.85 ;&st7; " /><path d=" M  746.68,  442.71  L  746.41,  443.18  L  746.32,  443.71  L  746.41,  444.24  L  746.68,  444.71  L  747.10,  445.06  L  747.60,  445.25  L  748.15,  445.25  L  748.65,  445.06  L  749.07,  444.71  L  749.34,  444.24  L  749.43,  443.71  L  749.34,  443.18  L  749.07,  442.71  L  748.65,  442.36  L  748.15,  442.18  L  747.60,  442.18  L  747.10,  442.36  L  746.68,  442.71  L  747.08,  443.42  L  747.08,  444.00  L  747.45,  444.45  L  748.02,  444.55  L  748.53,  444.26  L  748.72,  443.71  L  748.53,  443.16  L  748.02,  442.88  L  747.45,  442.97  L  747.87,  443.71 " style="stroke-width: 0.85 ;&st7; " /><path d=" M  739.38,  486.20  L  747.87,  486.20 " style="stroke-width: 0.85 ;&st7; " /><path d=" M  943.34,  180.26  L  943.34,  197.25  L 1028.33,  197.25  L 1028.33,  180.26  L  943.34,  180.26 " style="stroke-width: 1.42 ;&st7; " /><path d=" M  943.34,  154.76  L  943.34,  171.76  L 1028.33,  171.76  L 1028.33,  154.76  L  943.34,  154.76 " style="stroke-width: 1.42 ;&st7; " /><path d=" M  943.34,  605.18  L  943.34,  673.17  L 1028.33,  673.17  L 1028.33,  605.18  L  943.34,  605.18 " style="stroke-width: 1.42 ;&st7; " /><path d=" M  526.91,  630.68  L  526.91,  647.68  L  611.90,  647.68  L  611.90,  630.68  L  526.91,  630.68 " style="stroke-width: 1.42 ;&st7; " /><path d=" M  526.91,  681.67  L  526.91,  698.67  L  611.90,  698.67  L  611.90,  681.67  L  526.91,  681.67 " style="stroke-width: 1.42 ;&st7; " /><path d=" M  848.44,  710.00  L  851.27,  710.00 " style="stroke-width: 0.85 ;&st7; " /><path d=" M  847.02,  707.17  L  852.69,  707.17 " style="stroke-width: 0.85 ;&st7; " /><path d=" M  845.61,  704.33  L  854.11,  704.33 " style="stroke-width: 0.85 ;&st7; " /><path d=" M  841.36,  701.50  L  858.36,  701.50 " style="stroke-width: 0.85 ;&st7; " /><path d=" M  849.86,  697.25  L  849.86,  701.50 " style="stroke-width: 0.85 ;&st7; " /><path d=" M  764.87,  698.67  L  747.87,  698.67  L  747.87,  630.68  L  764.87,  630.68  L  764.87,  698.67 " style="stroke-width: 1.42 ;&st7; " /><path d=" M  665.72,  634.93  L  669.97,  639.18  L  665.72,  643.43 " style="stroke-width: 1.42 ;&st7; " /><path d=" M  662.32,  634.93  L  666.57,  639.18  L  662.32,  643.43 " style="stroke-width: 1.42 ;&st7; " /><path d=" M  747.87,  639.18  L  756.37,  639.18  L  756.37,  690.17  L  747.87,  690.17 " style="stroke-width: 0.85 ;&st7; " /><path d=" M  526.91,  256.74  L  526.91,  273.74  L  611.90,  273.74  L  611.90,  256.74  L  526.91,  256.74 " style="stroke-width: 1.42 ;&st7; " /><path d=" M  526.91,  282.24  L  526.91,  299.24  L  611.90,  299.24  L  611.90,  282.24  L  526.91,  282.24 " style="stroke-width: 1.42 ;&st7; " /><path d=" M  671.39,  348.81  L  671.39,  353.06 " style="stroke-width: 0.85 ;&st7; " /><path d=" M  662.89,  353.06  L  679.89,  353.06 " style="stroke-width: 0.85 ;&st7; " /><path d=" M  667.14,  355.89  L  675.64,  355.89 " style="stroke-width: 0.85 ;&st7; " /><path d=" M  668.55,  358.73  L  674.22,  358.73 " style="stroke-width: 0.85 ;&st7; " /><path d=" M  669.97,  361.56  L  672.80,  361.56 " style="stroke-width: 0.85 ;&st7; " /><path d=" M  526.91,  656.18  L  526.91,  673.17  L  611.90,  673.17  L  611.90,  656.18  L  526.91,  656.18 " style="stroke-width: 1.42 ;&st7; " /><path d=" M  665.72,  660.42  L  669.97,  664.67  L  665.72,  668.92 " style="stroke-width: 1.42 ;&st7; " /><path d=" M  662.32,  660.42  L  666.57,  664.67  L  662.32,  668.92 " style="stroke-width: 1.42 ;&st7; " /><path d=" M  755.18,  663.67  L  754.91,  664.14  L  754.82,  664.67  L  754.91,  665.21  L  755.18,  665.68  L  755.59,  666.02  L  756.10,  666.21  L  756.65,  666.21  L  757.15,  666.02  L  757.57,  665.68  L  757.84,  665.21  L  757.93,  664.67  L  757.84,  664.14  L  757.57,  663.67  L  757.15,  663.33  L  756.65,  663.14  L  756.10,  663.14  L  755.59,  663.33  L  755.18,  663.67  L  755.57,  664.38  L  755.57,  664.97  L  755.95,  665.41  L  756.52,  665.51  L  757.02,  665.22  L  757.22,  664.67  L  757.02,  664.13  L  756.52,  663.84  L  755.95,  663.94  L  756.37,  664.67 " style="stroke-width: 0.85 ;&st7; " /><path d=" M  747.87,  664.67  L  764.87,  664.67 " style="stroke-width: 0.85 ;&st7; " /><path d=" M  526.91,  112.27  L  526.91,  129.26  L  611.90,  129.26  L  611.90,  112.27  L  526.91,  112.27 " style="stroke-width: 1.42 ;&st7; " /><path d=" M  526.91,   86.77  L  526.91,  103.77  L  611.90,  103.77  L  611.90,   86.77  L  526.91,   86.77 " style="stroke-width: 1.42 ;&st7; " /><path d=" M  526.91,  137.76  L  526.91,  154.76  L  611.90,  154.76  L  611.90,  137.76  L  526.91,  137.76 " style="stroke-width: 1.42 ;&st7; " /><path d=" M  888.38,  413.68  C  888.38   411.18   886.36   409.15   883.85   409.15 " style="stroke-width: 1.42 ;&st7; " /><path d=" M  883.85,  409.15  C  881.35   409.15   879.32   411.18   879.32   413.68 " style="stroke-width: 1.42 ;&st7; " /><path d=" M  879.32,  413.68  C  879.32   416.19   881.35   418.22   883.85   418.22 " style="stroke-width: 1.42 ;&st7; " /><path d=" M  883.85,  418.22  C  886.36   418.22   888.38   416.19   888.38   413.68 " style="stroke-width: 1.42 ;&st7; " /><path d=" M  862.89,  413.68  C  862.89   411.18   860.86   409.15   858.36   409.15 " style="stroke-width: 1.42 ;&st7; " /><path d=" M  858.36,  409.15  C  855.85   409.15   853.82   411.18   853.82   413.68 " style="stroke-width: 1.42 ;&st7; " /><path d=" M  853.82,  413.68  C  853.82   416.19   855.85   418.22   858.36   418.22 " style="stroke-width: 1.42 ;&st7; " /><path d=" M  858.36,  418.22  C  860.86   418.22   862.89   416.19   862.89   413.68 " style="stroke-width: 1.42 ;&st7; " /><path d=" M  862.89,  456.74  C  862.89   454.24   860.86   452.21   858.36   452.21 " style="stroke-width: 1.42 ;&st7; " /><path d=" M  858.36,  452.21  C  855.85   452.21   853.82   454.24   853.82   456.74 " style="stroke-width: 1.42 ;&st7; " /><path d=" M  853.82,  456.74  C  853.82   459.25   855.85   461.27   858.36   461.27 " style="stroke-width: 1.42 ;&st7; " /><path d=" M  858.36,  461.27  C  860.86   461.27   862.89   459.25   862.89   456.74 " style="stroke-width: 1.42 ;&st7; " /><text style="&st18;" transform="matrix(&st16;  856.03  458.71 )">B</text><text style="&st18;" transform="matrix(&st16;  910.15  363.53 )">W-B</text><text style="&st18;" transform="matrix(&st16;  910.15  389.02 )">W-B</text><text style="&st18;" transform="matrix(&st16;  910.15  210.55 )">W-B</text><text style="&st18;" transform="matrix(&st16;  910.15  236.05 )">W-B</text><text style="&st18;" transform="matrix(&st16;  910.15  261.54 )">W-B</text><text style="&st18;" transform="matrix(&st16;  910.15  287.04 )">W-B</text><text style="&st18;" transform="matrix(&st17;  795.17  272.94 )">W-B</text><text style="&st18;" transform="matrix(&st17;  812.17  519.06 )">W-B(*22)</text><text style="&st18;" transform="matrix(&st16;  895.49  430.08 )">J15(A),J16(B)</text><text style="&st18;" transform="matrix(&st16;  667.82  410.98 )">18</text><text style="&st18;" transform="matrix(&st16;  733.36  380.53 )">1</text><text style="&st18;" transform="matrix(&st16;  732.58  414.53 )">9</text><text style="&st18;" transform="matrix(&st16;  732.58  440.02 )">6</text><text style="&st18;" transform="matrix(&st16;  741.09  502.9 )">7</text><text style="&st18;" transform="matrix(&st16;  703.05  414.52 )">V</text><text ewd:textID="1" style="&st18;" transform="matrix(&st16;  689.38  380.52 )">(Shielded)</text><text style="&st18;" transform="matrix(&st16;  621.19  380.52 )">W-B</text><text style="&st18;" transform="matrix(&st16;  624.09  440.01 )">BR</text><text style="&st18;" transform="matrix(&st16;  621.19  533.5 )">W-B</text><text style="&st18;" transform="matrix(&st17;  744.18  516.5 )">BR</text><text style="&st18;" transform="matrix(&st16;  708.65  558.99 )">(*1,*18)</text><text style="&st18;" transform="matrix(&st16;  587.63  539.16 )">(ME01)</text><text style="&st18;" transform="matrix(&st17;  854.66  510.9 )">W-B</text><text style="&st18;" transform="matrix(&st16;  624.09  414.52 )">BR</text><text ewd:textID="115" style="&st18;" transform="matrix(&st16;  895.49  437.18 )">Junction <tspan dy="6" x="0">Connector</tspan></text><text style="&st18;" transform="matrix(&st16;  597.38  488.17 )">(E1)</text><text style="&st18;" transform="matrix(&st16;  624.09  482.51 )">BR</text><text style="&st18;" transform="matrix(&st16;  732.58  482.51 )">8</text><text style="&st18;" transform="matrix(&st16;  829.63  558.99 )">(*1,*18)</text><text ewd:textID="54" style="&st18;" transform="matrix(&st16;  945.35  190.72 )">Air Switching Valve</text><text style="&st18;" transform="matrix(&st16;  910.15  185.06 )">W-B</text><text ewd:textID="52" style="&st18;" transform="matrix(&st16;  945.35  162.4 )">Air Injection <tspan dy="6" x="0">Control Driver</tspan></text><text ewd:textID="115" style="&st18;" transform="matrix(&st17;  771.09  480.23 )">Junction Connector</text><text style="&st18;" transform="matrix(&st17;  763.98  480.23 )">J 8</text><text style="&st18;" transform="matrix(&st16;  945.35  343.7 )">(E03)</text><text style="&st18;" transform="matrix(&st16;  945.35  318.2 )">(E04)</text><text style="&st18;" transform="matrix(&st16;  910.15  338.03 )">W-B</text><text style="&st18;" transform="matrix(&st16;  910.15  312.54 )">W-B</text><text style="&st18;" transform="matrix(&st17;  795.17  221.95 )">W-B</text><text style="&st18;" transform="matrix(&st17;  829.17  510.9 )">W-B</text><text style="&st18;" transform="matrix(&st17;  795.17  510.9 )">W-B</text><text style="&st18;" transform="matrix(&st17;  795.17  323.93 )">W-B</text><text style="&st18;" transform="matrix(&st16;  904.54  609.99 )">BR</text><text style="&st18;" transform="matrix(&st16;  592.38  29.25 )">* 2 :1KD-FTV</text><text style="&st18;" transform="matrix(&st16;  592.38  20.75 )">* 1 :2TR-FE</text><text ewd:textID="80" style="&st18;" transform="matrix(&st16;  970.85  356.45 )">Engine ECU</text><text style="&st18;" transform="matrix(&st16;  595.05  420.18 )">(SG)</text><text ewd:textID="106" style="&st18;" transform="matrix(&st16;  945.35  216.22 )">Ignition Coil (No.1)</text><text ewd:textID="107" style="&st18;" transform="matrix(&st16;  945.35  241.71 )">Ignition Coil (No.2)</text><text ewd:textID="108" style="&st18;" transform="matrix(&st16;  945.35  267.21 )">Ignition Coil (No.3)</text><text ewd:textID="109" style="&st18;" transform="matrix(&st16;  945.35  292.71 )">Ignition Coil (No.4)</text><text style="&st18;" transform="matrix(&st16;  945.35  369.19 )">(E02)</text><text style="&st18;" transform="matrix(&st16;  945.35  394.69 )">(E01)</text><text ewd:textID="77" style="&st18;" transform="matrix(&st16;  528.92  383.36 )">Crankshaft Position <tspan dy="6" x="0">Sensor</tspan></text><text style="&st18;" transform="matrix(&st16;  528.92  420.18 )">DLC3</text><text ewd:textID="149" style="&st18;" transform="matrix(&st16;  528.92  445.68 )">Speed Sensor</text><text ewd:textID="80" style="&st18;" transform="matrix(&st16;  528.92  513.67 )">Engine ECU</text><text style="&st18;" transform="matrix(&st16;  873.78  415.65 )">1</text><text style="&st18;" transform="matrix(&st16;  881.52  415.65 )">A</text><text style="&st18;" transform="matrix(&st16;  847.51  415.65 )">2</text><text style="&st18;" transform="matrix(&st16;  856.03  415.65 )">A</text><text style="&st18;" transform="matrix(&st16;  847.51  458.71 )">6</text><text ewd:textID="63" style="&st18;" transform="matrix(&st16;  528.92  292.71 )">Blower SW (Rear)</text><text style="&st18;" transform="matrix(&st16;  638.19  261.54 )">W-B</text><text style="&st18;" transform="matrix(&st16;  638.19  287.04 )">W-B</text><text ewd:textID="150" style="&st18;" transform="matrix(&st16;  528.92  666.64 )">Spiral Cable</text><text style="&st18;" transform="matrix(&st16;  677.91  657.44 )">9</text><text style="&st18;" transform="matrix(&st16;  737.9  660.98 )">12</text><text style="&st18;" transform="matrix(&st16;  709.08  660.98 )">BR</text><text style="&st18;" transform="matrix(&st16;  629.69  660.98 )">W-B</text><text ewd:textID="12" style="&st18;" transform="matrix(&st16;  592.38  46.25 )">*12 :Before Oct. 2008 Production</text><text ewd:textID="13" style="&st18;" transform="matrix(&st16;  592.38  54.75 )">*13 :From Oct. 2008 Production</text><text style="&st18;" transform="matrix(&st16;  638.12  298.37 )">(*12)</text><text style="&st18;" transform="matrix(&st17;  778.18  525.67 )">W-B(*13 *22)</text><text style="&st18;" transform="matrix(&st16;  909.69  196.39 )">(*22)</text><text style="&st18;" transform="matrix(&st16;  592.38  63.24 )">*18 :2TR-FBE</text><text style="&st18;" transform="matrix(&st16;  592.38  37.75 )">* 3 :1GR-FE</text><text style="&st18;" transform="matrix(&st16;  901.65  635.48 )">W-B</text><text style="&st18;" transform="matrix(&st16;  901.65  660.98 )">W-B</text><text style="&st18;" transform="matrix(&st16;  945.35  615.65 )">(E1)</text><text style="&st18;" transform="matrix(&st16;  945.35  666.64 )">(E02)</text><text style="&st18;" transform="matrix(&st16;  863.62  686.47 )">(*3)</text><text style="&st18;" transform="matrix(&st16;  595.05  641.15 )">(SG)</text><text style="&st18;" transform="matrix(&st16;  528.92  641.15 )">DLC3</text><text ewd:textID="149" style="&st18;" transform="matrix(&st16;  528.92  692.14 )">Speed Sensor</text><text style="&st18;" transform="matrix(&st16;  676.32  631.94 )">18</text><text style="&st18;" transform="matrix(&st16;  741.86  635.49 )">1</text><text style="&st18;" transform="matrix(&st16;  741.08  686.48 )">9</text><text style="&st18;" transform="matrix(&st16;  794.06  660.98 )">BR</text><text style="&st18;" transform="matrix(&st16;  711.55  635.48 )">V</text><text style="&st18;" transform="matrix(&st16;  632.59  686.47 )">BR</text><text style="&st18;" transform="matrix(&st16;  632.59  635.48 )">BR</text><text ewd:textID="115" style="&st18;" transform="matrix(&st17;  779.59  641.7 )">Junction <tspan dy="6" x="0">Connector</tspan></text><text style="&st18;" transform="matrix(&st17;  772.48  641.7 )">J39</text><text style="&st18;" transform="matrix(&st16;  945.35  641.15 )">(E01)</text><text ewd:textID="80" style="&st18;" transform="matrix(&st16;  970.85  641.15 )">Engine ECU</text><text ewd:textID="61" style="&st18;" transform="matrix(&st16;  528.92  264.38 )">Blower Resistor <tspan dy="6" x="0">(Rear)</tspan></text><text ewd:textID="22" style="&st18;" transform="matrix(&st16;  745.35  20.75 )">*23 :w/ Cruise Control</text><text ewd:textID="21" style="&st18;" transform="matrix(&st16;  592.38  71.74 )">*22 :w/ Air Injection Control Driver</text><text ewd:textID="25" style="&st18;" transform="matrix(&st16;  745.35  29.25 )">*26 :Front Fender Type</text><text ewd:textID="27" style="&st18;" transform="matrix(&st16;  745.35  37.75 )">*28 :w/ Headlight Beam Level Control (Manual)</text><text ewd:textID="32" style="&st18;" transform="matrix(&st16;  745.35  46.25 )">*34 :w/ VSC</text><text ewd:textID="34" style="&st18;" transform="matrix(&st16;  745.35  54.75 )">*36 :w/ Automatic Light Control</text><text ewd:textID="155" style="&st18;" transform="matrix(&st16;  528.92  119.91 )">Transfer Indicator SW <tspan dy="6" x="0">(Center Diff.)</tspan></text><text style="&st18;" transform="matrix(&st16;  638.19  117.07 )">W-B</text><text style="&st18;" transform="matrix(&st16;  640.1  128.4 )">(*1)</text><text ewd:textID="157" style="&st18;" transform="matrix(&st16;  528.92  94.41 )">Transfer Indicator SW <tspan dy="6" x="0">(Neutral Position)</tspan></text><text style="&st18;" transform="matrix(&st16;  638.19  91.57 )">W-B</text><text style="&st18;" transform="matrix(&st16;  640.1  102.9 )">(*1)</text><text ewd:textID="156" style="&st18;" transform="matrix(&st16;  528.92  145.4 )">Transfer Indicator SW <tspan dy="6" x="0">(L4 Position)</tspan></text><text style="&st18;" transform="matrix(&st16;  638.19  142.56 )">W-B</text><text style="&st18;" transform="matrix(&st16;  640.1  153.9 )">(*1)</text><text style="&st18;" transform="matrix(&st16;  859.15  117.07 )">W-B</text><text style="&st18;" transform="matrix(&st16;  852.09  128.4 )">(*12 *22)</text><text style="&st18;" transform="matrix(&st16;  859.15  159.56 )">W-B</text><text style="&st18;" transform="matrix(&st16;  852.09  170.89 )">(*13 *22)</text><text style="&st18;" transform="matrix(&st16;  909.69  323.87 )">(*22)</text><text style="&st18;" transform="matrix(&st16;  629.23  672.31 )">(*23)</text><text style="&st18;" transform="matrix(&st16;  705.72  672.31 )">(*23)</text><text style="&st18;" transform="matrix(&st16;  767.71  660.98 )">6</text><text ewd:textID="41" style="&st18;" transform="matrix(&st16;  745.35  63.24 )">*45 :1KD-FTV w/o i-ART</text><text style="&st18;" transform="matrix(&st16;  745.35  71.74 )">*48 :2KD-FTV</text></svg>