﻿<?xml version="1.0" encoding="utf-8"?>
<!DOCTYPE svg PUBLIC "-//W3C//DTD SVG 1.0//EN" "http://www.w3.org/TR/2001/REC-SVG-20010904/DTD/svg10.dtd"[
	<!ENTITY ns_flows "http://ns.adobe.com/Flows/1.0/">
	<!ENTITY ns_svg "http://www.w3.org/2000/svg">
	<!ENTITY ns_xlink "http://www.w3.org/1999/xlink">
	<!ENTITY st0 "font-size:7px;font-family:'MS-PGothic';adobe-font-script:japanese;">
	<!ENTITY st1 "font-size:6px;font-family:'ArialMT';">
	<!-- White fill  -->
	<!ENTITY st2 "fill:#FFFFFF;stroke:#000000; stroke-width:1.41;stroke-linecap:round;stroke-linejoin:round;">
	<!-- Yellow fill  -->
	<!ENTITY st3 "fill:#FFFFCC;stroke:#FFFFCC; stroke-width:0.1;stroke-linecap:round;stroke-linejoin:round;">
	<!-- Gray fill  -->
	<!ENTITY st4 "fill:#CCCCCC;stroke:#CCCCCC; stroke-width:0.1;stroke-linecap:round;stroke-linejoin:round;">
	<!-- Light-blue fill -->
	<!ENTITY st5 "fill:#CCECF4;stroke:#000000; stroke-width:1.133;stroke-linecap:round;stroke-linejoin:round;">
	<!ENTITY st6 "fill:none;stroke-linecap:butt; stroke-linejoin:round;">
	<!ENTITY st7 "fill:none;stroke:#000000;stroke-linecap:round;stroke-linejoin:round;">
	<!ENTITY st8 "enable-background:new    ;">
	<!-- Black fill -->
	<!ENTITY st9 "fill:#000000;stroke:#000000; stroke-linecap:round;stroke-linejoin:round;">
	<!-- SRS note   -->
	<!ENTITY st10 "font-size:9px;font-family:'ArialMT';">
	<!ENTITY st11 "font-size:9px;font-family:'Svg Symbol';">
	<!ENTITY st12 "font-size:6px;font-family:'Svg Symbol';">
	<!ENTITY st13 "fill:none;stroke:#ff0000;stroke-linecap:round;stroke-linejoin:round;">
	<!-- Yellow fill  -->
	<!ENTITY st14 "fill:#FFFF00;stroke:#FFFF00; stroke-width:0.1;stroke-linecap:round;stroke-linejoin:round;">
	<!ENTITY st15 "font-size:6px;font-family:'MS-PGothic';adobe-font-script:japanese;">
	<!ENTITY st16 "1.00 0.00 0.00 1.00">
	<!ENTITY st17 "0.00 -1.00 1.00 0.00">
	<!ENTITY st18 "font-size:6px;font-family:'Arial';">
	<!ENTITY st19 "font-size:9px;font-family:'Arial';">
	<!ENTITY st20 "font-size:6px;font-family:'MS-PGothic','MS PGothic';adobe-font-script:japanese;">
	<!ENTITY st21 "font-size:7px;font-family:'MS-PGothic','MS PGothic';adobe-font-script:japanese;">
	<!ATTLIST svg
		xmlns:ewd CDATA #FIXED "http://shcl.co.jp/ewd"
		xmlns:a CDATA #FIXED "http://ns.adobe.com/AdobeSVGViewerExtensions/3.0/"
		ewd:ver CDATA #IMPLIED
	>
	<!ATTLIST a
		ewd:lineID CDATA #IMPLIED
		ewd:groupID CDATA #IMPLIED
		ewd:figtype CDATA #IMPLIED
		ewd:code CDATA #IMPLIED
		ewd:figID CDATA #IMPLIED
		ewd:pinNo CDATA #IMPLIED
		ewd:comment CDATA #IMPLIED >
	<!ATTLIST g
		ewd:lineID CDATA #IMPLIED
		ewd:groupID CDATA #IMPLIED
		ewd:figtype CDATA #IMPLIED
		ewd:code CDATA #IMPLIED
		ewd:figID CDATA #IMPLIED
		ewd:pinNo CDATA #IMPLIED
		ewd:comment CDATA #IMPLIED >
	<!ATTLIST text
		ewd:textID CDATA #IMPLIED >
	<!ATTLIST title
		ewd:textID CDATA #IMPLIED >
]>
<!-- Generator: Shintec Hozumi YS   -->
<svg onload="call_execInitLoadProc_svg('system')" style="overflow:visible;  enable-background:new 0 0 2000.538 710.000" viewBox="0 0 2000.538 710.000" height="710.000" width="2000.538" xml:space="preserve" ewd:ver="L2.1.2.7" xmlns="&ns_svg;" xmlns:a="http://ns.adobe.com/AdobeSVGViewerExtensions/3.0/" xmlns:ewd="http://shcl.co.jp/ewd" xmlns:xlink="&ns_xlink;">
<path d=" M  943.34,  333.23  L  934.84,  333.23 " style="stroke-width: 1.42 ;&st7; " /><path d=" M  979.46,  103.77  L  975.21,  103.77 " style="stroke-width: 1.42 ;&st7; " /><path d=" M  979.46,   95.27  L  975.21,   95.27 " style="stroke-width: 1.42 ;&st7; " /><path d=" M  977.34,   69.77  L  977.34,   95.27 " style="stroke-width: 0.85 ;&st7; " /><path d=" M  936.97,  282.24  L  932.72,  282.24 " style="stroke-width: 1.42 ;&st7; " /><path d=" M  936.97,  273.74  L  932.72,  273.74 " style="stroke-width: 1.42 ;&st7; " /><path d=" M  962.46,  273.74  L  958.21,  273.74 " style="stroke-width: 1.42 ;&st7; " /><path d=" M  962.46,  282.24  L  958.21,  282.24 " style="stroke-width: 1.42 ;&st7; " /><path d=" M  936.97,  188.75  L  932.72,  188.75 " style="stroke-width: 1.42 ;&st7; " /><path d=" M  936.97,  180.26  L  932.72,  180.26 " style="stroke-width: 1.42 ;&st7; " /><path d=" M  962.46,  188.75  L  958.21,  188.75 " style="stroke-width: 1.42 ;&st7; " /><path d=" M  962.46,  180.26  L  958.21,  180.26 " style="stroke-width: 1.42 ;&st7; " /><path d=" M  934.84,  239.75  L  934.84,  248.24 " style="stroke-width: 0.85 ;&st7; " /><path d=" M  934.84,  214.25  L  934.84,  222.75 " style="stroke-width: 0.85 ;&st7; " /><path d=" M  960.34,  214.25  L  960.34,  218.50 " style="stroke-width: 0.85 ;&st7; " /><path d=" M  960.34,  248.24  L  960.34,  243.99 " style="stroke-width: 0.85 ;&st7; " /><path d=" M  960.34,  221.33  L  966.01,  243.99 " style="stroke-width: 1.42 ;&st7; " /><path d=" M  644.70,  213.25  L  644.43,  213.72  L  644.33,  214.25  L  644.43,  214.78  L  644.70,  215.25  L  645.11,  215.60  L  645.62,  215.79  L  646.16,  215.79  L  646.67,  215.60  L  647.08,  215.25  L  647.36,  214.78  L  647.45,  214.25  L  647.36,  213.72  L  647.08,  213.25  L  646.67,  212.90  L  646.16,  212.71  L  645.62,  212.71  L  645.11,  212.90  L  644.70,  213.25  L  645.09,  213.96  L  645.09,  214.54  L  645.47,  214.99  L  646.04,  215.09  L  646.54,  214.80  L  646.74,  214.25  L  646.54,  213.70  L  646.04,  213.41  L  645.47,  213.51  L  645.89,  214.25 " style="stroke-width: 0.85 ;&st7; " /><path d=" M  679.89,  460.71  L  679.89,  486.20 " style="stroke-width: 0.85 ;&st7; " /><path d=" M  671.39,  375.72  L  671.39,  460.71 " style="stroke-width: 0.85 ;&st7; " /><path d=" M  705.38,  375.72  L  705.38,  443.71  L  824.36,  443.71  L  824.36,  375.72  L  705.38,  375.72 " style="stroke-width: 1.42 ;&st7; " /><path d=" M  722.38,  392.72  L  824.36,  392.72 " style="stroke-width: 0.85 ;&st7; " /><path d=" M  722.38,  409.72  L  824.36,  409.72 " style="stroke-width: 0.85 ;&st7; " /><path d=" M  722.38,  426.71  L  824.36,  426.71 " style="stroke-width: 0.85 ;&st7; " /><path d=" M  756.37,  443.71  L  756.37,  375.72 " style="stroke-width: 0.85 ;&st7; " /><path d=" M  773.37,  443.71  L  773.37,  375.72 " style="stroke-width: 0.85 ;&st7; " /><path d=" M  790.37,  443.71  L  790.37,  375.72 " style="stroke-width: 0.85 ;&st7; " /><path d=" M  814.45,  418.22  L  783.29,  418.22 " style="stroke-width: 0.85 ;&st7; " /><path d=" M  807.36,  375.72  L  807.36,  443.71 " style="stroke-width: 0.85 ;&st7; " /><path d=" M  800.28,  401.22  L  814.45,  401.22 " style="stroke-width: 0.85 ;&st7; " /><path d=" M  815.86,  443.71  L  815.86,  486.20 " style="stroke-width: 0.85 ;&st7; " /><path d=" M  662.89,  460.71  L  662.89,  469.21  L  815.86,  469.21 " style="stroke-width: 0.85 ;&st7; " /><path d=" M  543.91,  358.73  L  543.91,  486.20  L  832.86,  486.20  L  832.86,  358.73  L  543.91,  358.73 " style="stroke-width: 1.42 ;&st7; " /><path d=" M  630.31,  435.21  L  644.48,  435.21 " style="stroke-width: 0.85 ;&st7; " /><path d=" M  661.47,  435.21  L  647.31,  435.21 " style="stroke-width: 0.85 ;&st7; " /><path d=" M  678.47,  452.21  L  664.31,  452.21 " style="stroke-width: 0.85 ;&st7; " /><path d=" M  800.28,  435.21  L  814.45,  435.21 " style="stroke-width: 0.85 ;&st7; " /><path d=" M  586.40,  443.71  L  688.38,  443.71 " style="stroke-width: 0.85 ;&st7; " /><path d=" M  798.87,  375.72  L  798.87,  358.73 " style="stroke-width: 0.85 ;&st7; " /><path d=" M  645.89,  375.72  L  645.89,  358.73 " style="stroke-width: 0.85 ;&st7; " /><path d=" M  797.45,  401.22  L  766.29,  401.22 " style="stroke-width: 0.85 ;&st7; " /><path d=" M  722.38,  375.72  L  722.38,  443.71 " style="stroke-width: 0.85 ;&st7; " /><path d=" M  586.40,  375.72  L  586.40,  460.71 " style="stroke-width: 0.85 ;&st7; " /><path d=" M  939.09,  338.90  L  934.84,  334.65  L  930.59,  338.90 " style="stroke-width: 1.42 ;&st7; " /><path d=" M  939.09,  342.29  L  934.84,  338.05  L  930.59,  342.29 " style="stroke-width: 1.42 ;&st7; " /><path d=" M  934.84,  248.24  L  934.84,  273.74 " style="stroke-width: 0.85 ;&st7; " /><path d=" M  934.84,  268.84  L  932.01,  266.01  L  932.01,  270.26  L  934.84,  273.09  L  937.68,  270.26  L  937.68,  266.01  L  934.84,  268.84 " style="stroke-width: 0.28 ;&st9;" /><path d=" M  960.34,  273.74  L  960.34,  248.24 " style="stroke-width: 0.85 ;&st7; " /><path d=" M  960.34,  268.84  L  957.51,  266.01  L  957.51,  270.26  L  960.34,  273.09  L  963.17,  270.26  L  963.17,  266.01  L  960.34,  268.84 " style="stroke-width: 0.28 ;&st9;" /><path d=" M  960.34,  188.75  L  960.34,  214.25 " style="stroke-width: 0.85 ;&st7; " /><path d=" M  934.84,  193.65  L  937.68,  196.48  L  937.68,  192.23  L  934.84,  189.40  L  932.01,  192.23  L  932.01,  196.48  L  934.84,  193.65 " style="stroke-width: 0.28 ;&st9;" /><path d=" M  934.84,  214.25  L  934.84,  188.75 " style="stroke-width: 0.85 ;&st7; " /><path d=" M  960.34,  193.65  L  963.17,  196.48  L  963.17,  192.23  L  960.34,  189.40  L  957.51,  192.23  L  957.51,  196.48  L  960.34,  193.65 " style="stroke-width: 0.28 ;&st9;" /><path d=" M  968.84,  214.25  L  926.34,  214.25  L  926.34,  248.24  L  968.84,  248.24  L  968.84,  214.25 " style="stroke-width: 1.42 ;&st7; " /><path d=" M  964.59,   35.78  L  964.59,   78.27  L  990.08,   78.27  L  990.08,   35.78  L  964.59,   35.78 " style="stroke-width: 1.42 ;&st7; " /><path d=" M  977.34,   90.37  L  974.50,   87.54  L  974.50,   91.79  L  977.34,   94.62  L  980.17,   91.79  L  980.17,   87.54  L  977.34,   90.37 " style="stroke-width: 0.28 ;&st9;" /><path d=" M  630.31,  418.22  L  661.47,  418.22 " style="stroke-width: 0.85 ;&st7; " /><path d=" M  654.39,  460.71  L  654.39,  375.72 " style="stroke-width: 0.85 ;&st7; " /><path d=" M  637.39,  460.71  L  637.39,  375.72 " style="stroke-width: 0.85 ;&st7; " /><path d=" M  620.40,  460.71  L  620.40,  375.72 " style="stroke-width: 0.85 ;&st7; " /><path d=" M  586.40,  426.71  L  688.38,  426.71 " style="stroke-width: 0.85 ;&st7; " /><path d=" M  586.40,  409.72  L  688.38,  409.72 " style="stroke-width: 0.85 ;&st7; " /><path d=" M  586.40,  392.72  L  688.38,  392.72 " style="stroke-width: 0.85 ;&st7; " /><path d=" M  552.41,  375.72  L  552.41,  460.71  L  688.38,  460.71  L  688.38,  375.72  L  552.41,  375.72 " style="stroke-width: 1.42 ;&st7; " /><path d=" M  814.67,  468.20  L  814.40,  468.67  L  814.31,  469.21  L  814.40,  469.74  L  814.67,  470.21  L  815.08,  470.56  L  815.59,  470.74  L  816.14,  470.74  L  816.64,  470.56  L  817.06,  470.21  L  817.33,  469.74  L  817.42,  469.21  L  817.33,  468.67  L  817.06,  468.20  L  816.64,  467.86  L  816.14,  467.67  L  815.59,  467.67  L  815.08,  467.86  L  814.67,  468.20  L  815.06,  468.92  L  815.06,  469.50  L  815.44,  469.94  L  816.01,  470.04  L  816.51,  469.75  L  816.71,  469.21  L  816.51,  468.66  L  816.01,  468.37  L  815.44,  468.47  L  815.86,  469.21 " style="stroke-width: 0.85 ;&st7; " /><path d=" M  764.87,  375.72  L  764.87,  358.73 " style="stroke-width: 0.85 ;&st7; " /><path d=" M  645.89,  214.25  L  713.88,  214.25  L  713.88,  197.25 " style="stroke-width: 0.85 ;&st7; " /><path d=" M  807.36,  562.69  L  824.36,  562.69  L  824.36,  579.69  L  807.36,  579.69  L  807.36,  562.69 " style="stroke-width: 1.42 ;&st7; " /><path d=" M  815.86,  562.69  L  815.86,  579.69 " style="stroke-width: 0.85 ;&st7; " /><path d=" M  815.86,  697.25  L  815.86,  701.50 " style="stroke-width: 0.85 ;&st7; " /><path d=" M  807.36,  701.50  L  824.36,  701.50 " style="stroke-width: 0.85 ;&st7; " /><path d=" M  811.61,  704.33  L  820.11,  704.33 " style="stroke-width: 0.85 ;&st7; " /><path d=" M  813.03,  707.17  L  818.70,  707.17 " style="stroke-width: 0.85 ;&st7; " /><path d=" M  814.45,  710.00  L  817.28,  710.00 " style="stroke-width: 0.85 ;&st7; " /><path d=" M  645.89,  197.25  L  645.89,  231.25 " style="stroke-width: 0.85 ;&st7; " /><path d=" M  637.39,  197.25  L  722.38,  197.25  L  722.38,  231.25  L  637.39,  231.25  L  637.39,  197.25 " style="stroke-width: 1.42 ;&st7; " /><path d=" M  637.39,  222.75  L  722.38,  222.75 " style="stroke-width: 1.13 ;&st7;stroke-dasharray:3, 1.5;" /><path d=" M  637.39,  205.75  L  722.38,  205.75 " style="stroke-width: 1.13 ;&st7;stroke-dasharray:3, 1.5;" /><path d=" M  679.89,  214.25  L  679.89,  197.25 " style="stroke-width: 0.85 ;&st7; " /><path d=" M  678.69,  213.25  L  678.42,  213.72  L  678.33,  214.25  L  678.42,  214.78  L  678.69,  215.25  L  679.11,  215.60  L  679.61,  215.79  L  680.16,  215.79  L  680.67,  215.60  L  681.08,  215.25  L  681.35,  214.78  L  681.44,  214.25  L  681.35,  213.72  L  681.08,  213.25  L  680.67,  212.90  L  680.16,  212.71  L  679.61,  212.71  L  679.11,  212.90  L  678.69,  213.25  L  679.09,  213.96  L  679.09,  214.54  L  679.46,  214.99  L  680.03,  215.09  L  680.54,  214.80  L  680.74,  214.25  L  680.54,  213.70  L  680.03,  213.41  L  679.46,  213.51  L  679.89,  214.25 " style="stroke-width: 0.85 ;&st7; " /><path d=" M  817.28,  435.21  C  817.28   434.43   816.65   433.80   815.86   433.80 " style="stroke-width: 0.85 ;&st7; " /><path d=" M  815.86,  433.80  C  815.08   433.80   814.45   434.43   814.45   435.21 " style="stroke-width: 0.85 ;&st7; " /><path d=" M  814.45,  435.21  C  814.45   435.99   815.08   436.63   815.86   436.63 " style="stroke-width: 0.85 ;&st7; " /><path d=" M  815.86,  436.63  C  816.65   436.63   817.28   435.99   817.28   435.21 " style="stroke-width: 0.85 ;&st7; " /><path d=" M  664.31,  452.21  C  664.31   451.43   663.67   450.79   662.89   450.79 " style="stroke-width: 0.85 ;&st7; " /><path d=" M  662.89,  450.79  C  662.11   450.79   661.47   451.43   661.47   452.21 " style="stroke-width: 0.85 ;&st7; " /><path d=" M  661.47,  452.21  C  661.47   452.99   662.11   453.63   662.89   453.63 " style="stroke-width: 0.85 ;&st7; " /><path d=" M  662.89,  453.63  C  663.67   453.63   664.31   452.99   664.31   452.21 " style="stroke-width: 0.85 ;&st7; " /><path d=" M  718.41,  192.72  C  718.41   190.22   716.38   188.19   713.88   188.19 " style="stroke-width: 1.42 ;&st7; " /><path d=" M  713.88,  188.19  C  711.38   188.19   709.35   190.22   709.35   192.72 " style="stroke-width: 1.42 ;&st7; " /><path d=" M  709.35,  192.72  C  709.35   195.22   711.38   197.25   713.88   197.25 " style="stroke-width: 1.42 ;&st7; " /><path d=" M  713.88,  197.25  C  716.38   197.25   718.41   195.22   718.41   192.72 " style="stroke-width: 1.42 ;&st7; " /><path d=" M  650.42,  235.78  C  650.42   233.28   648.40   231.25   645.89   231.25 " style="stroke-width: 1.42 ;&st7; " /><path d=" M  645.89,  231.25  C  643.39   231.25   641.36   233.28   641.36   235.78 " style="stroke-width: 1.42 ;&st7; " /><path d=" M  641.36,  235.78  C  641.36   238.28   643.39   240.31   645.89   240.31 " style="stroke-width: 1.42 ;&st7; " /><path d=" M  645.89,  240.31  C  648.40   240.31   650.42   238.28   650.42   235.78 " style="stroke-width: 1.42 ;&st7; " /><path d=" M  650.42,  192.72  C  650.42   190.22   648.40   188.19   645.89   188.19 " style="stroke-width: 1.42 ;&st7; " /><path d=" M  645.89,  188.19  C  643.39   188.19   641.36   190.22   641.36   192.72 " style="stroke-width: 1.42 ;&st7; " /><path d=" M  641.36,  192.72  C  641.36   195.22   643.39   197.25   645.89   197.25 " style="stroke-width: 1.42 ;&st7; " /><path d=" M  645.89,  197.25  C  648.40   197.25   650.42   195.22   650.42   192.72 " style="stroke-width: 1.42 ;&st7; " /><path d=" M  684.42,  192.72  C  684.42   190.22   682.39   188.19   679.89   188.19 " style="stroke-width: 1.42 ;&st7; " /><path d=" M  679.89,  188.19  C  677.38   188.19   675.35   190.22   675.35   192.72 " style="stroke-width: 1.42 ;&st7; " /><path d=" M  675.35,  192.72  C  675.35   195.22   677.38   197.25   679.89   197.25 " style="stroke-width: 1.42 ;&st7; " /><path d=" M  679.89,  197.25  C  682.39   197.25   684.42   195.22   684.42   192.72 " style="stroke-width: 1.42 ;&st7; " /><path d=" M  977.34,   66.94  C  981.05    64.17   981.87    58.96   979.18    55.19 " style="stroke-width: 1.42 ;&st7; " /><path d=" M  977.34,   66.94  C  979.51    63.92   979.51    60.05   977.34    57.03 " style="stroke-width: 1.42 ;&st7; " /><path d=" M  977.34,   66.94  C  978.19    64.02   977.53    61.13   975.49    58.87 " style="stroke-width: 1.42 ;&st7; " /><path d=" M  978.75,   45.69  C  978.75    44.91   978.12    44.28   977.34    44.28 " style="stroke-width: 0.85 ;&st7; " /><path d=" M  977.34,   44.28  C  976.55    44.28   975.92    44.91   975.92    45.69 " style="stroke-width: 0.85 ;&st7; " /><path d=" M  975.92,   45.69  C  975.92    46.48   976.55    47.11   977.34    47.11 " style="stroke-width: 0.85 ;&st7; " /><path d=" M  977.34,   47.11  C  978.12    47.11   978.75    46.48   978.75    45.69 " style="stroke-width: 0.85 ;&st7; " /><path d=" M  978.75,   68.36  C  978.75    67.57   978.12    66.94   977.34    66.94 " style="stroke-width: 0.85 ;&st7; " /><path d=" M  977.34,   66.94  C  976.55    66.94   975.92    67.57   975.92    68.36 " style="stroke-width: 0.85 ;&st7; " /><path d=" M  975.92,   68.36  C  975.92    69.14   976.55    69.77   977.34    69.77 " style="stroke-width: 0.85 ;&st7; " /><path d=" M  977.34,   69.77  C  978.12    69.77   978.75    69.14   978.75    68.36 " style="stroke-width: 0.85 ;&st7; " /><path d=" M  983.71,   99.52  C  983.71    97.17   981.81    95.27   979.46    95.27 " style="stroke-width: 1.42 ;&st7; " /><path d=" M  979.46,  103.77  C  981.81   103.77   983.71   101.87   983.71    99.52 " style="stroke-width: 1.42 ;&st7; " /><path d=" M  970.96,   99.52  C  970.96   101.87   972.87   103.77   975.21   103.77 " style="stroke-width: 1.42 ;&st7; " /><path d=" M  975.21,   95.27  C  972.87    95.27   970.96    97.17   970.96    99.52 " style="stroke-width: 1.42 ;&st7; " /><path d=" M  941.22,  277.99  C  941.22   275.64   939.32   273.74   936.97   273.74 " style="stroke-width: 1.42 ;&st7; " /><path d=" M  936.97,  282.24  C  939.32   282.24   941.22   280.34   941.22   277.99 " style="stroke-width: 1.42 ;&st7; " /><path d=" M  928.47,  277.99  C  928.47   280.34   930.37   282.24   932.72   282.24 " style="stroke-width: 1.42 ;&st7; " /><path d=" M  932.72,  273.74  C  930.37   273.74   928.47   275.64   928.47   277.99 " style="stroke-width: 1.42 ;&st7; " /><path d=" M  958.21,  273.74  C  955.87   273.74   953.97   275.64   953.97   277.99 " style="stroke-width: 1.42 ;&st7; " /><path d=" M  953.97,  277.99  C  953.97   280.34   955.87   282.24   958.21   282.24 " style="stroke-width: 1.42 ;&st7; " /><path d=" M  962.46,  282.24  C  964.81   282.24   966.71   280.34   966.71   277.99 " style="stroke-width: 1.42 ;&st7; " /><path d=" M  966.71,  277.99  C  966.71   275.64   964.81   273.74   962.46   273.74 " style="stroke-width: 1.42 ;&st7; " /><path d=" M  941.22,  184.50  C  941.22   182.16   939.32   180.26   936.97   180.26 " style="stroke-width: 1.42 ;&st7; " /><path d=" M  936.97,  188.75  C  939.32   188.75   941.22   186.85   941.22   184.50 " style="stroke-width: 1.42 ;&st7; " /><path d=" M  928.47,  184.50  C  928.47   186.85   930.37   188.75   932.72   188.75 " style="stroke-width: 1.42 ;&st7; " /><path d=" M  932.72,  180.26  C  930.37   180.26   928.47   182.16   928.47   184.50 " style="stroke-width: 1.42 ;&st7; " /><path d=" M  966.71,  184.50  C  966.71   182.16   964.81   180.26   962.46   180.26 " style="stroke-width: 1.42 ;&st7; " /><path d=" M  962.46,  188.75  C  964.81   188.75   966.71   186.85   966.71   184.50 " style="stroke-width: 1.42 ;&st7; " /><path d=" M  953.97,  184.50  C  953.97   186.85   955.87   188.75   958.21   188.75 " style="stroke-width: 1.42 ;&st7; " /><path d=" M  958.21,  180.26  C  955.87   180.26   953.97   182.16   953.97   184.50 " style="stroke-width: 1.42 ;&st7; " /><path d=" M  934.84,  239.75  C  936.80   239.75   938.38   238.16   938.38   236.20 " style="stroke-width: 0.85 ;&st7; " /><path d=" M  938.38,  236.20  C  938.38   234.25   936.80   232.66   934.84   232.66 " style="stroke-width: 0.85 ;&st7; " /><path d=" M  934.84,  232.66  C  933.85   232.66   933.01   233.02   932.31   233.73 " style="stroke-width: 0.85 ;&st7; " /><path d=" M  932.31,  233.73  C  933.68   235.12   935.93   235.15   937.32   233.78 " style="stroke-width: 0.85 ;&st7; " /><path d=" M  937.32,  233.78  C  938.72   232.41   938.74   230.17   937.37   228.77 " style="stroke-width: 0.85 ;&st7; " /><path d=" M  937.37,  228.77  C  936.00   227.37   933.76   227.35   932.37   228.72 " style="stroke-width: 0.85 ;&st7; " /><path d=" M  932.37,  228.72  C  932.35   228.73   932.33   228.75   932.31   228.77 " style="stroke-width: 0.85 ;&st7; " /><path d=" M  932.31,  228.77  C  933.68   230.17   935.93   230.19   937.32   228.82 " style="stroke-width: 0.85 ;&st7; " /><path d=" M  937.32,  228.82  C  938.72   227.45   938.74   225.21   937.37   223.81 " style="stroke-width: 0.85 ;&st7; " /><path d=" M  937.37,  223.81  C  936.68   223.10   935.83   222.75   934.84   222.75 " style="stroke-width: 0.85 ;&st7; " /><path d=" M  961.76,  219.92  C  961.76   219.13   961.12   218.50   960.34   218.50 " style="stroke-width: 0.85 ;&st7; " /><path d=" M  960.34,  218.50  C  959.56   218.50   958.92   219.13   958.92   219.92 " style="stroke-width: 0.85 ;&st7; " /><path d=" M  958.92,  219.92  C  958.92   220.70   959.56   221.33   960.34   221.33 " style="stroke-width: 0.85 ;&st7; " /><path d=" M  960.34,  221.33  C  961.12   221.33   961.76   220.70   961.76   219.92 " style="stroke-width: 0.85 ;&st7; " /><path d=" M  961.76,  242.58  C  961.76   241.80   961.12   241.16   960.34   241.16 " style="stroke-width: 0.85 ;&st7; " /><path d=" M  960.34,  241.16  C  959.56   241.16   958.92   241.80   958.92   242.58 " style="stroke-width: 0.85 ;&st7; " /><path d=" M  958.92,  242.58  C  958.92   243.36   959.56   243.99   960.34   243.99 " style="stroke-width: 0.85 ;&st7; " /><path d=" M  960.34,  243.99  C  961.12   243.99   961.76   243.36   961.76   242.58 " style="stroke-width: 0.85 ;&st7; " /><path d=" M  977.34,   47.11  C  976.48    50.03   977.14    52.92   979.18    55.18 " style="stroke-width: 1.42 ;&st7; " /><path d=" M  977.34,   47.11  C  975.17    50.13   975.17    54.00   977.34    57.03 " style="stroke-width: 1.42 ;&st7; " /><path d=" M  977.34,   47.11  C  973.62    49.88   972.80    55.10   975.50    58.87 " style="stroke-width: 1.42 ;&st7; " /><path d=" M  800.28,  435.21  C  800.28   434.43   799.65   433.80   798.87   433.80 " style="stroke-width: 0.85 ;&st7; " /><path d=" M  798.87,  433.80  C  798.08   433.80   797.45   434.43   797.45   435.21 " style="stroke-width: 0.85 ;&st7; " /><path d=" M  797.45,  435.21  C  797.45   435.99   798.08   436.63   798.87   436.63 " style="stroke-width: 0.85 ;&st7; " /><path d=" M  798.87,  436.63  C  799.65   436.63   800.28   435.99   800.28   435.21 " style="stroke-width: 0.85 ;&st7; " /><path d=" M  766.29,  401.22  C  766.29   400.44   765.65   399.80   764.87   399.80 " style="stroke-width: 0.85 ;&st7; " /><path d=" M  764.87,  399.80  C  764.09   399.80   763.46   400.44   763.46   401.22 " style="stroke-width: 0.85 ;&st7; " /><path d=" M  763.46,  401.22  C  763.46   402.00   764.09   402.63   764.87   402.63 " style="stroke-width: 0.85 ;&st7; " /><path d=" M  764.87,  402.63  C  765.65   402.63   766.29   402.00   766.29   401.22 " style="stroke-width: 0.85 ;&st7; " /><path d=" M  664.31,  435.21  C  664.31   434.43   663.67   433.80   662.89   433.80 " style="stroke-width: 0.85 ;&st7; " /><path d=" M  662.89,  433.80  C  662.11   433.80   661.47   434.43   661.47   435.21 " style="stroke-width: 0.85 ;&st7; " /><path d=" M  661.47,  435.21  C  661.47   435.99   662.11   436.63   662.89   436.63 " style="stroke-width: 0.85 ;&st7; " /><path d=" M  662.89,  436.63  C  663.67   436.63   664.31   435.99   664.31   435.21 " style="stroke-width: 0.85 ;&st7; " /><path d=" M  800.28,  401.22  C  800.28   400.44   799.65   399.80   798.87   399.80 " style="stroke-width: 0.85 ;&st7; " /><path d=" M  798.87,  399.80  C  798.08   399.80   797.45   400.44   797.45   401.22 " style="stroke-width: 0.85 ;&st7; " /><path d=" M  797.45,  401.22  C  797.45   402.00   798.08   402.63   798.87   402.63 " style="stroke-width: 0.85 ;&st7; " /><path d=" M  798.87,  402.63  C  799.65   402.63   800.28   402.00   800.28   401.22 " style="stroke-width: 0.85 ;&st7; " /><path d=" M  783.29,  418.22  C  783.29   417.43   782.65   416.80   781.87   416.80 " style="stroke-width: 0.85 ;&st7; " /><path d=" M  781.87,  416.80  C  781.09   416.80   780.45   417.43   780.45   418.22 " style="stroke-width: 0.85 ;&st7; " /><path d=" M  780.45,  418.22  C  780.45   419.00   781.09   419.63   781.87   419.63 " style="stroke-width: 0.85 ;&st7; " /><path d=" M  781.87,  419.63  C  782.65   419.63   783.29   419.00   783.29   418.22 " style="stroke-width: 0.85 ;&st7; " /><path d=" M  817.28,  418.22  C  817.28   417.43   816.65   416.80   815.86   416.80 " style="stroke-width: 0.85 ;&st7; " /><path d=" M  815.86,  416.80  C  815.08   416.80   814.45   417.43   814.45   418.22 " style="stroke-width: 0.85 ;&st7; " /><path d=" M  814.45,  418.22  C  814.45   419.00   815.08   419.63   815.86   419.63 " style="stroke-width: 0.85 ;&st7; " /><path d=" M  815.86,  419.63  C  816.65   419.63   817.28   419.00   817.28   418.22 " style="stroke-width: 0.85 ;&st7; " /><path d=" M  681.30,  452.21  C  681.30   451.43   680.67   450.79   679.89   450.79 " style="stroke-width: 0.85 ;&st7; " /><path d=" M  679.89,  450.79  C  679.10   450.79   678.47   451.43   678.47   452.21 " style="stroke-width: 0.85 ;&st7; " /><path d=" M  678.47,  452.21  C  678.47   452.99   679.10   453.63   679.89   453.63 " style="stroke-width: 0.85 ;&st7; " /><path d=" M  679.89,  453.63  C  680.67   453.63   681.30   452.99   681.30   452.21 " style="stroke-width: 0.85 ;&st7; " /><path d=" M  664.31,  418.22  C  664.31   417.43   663.67   416.80   662.89   416.80 " style="stroke-width: 0.85 ;&st7; " /><path d=" M  662.89,  416.80  C  662.11   416.80   661.47   417.43   661.47   418.22 " style="stroke-width: 0.85 ;&st7; " /><path d=" M  661.47,  418.22  C  661.47   419.00   662.11   419.63   662.89   419.63 " style="stroke-width: 0.85 ;&st7; " /><path d=" M  662.89,  419.63  C  663.67   419.63   664.31   419.00   664.31   418.22 " style="stroke-width: 0.85 ;&st7; " /><path d=" M  630.31,  418.22  C  630.31   417.43   629.68   416.80   628.89   416.80 " style="stroke-width: 0.85 ;&st7; " /><path d=" M  628.89,  416.80  C  628.11   416.80   627.48   417.43   627.48   418.22 " style="stroke-width: 0.85 ;&st7; " /><path d=" M  627.48,  418.22  C  627.48   419.00   628.11   419.63   628.89   419.63 " style="stroke-width: 0.85 ;&st7; " /><path d=" M  628.89,  419.63  C  629.68   419.63   630.31   419.00   630.31   418.22 " style="stroke-width: 0.85 ;&st7; " /><path d=" M  647.31,  435.21  C  647.31   434.43   646.67   433.80   645.89   433.80 " style="stroke-width: 0.85 ;&st7; " /><path d=" M  645.89,  433.80  C  645.11   433.80   644.48   434.43   644.48   435.21 " style="stroke-width: 0.85 ;&st7; " /><path d=" M  644.48,  435.21  C  644.48   435.99   645.11   436.63   645.89   436.63 " style="stroke-width: 0.85 ;&st7; " /><path d=" M  645.89,  436.63  C  646.67   436.63   647.31   435.99   647.31   435.21 " style="stroke-width: 0.85 ;&st7; " /><path d=" M  630.31,  435.21  C  630.31   434.43   629.68   433.80   628.89   433.80 " style="stroke-width: 0.85 ;&st7; " /><path d=" M  628.89,  433.80  C  628.11   433.80   627.48   434.43   627.48   435.21 " style="stroke-width: 0.85 ;&st7; " /><path d=" M  627.48,  435.21  C  627.48   435.99   628.11   436.63   628.89   436.63 " style="stroke-width: 0.85 ;&st7; " /><path d=" M  628.89,  436.63  C  629.68   436.63   630.31   435.99   630.31   435.21 " style="stroke-width: 0.85 ;&st7; " /><path d=" M  817.28,  401.22  C  817.28   400.44   816.65   399.80   815.86   399.80 " style="stroke-width: 0.85 ;&st7; " /><path d=" M  815.86,  399.80  C  815.08   399.80   814.45   400.44   814.45   401.22 " style="stroke-width: 0.85 ;&st7; " /><path d=" M  814.45,  401.22  C  814.45   402.00   815.08   402.63   815.86   402.63 " style="stroke-width: 0.85 ;&st7; " /><path d=" M  815.86,  402.63  C  816.65   402.63   817.28   402.00   817.28   401.22 " style="stroke-width: 0.85 ;&st7; " /><text style="&st18;" transform="matrix(&st17;  931.15  304.46 )">GR</text><text style="&st18;" transform="matrix(&st16;  806.67  587.88 )">11</text><text style="&st18;" transform="matrix(&st16;  805.9  559.0 )">10</text><text style="&st18;" transform="matrix(&st17;  812.17  629.88 )">W-B</text><text ewd:textID="20" style="&st18;" transform="matrix(&st17;  839.08  582.21 )">Junction <tspan dy="6" x="0">Connector</tspan></text><text style="&st18;" transform="matrix(&st17;  831.97  582.21 )">J58</text><text style="&st18;" transform="matrix(&st17;  795.17  331.83 )">B-O</text><text style="&st18;" transform="matrix(&st16;  904.12  363.53 )">GR</text><text ewd:textID="7" style="&st18;" transform="matrix(&st16;  541.38  500.92 )">Combination SW</text><text style="&st18;" transform="matrix(&st16;  805.9  494.4 )">12</text><text style="&st18;" transform="matrix(&st16;  789.68  355.04 )">11</text><text style="&st18;" transform="matrix(&st16;  754.9  355.04 )">17</text><text style="&st18;" transform="matrix(&st16;  635.15  355.04 )">20</text><text ewd:textID="3" style="&st18;" transform="matrix(&st16;  626.37  54.75 )">* 3 :Before Oct. 2013 Production</text><text ewd:textID="4" style="&st18;" transform="matrix(&st16;  626.37  63.24 )">* 4 :From Oct. 2013 Production</text><text style="&st18;" transform="matrix(&st17;  676.19  543.52 )">P-L</text><text ewd:textID="20" style="&st18;" transform="matrix(&st16;  660.36  245.96 )">Junction <tspan dy="6" x="0">Connector</tspan></text><text style="&st18;" transform="matrix(&st16;  660.36  238.86 )">J45(A),J46(B)</text><text style="&st18;" transform="matrix(&st17;  642.2  176.98 )">GR</text><text style="&st18;" transform="matrix(&st16;  711.55  194.69 )">A</text><text style="&st18;" transform="matrix(&st16;  699.83  194.69 )">12</text><text style="&st18;" transform="matrix(&st16;  643.56  237.75 )">B</text><text style="&st18;" transform="matrix(&st16;  631.84  237.75 )">21</text><text style="&st18;" transform="matrix(&st17;  676.19  176.98 )">GR</text><text style="&st18;" transform="matrix(&st16;  538.68  151.06 )">GR</text><text style="&st18;" transform="matrix(&st16;  537.59  626.98 )">P-L</text><text style="&st18;" transform="matrix(&st16;  537.09  652.48 )">R-B</text><text style="&st18;" transform="matrix(&st16;  631.84  194.69 )">14</text><text style="&st18;" transform="matrix(&st16;  643.56  194.69 )">A</text><text style="&st18;" transform="matrix(&st16;  677.56  194.69 )">A</text><text style="&st18;" transform="matrix(&st16;  665.83  194.69 )">13</text><text style="&st18;" transform="matrix(&st16;  669.92  494.4 )">19</text><text style="&st18;" transform="matrix(&st16;  920.03  330.95 )">5</text><text ewd:textID="12" style="&st18;" transform="matrix(&st17;  976.48  247.99 )">H-LP RLY <tspan dy="6" x="0">Relay</tspan></text><text style="&st18;" transform="matrix(&st17;  973.64  136.96 )">B-W</text><text style="&st18;" transform="matrix(&st16;  939.89  151.06 )">B-W</text><text style="&st18;" transform="matrix(&st16;  933.25  279.96 )">1</text><text style="&st18;" transform="matrix(&st16;  958.75  279.96 )">1</text><text style="&st18;" transform="matrix(&st16;  933.25  186.47 )">1</text><text style="&st18;" transform="matrix(&st16;  958.75  186.47 )">1</text><text style="&st18;" transform="matrix(&st16;  953.55  210.56 )">3</text><text style="&st18;" transform="matrix(&st16;  928.83  210.56 )">1</text><text style="&st18;" transform="matrix(&st16;  953.55  256.44 )">5</text><text style="&st18;" transform="matrix(&st16;  928.05  256.44 )">2</text><text style="&st18;" transform="matrix(&st16;  964.65  101.49 )">3</text><text style="&st18;" transform="matrix(&st16;  973.27  101.49 )">1C</text><text style="&st18;" transform="matrix(&st16;  994.64  56.17 )">40A <tspan dy="6" x="0">MAIN</tspan></text><text style="&st18;" transform="matrix(&st16;  968.22  32.08 )">(BAT)</text><text style="&st18;" transform="matrix(&st16;  626.78  386.19 )">T</text><text style="&st18;" transform="matrix(&st16;  643.42  386.19 )">H</text><text style="&st18;" transform="matrix(&st16;  658.58  386.19 )">EL</text><text style="&st18;" transform="matrix(&st16;  677.56  386.19 )">A</text><text style="&st18;" transform="matrix(&st16;  760.28  386.19 )">HF</text><text style="&st18;" transform="matrix(&st16;  777.42  386.19 )">HL</text><text style="&st18;" transform="matrix(&st16;  793.92  386.19 )">HU</text><text style="&st18;" transform="matrix(&st16;  808.73  386.19 )">(ED)</text><text style="&st18;" transform="matrix(&st16;  593.72  454.18 )">AUTO</text><text ewd:textID="13" style="&st18;" transform="matrix(&st16;  594.99  437.18 )">Head</text><text ewd:textID="25" style="&st18;" transform="matrix(&st16;  597.85  420.18 )">Tail</text><text style="&st18;" transform="matrix(&st16;  596.41  403.19 )">OFF</text><text ewd:textID="11" style="&st18;" transform="matrix(&st16;  730.83  403.19 )">Flash</text><text ewd:textID="23" style="&st18;" transform="matrix(&st16;  732.88  420.18 )">Low</text><text ewd:textID="18" style="&st18;" transform="matrix(&st16;  732.21  437.18 )">High</text><text ewd:textID="22" style="&st18;" transform="matrix(&st17;  571.38  445.2 )">Light Control SW</text><text ewd:textID="9" style="&st18;" transform="matrix(&st17;  715.85  428.9 )">Dimmer SW</text><text style="&st18;" transform="matrix(&st17;  812.17  523.55 )">W</text><text style="&st18;" transform="matrix(&st17;  642.2  287.47 )">GR</text><text style="&st18;" transform="matrix(&st17;  761.18  287.47 )">GR</text><text style="&st18;" transform="matrix(&st16;  541.38  493.81 )">C29</text></svg>