﻿<?xml version="1.0" encoding="UTF-8"?>
<!DOCTYPE svg PUBLIC "-//W3C//DTD SVG 1.0//EN" "http://www.w3.org/TR/2001/REC-SVG-20010904/DTD/svg10.dtd"[
	<!ENTITY ns_flows "http://ns.adobe.com/Flows/1.0/">
	<!ENTITY ns_svg "http://www.w3.org/2000/svg">
	<!ENTITY ns_xlink "http://www.w3.org/1999/xlink">
	<!ENTITY st0 "font-size:7px;font-family:'MS-PGothic';adobe-font-script:japanese;">
	<!ENTITY st1 "font-size:6px;font-family:'ArialMT';">
	<!-- White fill  -->
	<!ENTITY st2 "fill:#FFFFFF;stroke:#000000; stroke-width:1.41;stroke-linecap:round;stroke-linejoin:round;">
	<!-- Yellow fill  -->
	<!ENTITY st3 "fill:#FFFFCC;stroke:#FFFFCC; stroke-width:0.1;stroke-linecap:round;stroke-linejoin:round;">
	<!-- Gray fill  -->
	<!ENTITY st4 "fill:#CCCCCC;stroke:#CCCCCC; stroke-width:0.1;stroke-linecap:round;stroke-linejoin:round;">
	<!-- Light-blue fill -->
	<!ENTITY st5 "fill:#CCECF4;stroke:#000000; stroke-width:1.133;stroke-linecap:round;stroke-linejoin:round;">
	<!ENTITY st6 "fill:none;stroke-linecap:butt; stroke-linejoin:round;">
	<!ENTITY st7 "fill:none;stroke:#000000;stroke-linecap:round;stroke-linejoin:round;">
	<!ENTITY st8 "enable-background:new    ;">
	<!-- Black fill -->
	<!ENTITY st9 "fill:#000000;stroke:#000000; stroke-linecap:round;stroke-linejoin:round;">
	<!-- SRS note   -->
	<!ENTITY st10 "font-size:9px;font-family:'ArialMT';">
	<!ENTITY st11 "font-size:9px;font-family:'Svg Symbol';">
	<!ENTITY st12 "font-size:6px;font-family:'Svg Symbol';">
	<!ENTITY st13 "fill:none;stroke:#ff0000;stroke-linecap:round;stroke-linejoin:round;">
	<!-- Yellow fill  -->
	<!ENTITY st14 "fill:#FFFF00;stroke:#FFFF00; stroke-width:0.1;stroke-linecap:round;stroke-linejoin:round;">
	<!ENTITY st15 "font-size:6px;font-family:'MS-PGothic';adobe-font-script:japanese;">
	<!ENTITY st16 "1.00 0.00 0.00 1.00">
	<!ENTITY st17 "0.00 -1.00 1.00 0.00">
	<!ENTITY st18 "font-size:6px;font-family:'Arial';">
	<!ENTITY st19 "font-size:9px;font-family:'Arial';">
	<!ENTITY st20 "font-size:6px;font-family:'MS-PGothic','MS PGothic';adobe-font-script:japanese;">
	<!ENTITY st21 "font-size:7px;font-family:'MS-PGothic','MS PGothic';adobe-font-script:japanese;">
	<!ATTLIST svg
		xmlns:ewd CDATA #FIXED "http://shcl.co.jp/ewd"
		xmlns:a CDATA #FIXED "http://ns.adobe.com/AdobeSVGViewerExtensions/3.0/"
		ewd:ver CDATA #IMPLIED
	>
	<!ATTLIST a
		ewd:lineID CDATA #IMPLIED
		ewd:groupID CDATA #IMPLIED
		ewd:figtype CDATA #IMPLIED
		ewd:code CDATA #IMPLIED
		ewd:figID CDATA #IMPLIED
		ewd:pinNo CDATA #IMPLIED
		ewd:comment CDATA #IMPLIED >
	<!ATTLIST g
		ewd:lineID CDATA #IMPLIED
		ewd:groupID CDATA #IMPLIED
		ewd:figtype CDATA #IMPLIED
		ewd:code CDATA #IMPLIED
		ewd:figID CDATA #IMPLIED
		ewd:pinNo CDATA #IMPLIED
		ewd:comment CDATA #IMPLIED >
	<!ATTLIST text
		ewd:textID CDATA #IMPLIED >
	<!ATTLIST title
		ewd:textID CDATA #IMPLIED >
]>
<!-- Generator: Shintec Hozumi YS   -->
<svg onload="call_execInitLoadProc_svg('system')" style="overflow:visible;  enable-background:new 0 0 502.124 710.000" viewBox="0 0 502.124 710.000" height="710.000" width="502.124" xml:space="preserve" ewd:ver="L2.1.2.7" xmlns="&ns_svg;" xmlns:a="http://ns.adobe.com/AdobeSVGViewerExtensions/3.0/" xmlns:ewd="http://shcl.co.jp/ewd" xmlns:xlink="&ns_xlink;">
	<script type="text/javascript" xlink:href="../../../../../system/js/ewd/fig/svgfig.js"/>
	<defs>
		<font horiz-adv-x="1229">
			<font-face font-family="Svg Symbol" units-per-em="2048" panose-1="5 5 1 2 1 7 6 2 5 7" ascent="2059" descent="450" alphabetic="0"/>
			<missing-glyph d="M 103,0 l 0,1280 1024,0 0,-1280 -1024,0 z m 32,32 l 960,0 0,1216 -960,0 0,-1216 z"/>
			<glyph unicode="&#xF057;" horiz-adv-x="1573" d="M 1517,0 l -567,0 24,279 q 141,59 207.5,168 66.5,109 66.5,306    0,272 -132.5,417.5 -132.5,145.5 -333.5,145.5 -194,0 -328,-147.5 -134,-147.5 -134,-401.5 0,-200 68.5,-319 68.5,-119     206.5,-169 l 25,-279 -564,0 0,279 35,0 q 3,-61 32,-83 45,-35 137,-35 l 270,0 0,70 q -210,61 -324.5,209 -114.5,148     -114.5,349 0,252 186.5,425 186.5,173 504.5,173 195,0 358.5,-73.5 163.5,-73.5 252,-214.5 88.5,-141 88.5,-310 0,-207     -121.5,-360.5 -121.5,-153.5 -317.5,-197.5 l -8,-70 275,0 q 92,0 128,28 36,28 42,90 l 38,0 0,-279 z"/>
		</font>
	</defs>
<g id="ewd_top">
	<a ewd:code="I1" ewd:figID="1" ewd:figtype="conn" style="cursor:pointer;">
		<path d=" M   33.99,  324.73  L   33.99,  367.22  L  118.98,  367.22  L  118.98,  324.73  L   33.99,  324.73 " style="&st5;"/>
		<title ewd:textID="5">Ignition Coil (No.1)</title>
	</a>
	<a ewd:code="N2,N3" ewd:figID="2" ewd:figtype="conn" style="cursor:pointer;">
		<path d=" M  450.42,  256.74  L  433.43,  256.74  L  433.43,  282.24  L  450.42,  282.24  L  450.42,  256.74 " style="&st5;"/>
		<title ewd:textID="10">Noise Filter (Ignition)</title>
	</a>
	<a ewd:code="I3" ewd:figID="3" ewd:figtype="conn" style="cursor:pointer;">
		<path d=" M  254.96,  324.73  L  254.96,  367.22  L  339.94,  367.22  L  339.94,  324.73  L  254.96,  324.73 " style="&st5;"/>
		<title ewd:textID="7">Ignition Coil (No.3)</title>
	</a>
	<a ewd:code="I4" ewd:figID="4" ewd:figtype="conn" style="cursor:pointer;">
		<path d=" M  365.44,  324.73  L  365.44,  367.22  L  501.42,  367.22  L  501.42,  324.73  L  365.44,  324.73 " style="&st5;"/>
		<title ewd:textID="8">Ignition Coil (No.4)</title>
	</a>
	<a ewd:code="E11,E23" ewd:figID="5" ewd:figtype="conn" style="cursor:pointer;">
		<path d=" M   33.99,  622.18  L   33.99,  664.67  L  424.93,  664.67  L  424.93,  622.18  L   33.99,  622.18 " style="&st5;"/>
		<title ewd:textID="4">Engine ECU</title>
	</a>
	<a ewd:code="I2" ewd:figID="6" ewd:figtype="conn" style="cursor:pointer;">
		<path d=" M  144.48,  324.73  L  144.48,  367.22  L  229.46,  367.22  L  229.46,  324.73  L  144.48,  324.73 " style="&st5;"/>
		<title ewd:textID="6">Ignition Coil (No.2)</title>
	</a>
	<a ewd:code="J13,J14" ewd:figID="7" ewd:figtype="conn" style="cursor:pointer;">
		<path d=" M  288.95,  486.20  L  288.95,  520.20  L  356.94,  520.20  L  356.94,  486.20  L  288.95,  486.20 " style="&st5;"/>
		<title ewd:textID="9">Junction Connector</title>
	</a>
	<a ewd:code="2" ewd:figID="8" ewd:figtype="jb" style="cursor:pointer;">
		<path d=" M   33.99,  103.77  L   84.99,  103.77  L   84.99,   35.78  L   33.99,   35.78  L   33.99,  103.77 " style="&st4;"/>
	</a>
	<a ewd:code="FUSE50" ewd:figID="9" ewd:figtype="fuse" style="cursor:pointer;">
		<path d=" M   63.74,   78.27  L   63.74,   35.78  L   38.24,   35.78  L   38.24,   78.27  L   63.74,   78.27 " style="&st7;"/>
	</a>
	<a ewd:lineID="1" style="cursor:pointer;">
		<path d=" M   50.99,  367.22  L   50.99,  604.05 " style="stroke:#FF0000;stroke-width: 5.10 ;&st6;"/>
	</a>
	<a ewd:lineID="2" style="cursor:pointer;">
		<path d=" M   50.99,  222.75  L   50.99,  324.73 " style="stroke:#FF0000;stroke-width: 5.10 ;&st6;"/>
	</a>
	<a ewd:lineID="3" style="cursor:pointer;">
		<path d=" M   50.99,  163.26  L   50.99,  205.75 " style="stroke:#FF0000;stroke-width: 5.10 ;&st6;"/>
	</a>
	<a ewd:lineID="4" style="cursor:pointer;">
		<path d=" M   50.99,  103.77  L   50.99,  148.53 " style="stroke:#FF0000;stroke-width: 5.10 ;&st6;"/>
	</a>
	<a ewd:lineID="5" style="cursor:pointer;">
		<path d=" M  152.97,  214.25  L   59.49,  214.25 " style="stroke:#FF0000;stroke-width: 5.10 ;&st6;"/>
	</a>
	<a ewd:lineID="6" style="cursor:pointer;">
		<path d=" M   76.49,  367.22  L   76.49,  562.69  L  322.95,  562.69  L  322.95,  529.26 " style="stroke:#008837;stroke-width: 5.10 ;&st6;"/>
		<path d=" M   76.49,  367.22  L   76.49,  562.69  L  322.95,  562.69  L  322.95,  529.26 " style="stroke:#FFFFFF;stroke-width: 2.27 ;&st6;"/>
		<path d=" M   76.49,  367.22  L   76.49,  562.69  L  322.95,  562.69  L  322.95,  529.26 " style="stroke:#FF0000;stroke-width: 1.13 ;&st6;"/>
	</a>
	<a ewd:lineID="7" style="cursor:pointer;">
		<path d=" M  101.98,  367.22  L  101.98,  426.71  L  203.97,  426.71 " style="stroke:#000000;stroke-width: 5.10 ;&st6;"/>
		<path d=" M  101.98,  367.22  L  101.98,  426.71  L  203.97,  426.71 " style="stroke:#FFFFFF;stroke-width: 4.53 ;&st6;"/>
		<path d=" M  101.98,  367.22  L  101.98,  426.71  L  203.97,  426.71 " style="stroke:#000000;stroke-width: 1.13 ;&st6;"/>
	</a>
	<a ewd:lineID="8" style="cursor:pointer;">
		<path d=" M  161.47,  367.22  L  161.47,  604.05 " style="stroke:#FF0000;stroke-width: 5.10 ;&st6;"/>
		<path d=" M  161.47,  367.22  L  161.47,  604.05 " style="stroke:#FFFFFF;stroke-width: 2.27 ;&st6;"/>
		<path d=" M  161.47,  367.22  L  161.47,  604.05 " style="stroke:#00A0C6;stroke-width: 1.13 ;&st6;"/>
	</a>
	<a ewd:lineID="9" style="cursor:pointer;">
		<path d=" M  161.47,  222.75  L  161.47,  324.73 " style="stroke:#FF0000;stroke-width: 5.10 ;&st6;"/>
	</a>
	<a ewd:lineID="10" style="cursor:pointer;">
		<path d=" M  169.97,  214.25  L  263.46,  214.25 " style="stroke:#FF0000;stroke-width: 5.10 ;&st6;"/>
	</a>
	<a ewd:lineID="11" style="cursor:pointer;">
		<path d=" M  186.97,  367.22  L  186.97,  545.69  L  297.45,  545.69  L  297.45,  529.26 " style="stroke:#008837;stroke-width: 5.10 ;&st6;"/>
		<path d=" M  186.97,  367.22  L  186.97,  545.69  L  297.45,  545.69  L  297.45,  529.26 " style="stroke:#FFFFFF;stroke-width: 2.27 ;&st6;"/>
		<path d=" M  186.97,  367.22  L  186.97,  545.69  L  297.45,  545.69  L  297.45,  529.26 " style="stroke:#FF0000;stroke-width: 1.13 ;&st6;"/>
	</a>
	<a ewd:lineID="12" style="cursor:pointer;">
		<path d=" M  212.46,  367.22  L  212.46,  418.22 " style="stroke:#000000;stroke-width: 5.10 ;&st6;"/>
		<path d=" M  212.46,  367.22  L  212.46,  418.22 " style="stroke:#FFFFFF;stroke-width: 4.53 ;&st6;"/>
		<path d=" M  212.46,  367.22  L  212.46,  418.22 " style="stroke:#000000;stroke-width: 1.13 ;&st6;"/>
	</a>
	<a ewd:lineID="13" style="cursor:pointer;">
		<path d=" M  220.96,  426.71  L  314.45,  426.71 " style="stroke:#000000;stroke-width: 5.10 ;&st6;"/>
		<path d=" M  220.96,  426.71  L  314.45,  426.71 " style="stroke:#FFFFFF;stroke-width: 4.53 ;&st6;"/>
		<path d=" M  220.96,  426.71  L  314.45,  426.71 " style="stroke:#000000;stroke-width: 1.13 ;&st6;"/>
	</a>
	<a ewd:lineID="14" style="cursor:pointer;">
		<path d=" M  271.95,  367.22  L  271.95,  604.05 " style="stroke:#008837;stroke-width: 5.10 ;&st6;"/>
		<path d=" M  271.95,  367.22  L  271.95,  604.05 " style="stroke:#FFFFFF;stroke-width: 2.27 ;&st6;"/>
		<path d=" M  271.95,  367.22  L  271.95,  604.05 " style="stroke:#000000;stroke-width: 1.13 ;&st6;"/>
	</a>
	<a ewd:lineID="15" style="cursor:pointer;">
		<path d=" M  271.95,  222.75  L  271.95,  324.73 " style="stroke:#FF0000;stroke-width: 5.10 ;&st6;"/>
	</a>
	<a ewd:lineID="16" style="cursor:pointer;">
		<path d=" M  280.45,  214.25  L  373.94,  214.25 " style="stroke:#FF0000;stroke-width: 5.10 ;&st6;"/>
	</a>
	<a ewd:lineID="17" style="cursor:pointer;">
		<path d=" M  297.45,  367.22  L  297.45,  477.14 " style="stroke:#008837;stroke-width: 5.10 ;&st6;"/>
		<path d=" M  297.45,  367.22  L  297.45,  477.14 " style="stroke:#FFFFFF;stroke-width: 2.27 ;&st6;"/>
		<path d=" M  297.45,  367.22  L  297.45,  477.14 " style="stroke:#FF0000;stroke-width: 1.13 ;&st6;"/>
	</a>
	<a ewd:lineID="18" style="cursor:pointer;">
		<path d=" M  382.44,  367.22  L  382.44,  452.21  L  322.95,  452.21  L  322.95,  477.14 " style="stroke:#008837;stroke-width: 5.10 ;&st6;"/>
		<path d=" M  382.44,  367.22  L  382.44,  452.21  L  322.95,  452.21  L  322.95,  477.14 " style="stroke:#FFFFFF;stroke-width: 2.27 ;&st6;"/>
		<path d=" M  382.44,  367.22  L  382.44,  452.21  L  322.95,  452.21  L  322.95,  477.14 " style="stroke:#FF0000;stroke-width: 1.13 ;&st6;"/>
	</a>
	<a ewd:lineID="19" style="cursor:pointer;">
		<path d=" M  322.95,  367.22  L  322.95,  418.22 " style="stroke:#000000;stroke-width: 5.10 ;&st6;"/>
		<path d=" M  322.95,  367.22  L  322.95,  418.22 " style="stroke:#FFFFFF;stroke-width: 4.53 ;&st6;"/>
		<path d=" M  322.95,  367.22  L  322.95,  418.22 " style="stroke:#000000;stroke-width: 1.13 ;&st6;"/>
	</a>
	<a ewd:lineID="20" style="cursor:pointer;">
		<path d=" M  331.44,  426.71  L  475.92,  426.71 " style="stroke:#000000;stroke-width: 5.10 ;&st6;"/>
		<path d=" M  331.44,  426.71  L  475.92,  426.71 " style="stroke:#FFFFFF;stroke-width: 4.53 ;&st6;"/>
		<path d=" M  331.44,  426.71  L  475.92,  426.71 " style="stroke:#000000;stroke-width: 1.13 ;&st6;"/>
	</a>
	<a ewd:lineID="21" style="cursor:pointer;">
		<path d=" M  348.44,  604.05  L  348.44,  529.26 " style="stroke:#008837;stroke-width: 5.10 ;&st6;"/>
		<path d=" M  348.44,  604.05  L  348.44,  529.26 " style="stroke:#FFFFFF;stroke-width: 2.27 ;&st6;"/>
		<path d=" M  348.44,  604.05  L  348.44,  529.26 " style="stroke:#FF0000;stroke-width: 1.13 ;&st6;"/>
	</a>
	<a ewd:lineID="22" style="cursor:pointer;">
		<path d=" M  382.44,  324.73  L  382.44,  222.75 " style="stroke:#FF0000;stroke-width: 5.10 ;&st6;"/>
	</a>
	<a ewd:lineID="23" style="cursor:pointer;">
		<path d=" M  390.93,  214.25  L  441.93,  214.25  L  441.93,  238.61 " style="stroke:#FF0000;stroke-width: 5.10 ;&st6;"/>
	</a>
	<a ewd:lineID="24" style="cursor:pointer;">
		<path d=" M  407.93,  367.22  L  407.93,  604.05 " style="stroke:#008837;stroke-width: 5.10 ;&st6;"/>
	</a>
	<a ewd:lineID="25" style="cursor:pointer;">
		<path d=" M  484.42,  435.21  L  484.42,  681.67 " style="stroke:#000000;stroke-width: 5.10 ;&st6;"/>
		<path d=" M  484.42,  435.21  L  484.42,  681.67 " style="stroke:#FFFFFF;stroke-width: 4.53 ;&st6;"/>
		<path d=" M  484.42,  435.21  L  484.42,  681.67 " style="stroke:#000000;stroke-width: 1.13 ;&st6;"/>
	</a>
	<a ewd:lineID="26" style="cursor:pointer;">
		<path d=" M  484.42,  367.22  L  484.42,  418.22 " style="stroke:#000000;stroke-width: 5.10 ;&st6;"/>
		<path d=" M  484.42,  367.22  L  484.42,  418.22 " style="stroke:#FFFFFF;stroke-width: 4.53 ;&st6;"/>
		<path d=" M  484.42,  367.22  L  484.42,  418.22 " style="stroke:#000000;stroke-width: 1.13 ;&st6;"/>
	</a>
	<path d=" M   42.49,  154.76  L   50.99,  154.76 " style="stroke-width: 1.42 ;&st7; "/>
	<path d=" M   50.99,   69.77  L   50.99,   95.27 " style="stroke-width: 0.85 ;&st7; "/>
	<path d=" M   53.12,   95.27  L   48.87,   95.27 " style="stroke-width: 1.42 ;&st7; "/>
	<path d=" M   53.12,  103.77  L   48.87,  103.77 " style="stroke-width: 1.42 ;&st7; "/>
	<path d=" M  441.93,  282.24  L  441.93,  271.61 " style="stroke-width: 0.85 ;&st7; "/>
	<path d=" M  441.93,  267.37  L  441.93,  256.74 " style="stroke-width: 0.85 ;&st7; "/>
	<path d=" M  446.18,  267.37  L  437.68,  267.37 " style="stroke-width: 1.42 ;&st7; "/>
	<path d=" M  446.18,  271.61  L  437.68,  271.61 " style="stroke-width: 1.42 ;&st7; "/>
	<path d=" M   59.49,  210.72  L   54.52,  205.75 " style="stroke-width: 1.42 ;&st7; "/>
	<path d=" M   42.49,  217.78  L   47.46,  222.75 " style="stroke-width: 1.42 ;&st7; "/>
	<path d=" M   54.52,  222.75  L   59.49,  217.78 " style="stroke-width: 1.42 ;&st7; "/>
	<path d=" M   47.46,  205.75  L   42.49,  210.72 " style="stroke-width: 1.42 ;&st7; "/>
	<path d=" M  169.97,  210.72  L  165.00,  205.75 " style="stroke-width: 1.42 ;&st7; "/>
	<path d=" M  152.97,  217.78  L  157.94,  222.75 " style="stroke-width: 1.42 ;&st7; "/>
	<path d=" M  165.00,  222.75  L  169.97,  217.78 " style="stroke-width: 1.42 ;&st7; "/>
	<path d=" M  157.94,  205.75  L  152.97,  210.72 " style="stroke-width: 1.42 ;&st7; "/>
	<path d=" M  280.45,  210.72  L  275.48,  205.75 " style="stroke-width: 1.42 ;&st7; "/>
	<path d=" M  263.46,  217.78  L  268.42,  222.75 " style="stroke-width: 1.42 ;&st7; "/>
	<path d=" M  275.48,  222.75  L  280.45,  217.78 " style="stroke-width: 1.42 ;&st7; "/>
	<path d=" M  268.42,  205.75  L  263.46,  210.72 " style="stroke-width: 1.42 ;&st7; "/>
	<path d=" M  390.93,  210.72  L  385.96,  205.75 " style="stroke-width: 1.42 ;&st7; "/>
	<path d=" M  373.94,  217.78  L  378.91,  222.75 " style="stroke-width: 1.42 ;&st7; "/>
	<path d=" M  385.96,  222.75  L  390.93,  217.78 " style="stroke-width: 1.42 ;&st7; "/>
	<path d=" M  378.91,  205.75  L  373.94,  210.72 " style="stroke-width: 1.42 ;&st7; "/>
	<path d=" M  492.92,  423.19  L  487.95,  418.22 " style="stroke-width: 1.42 ;&st7; "/>
	<path d=" M  475.92,  430.24  L  480.89,  435.21 " style="stroke-width: 1.42 ;&st7; "/>
	<path d=" M  487.95,  435.21  L  492.92,  430.24 " style="stroke-width: 1.42 ;&st7; "/>
	<path d=" M  480.89,  418.22  L  475.92,  423.19 " style="stroke-width: 1.42 ;&st7; "/>
	<path d=" M  331.44,  423.19  L  326.47,  418.22 " style="stroke-width: 1.42 ;&st7; "/>
	<path d=" M  314.45,  430.24  L  319.42,  435.21 " style="stroke-width: 1.42 ;&st7; "/>
	<path d=" M  326.47,  435.21  L  331.44,  430.24 " style="stroke-width: 1.42 ;&st7; "/>
	<path d=" M  319.42,  418.22  L  314.45,  423.19 " style="stroke-width: 1.42 ;&st7; "/>
	<path d=" M  220.96,  423.19  L  215.99,  418.22 " style="stroke-width: 1.42 ;&st7; "/>
	<path d=" M  203.97,  430.24  L  208.93,  435.21 " style="stroke-width: 1.42 ;&st7; "/>
	<path d=" M  215.99,  435.21  L  220.96,  430.24 " style="stroke-width: 1.42 ;&st7; "/>
	<path d=" M  208.93,  418.22  L  203.97,  423.19 " style="stroke-width: 1.42 ;&st7; "/>
	<path d=" M   55.24,  149.09  L   50.99,  153.34  L   46.74,  149.09 " style="stroke-width: 1.42 ;&st7; "/>
	<path d=" M  483.00,  710.00  L  485.84,  710.00 " style="stroke-width: 0.85 ;&st7; "/>
	<path d=" M  480.17,  704.33  L  488.67,  704.33 " style="stroke-width: 0.85 ;&st7; "/>
	<path d=" M   33.99,  622.18  L   33.99,  664.67  L  424.93,  664.67  L  424.93,  622.18  L   33.99,  622.18 " style="stroke-width: 1.42 ;&st7; "/>
	<path d=" M  365.44,  324.73  L  365.44,  367.22  L  501.42,  367.22  L  501.42,  324.73  L  365.44,  324.73 " style="stroke-width: 1.42 ;&st7; "/>
	<path d=" M  254.96,  324.73  L  254.96,  367.22  L  339.94,  367.22  L  339.94,  324.73  L  254.96,  324.73 " style="stroke-width: 1.42 ;&st7; "/>
	<path d=" M   33.99,  324.73  L   33.99,  367.22  L  118.98,  367.22  L  118.98,  324.73  L   33.99,  324.73 " style="stroke-width: 1.42 ;&st7; "/>
	<path d=" M  144.48,  324.73  L  144.48,  367.22  L  229.46,  367.22  L  229.46,  324.73  L  144.48,  324.73 " style="stroke-width: 1.42 ;&st7; "/>
	<path d=" M   46.74,  145.69  L   50.99,  149.94  L   55.24,  145.69 " style="stroke-width: 1.42 ;&st7; "/>
	<path d=" M  481.59,  707.17  L  487.25,  707.17 " style="stroke-width: 0.85 ;&st7; "/>
	<path d=" M  475.92,  701.50  L  492.92,  701.50 " style="stroke-width: 0.85 ;&st7; "/>
	<path d=" M  484.42,  697.25  L  484.42,  701.50 " style="stroke-width: 0.85 ;&st7; "/>
	<path d=" M   63.74,   78.27  L   63.74,   35.78  L   38.24,   35.78  L   38.24,   78.27  L   63.74,   78.27 " style="stroke-width: 1.42 ;&st7; "/>
	<path d=" M   50.99,   90.37  L   48.16,   87.54  L   48.16,   91.79  L   50.99,   94.62  L   53.82,   91.79  L   53.82,   87.54  L   50.99,   90.37 " style="stroke-width: 0.28 ;&st9;"/>
	<path d=" M  288.95,  486.20  L  288.95,  520.20  L  356.94,  520.20  L  356.94,  486.20  L  288.95,  486.20 " style="stroke-width: 1.42 ;&st7; "/>
	<path d=" M  297.45,  486.20  L  297.45,  520.20 " style="stroke-width: 0.85 ;&st7; "/>
	<path d=" M  322.95,  520.20  L  322.95,  486.20 " style="stroke-width: 0.85 ;&st7; "/>
	<path d=" M  297.45,  503.20  L  348.44,  503.20  L  348.44,  520.20 " style="stroke-width: 0.85 ;&st7; "/>
	<path d=" M  288.95,  494.70  L  356.94,  494.70 " style="stroke-width: 1.13 ;&st7;stroke-dasharray:3, 1.5;"/>
	<path d=" M  288.95,  511.70  L  356.94,  511.70 " style="stroke-width: 1.13 ;&st7;stroke-dasharray:3, 1.5;"/>
	<path d=" M  322.62,  504.10  L  322.62,  502.30  L  323.27,  502.30  L  323.27,  504.10 " style="stroke-width: 0.85 ;&st7; "/>
	<path d=" M  297.13,  504.10  L  297.13,  502.30  L  297.77,  502.30  L  297.77,  504.10 " style="stroke-width: 0.85 ;&st7; "/>
	<path d=" M  450.42,  256.74  L  433.43,  256.74  L  433.43,  282.24  L  450.42,  282.24  L  450.42,  256.74 " style="stroke-width: 1.42 ;&st7; "/>
	<path d=" M  441.93,  282.24  L  441.93,  290.74 " style="stroke-width: 0.85 ;&st7; "/>
	<path d=" M  433.43,  290.74  L  450.42,  290.74 " style="stroke-width: 0.85 ;&st7; "/>
	<path d=" M  437.68,  293.57  L  446.18,  293.57 " style="stroke-width: 0.85 ;&st7; "/>
	<path d=" M  439.09,  296.40  L  444.76,  296.40 " style="stroke-width: 0.85 ;&st7; "/>
	<path d=" M  440.51,  299.24  L  443.34,  299.24 " style="stroke-width: 0.85 ;&st7; "/>
	<path d=" M   59.49,  608.58  L  144.48,  608.58 " style="stroke-width: 0.85 ;&st7;stroke-dasharray:3, 1.5;"/>
	<path d=" M  148.73,  617.65  L   59.49,  617.65 " style="stroke-width: 0.85 ;&st7;stroke-dasharray:3, 1.5;"/>
	<path d=" M  169.97,  608.58  L  254.96,  608.58 " style="stroke-width: 0.85 ;&st7;stroke-dasharray:3, 1.5;"/>
	<path d=" M  259.21,  617.65  L  169.97,  617.65 " style="stroke-width: 0.85 ;&st7;stroke-dasharray:3, 1.5;"/>
	<path d=" M  280.45,  617.65  L  331.44,  617.65 " style="stroke-width: 0.85 ;&st7;stroke-dasharray:3, 1.5;"/>
	<path d=" M  331.44,  608.58  L  280.45,  608.58 " style="stroke-width: 0.85 ;&st7;stroke-dasharray:3, 1.5;"/>
	<path d=" M  356.94,  608.58  L  390.93,  608.58 " style="stroke-width: 0.85 ;&st7;stroke-dasharray:3, 1.5;"/>
	<path d=" M  395.18,  617.65  L  356.94,  617.65 " style="stroke-width: 0.85 ;&st7;stroke-dasharray:3, 1.5;"/>
	<path d=" M   50.99,   47.11  C   48.25    48.72    47.34    52.25    48.95    54.99 " style="stroke-width: 1.42 ;&st7; "/>
	<path d=" M   48.95,   54.99  C   49.47    55.87    50.11    56.51    50.99    57.03 " style="stroke-width: 1.42 ;&st7; "/>
	<path d=" M   50.99,   66.94  C   53.73    65.33    54.64    61.80    53.03    59.06 " style="stroke-width: 1.42 ;&st7; "/>
	<path d=" M   53.03,   59.06  C   52.51    58.18    51.87    57.55    50.99    57.03 " style="stroke-width: 1.42 ;&st7; "/>
	<path d=" M   52.41,   45.69  C   52.41    44.91    51.77    44.28    50.99    44.28 " style="stroke-width: 0.85 ;&st7; "/>
	<path d=" M   50.99,   44.28  C   50.21    44.28    49.58    44.91    49.58    45.69 " style="stroke-width: 0.85 ;&st7; "/>
	<path d=" M   49.58,   45.69  C   49.58    46.48    50.21    47.11    50.99    47.11 " style="stroke-width: 0.85 ;&st7; "/>
	<path d=" M   50.99,   47.11  C   51.77    47.11    52.41    46.48    52.41    45.69 " style="stroke-width: 0.85 ;&st7; "/>
	<path d=" M   52.41,   68.36  C   52.41    67.57    51.77    66.94    50.99    66.94 " style="stroke-width: 0.85 ;&st7; "/>
	<path d=" M   50.99,   66.94  C   50.21    66.94    49.58    67.57    49.58    68.36 " style="stroke-width: 0.85 ;&st7; "/>
	<path d=" M   49.58,   68.36  C   49.58    69.14    50.21    69.77    50.99    69.77 " style="stroke-width: 0.85 ;&st7; "/>
	<path d=" M   50.99,   69.77  C   51.77    69.77    52.41    69.14    52.41    68.36 " style="stroke-width: 0.85 ;&st7; "/>
	<path d=" M   48.87,   95.27  C   46.52    95.27    44.62    97.17    44.62    99.52 " style="stroke-width: 1.42 ;&st7; "/>
	<path d=" M   44.62,   99.52  C   44.62   101.87    46.52   103.77    48.87   103.77 " style="stroke-width: 1.42 ;&st7; "/>
	<path d=" M   53.12,  103.77  C   55.46   103.77    57.37   101.87    57.37    99.52 " style="stroke-width: 1.42 ;&st7; "/>
	<path d=" M   57.37,   99.52  C   57.37    97.17    55.46    95.27    53.12    95.27 " style="stroke-width: 1.42 ;&st7; "/>
	<path d=" M  301.98,  524.73  C  301.98   522.23   299.95   520.20   297.45   520.20 " style="stroke-width: 1.42 ;&st7; "/>
	<path d=" M  297.45,  520.20  C  294.95   520.20   292.92   522.23   292.92   524.73 " style="stroke-width: 1.42 ;&st7; "/>
	<path d=" M  292.92,  524.73  C  292.92   527.23   294.95   529.26   297.45   529.26 " style="stroke-width: 1.42 ;&st7; "/>
	<path d=" M  297.45,  529.26  C  299.95   529.26   301.98   527.23   301.98   524.73 " style="stroke-width: 1.42 ;&st7; "/>
	<path d=" M  352.97,  524.73  C  352.97   522.23   350.95   520.20   348.44   520.20 " style="stroke-width: 1.42 ;&st7; "/>
	<path d=" M  348.44,  520.20  C  345.94   520.20   343.91   522.23   343.91   524.73 " style="stroke-width: 1.42 ;&st7; "/>
	<path d=" M  343.91,  524.73  C  343.91   527.23   345.94   529.26   348.44   529.26 " style="stroke-width: 1.42 ;&st7; "/>
	<path d=" M  348.44,  529.26  C  350.95   529.26   352.97   527.23   352.97   524.73 " style="stroke-width: 1.42 ;&st7; "/>
	<path d=" M  301.98,  481.67  C  301.98   479.17   299.95   477.14   297.45   477.14 " style="stroke-width: 1.42 ;&st7; "/>
	<path d=" M  297.45,  477.14  C  294.95   477.14   292.92   479.17   292.92   481.67 " style="stroke-width: 1.42 ;&st7; "/>
	<path d=" M  292.92,  481.67  C  292.92   484.17   294.95   486.20   297.45   486.20 " style="stroke-width: 1.42 ;&st7; "/>
	<path d=" M  297.45,  486.20  C  299.95   486.20   301.98   484.17   301.98   481.67 " style="stroke-width: 1.42 ;&st7; "/>
	<path d=" M  327.48,  481.67  C  327.48   479.17   325.45   477.14   322.95   477.14 " style="stroke-width: 1.42 ;&st7; "/>
	<path d=" M  322.95,  477.14  C  320.44   477.14   318.41   479.17   318.41   481.67 " style="stroke-width: 1.42 ;&st7; "/>
	<path d=" M  318.41,  481.67  C  318.41   484.17   320.44   486.20   322.95   486.20 " style="stroke-width: 1.42 ;&st7; "/>
	<path d=" M  322.95,  486.20  C  325.45   486.20   327.48   484.17   327.48   481.67 " style="stroke-width: 1.42 ;&st7; "/>
	<path d=" M  324.22,  503.20  C  324.22   502.50   323.65   501.93   322.95   501.93 " style="stroke-width: 0.85 ;&st7; "/>
	<path d=" M  322.95,  501.93  C  322.24   501.93   321.67   502.50   321.67   503.20 " style="stroke-width: 0.85 ;&st7; "/>
	<path d=" M  321.67,  503.20  C  321.67   503.91   322.24   504.48   322.95   504.48 " style="stroke-width: 0.85 ;&st7; "/>
	<path d=" M  322.95,  504.48  C  323.65   504.48   324.22   503.91   324.22   503.20 " style="stroke-width: 0.85 ;&st7; "/>
	<path d=" M  323.90,  503.20  C  323.90   502.67   323.47   502.25   322.95   502.25 " style="stroke-width: 0.85 ;&st7; "/>
	<path d=" M  322.95,  502.25  C  322.42   502.25   321.99   502.67   321.99   503.20 " style="stroke-width: 0.85 ;&st7; "/>
	<path d=" M  321.99,  503.20  C  321.99   503.73   322.42   504.16   322.95   504.16 " style="stroke-width: 0.85 ;&st7; "/>
	<path d=" M  322.95,  504.16  C  323.47   504.16   323.90   503.73   323.90   503.20 " style="stroke-width: 0.85 ;&st7; "/>
	<path d=" M  298.73,  503.20  C  298.73   502.50   298.15   501.93   297.45   501.93 " style="stroke-width: 0.85 ;&st7; "/>
	<path d=" M  297.45,  501.93  C  296.75   501.93   296.18   502.50   296.18   503.20 " style="stroke-width: 0.85 ;&st7; "/>
	<path d=" M  296.18,  503.20  C  296.18   503.91   296.75   504.48   297.45   504.48 " style="stroke-width: 0.85 ;&st7; "/>
	<path d=" M  297.45,  504.48  C  298.15   504.48   298.73   503.91   298.73   503.20 " style="stroke-width: 0.85 ;&st7; "/>
	<path d=" M  298.40,  503.20  C  298.40   502.67   297.98   502.25   297.45   502.25 " style="stroke-width: 0.85 ;&st7; "/>
	<path d=" M  297.45,  502.25  C  296.92   502.25   296.50   502.67   296.50   503.20 " style="stroke-width: 0.85 ;&st7; "/>
	<path d=" M  296.50,  503.20  C  296.50   503.73   296.92   504.16   297.45   504.16 " style="stroke-width: 0.85 ;&st7; "/>
	<path d=" M  297.45,  504.16  C  297.98   504.16   298.40   503.73   298.40   503.20 " style="stroke-width: 0.85 ;&st7; "/>
	<path d=" M  327.48,  524.73  C  327.48   522.23   325.45   520.20   322.95   520.20 " style="stroke-width: 1.42 ;&st7; "/>
	<path d=" M  322.95,  520.20  C  320.44   520.20   318.41   522.23   318.41   524.73 " style="stroke-width: 1.42 ;&st7; "/>
	<path d=" M  318.41,  524.73  C  318.41   527.23   320.44   529.26   322.95   529.26 " style="stroke-width: 1.42 ;&st7; "/>
	<path d=" M  322.95,  529.26  C  325.45   529.26   327.48   527.23   327.48   524.73 " style="stroke-width: 1.42 ;&st7; "/>
	<path d=" M  446.46,  252.21  C  446.46   249.71   444.43   247.68   441.93   247.68 " style="stroke-width: 1.42 ;&st7; "/>
	<path d=" M  441.93,  247.68  C  439.42   247.68   437.39   249.71   437.39   252.21 " style="stroke-width: 1.42 ;&st7; "/>
	<path d=" M  437.39,  252.21  C  437.39   254.71   439.42   256.74   441.93   256.74 " style="stroke-width: 1.42 ;&st7; "/>
	<path d=" M  441.93,  256.74  C  444.43   256.74   446.46   254.71   446.46   252.21 " style="stroke-width: 1.42 ;&st7; "/>
	<path d=" M  446.46,  243.14  C  446.46   240.64   444.43   238.61   441.93   238.61 " style="stroke-width: 1.42 ;&st7; "/>
	<path d=" M  441.93,  238.61  C  439.42   238.61   437.39   240.64   437.39   243.14 " style="stroke-width: 1.42 ;&st7; "/>
	<path d=" M  437.39,  243.14  C  437.39   245.65   439.42   247.68   441.93   247.68 " style="stroke-width: 1.42 ;&st7; "/>
	<path d=" M  441.93,  247.68  C  444.43   247.68   446.46   245.65   446.46   243.14 " style="stroke-width: 1.42 ;&st7; "/>
	<path d=" M   55.52,  617.65  C   55.52   615.15    53.49   613.12    50.99   613.12 " style="stroke-width: 1.42 ;&st7; "/>
	<path d=" M   50.99,  613.12  C   48.49   613.12    46.46   615.15    46.46   617.65 " style="stroke-width: 1.42 ;&st7; "/>
	<path d=" M   46.46,  617.65  C   46.46   620.15    48.49   622.18    50.99   622.18 " style="stroke-width: 1.42 ;&st7; "/>
	<path d=" M   50.99,  622.18  C   53.49   622.18    55.52   620.15    55.52   617.65 " style="stroke-width: 1.42 ;&st7; "/>
	<path d=" M   55.52,  608.58  C   55.52   606.08    53.49   604.05    50.99   604.05 " style="stroke-width: 1.42 ;&st7; "/>
	<path d=" M   50.99,  604.05  C   48.49   604.05    46.46   606.08    46.46   608.58 " style="stroke-width: 1.42 ;&st7; "/>
	<path d=" M   46.46,  608.58  C   46.46   611.09    48.49   613.12    50.99   613.12 " style="stroke-width: 1.42 ;&st7; "/>
	<path d=" M   50.99,  613.12  C   53.49   613.12    55.52   611.09    55.52   608.58 " style="stroke-width: 1.42 ;&st7; "/>
	<path d=" M  166.01,  617.65  C  166.01   615.15   163.98   613.12   161.47   613.12 " style="stroke-width: 1.42 ;&st7; "/>
	<path d=" M  161.47,  613.12  C  158.97   613.12   156.94   615.15   156.94   617.65 " style="stroke-width: 1.42 ;&st7; "/>
	<path d=" M  156.94,  617.65  C  156.94   620.15   158.97   622.18   161.47   622.18 " style="stroke-width: 1.42 ;&st7; "/>
	<path d=" M  161.47,  622.18  C  163.98   622.18   166.01   620.15   166.01   617.65 " style="stroke-width: 1.42 ;&st7; "/>
	<path d=" M  166.01,  608.58  C  166.01   606.08   163.98   604.05   161.47   604.05 " style="stroke-width: 1.42 ;&st7; "/>
	<path d=" M  161.47,  604.05  C  158.97   604.05   156.94   606.08   156.94   608.58 " style="stroke-width: 1.42 ;&st7; "/>
	<path d=" M  156.94,  608.58  C  156.94   611.09   158.97   613.12   161.47   613.12 " style="stroke-width: 1.42 ;&st7; "/>
	<path d=" M  161.47,  613.12  C  163.98   613.12   166.01   611.09   166.01   608.58 " style="stroke-width: 1.42 ;&st7; "/>
	<path d=" M  276.49,  617.65  C  276.49   615.15   274.46   613.12   271.95   613.12 " style="stroke-width: 1.42 ;&st7; "/>
	<path d=" M  271.95,  613.12  C  269.45   613.12   267.42   615.15   267.42   617.65 " style="stroke-width: 1.42 ;&st7; "/>
	<path d=" M  267.42,  617.65  C  267.42   620.15   269.45   622.18   271.95   622.18 " style="stroke-width: 1.42 ;&st7; "/>
	<path d=" M  271.95,  622.18  C  274.46   622.18   276.49   620.15   276.49   617.65 " style="stroke-width: 1.42 ;&st7; "/>
	<path d=" M  276.49,  608.58  C  276.49   606.08   274.46   604.05   271.95   604.05 " style="stroke-width: 1.42 ;&st7; "/>
	<path d=" M  271.95,  604.05  C  269.45   604.05   267.42   606.08   267.42   608.58 " style="stroke-width: 1.42 ;&st7; "/>
	<path d=" M  267.42,  608.58  C  267.42   611.09   269.45   613.12   271.95   613.12 " style="stroke-width: 1.42 ;&st7; "/>
	<path d=" M  271.95,  613.12  C  274.46   613.12   276.49   611.09   276.49   608.58 " style="stroke-width: 1.42 ;&st7; "/>
	<path d=" M  352.97,  617.65  C  352.97   615.15   350.95   613.12   348.44   613.12 " style="stroke-width: 1.42 ;&st7; "/>
	<path d=" M  348.44,  613.12  C  345.94   613.12   343.91   615.15   343.91   617.65 " style="stroke-width: 1.42 ;&st7; "/>
	<path d=" M  343.91,  617.65  C  343.91   620.15   345.94   622.18   348.44   622.18 " style="stroke-width: 1.42 ;&st7; "/>
	<path d=" M  348.44,  622.18  C  350.95   622.18   352.97   620.15   352.97   617.65 " style="stroke-width: 1.42 ;&st7; "/>
	<path d=" M  352.97,  608.58  C  352.97   606.08   350.95   604.05   348.44   604.05 " style="stroke-width: 1.42 ;&st7; "/>
	<path d=" M  348.44,  604.05  C  345.94   604.05   343.91   606.08   343.91   608.58 " style="stroke-width: 1.42 ;&st7; "/>
	<path d=" M  343.91,  608.58  C  343.91   611.09   345.94   613.12   348.44   613.12 " style="stroke-width: 1.42 ;&st7; "/>
	<path d=" M  348.44,  613.12  C  350.95   613.12   352.97   611.09   352.97   608.58 " style="stroke-width: 1.42 ;&st7; "/>
	<path d=" M  412.46,  617.65  C  412.46   615.15   410.44   613.12   407.93   613.12 " style="stroke-width: 1.42 ;&st7; "/>
	<path d=" M  407.93,  613.12  C  405.43   613.12   403.40   615.15   403.40   617.65 " style="stroke-width: 1.42 ;&st7; "/>
	<path d=" M  403.40,  617.65  C  403.40   620.15   405.43   622.18   407.93   622.18 " style="stroke-width: 1.42 ;&st7; "/>
	<path d=" M  407.93,  622.18  C  410.44   622.18   412.46   620.15   412.46   617.65 " style="stroke-width: 1.42 ;&st7; "/>
	<path d=" M  412.46,  608.58  C  412.46   606.08   410.44   604.05   407.93   604.05 " style="stroke-width: 1.42 ;&st7; "/>
	<path d=" M  407.93,  604.05  C  405.43   604.05   403.40   606.08   403.40   608.58 " style="stroke-width: 1.42 ;&st7; "/>
	<path d=" M  403.40,  608.58  C  403.40   611.09   405.43   613.12   407.93   613.12 " style="stroke-width: 1.42 ;&st7; "/>
	<path d=" M  407.93,  613.12  C  410.44   613.12   412.46   611.09   412.46   608.58 " style="stroke-width: 1.42 ;&st7; "/>
	<text style="&st18;" transform="matrix(&st16;  43.54  629.82 )">IGT1</text>
	<text style="&st18;" transform="matrix(&st16;  295.12  526.7 )">A</text>
	<text style="&st18;" transform="matrix(&st16;  286.6  526.7 )">9</text>
	<text style="&st18;" transform="matrix(&st16;  346.11  526.7 )">A</text>
	<text style="&st18;" transform="matrix(&st16;  337.59  526.7 )">7</text>
	<text style="&st18;" transform="matrix(&st16;  295.12  483.64 )">B</text>
	<text style="&st18;" transform="matrix(&st16;  283.42  483.64 )">10</text>
	<text style="&st18;" transform="matrix(&st16;  320.61  483.64 )">B</text>
	<text style="&st18;" transform="matrix(&st16;  309.7  483.64 )">11</text>
	<text style="&st18;" transform="matrix(&st16;  320.61  526.7 )">A</text>
	<text style="&st18;" transform="matrix(&st16;  312.1  526.7 )">8</text>
	<text style="&st18;" transform="matrix(&st17;  364.55  522.72 )">J13(A),J14(B)</text>
	<text style="&st18;" transform="matrix(&st16;  65.46  307.98 )">I 1</text>
	<text style="&st18;" transform="matrix(&st16;  175.95  307.98 )">I 2</text>
	<text style="&st18;" transform="matrix(&st16;  286.43  307.98 )">I 3</text>
	<text style="&st18;" transform="matrix(&st16;  396.91  307.98 )">I 4</text>
	<text style="&st18;" transform="matrix(&st17;  47.3  123.24 )">R</text>
	<text style="&st18;" transform="matrix(&st17;  47.3  191.23 )">R</text>
	<text style="&st18;" transform="matrix(&st16;  44.92  32.08 )">(IG)</text>
	<text ewd:textID="10" style="&st18;" transform="matrix(&st16;  453.57  274.29 )">Noise Filter <tspan dy="6" x="0">(Ignition)</tspan></text>
	<text ewd:textID="5" style="&st18;" transform="matrix(&st16;  65.46  315.09 )">Ignition Coil <tspan dy="6" x="0">(No.1)</tspan></text>
	<text ewd:textID="6" style="&st18;" transform="matrix(&st16;  175.95  315.09 )">Ignition Coil <tspan dy="6" x="0">(No.2)</tspan></text>
	<text ewd:textID="7" style="&st18;" transform="matrix(&st16;  286.43  315.09 )">Ignition Coil <tspan dy="6" x="0">(No.3)</tspan></text>
	<text ewd:textID="8" style="&st18;" transform="matrix(&st16;  396.91  315.09 )">Ignition Coil <tspan dy="6" x="0">(No.4)</tspan></text>
	<text ewd:textID="9" style="&st18;" transform="matrix(&st17;  371.66  522.72 )">Junction <tspan dy="6" x="0">Connector</tspan></text>
	<text style="&st18;" transform="matrix(&st16;  43.54  363.53 )">IGT1</text>
	<text style="&st18;" transform="matrix(&st16;  70.62  363.53 )">IGF</text>
	<text style="&st18;" transform="matrix(&st16;  94.28  363.53 )">GND</text>
	<text style="&st18;" transform="matrix(&st16;  46.65  332.37 )">+B</text>
	<text style="&st18;" transform="matrix(&st16;  153.63  363.53 )">IGT2</text>
	<text style="&st18;" transform="matrix(&st16;  181.11  363.53 )">IGF</text>
	<text style="&st18;" transform="matrix(&st16;  204.76  363.53 )">GND</text>
	<text style="&st18;" transform="matrix(&st16;  157.13  332.37 )">+B</text>
	<text style="&st18;" transform="matrix(&st16;  264.11  363.53 )">IGT3</text>
	<text style="&st18;" transform="matrix(&st16;  291.59  363.53 )">IGF</text>
	<text style="&st18;" transform="matrix(&st16;  315.25  363.53 )">GND</text>
	<text style="&st18;" transform="matrix(&st16;  267.61  332.37 )">+B</text>
	<text style="&st18;" transform="matrix(&st16;  400.09  363.53 )">IGT4</text>
	<text style="&st18;" transform="matrix(&st16;  376.57  363.53 )">IGF</text>
	<text style="&st18;" transform="matrix(&st16;  476.72  363.53 )">GND</text>
	<text style="&st18;" transform="matrix(&st16;  378.09  332.37 )">+B</text>
	<text ewd:textID="1" style="&st18;" transform="matrix(&st16;  311.92  37.75 )">* 1 :Before Oct. 2008 Production</text>
	<text style="&st18;" transform="matrix(&st16;  447.9  254.18 )">(*2)</text>
	<text style="&st18;" transform="matrix(&st16;  431.83  254.18 )">1</text>
	<text style="&st18;" transform="matrix(&st16;  439.59  254.18 )">B</text>
	<text style="&st18;" transform="matrix(&st16;  447.9  245.11 )">(*1)</text>
	<text style="&st18;" transform="matrix(&st16;  431.83  245.11 )">1</text>
	<text style="&st18;" transform="matrix(&st16;  439.59  245.11 )">A</text>
	<text ewd:textID="2" style="&st18;" transform="matrix(&st16;  311.92  46.25 )">* 2 :From Oct. 2008 Production</text>
	<text style="&st18;" transform="matrix(&st16;  311.92  54.75 )">* 3 :2TR-FE</text>
	<text style="&st18;" transform="matrix(&st16;  311.92  63.24 )">* 4 :2TR-FBE</text>
	<text ewd:textID="4" style="&st18;" transform="matrix(&st16;  39.97  679.39 )">Engine ECU</text>
	<text style="&st18;" transform="matrix(&st16;  39.97  672.28 )">E11(A),E23(B)</text>
	<text style="&st18;" transform="matrix(&st16;  48.66  619.62 )">B</text>
	<text style="&st18;" transform="matrix(&st16;  40.89  619.62 )">1</text>
	<text style="&st18;" transform="matrix(&st16;  48.66  610.55 )">A</text>
	<text style="&st18;" transform="matrix(&st16;  36.94  610.55 )">17</text>
	<text style="&st18;" transform="matrix(&st16;  159.14  619.62 )">B</text>
	<text style="&st18;" transform="matrix(&st16;  150.6  619.62 )">2</text>
	<text style="&st18;" transform="matrix(&st16;  159.14  610.55 )">A</text>
	<text style="&st18;" transform="matrix(&st16;  147.42  610.55 )">16</text>
	<text style="&st18;" transform="matrix(&st16;  269.62  619.62 )">B</text>
	<text style="&st18;" transform="matrix(&st16;  261.08  619.62 )">3</text>
	<text style="&st18;" transform="matrix(&st16;  269.62  610.55 )">A</text>
	<text style="&st18;" transform="matrix(&st16;  257.9  610.55 )">15</text>
	<text style="&st18;" transform="matrix(&st16;  346.11  619.62 )">B</text>
	<text style="&st18;" transform="matrix(&st16;  334.39  619.62 )">10</text>
	<text style="&st18;" transform="matrix(&st16;  346.11  610.55 )">A</text>
	<text style="&st18;" transform="matrix(&st16;  333.61  610.55 )">23</text>
	<text style="&st18;" transform="matrix(&st16;  413.91  619.62 )">(*4)</text>
	<text style="&st18;" transform="matrix(&st16;  405.6  619.62 )">B</text>
	<text style="&st18;" transform="matrix(&st16;  397.06  619.62 )">4</text>
	<text style="&st18;" transform="matrix(&st16;  413.91  610.55 )">(*3)</text>
	<text style="&st18;" transform="matrix(&st16;  405.6  610.55 )">A</text>
	<text style="&st18;" transform="matrix(&st16;  393.88  610.55 )">14</text>
	<text style="&st18;" transform="matrix(&st16;  410.25  221.88 )">(*5)</text>
	<text ewd:textID="3" style="&st18;" transform="matrix(&st16;  311.92  71.74 )">* 5 :Before Oct. 2011 Production</text>
	<text style="&st18;" transform="matrix(&st16;  453.57  267.19 )">N 2(A),N 3(B)</text>
	<text style="&st18;" transform="matrix(&st16;  36.18  160.98 )">5</text>
	<text style="&st18;" transform="matrix(&st17;  157.78  586.15 )">R-L</text>
	<text style="&st18;" transform="matrix(&st16;  349.7  448.51 )">G-R</text>
	<text style="&st18;" transform="matrix(&st16;  239.22  558.99 )">G-R</text>
	<text style="&st18;" transform="matrix(&st16;  239.22  542.0 )">G-R</text>
	<text style="&st18;" transform="matrix(&st16;  320.47  210.55 )">R</text>
	<text style="&st18;" transform="matrix(&st16;  238.76  423.02 )">W-B</text>
	<text style="&st18;" transform="matrix(&st16;  434.23  423.02 )">W-B</text>
	<text style="&st18;" transform="matrix(&st17;  480.72  595.89 )">W-B</text>
	<text style="&st18;" transform="matrix(&st17;  344.75  586.93 )">G-R</text>
	<text style="&st18;" transform="matrix(&st16;  218.49  210.55 )">R</text>
	<text style="&st18;" transform="matrix(&st16;  99.51  210.55 )">R</text>
	<text style="&st18;" transform="matrix(&st17;  47.3  276.21 )">R</text>
	<text style="&st18;" transform="matrix(&st17;  157.78  276.21 )">R</text>
	<text style="&st18;" transform="matrix(&st17;  268.26  276.21 )">R</text>
	<text style="&st18;" transform="matrix(&st17;  378.74  276.21 )">R</text>
	<text style="&st18;" transform="matrix(&st17;  480.72  408.92 )">W-B</text>
	<text style="&st18;" transform="matrix(&st17;  378.74  408.46 )">G-R</text>
	<text style="&st18;" transform="matrix(&st17;  404.24  403.97 )">G</text>
	<text style="&st18;" transform="matrix(&st16;  477.63  375.42 )">4</text>
	<text style="&st18;" transform="matrix(&st16;  375.65  375.42 )">2</text>
	<text style="&st18;" transform="matrix(&st16;  401.14  375.42 )">3</text>
	<text style="&st18;" transform="matrix(&st16;  376.42  321.04 )">1</text>
	<text style="&st18;" transform="matrix(&st17;  404.24  582.44 )">G</text>
	<text style="&st18;" transform="matrix(&st17;  319.25  408.92 )">W-B</text>
	<text style="&st18;" transform="matrix(&st17;  268.26  586.79 )">G-B</text>
	<text style="&st18;" transform="matrix(&st17;  293.76  408.46 )">G-R</text>
	<text style="&st18;" transform="matrix(&st17;  268.26  408.32 )">G-B</text>
	<text style="&st18;" transform="matrix(&st16;  316.16  375.42 )">4</text>
	<text style="&st18;" transform="matrix(&st16;  290.66  375.42 )">2</text>
	<text style="&st18;" transform="matrix(&st16;  265.17  375.42 )">3</text>
	<text style="&st18;" transform="matrix(&st16;  265.94  321.04 )">1</text>
	<text style="&st18;" transform="matrix(&st17;  47.3  582.16 )">R</text>
	<text style="&st18;" transform="matrix(&st17;  98.29  408.92 )">W-B</text>
	<text style="&st18;" transform="matrix(&st17;  72.79  408.46 )">G-R</text>
	<text style="&st18;" transform="matrix(&st17;  47.3  403.69 )">R</text>
	<text style="&st18;" transform="matrix(&st16;  95.19  375.42 )">4</text>
	<text style="&st18;" transform="matrix(&st16;  69.7  375.42 )">2</text>
	<text style="&st18;" transform="matrix(&st16;  44.2  375.42 )">3</text>
	<text style="&st18;" transform="matrix(&st16;  44.98  321.04 )">1</text>
	<text style="&st18;" transform="matrix(&st17;  208.77  408.92 )">W-B</text>
	<text style="&st18;" transform="matrix(&st17;  183.27  408.46 )">G-R</text>
	<text style="&st18;" transform="matrix(&st17;  157.78  407.68 )">R-L</text>
	<text style="&st18;" transform="matrix(&st16;  205.68  375.42 )">4</text>
	<text style="&st18;" transform="matrix(&st16;  180.18  375.42 )">2</text>
	<text style="&st18;" transform="matrix(&st16;  154.68  375.42 )">3</text>
	<text style="&st18;" transform="matrix(&st16;  155.46  321.04 )">1</text>
	<text style="&st18;" transform="matrix(&st16;  413.96  210.55 )">R</text>
	<text style="&st18;" transform="matrix(&st16;  68.3  56.17 )">15A <tspan dy="6" x="0">INJ</tspan></text>
	<text style="&st18;" transform="matrix(&st16;  46.54  101.49 )">2D</text>
	<text style="&st18;" transform="matrix(&st16;  35.12  101.49 )">10</text>
	<text style="&st18;" transform="matrix(&st16;  400.09  629.82 )">IGT4</text>
	<text style="&st18;" transform="matrix(&st16;  340.99  629.82 )">IGF1</text>
	<text style="&st18;" transform="matrix(&st16;  264.11  629.82 )">IGT3</text>
	<text style="&st18;" transform="matrix(&st16;  153.63  629.82 )">IGT2</text>
	<a ewd:code="ID1" ewd:figID="10" ewd:figtype="w2w" ewd:pinNo="5" style="cursor:pointer;">
		<path d=" M   59.49,  154.76  L   42.49,  154.76  L   42.49,  163.26  L   59.49,  163.26  L   59.49,  154.76 " style="&st2;"/>
		<text style="&st8;" transform="matrix(&st16;  45.67  161.5 )"><tspan style="&st18;" x="0" y="0">ID1</tspan></text>
	</a>
	<a ewd:code="EC" ewd:figID="11" ewd:figtype="gp" style="cursor:pointer;">
		<path d=" M  473.80,  681.67  L  495.04,  681.67  L  484.42,  697.25  L  473.80,  681.67 " style="&st2;"/>
		<text style="&st8;" transform="matrix(&st16;  479.36  689.83 )"><tspan style="&st18;" x="0" y="0">EC</tspan></text>
	</a>
	<a ewd:code="2593" ewd:figID="12" ewd:figtype="sp" style="cursor:pointer;">
		<path d=" M   46.74,  205.75  L   55.24,  205.75  L   59.49,  210.00  L   59.49,  218.50  L   55.24,  222.75  L   46.74,  222.75  L   42.49,  218.50  L   42.49,  210.00  L   46.74,  205.75 " style="&st2;"/>
	</a>
	<a ewd:code="2629" ewd:figID="13" ewd:figtype="sp" style="cursor:pointer;">
		<path d=" M  378.19,  205.75  L  386.69,  205.75  L  390.93,  210.00  L  390.93,  218.50  L  386.69,  222.75  L  378.19,  222.75  L  373.94,  218.50  L  373.94,  210.00  L  378.19,  205.75 " style="&st2;"/>
	</a>
	<a ewd:code="2605" ewd:figID="14" ewd:figtype="sp" style="cursor:pointer;">
		<path d=" M  157.22,  205.75  L  165.72,  205.75  L  169.97,  210.00  L  169.97,  218.50  L  165.72,  222.75  L  157.22,  222.75  L  152.97,  218.50  L  152.97,  210.00  L  157.22,  205.75 " style="&st2;"/>
	</a>
	<a ewd:code="2617" ewd:figID="15" ewd:figtype="sp" style="cursor:pointer;">
		<path d=" M  267.71,  205.75  L  276.20,  205.75  L  280.45,  210.00  L  280.45,  218.50  L  276.20,  222.75  L  267.71,  222.75  L  263.46,  218.50  L  263.46,  210.00  L  267.71,  205.75 " style="&st2;"/>
	</a>
	<a ewd:code="2665" ewd:figID="16" ewd:figtype="sp" style="cursor:pointer;">
		<path d=" M  208.22,  418.22  L  216.71,  418.22  L  220.96,  422.46  L  220.96,  430.96  L  216.71,  435.21  L  208.22,  435.21  L  203.97,  430.96  L  203.97,  422.46  L  208.22,  418.22 " style="&st2;"/>
	</a>
	<a ewd:code="2641" ewd:figID="17" ewd:figtype="sp" style="cursor:pointer;">
		<path d=" M  480.17,  418.22  L  488.67,  418.22  L  492.92,  422.46  L  492.92,  430.96  L  488.67,  435.21  L  480.17,  435.21  L  475.92,  430.96  L  475.92,  422.46  L  480.17,  418.22 " style="&st2;"/>
	</a>
	<a ewd:code="2653" ewd:figID="18" ewd:figtype="sp" style="cursor:pointer;">
		<path d=" M  318.70,  418.22  L  327.20,  418.22  L  331.44,  422.46  L  331.44,  430.96  L  327.20,  435.21  L  318.70,  435.21  L  314.45,  430.96  L  314.45,  422.46  L  318.70,  418.22 " style="&st2;"/>
	</a>
</g>
</svg>