﻿<?xml version="1.0" encoding="utf-8"?>
<!DOCTYPE svg PUBLIC "-//W3C//DTD SVG 1.0//EN" "http://www.w3.org/TR/2001/REC-SVG-20010904/DTD/svg10.dtd"[
	<!ENTITY ns_flows "http://ns.adobe.com/Flows/1.0/">
	<!ENTITY ns_svg "http://www.w3.org/2000/svg">
	<!ENTITY ns_xlink "http://www.w3.org/1999/xlink">
	<!ENTITY st0 "font-size:7px;font-family:'MS-PGothic';adobe-font-script:japanese;">
	<!ENTITY st1 "font-size:6px;font-family:'ArialMT';">
	<!-- White fill  -->
	<!ENTITY st2 "fill:#FFFFFF;stroke:#000000; stroke-width:1.41;stroke-linecap:round;stroke-linejoin:round;">
	<!-- Yellow fill  -->
	<!ENTITY st3 "fill:#FFFFCC;stroke:#FFFFCC; stroke-width:0.1;stroke-linecap:round;stroke-linejoin:round;">
	<!-- Gray fill  -->
	<!ENTITY st4 "fill:#CCCCCC;stroke:#CCCCCC; stroke-width:0.1;stroke-linecap:round;stroke-linejoin:round;">
	<!-- Light-blue fill -->
	<!ENTITY st5 "fill:#CCECF4;stroke:#000000; stroke-width:1.133;stroke-linecap:round;stroke-linejoin:round;">
	<!ENTITY st6 "fill:none;stroke-linecap:butt; stroke-linejoin:round;">
	<!ENTITY st7 "fill:none;stroke:#000000;stroke-linecap:round;stroke-linejoin:round;">
	<!ENTITY st8 "enable-background:new    ;">
	<!-- Black fill -->
	<!ENTITY st9 "fill:#000000;stroke:#000000; stroke-linecap:round;stroke-linejoin:round;">
	<!-- SRS note   -->
	<!ENTITY st10 "font-size:9px;font-family:'ArialMT';">
	<!ENTITY st11 "font-size:9px;font-family:'Svg Symbol';">
	<!ENTITY st12 "font-size:6px;font-family:'Svg Symbol';">
	<!ENTITY st13 "fill:none;stroke:#ff0000;stroke-linecap:round;stroke-linejoin:round;">
	<!-- Yellow fill  -->
	<!ENTITY st14 "fill:#FFFF00;stroke:#FFFF00; stroke-width:0.1;stroke-linecap:round;stroke-linejoin:round;">
	<!ENTITY st15 "font-size:6px;font-family:'MS-PGothic';adobe-font-script:japanese;">
	<!ENTITY st16 "1.00 0.00 0.00 1.00">
	<!ENTITY st17 "0.00 -1.00 1.00 0.00">
	<!ENTITY st18 "font-size:6px;font-family:'Arial';">
	<!ENTITY st19 "font-size:9px;font-family:'Arial';">
	<!ENTITY st20 "font-size:6px;font-family:'MS-PGothic','MS PGothic';adobe-font-script:japanese;">
	<!ENTITY st21 "font-size:7px;font-family:'MS-PGothic','MS PGothic';adobe-font-script:japanese;">
	<!ATTLIST svg
		xmlns:ewd CDATA #FIXED "http://shcl.co.jp/ewd"
		xmlns:a CDATA #FIXED "http://ns.adobe.com/AdobeSVGViewerExtensions/3.0/"
		ewd:ver CDATA #IMPLIED
	>
	<!ATTLIST a
		ewd:lineID CDATA #IMPLIED
		ewd:groupID CDATA #IMPLIED
		ewd:figtype CDATA #IMPLIED
		ewd:code CDATA #IMPLIED
		ewd:figID CDATA #IMPLIED
		ewd:pinNo CDATA #IMPLIED
		ewd:comment CDATA #IMPLIED >
	<!ATTLIST g
		ewd:lineID CDATA #IMPLIED
		ewd:groupID CDATA #IMPLIED
		ewd:figtype CDATA #IMPLIED
		ewd:code CDATA #IMPLIED
		ewd:figID CDATA #IMPLIED
		ewd:pinNo CDATA #IMPLIED
		ewd:comment CDATA #IMPLIED >
	<!ATTLIST text
		ewd:textID CDATA #IMPLIED >
	<!ATTLIST title
		ewd:textID CDATA #IMPLIED >
]>
<!-- Generator: Shintec Hozumi YS   -->
<svg onload="call_execInitLoadProc_svg('system')" style="overflow:visible;  enable-background:new 0 0 3069.454 710.000" viewBox="0 0 3069.454 710.000" height="710.000" width="3069.454" xml:space="preserve" ewd:ver="L2.1.2.7" xmlns="&ns_svg;" xmlns:a="http://ns.adobe.com/AdobeSVGViewerExtensions/3.0/" xmlns:ewd="http://shcl.co.jp/ewd" xmlns:xlink="&ns_xlink;">
<path d=" M 1920.68,  545.69  L 2065.15,  545.69  L 2065.15,  520.20  L 1912.18,  520.20  L 1912.18,  537.20 " style="stroke:#000000;stroke-width: 0.85 ;&st7;stroke-dasharray:3, 1.5;" /><path d=" M 1903.68,  545.69  L 1886.68,  545.69  L 1886.68,  630.68 " style="stroke:#000000;stroke-width: 0.85 ;&st7;stroke-dasharray:3, 1.5;" /><path d=" M 1699.72,  477.71  L 1699.72,  486.20 " style="stroke-width: 0.85 ;&st7; " /><path d=" M 1699.72,  452.21  L 1699.72,  460.71 " style="stroke-width: 0.85 ;&st7; " /><path d=" M 1725.21,  452.21  L 1725.21,  456.46 " style="stroke-width: 0.85 ;&st7; " /><path d=" M 1725.21,  486.20  L 1725.21,  481.95 " style="stroke-width: 0.85 ;&st7; " /><path d=" M 1623.23,  477.71  L 1623.23,  486.20 " style="stroke-width: 0.85 ;&st7; " /><path d=" M 1623.23,  452.21  L 1623.23,  460.71 " style="stroke-width: 0.85 ;&st7; " /><path d=" M 1648.72,  452.21  L 1648.72,  456.46 " style="stroke-width: 0.85 ;&st7; " /><path d=" M 1648.72,  486.20  L 1648.72,  481.95 " style="stroke-width: 0.85 ;&st7; " /><path d=" M 1908.65,  537.20  L 1903.68,  542.17 " style="stroke-width: 1.42 ;&st7; " /><path d=" M 1920.68,  542.17  L 1915.71,  537.20 " style="stroke-width: 1.42 ;&st7; " /><path d=" M 1915.71,  554.19  L 1920.68,  549.22 " style="stroke-width: 1.42 ;&st7; " /><path d=" M 1903.68,  549.22  L 1908.65,  554.19 " style="stroke-width: 1.42 ;&st7; " /><path d=" M 1778.33,  171.76  L 1774.08,  171.76 " style="stroke-width: 1.42 ;&st7; " /><path d=" M 1778.33,  163.26  L 1774.08,  163.26 " style="stroke-width: 1.42 ;&st7; " /><path d=" M 1744.33,  171.76  L 1740.08,  171.76 " style="stroke-width: 1.42 ;&st7; " /><path d=" M 1744.33,  163.26  L 1740.08,  163.26 " style="stroke-width: 1.42 ;&st7; " /><path d=" M 1778.33,  120.77  L 1774.08,  120.77 " style="stroke-width: 1.42 ;&st7; " /><path d=" M 1778.33,  112.27  L 1774.08,  112.27 " style="stroke-width: 1.42 ;&st7; " /><path d=" M 1744.33,  112.27  L 1740.08,  112.27 " style="stroke-width: 1.42 ;&st7; " /><path d=" M 1744.33,  120.77  L 1740.08,  120.77 " style="stroke-width: 1.42 ;&st7; " /><path d=" M 1648.72,  459.29  L 1654.39,  481.95 " style="stroke-width: 1.42 ;&st7; " /><path d=" M 1725.21,  459.29  L 1730.88,  481.95 " style="stroke-width: 1.42 ;&st7; " /><path d=" M 1512.75,  282.24  L 1504.25,  282.24 " style="stroke-width: 1.42 ;&st7; " /><path d=" M 2906.51,   61.28  L 1691.22,   61.28  L 1691.22,   27.28  L 2906.51,   27.28  L 2906.51,   61.28 " style="stroke-width: 1.42 ;&st7; " /><path d=" M 1504.25,  239.75  L 1504.25,  222.75 " style="stroke-width: 0.85 ;&st7; " /><path d=" M 1508.50,  287.90  L 1504.25,  283.65  L 1500.00,  287.90 " style="stroke-width: 1.42 ;&st7; " /><path d=" M 1508.50,  291.30  L 1504.25,  287.05  L 1500.00,  291.30 " style="stroke-width: 1.42 ;&st7; " /><path d=" M 1504.25,  341.73  L 1504.25,  332.66 " style="stroke-width: 0.85 ;&st7; " /><path d=" M 1776.20,  341.73  L 1776.20,  332.66 " style="stroke-width: 0.85 ;&st7; " /><path d=" M 1686.97,  380.26  L 1631.70,  380.26 " style="stroke-width: 0.85 ;&st7;stroke-dasharray:3, 1.5;" /><path d=" M 1723.79,  710.00  L 1726.63,  710.00 " style="stroke-width: 0.85 ;&st7; " /><path d=" M 1722.38,  707.17  L 1728.04,  707.17 " style="stroke-width: 0.85 ;&st7; " /><path d=" M 1720.96,  704.33  L 1729.46,  704.33 " style="stroke-width: 0.85 ;&st7; " /><path d=" M 1716.71,  701.50  L 1733.71,  701.50 " style="stroke-width: 0.85 ;&st7; " /><path d=" M 1725.21,  697.25  L 1725.21,  701.50 " style="stroke-width: 0.85 ;&st7; " /><path d=" M 1631.73,  562.69  L 1742.21,  562.69  L 1742.21,  605.18  L 1631.73,  605.18  L 1631.73,  562.69 " style="stroke-width: 1.42 ;&st7; " /><path d=" M 1733.71,  452.21  L 1691.22,  452.21  L 1691.22,  486.20  L 1733.71,  486.20  L 1733.71,  452.21 " style="stroke-width: 1.42 ;&st7; " /><path d=" M 1657.22,  452.21  L 1614.73,  452.21  L 1614.73,  486.20  L 1657.22,  486.20  L 1657.22,  452.21 " style="stroke-width: 1.42 ;&st7; " /><path d=" M 1776.20,  579.69  L 1793.20,  579.69 " style="stroke-width: 1.13 ;&st7;stroke-dasharray:3, 1.5;" /><path d=" M 1776.20,  571.19  L 1793.20,  571.19 " style="stroke-width: 1.13 ;&st7;stroke-dasharray:3, 1.5;" /><path d=" M 1776.20,  562.69  L 1776.20,  588.19  L 1793.20,  588.19  L 1793.20,  562.69  L 1776.20,  562.69 " style="stroke-width: 1.42 ;&st7; " /><path d=" M 1784.70,  562.69  L 1784.70,  588.19 " style="stroke-width: 0.85 ;&st7; " /><path d=" M 1980.17,  341.73  L 1980.17,  375.72  L 2048.16,  375.72  L 2048.16,  341.73  L 1980.17,  341.73 " style="stroke-width: 1.42 ;&st7; " /><path d=" M 1878.19,  630.68  L 1895.18,  630.68  L 1895.18,  647.68  L 1878.19,  647.68  L 1878.19,  630.68 " style="stroke-width: 1.42 ;&st7; " /><path d=" M 1988.67,  477.71  L 1988.67,  503.20  L 2005.66,  503.20  L 2005.66,  477.71  L 1988.67,  477.71 " style="stroke-width: 1.42 ;&st7; " /><path d=" M 1988.67,  486.20  L 2005.66,  486.20 " style="stroke-width: 1.13 ;&st7;stroke-dasharray:3, 1.5;" /><path d=" M 1988.67,  494.70  L 2005.66,  494.70 " style="stroke-width: 1.13 ;&st7;stroke-dasharray:3, 1.5;" /><path d=" M 1997.17,  477.71  L 1997.17,  503.20 " style="stroke-width: 0.85 ;&st7; " /><path d=" M 1980.17,  562.69  L 2048.16,  562.69  L 2048.16,  596.69  L 1980.17,  596.69  L 1980.17,  562.69 " style="stroke-width: 1.42 ;&st7; " /><path d=" M 1886.68,  647.68  L 1886.68,  630.68 " style="stroke-width: 0.85 ;&st7; " /><path d=" M 1886.68,  697.25  L 1886.68,  701.50 " style="stroke-width: 0.85 ;&st7; " /><path d=" M 1878.19,  701.50  L 1895.18,  701.50 " style="stroke-width: 0.85 ;&st7; " /><path d=" M 1882.43,  704.33  L 1890.93,  704.33 " style="stroke-width: 0.85 ;&st7; " /><path d=" M 1883.85,  707.17  L 1889.52,  707.17 " style="stroke-width: 0.85 ;&st7; " /><path d=" M 1885.27,  710.00  L 1888.10,  710.00 " style="stroke-width: 0.85 ;&st7; " /><path d=" M 1852.69,  337.20  L 1916.43,  337.20 " style="stroke-width: 0.85 ;&st7;stroke-dasharray:3, 1.5;" /><path d=" M 1852.69,  328.13  L 1912.18,  328.13 " style="stroke-width: 0.85 ;&st7;stroke-dasharray:3, 1.5;" /><path d=" M 1742.21,  125.66  L 1745.04,  128.49  L 1745.04,  124.24  L 1742.21,  121.41  L 1739.38,  124.24  L 1739.38,  128.49  L 1742.21,  125.66 " style="stroke-width: 0.28 ;&st9;" /><path d=" M 1776.20,  125.66  L 1779.04,  128.49  L 1779.04,  124.24  L 1776.20,  121.41  L 1773.37,  124.24  L 1773.37,  128.49  L 1776.20,  125.66 " style="stroke-width: 0.28 ;&st9;" /><path d=" M 1742.21,  158.36  L 1739.38,  155.53  L 1739.38,  159.78  L 1742.21,  162.61  L 1745.04,  159.78  L 1745.04,  155.53  L 1742.21,  158.36 " style="stroke-width: 0.28 ;&st9;" /><path d=" M 1776.20,  158.36  L 1773.37,  155.53  L 1773.37,  159.78  L 1776.20,  162.61  L 1779.04,  159.78  L 1779.04,  155.53  L 1776.20,  158.36 " style="stroke-width: 0.28 ;&st9;" /><path d=" M 1742.21,  163.26  L 1742.21,  120.77 " style="stroke-width: 0.85 ;&st7; " /><path d=" M 1776.20,  163.26  L 1776.20,  120.77 " style="stroke-width: 0.85 ;&st7; " /><path d=" M 1759.21,  328.13  L 1750.68,  328.13 " style="stroke-width: 0.85 ;&st7;stroke-dasharray:3, 1.5;" /><path d=" M 1725.21,  328.13  L 1716.68,  328.13 " style="stroke-width: 0.85 ;&st7;stroke-dasharray:3, 1.5;" /><path d=" M 1708.21,  341.73  L 1708.21,  332.66 " style="stroke-width: 0.85 ;&st7; " /><path d=" M 1742.21,  341.73  L 1742.21,  332.66 " style="stroke-width: 0.85 ;&st7; " /><path d=" M 1784.67,  328.13  L 1827.19,  328.13 " style="stroke-width: 0.85 ;&st7;stroke-dasharray:3, 1.5;" /><path d=" M 1848.72,  328.13  C 1848.72   325.63  1846.70   323.60  1844.19   323.60 " style="stroke-width: 1.42 ;&st7; " /><path d=" M 1844.19,  323.60  C 1841.69   323.60  1839.66   325.63  1839.66   328.13 " style="stroke-width: 1.42 ;&st7; " /><path d=" M 1839.66,  328.13  C 1839.66   330.63  1841.69   332.66  1844.19   332.66 " style="stroke-width: 1.42 ;&st7; " /><path d=" M 1844.19,  332.66  C 1846.70   332.66  1848.72   330.63  1848.72   328.13 " style="stroke-width: 1.42 ;&st7; " /><path d=" M 1848.72,  337.20  C 1848.72   334.69  1846.70   332.66  1844.19   332.66 " style="stroke-width: 1.42 ;&st7; " /><path d=" M 1844.19,  332.66  C 1841.69   332.66  1839.66   334.69  1839.66   337.20 " style="stroke-width: 1.42 ;&st7; " /><path d=" M 1839.66,  337.20  C 1839.66   339.70  1841.69   341.73  1844.19   341.73 " style="stroke-width: 1.42 ;&st7; " /><path d=" M 1844.19,  341.73  C 1846.70   341.73  1848.72   339.70  1848.72   337.20 " style="stroke-width: 1.42 ;&st7; " /><path d=" M 1933.71,  328.13  C 1933.71   325.63  1931.68   323.60  1929.18   323.60 " style="stroke-width: 1.42 ;&st7; " /><path d=" M 1929.18,  323.60  C 1926.67   323.60  1924.65   325.63  1924.65   328.13 " style="stroke-width: 1.42 ;&st7; " /><path d=" M 1924.65,  328.13  C 1924.65   330.63  1926.67   332.66  1929.18   332.66 " style="stroke-width: 1.42 ;&st7; " /><path d=" M 1929.18,  332.66  C 1931.68   332.66  1933.71   330.63  1933.71   328.13 " style="stroke-width: 1.42 ;&st7; " /><path d=" M 1933.71,  337.20  C 1933.71   334.69  1931.68   332.66  1929.18   332.66 " style="stroke-width: 1.42 ;&st7; " /><path d=" M 1929.18,  332.66  C 1926.67   332.66  1924.65   334.69  1924.65   337.20 " style="stroke-width: 1.42 ;&st7; " /><path d=" M 1924.65,  337.20  C 1924.65   339.70  1926.67   341.73  1929.18   341.73 " style="stroke-width: 1.42 ;&st7; " /><path d=" M 1929.18,  341.73  C 1931.68   341.73  1933.71   339.70  1933.71   337.20 " style="stroke-width: 1.42 ;&st7; " /><path d=" M 1508.78,  184.79  C 1508.78   182.28  1506.75   180.26  1504.25   180.26 " style="stroke-width: 1.42 ;&st7; " /><path d=" M 1504.25,  180.26  C 1501.75   180.26  1499.72   182.28  1499.72   184.79 " style="stroke-width: 1.42 ;&st7; " /><path d=" M 1504.25,  189.32  C 1506.75   189.32  1508.78   187.29  1508.78   184.79 " style="stroke-width: 1.42 ;&st7; " /><path d=" M 1508.78,  328.13  C 1508.78   325.63  1506.75   323.60  1504.25   323.60 " style="stroke-width: 1.42 ;&st7; " /><path d=" M 1504.25,  323.60  C 1501.75   323.60  1499.72   325.63  1499.72   328.13 " style="stroke-width: 1.42 ;&st7; " /><path d=" M 1504.25,  332.66  C 1506.75   332.66  1508.78   330.63  1508.78   328.13 " style="stroke-width: 1.42 ;&st7; " /><path d=" M 1653.26,  609.72  C 1653.26   607.21  1651.23   605.18  1648.72   605.18 " style="stroke-width: 1.42 ;&st7; " /><path d=" M 1648.72,  605.18  C 1646.22   605.18  1644.19   607.21  1644.19   609.72 " style="stroke-width: 1.42 ;&st7; " /><path d=" M 1644.19,  609.72  C 1644.19   612.22  1646.22   614.25  1648.72   614.25 " style="stroke-width: 1.42 ;&st7; " /><path d=" M 1648.72,  614.25  C 1651.23   614.25  1653.26   612.22  1653.26   609.72 " style="stroke-width: 1.42 ;&st7; " /><path d=" M 1704.25,  380.26  C 1704.25   377.75  1702.22   375.72  1699.72   375.72 " style="stroke-width: 1.42 ;&st7; " /><path d=" M 1699.72,  375.72  C 1697.21   375.72  1695.18   377.75  1695.18   380.26 " style="stroke-width: 1.42 ;&st7; " /><path d=" M 1695.18,  380.26  C 1695.18   382.76  1697.21   384.79  1699.72   384.79 " style="stroke-width: 1.42 ;&st7; " /><path d=" M 1699.72,  384.79  C 1702.22   384.79  1704.25   382.76  1704.25   380.26 " style="stroke-width: 1.42 ;&st7; " /><path d=" M 1627.76,  380.26  C 1627.76   377.75  1625.73   375.72  1623.23   375.72 " style="stroke-width: 1.42 ;&st7; " /><path d=" M 1623.23,  375.72  C 1620.73   375.72  1618.70   377.75  1618.70   380.26 " style="stroke-width: 1.42 ;&st7; " /><path d=" M 1618.70,  380.26  C 1618.70   382.76  1620.73   384.79  1623.23   384.79 " style="stroke-width: 1.42 ;&st7; " /><path d=" M 1623.23,  384.79  C 1625.73   384.79  1627.76   382.76  1627.76   380.26 " style="stroke-width: 1.42 ;&st7; " /><path d=" M 1729.74,  558.16  C 1729.74   555.66  1727.71   553.63  1725.21   553.63 " style="stroke-width: 1.42 ;&st7; " /><path d=" M 1725.21,  553.63  C 1722.71   553.63  1720.68   555.66  1720.68   558.16 " style="stroke-width: 1.42 ;&st7; " /><path d=" M 1720.68,  558.16  C 1720.68   560.66  1722.71   562.69  1725.21   562.69 " style="stroke-width: 1.42 ;&st7; " /><path d=" M 1725.21,  562.69  C 1727.71   562.69  1729.74   560.66  1729.74   558.16 " style="stroke-width: 1.42 ;&st7; " /><path d=" M 1653.26,  558.16  C 1653.26   555.66  1651.23   553.63  1648.72   553.63 " style="stroke-width: 1.42 ;&st7; " /><path d=" M 1648.72,  553.63  C 1646.22   553.63  1644.19   555.66  1644.19   558.16 " style="stroke-width: 1.42 ;&st7; " /><path d=" M 1644.19,  558.16  C 1644.19   560.66  1646.22   562.69  1648.72   562.69 " style="stroke-width: 1.42 ;&st7; " /><path d=" M 1648.72,  562.69  C 1651.23   562.69  1653.26   560.66  1653.26   558.16 " style="stroke-width: 1.42 ;&st7; " /><path d=" M 1699.72,  477.71  C 1701.67   477.71  1703.26   476.12  1703.26   474.16 " style="stroke-width: 0.85 ;&st7; " /><path d=" M 1703.26,  474.16  C 1703.26   472.21  1701.67   470.62  1699.72   470.62 " style="stroke-width: 0.85 ;&st7; " /><path d=" M 1699.72,  470.62  C 1698.73   470.62  1697.88   470.98  1697.19   471.69 " style="stroke-width: 0.85 ;&st7; " /><path d=" M 1697.19,  471.69  C 1698.56   473.08  1700.80   473.11  1702.19   471.74 " style="stroke-width: 0.85 ;&st7; " /><path d=" M 1702.19,  471.74  C 1703.59   470.37  1703.61   468.13  1702.25   466.73 " style="stroke-width: 0.85 ;&st7; " /><path d=" M 1702.25,  466.73  C 1700.88   465.33  1698.63   465.31  1697.24   466.68 " style="stroke-width: 0.85 ;&st7; " /><path d=" M 1697.24,  466.68  C 1697.22   466.69  1697.20   466.71  1697.19   466.73 " style="stroke-width: 0.85 ;&st7; " /><path d=" M 1697.19,  466.73  C 1698.56   468.13  1700.80   468.15  1702.19   466.78 " style="stroke-width: 0.85 ;&st7; " /><path d=" M 1702.19,  466.78  C 1703.59   465.41  1703.61   463.17  1702.25   461.77 " style="stroke-width: 0.85 ;&st7; " /><path d=" M 1702.25,  461.77  C 1701.55   461.06  1700.71   460.71  1699.72   460.71 " style="stroke-width: 0.85 ;&st7; " /><path d=" M 1726.63,  457.88  C 1726.63   457.09  1725.99   456.46  1725.21   456.46 " style="stroke-width: 0.85 ;&st7; " /><path d=" M 1725.21,  456.46  C 1724.43   456.46  1723.80   457.09  1723.80   457.88 " style="stroke-width: 0.85 ;&st7; " /><path d=" M 1723.80,  457.88  C 1723.80   458.66  1724.43   459.29  1725.21   459.29 " style="stroke-width: 0.85 ;&st7; " /><path d=" M 1725.21,  459.29  C 1725.99   459.29  1726.63   458.66  1726.63   457.88 " style="stroke-width: 0.85 ;&st7; " /><path d=" M 1726.63,  480.54  C 1726.63   479.76  1725.99   479.12  1725.21   479.12 " style="stroke-width: 0.85 ;&st7; " /><path d=" M 1725.21,  479.12  C 1724.43   479.12  1723.80   479.76  1723.80   480.54 " style="stroke-width: 0.85 ;&st7; " /><path d=" M 1723.80,  480.54  C 1723.80   481.32  1724.43   481.95  1725.21   481.95 " style="stroke-width: 0.85 ;&st7; " /><path d=" M 1725.21,  481.95  C 1725.99   481.95  1726.63   481.32  1726.63   480.54 " style="stroke-width: 0.85 ;&st7; " /><path d=" M 1623.23,  477.71  C 1625.18   477.71  1626.77   476.12  1626.77   474.16 " style="stroke-width: 0.85 ;&st7; " /><path d=" M 1626.77,  474.16  C 1626.77   472.21  1625.18   470.62  1623.23   470.62 " style="stroke-width: 0.85 ;&st7; " /><path d=" M 1623.23,  470.62  C 1622.24   470.62  1621.39   470.98  1620.70   471.69 " style="stroke-width: 0.85 ;&st7; " /><path d=" M 1620.70,  471.69  C 1622.07   473.08  1624.31   473.11  1625.71   471.74 " style="stroke-width: 0.85 ;&st7; " /><path d=" M 1625.71,  471.74  C 1627.10   470.37  1627.13   468.13  1625.76   466.73 " style="stroke-width: 0.85 ;&st7; " /><path d=" M 1625.76,  466.73  C 1624.39   465.33  1622.15   465.31  1620.75   466.68 " style="stroke-width: 0.85 ;&st7; " /><path d=" M 1620.75,  466.68  C 1620.73   466.69  1620.72   466.71  1620.70   466.73 " style="stroke-width: 0.85 ;&st7; " /><path d=" M 1620.70,  466.73  C 1622.07   468.13  1624.31   468.15  1625.71   466.78 " style="stroke-width: 0.85 ;&st7; " /><path d=" M 1625.71,  466.78  C 1627.10   465.41  1627.13   463.17  1625.76   461.77 " style="stroke-width: 0.85 ;&st7; " /><path d=" M 1625.76,  461.77  C 1625.07   461.06  1624.22   460.71  1623.23   460.71 " style="stroke-width: 0.85 ;&st7; " /><path d=" M 1650.14,  457.88  C 1650.14   457.09  1649.51   456.46  1648.72   456.46 " style="stroke-width: 0.85 ;&st7; " /><path d=" M 1648.72,  456.46  C 1647.94   456.46  1647.31   457.09  1647.31   457.88 " style="stroke-width: 0.85 ;&st7; " /><path d=" M 1647.31,  457.88  C 1647.31   458.66  1647.94   459.29  1648.72   459.29 " style="stroke-width: 0.85 ;&st7; " /><path d=" M 1648.72,  459.29  C 1649.51   459.29  1650.14   458.66  1650.14   457.88 " style="stroke-width: 0.85 ;&st7; " /><path d=" M 1650.14,  480.54  C 1650.14   479.76  1649.51   479.12  1648.72   479.12 " style="stroke-width: 0.85 ;&st7; " /><path d=" M 1648.72,  479.12  C 1647.94   479.12  1647.31   479.76  1647.31   480.54 " style="stroke-width: 0.85 ;&st7; " /><path d=" M 1647.31,  480.54  C 1647.31   481.32  1647.94   481.95  1648.72   481.95 " style="stroke-width: 0.85 ;&st7; " /><path d=" M 1648.72,  481.95  C 1649.51   481.95  1650.14   481.32  1650.14   480.54 " style="stroke-width: 0.85 ;&st7; " /><path d=" M 1729.74,  609.72  C 1729.74   607.21  1727.71   605.18  1725.21   605.18 " style="stroke-width: 1.42 ;&st7; " /><path d=" M 1725.21,  605.18  C 1722.71   605.18  1720.68   607.21  1720.68   609.72 " style="stroke-width: 1.42 ;&st7; " /><path d=" M 1720.68,  609.72  C 1720.68   612.22  1722.71   614.25  1725.21   614.25 " style="stroke-width: 1.42 ;&st7; " /><path d=" M 1725.21,  614.25  C 1727.71   614.25  1729.74   612.22  1729.74   609.72 " style="stroke-width: 1.42 ;&st7; " /><path d=" M 1789.23,  592.72  C 1789.23   590.22  1787.21   588.19  1784.70   588.19 " style="stroke-width: 1.42 ;&st7; " /><path d=" M 1784.70,  588.19  C 1782.20   588.19  1780.17   590.22  1780.17   592.72 " style="stroke-width: 1.42 ;&st7; " /><path d=" M 1780.17,  592.72  C 1780.17   595.22  1782.20   597.25  1784.70   597.25 " style="stroke-width: 1.42 ;&st7; " /><path d=" M 1784.70,  597.25  C 1787.21   597.25  1789.23   595.22  1789.23   592.72 " style="stroke-width: 1.42 ;&st7; " /><path d=" M 1789.23,  558.16  C 1789.23   555.66  1787.21   553.63  1784.70   553.63 " style="stroke-width: 1.42 ;&st7; " /><path d=" M 1784.70,  553.63  C 1782.20   553.63  1780.17   555.66  1780.17   558.16 " style="stroke-width: 1.42 ;&st7; " /><path d=" M 1780.17,  558.16  C 1780.17   560.66  1782.20   562.69  1784.70   562.69 " style="stroke-width: 1.42 ;&st7; " /><path d=" M 1784.70,  562.69  C 1787.21   562.69  1789.23   560.66  1789.23   558.16 " style="stroke-width: 1.42 ;&st7; " /><path d=" M 1997.17,  332.66  C 1994.66   332.66  1992.63   334.69  1992.63   337.20 " style="stroke-width: 1.42 ;&st7; " /><path d=" M 1992.63,  337.20  C 1992.63   339.70  1994.66   341.73  1997.17   341.73 " style="stroke-width: 1.42 ;&st7; " /><path d=" M 1997.17,  341.73  C 1999.67   341.73  2001.70   339.70  2001.70   337.20 " style="stroke-width: 1.42 ;&st7; " /><path d=" M 1997.17,  375.72  C 1994.66   375.72  1992.63   377.75  1992.63   380.26 " style="stroke-width: 1.42 ;&st7; " /><path d=" M 1992.63,  380.26  C 1992.63   382.76  1994.66   384.79  1997.17   384.79 " style="stroke-width: 1.42 ;&st7; " /><path d=" M 1997.17,  384.79  C 1999.67   384.79  2001.70   382.76  2001.70   380.26 " style="stroke-width: 1.42 ;&st7; " /><path d=" M 1997.17,  468.64  C 1994.66   468.64  1992.63   470.67  1992.63   473.17 " style="stroke-width: 1.42 ;&st7; " /><path d=" M 1992.63,  473.17  C 1992.63   475.68  1994.66   477.71  1997.17   477.71 " style="stroke-width: 1.42 ;&st7; " /><path d=" M 1997.17,  477.71  C 1999.67   477.71  2001.70   475.68  2001.70   473.17 " style="stroke-width: 1.42 ;&st7; " /><path d=" M 1997.17,  503.20  C 1994.66   503.20  1992.63   505.23  1992.63   507.73 " style="stroke-width: 1.42 ;&st7; " /><path d=" M 1992.63,  507.73  C 1992.63   510.24  1994.66   512.27  1997.17   512.27 " style="stroke-width: 1.42 ;&st7; " /><path d=" M 1997.17,  512.27  C 1999.67   512.27  2001.70   510.24  2001.70   507.73 " style="stroke-width: 1.42 ;&st7; " /><path d=" M 1746.74,   65.81  C 1746.74    63.30  1744.71    61.28  1742.21    61.28 " style="stroke-width: 1.42 ;&st7; " /><path d=" M 1742.21,   61.28  C 1739.71    61.28  1737.68    63.30  1737.68    65.81 " style="stroke-width: 1.42 ;&st7; " /><path d=" M 1737.68,   65.81  C 1737.68    68.31  1739.71    70.34  1742.21    70.34 " style="stroke-width: 1.42 ;&st7; " /><path d=" M 1742.21,   70.34  C 1744.71    70.34  1746.74    68.31  1746.74    65.81 " style="stroke-width: 1.42 ;&st7; " /><path d=" M 1712.75,   65.81  C 1712.75    63.30  1710.72    61.28  1708.21    61.28 " style="stroke-width: 1.42 ;&st7; " /><path d=" M 1708.21,   61.28  C 1705.71    61.28  1703.68    63.30  1703.68    65.81 " style="stroke-width: 1.42 ;&st7; " /><path d=" M 1703.68,   65.81  C 1703.68    68.31  1705.71    70.34  1708.21    70.34 " style="stroke-width: 1.42 ;&st7; " /><path d=" M 1708.21,   70.34  C 1710.72    70.34  1712.75    68.31  1712.75    65.81 " style="stroke-width: 1.42 ;&st7; " /><path d=" M 1780.74,   65.81  C 1780.74    63.30  1778.71    61.28  1776.20    61.28 " style="stroke-width: 1.42 ;&st7; " /><path d=" M 1776.20,   61.28  C 1773.70    61.28  1771.67    63.30  1771.67    65.81 " style="stroke-width: 1.42 ;&st7; " /><path d=" M 1771.67,   65.81  C 1771.67    68.31  1773.70    70.34  1776.20    70.34 " style="stroke-width: 1.42 ;&st7; " /><path d=" M 1776.20,   70.34  C 1778.71    70.34  1780.74    68.31  1780.74    65.81 " style="stroke-width: 1.42 ;&st7; " /><path d=" M 1748.58,  116.52  C 1748.58   114.17  1746.68   112.27  1744.33   112.27 " style="stroke-width: 1.42 ;&st7; " /><path d=" M 1744.33,  120.77  C 1746.68   120.77  1748.58   118.86  1748.58   116.52 " style="stroke-width: 1.42 ;&st7; " /><path d=" M 1735.83,  116.52  C 1735.83   118.86  1737.74   120.77  1740.08   120.77 " style="stroke-width: 1.42 ;&st7; " /><path d=" M 1740.08,  112.27  C 1737.74   112.27  1735.83   114.17  1735.83   116.52 " style="stroke-width: 1.42 ;&st7; " /><path d=" M 1774.08,  112.27  C 1771.73   112.27  1769.83   114.17  1769.83   116.52 " style="stroke-width: 1.42 ;&st7; " /><path d=" M 1769.83,  116.52  C 1769.83   118.86  1771.73   120.77  1774.08   120.77 " style="stroke-width: 1.42 ;&st7; " /><path d=" M 1778.33,  120.77  C 1780.67   120.77  1782.58   118.86  1782.58   116.52 " style="stroke-width: 1.42 ;&st7; " /><path d=" M 1782.58,  116.52  C 1782.58   114.17  1780.67   112.27  1778.33   112.27 " style="stroke-width: 1.42 ;&st7; " /><path d=" M 1740.08,  163.26  C 1737.74   163.26  1735.83   165.16  1735.83   167.51 " style="stroke-width: 1.42 ;&st7; " /><path d=" M 1735.83,  167.51  C 1735.83   169.85  1737.74   171.76  1740.08   171.76 " style="stroke-width: 1.42 ;&st7; " /><path d=" M 1744.33,  171.76  C 1746.68   171.76  1748.58   169.85  1748.58   167.51 " style="stroke-width: 1.42 ;&st7; " /><path d=" M 1748.58,  167.51  C 1748.58   165.16  1746.68   163.26  1744.33   163.26 " style="stroke-width: 1.42 ;&st7; " /><path d=" M 1774.08,  163.26  C 1771.73   163.26  1769.83   165.16  1769.83   167.51 " style="stroke-width: 1.42 ;&st7; " /><path d=" M 1769.83,  167.51  C 1769.83   169.85  1771.73   171.76  1774.08   171.76 " style="stroke-width: 1.42 ;&st7; " /><path d=" M 1778.33,  171.76  C 1780.67   171.76  1782.58   169.85  1782.58   167.51 " style="stroke-width: 1.42 ;&st7; " /><path d=" M 1782.58,  167.51  C 1782.58   165.16  1780.67   163.26  1778.33   163.26 " style="stroke-width: 1.42 ;&st7; " /><path d=" M 1780.74,  328.13  C 1780.74   325.63  1778.71   323.60  1776.20   323.60 " style="stroke-width: 1.42 ;&st7; " /><path d=" M 1776.20,  323.60  C 1773.70   323.60  1771.67   325.63  1771.67   328.13 " style="stroke-width: 1.42 ;&st7; " /><path d=" M 1771.67,  328.13  C 1771.67   330.63  1773.70   332.66  1776.20   332.66 " style="stroke-width: 1.42 ;&st7; " /><path d=" M 1776.20,  332.66  C 1778.71   332.66  1780.74   330.63  1780.74   328.13 " style="stroke-width: 1.42 ;&st7; " /><path d=" M 1746.74,  328.13  C 1746.74   325.63  1744.71   323.60  1742.21   323.60 " style="stroke-width: 1.42 ;&st7; " /><path d=" M 1742.21,  323.60  C 1739.71   323.60  1737.68   325.63  1737.68   328.13 " style="stroke-width: 1.42 ;&st7; " /><path d=" M 1737.68,  328.13  C 1737.68   330.63  1739.71   332.66  1742.21   332.66 " style="stroke-width: 1.42 ;&st7; " /><path d=" M 1742.21,  332.66  C 1744.71   332.66  1746.74   330.63  1746.74   328.13 " style="stroke-width: 1.42 ;&st7; " /><path d=" M 1712.75,  328.13  C 1712.75   325.63  1710.72   323.60  1708.21   323.60 " style="stroke-width: 1.42 ;&st7; " /><path d=" M 1708.21,  323.60  C 1705.71   323.60  1703.68   325.63  1703.68   328.13 " style="stroke-width: 1.42 ;&st7; " /><path d=" M 1703.68,  328.13  C 1703.68   330.63  1705.71   332.66  1708.21   332.66 " style="stroke-width: 1.42 ;&st7; " /><path d=" M 1708.21,  332.66  C 1710.72   332.66  1712.75   330.63  1712.75   328.13 " style="stroke-width: 1.42 ;&st7; " /><path d=" M 1831.73,   65.81  C 1831.73    63.30  1829.70    61.28  1827.19    61.28 " style="stroke-width: 1.42 ;&st7; " /><path d=" M 1827.19,   61.28  C 1824.69    61.28  1822.66    63.30  1822.66    65.81 " style="stroke-width: 1.42 ;&st7; " /><path d=" M 1822.66,   65.81  C 1822.66    68.31  1824.69    70.34  1827.19    70.34 " style="stroke-width: 1.42 ;&st7; " /><path d=" M 1827.19,   70.34  C 1829.70    70.34  1831.73    68.31  1831.73    65.81 " style="stroke-width: 1.42 ;&st7; " /><path d=" M 1916.71,   65.81  C 1916.71    63.30  1914.68    61.28  1912.18    61.28 " style="stroke-width: 1.42 ;&st7; " /><path d=" M 1912.18,   61.28  C 1909.68    61.28  1907.65    63.30  1907.65    65.81 " style="stroke-width: 1.42 ;&st7; " /><path d=" M 1907.65,   65.81  C 1907.65    68.31  1909.68    70.34  1912.18    70.34 " style="stroke-width: 1.42 ;&st7; " /><path d=" M 1912.18,   70.34  C 1914.68    70.34  1916.71    68.31  1916.71    65.81 " style="stroke-width: 1.42 ;&st7; " /><text style="&st18;" transform="matrix(&st16;  1773.68  16.48 )">E 4(A),E 5(B),E 7(D)</text><text ewd:textID="25" style="&st18;" transform="matrix(&st16;  1773.68  23.58 )">Engine ECU</text><text style="&st18;" transform="matrix(&st16;  1829.36  330.1 )">35</text><text style="&st18;" transform="matrix(&st16;  1841.86  330.1 )">A</text><text ewd:textID="28" style="&st18;" transform="matrix(&st17;  1527.46  242.27 )">Junction <tspan dy="6" x="0">Connector</tspan></text><text style="&st18;" transform="matrix(&st17;  1520.36  242.27 )">J 7</text><text style="&st18;" transform="matrix(&st17;  1500.55  204.26 )">G</text><text style="&st18;" transform="matrix(&st16;  1501.35  177.13 )">M</text><text style="&st18;" transform="matrix(&st17;  1500.55  263.75 )">G</text><text style="&st18;" transform="matrix(&st17;  1500.55  310.49 )">G</text><text style="&st18;" transform="matrix(&st17;  1749.85  194.55 )">(*1)</text><text style="&st18;" transform="matrix(&st17;  1741.32  488.73 )">P18</text><text ewd:textID="34" style="&st18;" transform="matrix(&st17;  1748.43  488.73 )">PTC Heater <tspan dy="6" x="0">Relay (No.1)</tspan></text><text style="&st18;" transform="matrix(&st17;  1664.83  488.73 )">P19</text><text style="&st18;" transform="matrix(&st16;  1752.88  525.0 )">L-B</text><text style="&st18;" transform="matrix(&st16;  1705.66  382.22 )">(*1)</text><text style="&st18;" transform="matrix(&st17;  1721.52  642.63 )">W-B</text><text style="&st18;" transform="matrix(&st16;  1638.65  611.69 )">1</text><text style="&st18;" transform="matrix(&st16;  1646.39  611.69 )">A</text><text ewd:textID="35" style="&st18;" transform="matrix(&st17;  1671.94  488.73 )">PTC Heater <tspan dy="6" x="0">Relay (No.2)</tspan></text><text style="&st18;" transform="matrix(&st16;  1714.36  611.69 )">2</text><text style="&st18;" transform="matrix(&st16;  1688.84  382.22 )">3</text><text style="&st18;" transform="matrix(&st16;  1697.38  382.22 )">A</text><text style="&st18;" transform="matrix(&st16;  1612.35  382.22 )">2</text><text style="&st18;" transform="matrix(&st16;  1620.9  382.22 )">A</text><text style="&st18;" transform="matrix(&st17;  1721.52  518.52 )">R-B</text><text style="&st18;" transform="matrix(&st17;  1696.02  434.56 )">R-W</text><text style="&st18;" transform="matrix(&st16;  1658.02  508.0 )">W-B</text><text style="&st18;" transform="matrix(&st16;  1768.86  431.52 )">L-W</text><text style="&st18;" transform="matrix(&st16;  1770.41  442.85 )">(*1)</text><text style="&st18;" transform="matrix(&st17;  1645.03  539.17 )">L</text><text style="&st18;" transform="matrix(&st17;  1645.03  433.53 )">B-R</text><text style="&st18;" transform="matrix(&st17;  1619.53  431.94 )">GR</text><text style="&st18;" transform="matrix(&st17;  1645.03  642.63 )">W-B</text><text style="&st18;" transform="matrix(&st17;  1781.01  642.63 )">W-B</text><text style="&st18;" transform="matrix(&st16;  1982.33  339.16 )">25</text><text style="&st18;" transform="matrix(&st16;  1841.86  339.16 )">B</text><text style="&st18;" transform="matrix(&st16;  1830.14  339.16 )">14</text><text style="&st18;" transform="matrix(&st16;  1914.34  330.1 )">39</text><text style="&st18;" transform="matrix(&st16;  1926.85  330.1 )">A</text><text style="&st18;" transform="matrix(&st16;  1926.85  339.16 )">B</text><text style="&st18;" transform="matrix(&st16;  1918.3  339.16 )">2</text><text style="&st18;" transform="matrix(&st16;  1501.92  186.76 )">B</text><text style="&st18;" transform="matrix(&st16;  1501.92  330.1 )">A</text><text style="&st18;" transform="matrix(&st17;  1511.88  207.29 )">(*1)</text><text style="&st18;" transform="matrix(&st17;  1715.85  152.05 )">(*1)</text><text style="&st18;" transform="matrix(&st17;  1511.88  313.53 )">(*1)</text><text style="&st18;" transform="matrix(&st17;  1908.49  161.22 )">R-L</text><text style="&st18;" transform="matrix(&st17;  1823.5  157.09 )">Y</text><text style="&st18;" transform="matrix(&st16;  1922.25  349.36 )">ACT</text><text style="&st18;" transform="matrix(&st16;  1837.8  349.36 )">AC1</text><text style="&st18;" transform="matrix(&st17;  1840.5  284.57 )">Y</text><text style="&st18;" transform="matrix(&st17;  1925.48  288.7 )">R-L</text><text style="&st18;" transform="matrix(&st17;  1936.81  288.42 )">(*5)</text><text style="&st18;" transform="matrix(&st17;  1851.83  288.42 )">(*5)</text><text style="&st18;" transform="matrix(&st16;  1510.22  330.1 )">(*1)</text><text ewd:textID="33" style="&st18;" transform="matrix(&st17;  1756.93  607.71 )">PTC Heater</text><text style="&st18;" transform="matrix(&st17;  1749.82  607.71 )">P16(A),P17(B)</text><text style="&st18;" transform="matrix(&st16;  1614.33  372.03 )">PTC2</text><text style="&st18;" transform="matrix(&st16;  1691.2  372.03 )">PTC1</text><text style="&st18;" transform="matrix(&st16;  1714.34  560.13 )">2</text><text style="&st18;" transform="matrix(&st16;  1722.88  560.13 )">B</text><text style="&st18;" transform="matrix(&st16;  1638.62  560.13 )">1</text><text style="&st18;" transform="matrix(&st16;  1646.39  560.13 )">B</text><text style="&st18;" transform="matrix(&st16;  1718.42  448.52 )">3</text><text style="&st18;" transform="matrix(&st16;  1692.92  448.52 )">2</text><text style="&st18;" transform="matrix(&st16;  1718.42  494.4 )">5</text><text style="&st18;" transform="matrix(&st16;  1693.7  494.4 )">1</text><text style="&st18;" transform="matrix(&st16;  1641.93  448.52 )">3</text><text style="&st18;" transform="matrix(&st16;  1616.43  448.52 )">2</text><text style="&st18;" transform="matrix(&st16;  1641.94  494.4 )">5</text><text style="&st18;" transform="matrix(&st16;  1617.22  494.4 )">1</text><text ewd:textID="28" style="&st18;" transform="matrix(&st17;  1807.92  590.71 )">Junction <tspan dy="6" x="0">Connector</tspan></text><text style="&st18;" transform="matrix(&st16;  1773.85  594.69 )">4</text><text style="&st18;" transform="matrix(&st16;  1782.37  594.69 )">B</text><text style="&st18;" transform="matrix(&st17;  1800.81  590.71 )">J28(A),J29(B)</text><text style="&st18;" transform="matrix(&st16;  1722.88  611.69 )">A</text><text style="&st18;" transform="matrix(&st16;  1782.37  560.13 )">A</text><text style="&st18;" transform="matrix(&st16;  1773.85  560.13 )">5</text><text style="&st18;" transform="matrix(&st16;  1659.93  519.33 )">(*1)</text><text style="&st18;" transform="matrix(&st17;  1792.34  640.72 )">(*1)</text><text style="&st18;" transform="matrix(&st16;  1753.41  536.33 )">(*1)</text><text style="&st18;" transform="matrix(&st16;  1994.84  339.16 )">B</text><text style="&st18;" transform="matrix(&st16;  1994.69  382.22 )">D</text><text style="&st18;" transform="matrix(&st16;  1982.33  382.22 )">34</text><text style="&st18;" transform="matrix(&st16;  1994.84  475.14 )">B</text><text style="&st18;" transform="matrix(&st16;  1986.29  475.14 )">6</text><text style="&st18;" transform="matrix(&st16;  1994.84  509.7 )">A</text><text style="&st18;" transform="matrix(&st16;  1987.07  509.7 )">1</text><text style="&st18;" transform="matrix(&st16;  1990.37  559.0 )">2</text><text style="&st18;" transform="matrix(&st16;  1990.38  604.88 )">3</text><text style="&st18;" transform="matrix(&st17;  1993.47  454.96 )">G</text><text style="&st18;" transform="matrix(&st16;  1939.99  629.82 )">(*3)</text><text style="&st18;" transform="matrix(&st17;  1993.47  535.28 )">Y</text><text style="&st18;" transform="matrix(&st16;  1938.47  618.48 )">W-B</text><text style="&st18;" transform="matrix(&st16;  1994.84  592.99 )">E</text><text style="&st18;" transform="matrix(&st17;  1993.47  314.2 )">R-L</text><text ewd:textID="28" style="&st18;" transform="matrix(&st17;  1868.54  650.2 )">Junction <tspan dy="6" x="0">Connector</tspan></text><text style="&st18;" transform="matrix(&st17;  1861.43  650.2 )">J 8</text><text ewd:textID="1" style="&st18;" transform="matrix(&st17;  1882.99  612.69 )">(Shielded)</text><text style="&st18;" transform="matrix(&st17;  1894.32  602.87 )">(*3)</text><text style="&st18;" transform="matrix(&st16;  1990.35  570.33 )">NE-</text><text style="&st18;" transform="matrix(&st17;  1882.99  669.48 )">BR</text><text style="&st18;" transform="matrix(&st17;  1894.32  670.86 )">(*3)</text><text style="&st18;" transform="matrix(&st17;  1834.83  160.94 )">(*4)</text><text style="&st18;" transform="matrix(&st16;  1935.15  330.1 )">(*1)</text><text style="&st18;" transform="matrix(&st17;  1919.82  160.94 )">(*4)</text><text style="&st18;" transform="matrix(&st16;  1935.15  339.16 )">(*2)</text><text style="&st18;" transform="matrix(&st16;  1820.8  57.58 )">AC1</text><text style="&st18;" transform="matrix(&st16;  1824.86  67.78 )">B</text><text style="&st18;" transform="matrix(&st17;  1738.51  191.08 )">P</text><text style="&st18;" transform="matrix(&st17;  1704.52  153.61 )">L-W</text><text style="&st18;" transform="matrix(&st16;  1736.73  349.36 )">TW</text><text style="&st18;" transform="matrix(&st16;  1698.82  349.36 )">PTCR</text><text style="&st18;" transform="matrix(&st16;  1731.51  57.58 )">THWO</text><text style="&st18;" transform="matrix(&st16;  1700.06  57.58 )">HSW</text><text style="&st18;" transform="matrix(&st16;  1731.33  67.78 )">2</text><text style="&st18;" transform="matrix(&st16;  1705.88  67.78 )">B</text><text style="&st18;" transform="matrix(&st16;  1693.38  67.78 )">20</text><text style="&st18;" transform="matrix(&st16;  1739.88  67.78 )">A</text><text style="&st18;" transform="matrix(&st17;  1772.51  196.45 )">B-W</text><text style="&st18;" transform="matrix(&st16;  1766.52  349.36 )">TACO</text><text style="&st18;" transform="matrix(&st16;  1766.81  57.58 )">TACH</text><text style="&st18;" transform="matrix(&st16;  1773.87  67.78 )">A</text><text style="&st18;" transform="matrix(&st16;  1726.34  118.49 )">16</text><text style="&st18;" transform="matrix(&st16;  1737.48  118.49 )">2Q</text><text style="&st18;" transform="matrix(&st16;  1771.75  118.49 )">2N</text><text style="&st18;" transform="matrix(&st16;  1763.51  118.49 )">6</text><text style="&st18;" transform="matrix(&st16;  1737.9  169.48 )">2P</text><text style="&st18;" transform="matrix(&st16;  1725.56  169.48 )">32</text><text style="&st18;" transform="matrix(&st16;  1771.75  169.48 )">2N</text><text style="&st18;" transform="matrix(&st16;  1759.56  169.48 )">22</text><text style="&st18;" transform="matrix(&st17;  1738.51  89.1 )">P</text><text style="&st18;" transform="matrix(&st17;  1772.51  94.47 )">B-W</text><text style="&st18;" transform="matrix(&st16;  1765.33  67.78 )">4</text><text style="&st18;" transform="matrix(&st16;  1773.87  330.1 )">A</text><text style="&st18;" transform="matrix(&st16;  1761.4  330.1 )">33</text><text style="&st18;" transform="matrix(&st16;  1739.88  330.1 )">A</text><text style="&st18;" transform="matrix(&st16;  1727.4  330.1 )">32</text><text style="&st18;" transform="matrix(&st16;  1705.88  330.1 )">A</text><text style="&st18;" transform="matrix(&st16;  1693.41  330.1 )">26</text><text style="&st18;" transform="matrix(&st16;  1898.12  67.78 )">19</text><text style="&st18;" transform="matrix(&st16;  1905.26  57.58 )">ACT</text><text style="&st18;" transform="matrix(&st16;  1813.14  67.78 )">18</text><text style="&st18;" transform="matrix(&st16;  1909.85  67.78 )">B</text><text style="&st18;" transform="matrix(&st17;  1707.35  432.51 )">(*1)</text><text style="&st18;" transform="matrix(&st17;  1656.36  432.51 )">(*1)</text><text style="&st18;" transform="matrix(&st17;  1630.86  432.51 )">(*1)</text><text style="&st18;" transform="matrix(&st17;  1732.85  517.49 )">(*1)</text><text style="&st18;" transform="matrix(&st17;  1732.85  640.72 )">(*1)</text><text style="&st18;" transform="matrix(&st17;  1656.36  640.72 )">(*1)</text><text style="&st18;" transform="matrix(&st17;  1656.36  542.99 )">(*1)</text><text style="&st18;" transform="matrix(&st16;  1646.39  570.33 )">B</text><text style="&st18;" transform="matrix(&st16;  1722.88  570.33 )">B</text><text style="&st18;" transform="matrix(&st16;  1646.39  601.49 )">E</text><text style="&st18;" transform="matrix(&st16;  1722.88  601.49 )">E</text><text style="&st18;" transform="matrix(&st17;  1511.88  266.78 )">(*1)</text><text style="&st18;" transform="matrix(&st17;  1783.84  194.55 )">(*1)</text><text ewd:textID="16" style="&st18;" transform="matrix(&st16;  1756.68  390.44 )">A/C Amplifier</text><text style="&st18;" transform="matrix(&st16;  1756.68  383.33 )">A14(B),A33(A)</text><text style="&st18;" transform="matrix(&st16;  1990.24  349.36 )">ACT</text><text style="&st18;" transform="matrix(&st16;  1880.67  626.99 )">1</text><text ewd:textID="1" style="&st18;" transform="matrix(&st16;  1930.17  516.5 )">(Shielded)</text><text style="&st18;" transform="matrix(&st16;  1939.99  527.83 )">(*3)</text><text style="&st18;" transform="matrix(&st16;  1990.35  372.03 )">NE-</text><text style="&st18;" transform="matrix(&st16;  1879.9  655.87 )">7</text><text ewd:textID="28" style="&st18;" transform="matrix(&st17;  1979.02  505.73 )">Junction <tspan dy="6" x="-0.01">Connector</tspan></text><text style="&st18;" transform="matrix(&st17;  1971.92  505.73 )">J13(A),J14(B)</text><text style="&st18;" transform="matrix(&st17;  1749.85  92.56 )">(*1)</text><text style="&st18;" transform="matrix(&st17;  1783.84  92.56 )">(*1)</text></svg>