﻿<?xml version="1.0" encoding="utf-8"?>
<!DOCTYPE svg PUBLIC "-//W3C//DTD SVG 1.0//EN" "http://www.w3.org/TR/2001/REC-SVG-20010904/DTD/svg10.dtd"[
	<!ENTITY ns_flows "http://ns.adobe.com/Flows/1.0/">
	<!ENTITY ns_svg "http://www.w3.org/2000/svg">
	<!ENTITY ns_xlink "http://www.w3.org/1999/xlink">
	<!ENTITY st0 "font-size:7px;font-family:'MS-PGothic';adobe-font-script:japanese;">
	<!ENTITY st1 "font-size:6px;font-family:'ArialMT';">
	<!-- White fill  -->
	<!ENTITY st2 "fill:#FFFFFF;stroke:#000000; stroke-width:1.41;stroke-linecap:round;stroke-linejoin:round;">
	<!-- Yellow fill  -->
	<!ENTITY st3 "fill:#FFFFCC;stroke:#FFFFCC; stroke-width:0.1;stroke-linecap:round;stroke-linejoin:round;">
	<!-- Gray fill  -->
	<!ENTITY st4 "fill:#CCCCCC;stroke:#CCCCCC; stroke-width:0.1;stroke-linecap:round;stroke-linejoin:round;">
	<!-- Light-blue fill -->
	<!ENTITY st5 "fill:#CCECF4;stroke:#000000; stroke-width:1.133;stroke-linecap:round;stroke-linejoin:round;">
	<!ENTITY st6 "fill:none;stroke-linecap:butt; stroke-linejoin:round;">
	<!ENTITY st7 "fill:none;stroke:#000000;stroke-linecap:round;stroke-linejoin:round;">
	<!ENTITY st8 "enable-background:new    ;">
	<!-- Black fill -->
	<!ENTITY st9 "fill:#000000;stroke:#000000; stroke-linecap:round;stroke-linejoin:round;">
	<!-- SRS note   -->
	<!ENTITY st10 "font-size:9px;font-family:'ArialMT';">
	<!ENTITY st11 "font-size:9px;font-family:'Svg Symbol';">
	<!ENTITY st12 "font-size:6px;font-family:'Svg Symbol';">
	<!ENTITY st13 "fill:none;stroke:#ff0000;stroke-linecap:round;stroke-linejoin:round;">
	<!-- Yellow fill  -->
	<!ENTITY st14 "fill:#FFFF00;stroke:#FFFF00; stroke-width:0.1;stroke-linecap:round;stroke-linejoin:round;">
	<!ENTITY st15 "font-size:6px;font-family:'MS-PGothic';adobe-font-script:japanese;">
	<!ENTITY st16 "1.00 0.00 0.00 1.00">
	<!ENTITY st17 "0.00 -1.00 1.00 0.00">
	<!ENTITY st18 "font-size:6px;font-family:'Arial';">
	<!ENTITY st19 "font-size:9px;font-family:'Arial';">
	<!ENTITY st20 "font-size:6px;font-family:'MS-PGothic','MS PGothic';adobe-font-script:japanese;">
	<!ENTITY st21 "font-size:7px;font-family:'MS-PGothic','MS PGothic';adobe-font-script:japanese;">
	<!ATTLIST svg
		xmlns:ewd CDATA #FIXED "http://shcl.co.jp/ewd"
		xmlns:a CDATA #FIXED "http://ns.adobe.com/AdobeSVGViewerExtensions/3.0/"
		ewd:ver CDATA #IMPLIED
	>
	<!ATTLIST a
		ewd:lineID CDATA #IMPLIED
		ewd:groupID CDATA #IMPLIED
		ewd:figtype CDATA #IMPLIED
		ewd:code CDATA #IMPLIED
		ewd:figID CDATA #IMPLIED
		ewd:pinNo CDATA #IMPLIED
		ewd:comment CDATA #IMPLIED >
	<!ATTLIST g
		ewd:lineID CDATA #IMPLIED
		ewd:groupID CDATA #IMPLIED
		ewd:figtype CDATA #IMPLIED
		ewd:code CDATA #IMPLIED
		ewd:figID CDATA #IMPLIED
		ewd:pinNo CDATA #IMPLIED
		ewd:comment CDATA #IMPLIED >
	<!ATTLIST text
		ewd:textID CDATA #IMPLIED >
	<!ATTLIST title
		ewd:textID CDATA #IMPLIED >
]>
<!-- Generator: Shintec Hozumi YS   -->
<svg onload="call_execInitLoadProc_svg('system')" style="overflow:visible;  enable-background:new 0 0 1547.267 710.000" viewBox="0 0 1547.267 710.000" height="710.000" width="1547.267" xml:space="preserve" ewd:ver="L2.1.2.7" xmlns="&ns_svg;" xmlns:a="http://ns.adobe.com/AdobeSVGViewerExtensions/3.0/" xmlns:ewd="http://shcl.co.jp/ewd" xmlns:xlink="&ns_xlink;">
<path d=" M  274.08,  231.25  L  269.83,  231.25 " style="stroke-width: 1.42 ;&st7; " /><path d=" M  274.08,  239.75  L  269.83,  239.75 " style="stroke-width: 1.42 ;&st7; " /><path d=" M  274.08,  154.76  L  269.83,  154.76 " style="stroke-width: 1.42 ;&st7; " /><path d=" M  274.08,  146.26  L  269.83,  146.26 " style="stroke-width: 1.42 ;&st7; " /><path d=" M  271.95,  205.75  L  271.95,  231.25 " style="stroke-width: 0.85 ;&st7; " /><path d=" M  274.08,  290.74  L  269.83,  290.74 " style="stroke-width: 1.42 ;&st7; " /><path d=" M  274.08,  299.24  L  269.83,  299.24 " style="stroke-width: 1.42 ;&st7; " /><path d=" M  407.93,  171.76  L  399.43,  171.76 " style="stroke-width: 1.42 ;&st7; " /><path d=" M  186.97,  178.84  L  192.63,  201.50 " style="stroke-width: 1.42 ;&st7; " /><path d=" M  186.97,  205.75  L  186.97,  201.50 " style="stroke-width: 0.85 ;&st7; " /><path d=" M  186.97,  171.76  L  186.97,  176.01 " style="stroke-width: 0.85 ;&st7; " /><path d=" M  161.47,  171.76  L  161.47,  180.26 " style="stroke-width: 0.85 ;&st7; " /><path d=" M  161.47,  197.25  L  161.47,  205.75 " style="stroke-width: 0.85 ;&st7; " /><path d=" M   84.99,   69.77  L   84.99,   78.27 " style="stroke-width: 0.85 ;&st7; " /><path d=" M  186.97,   69.77  L  186.97,   78.27 " style="stroke-width: 0.85 ;&st7; " /><path d=" M  189.09,   95.27  L  184.84,   95.27 " style="stroke-width: 1.42 ;&st7; " /><path d=" M  163.60,  154.76  L  159.35,  154.76 " style="stroke-width: 1.42 ;&st7; " /><path d=" M  189.09,  231.25  L  184.84,  231.25 " style="stroke-width: 1.42 ;&st7; " /><path d=" M  189.09,  103.77  L  184.84,  103.77 " style="stroke-width: 1.42 ;&st7; " /><path d=" M  189.09,  350.23  L  184.84,  350.23 " style="stroke-width: 1.42 ;&st7; " /><path d=" M  163.60,  146.26  L  159.35,  146.26 " style="stroke-width: 1.42 ;&st7; " /><path d=" M  189.09,  154.76  L  184.84,  154.76 " style="stroke-width: 1.42 ;&st7; " /><path d=" M  189.09,  358.73  L  184.84,  358.73 " style="stroke-width: 1.42 ;&st7; " /><path d=" M  163.60,  222.75  L  159.35,  222.75 " style="stroke-width: 1.42 ;&st7; " /><path d=" M  163.60,  231.25  L  159.35,  231.25 " style="stroke-width: 1.42 ;&st7; " /><path d=" M  189.09,  222.75  L  184.84,  222.75 " style="stroke-width: 1.42 ;&st7; " /><path d=" M  189.09,  273.74  L  184.84,  273.74 " style="stroke-width: 1.42 ;&st7; " /><path d=" M  189.09,  146.26  L  184.84,  146.26 " style="stroke-width: 1.42 ;&st7; " /><path d=" M  189.09,  265.24  L  184.84,  265.24 " style="stroke-width: 1.42 ;&st7; " /><path d=" M  186.97,  324.73  L  186.97,  350.23 " style="stroke-width: 0.85 ;&st7; " /><path d=" M   87.11,   95.27  L   82.86,   95.27 " style="stroke-width: 1.42 ;&st7; " /><path d=" M   87.11,  103.77  L   82.86,  103.77 " style="stroke-width: 1.42 ;&st7; " /><path d=" M  186.97,  299.24  L  186.97,  290.74 " style="stroke-width: 0.85 ;&st7; " /><path d=" M  373.94,   78.27  L  373.94,   27.28  L 1512.75,   27.28  L 1512.75,   78.27  L  373.94,   78.27 " style="stroke-width: 1.42 ;&st7; " /><path d=" M  199.72,   78.27  L  199.72,   35.78  L  174.22,   35.78  L  174.22,   78.27  L  199.72,   78.27 " style="stroke-width: 1.42 ;&st7; " /><path d=" M   84.99,  171.76  L   84.99,  197.25 " style="stroke-width: 0.85 ;&st7; " /><path d=" M   76.49,  188.75  L   93.48,  188.75 " style="stroke-width: 1.13 ;&st7;stroke-dasharray:3, 1.5;" /><path d=" M   76.49,  180.26  L   93.48,  180.26 " style="stroke-width: 1.13 ;&st7;stroke-dasharray:3, 1.5;" /><path d=" M   76.49,  171.76  L   76.49,  197.25  L   93.48,  197.25  L   93.48,  171.76  L   76.49,  171.76 " style="stroke-width: 1.42 ;&st7; " /><path d=" M   97.73,   78.27  L   97.73,   35.78  L   72.24,   35.78  L   72.24,   78.27  L   97.73,   78.27 " style="stroke-width: 1.42 ;&st7; " /><path d=" M  186.97,   90.37  L  184.14,   87.54  L  184.14,   91.79  L  186.97,   94.62  L  189.80,   91.79  L  189.80,   87.54  L  186.97,   90.37 " style="stroke-width: 0.28 ;&st9;" /><path d=" M  186.97,  159.65  L  189.80,  162.49  L  189.80,  158.24  L  186.97,  155.41  L  184.14,  158.24  L  184.14,  162.49  L  186.97,  159.65 " style="stroke-width: 0.28 ;&st9;" /><path d=" M  161.47,  159.65  L  164.31,  162.49  L  164.31,  158.24  L  161.47,  155.41  L  158.64,  158.24  L  158.64,  162.49  L  161.47,  159.65 " style="stroke-width: 0.28 ;&st9;" /><path d=" M  186.97,  278.63  L  189.80,  281.47  L  189.80,  277.22  L  186.97,  274.39  L  184.14,  277.22  L  184.14,  281.47  L  186.97,  278.63 " style="stroke-width: 0.28 ;&st9;" /><path d=" M  161.47,  217.85  L  158.64,  215.02  L  158.64,  219.27  L  161.47,  222.10  L  164.31,  219.27  L  164.31,  215.02  L  161.47,  217.85 " style="stroke-width: 0.28 ;&st9;" /><path d=" M  161.47,  154.76  L  161.47,  171.76 " style="stroke-width: 0.85 ;&st7; " /><path d=" M  186.97,  290.74  L  186.97,  273.74 " style="stroke-width: 0.85 ;&st7; " /><path d=" M  174.22,  290.74  L  174.22,  333.23  L  199.72,  333.23  L  199.72,  290.74  L  174.22,  290.74 " style="stroke-width: 1.42 ;&st7; " /><path d=" M  186.97,  154.76  L  186.97,  171.76 " style="stroke-width: 0.85 ;&st7; " /><path d=" M  186.97,  222.75  L  186.97,  205.75 " style="stroke-width: 0.85 ;&st7; " /><path d=" M  186.97,  345.33  L  184.14,  342.50  L  184.14,  346.75  L  186.97,  349.58  L  189.80,  346.75  L  189.80,  342.50  L  186.97,  345.33 " style="stroke-width: 0.28 ;&st9;" /><path d=" M  186.97,  217.85  L  184.14,  215.02  L  184.14,  219.27  L  186.97,  222.10  L  189.80,  219.27  L  189.80,  215.02  L  186.97,  217.85 " style="stroke-width: 0.28 ;&st9;" /><path d=" M  161.47,  222.75  L  161.47,  205.75 " style="stroke-width: 0.85 ;&st7; " /><path d=" M  186.97,   78.27  L  186.97,   95.27 " style="stroke-width: 0.85 ;&st7; " /><path d=" M   84.99,   90.37  L   82.15,   87.54  L   82.15,   91.79  L   84.99,   94.62  L   87.82,   91.79  L   87.82,   87.54  L   84.99,   90.37 " style="stroke-width: 0.28 ;&st9;" /><path d=" M   84.99,   78.27  L   84.99,   95.27 " style="stroke-width: 0.85 ;&st7; " /><path d=" M  271.95,  180.26  L  271.95,  171.76 " style="stroke-width: 0.85 ;&st7; " /><path d=" M  271.95,  159.65  L  274.79,  162.49  L  274.79,  158.24  L  271.95,  155.41  L  269.12,  158.24  L  269.12,  162.49  L  271.95,  159.65 " style="stroke-width: 0.28 ;&st9;" /><path d=" M  271.95,  171.76  L  271.95,  154.76 " style="stroke-width: 0.85 ;&st7; " /><path d=" M  259.21,  171.76  L  259.21,  214.25  L  284.70,  214.25  L  284.70,  171.76  L  259.21,  171.76 " style="stroke-width: 1.42 ;&st7; " /><path d=" M  271.95,  226.35  L  269.12,  223.52  L  269.12,  227.77  L  271.95,  230.60  L  274.79,  227.77  L  274.79,  223.52  L  271.95,  226.35 " style="stroke-width: 0.28 ;&st9;" /><path d=" M  271.95,  304.13  L  274.79,  306.96  L  274.79,  302.71  L  271.95,  299.88  L  269.12,  302.71  L  269.12,  306.96  L  271.95,  304.13 " style="stroke-width: 0.28 ;&st9;" /><path d=" M  254.96,  316.23  L  254.96,  350.23  L  288.95,  350.23  L  288.95,  316.23  L  254.96,  316.23 " style="stroke-width: 1.42 ;&st7; " /><path d=" M  271.95,  316.23  L  271.95,  299.24 " style="stroke-width: 0.85 ;&st7; " /><path d=" M  399.43,   87.34  L  399.43,   78.27 " style="stroke-width: 0.85 ;&st7; " /><path d=" M  118.98,  701.50  L  135.98,  701.50 " style="stroke-width: 0.85 ;&st7; " /><path d=" M  127.48,  697.25  L  127.48,  701.50 " style="stroke-width: 0.85 ;&st7; " /><path d=" M  123.23,  704.33  L  131.73,  704.33 " style="stroke-width: 0.85 ;&st7; " /><path d=" M  124.65,  707.17  L  130.31,  707.17 " style="stroke-width: 0.85 ;&st7; " /><path d=" M  126.06,  710.00  L  128.90,  710.00 " style="stroke-width: 0.85 ;&st7; " /><path d=" M  118.98,  656.18  L  118.98,  673.17  L  135.98,  673.17  L  135.98,  656.18  L  118.98,  656.18 " style="stroke-width: 1.42 ;&st7; " /><path d=" M  127.48,  681.67  L  127.48,  656.18 " style="stroke-width: 0.85 ;&st7; " /><path d=" M  403.68,  177.42  L  399.43,  173.17  L  395.18,  177.42 " style="stroke-width: 1.42 ;&st7; " /><path d=" M  403.68,  180.82  L  399.43,  176.57  L  395.18,  180.82 " style="stroke-width: 1.42 ;&st7; " /><path d=" M  195.47,  171.76  L  152.97,  171.76  L  152.97,  205.75  L  195.47,  205.75  L  195.47,  171.76 " style="stroke-width: 1.42 ;&st7; " /><path d=" M  167.85,  227.00  C  167.85   224.65   165.94   222.75   163.60   222.75 " style="stroke-width: 1.42 ;&st7; " /><path d=" M  155.10,  150.51  C  155.10   152.86   157.00   154.76   159.35   154.76 " style="stroke-width: 1.42 ;&st7; " /><path d=" M  186.97,  302.07  C  186.12   304.99   186.78   307.88   188.81   310.14 " style="stroke-width: 1.42 ;&st7; " /><path d=" M  186.97,  302.07  C  184.80   305.09   184.80   308.96   186.97   311.98 " style="stroke-width: 1.42 ;&st7; " /><path d=" M  186.97,  302.07  C  183.25   304.84   182.43   310.05   185.13   313.82 " style="stroke-width: 1.42 ;&st7; " /><path d=" M  186.97,  321.90  C  190.69   319.13   191.50   313.91   188.81   310.14 " style="stroke-width: 1.42 ;&st7; " /><path d=" M  186.97,  321.90  C  189.14   318.87   189.14   315.01   186.97   311.98 " style="stroke-width: 1.42 ;&st7; " /><path d=" M  186.97,  321.90  C  187.82   318.98   187.16   316.08   185.13   313.83 " style="stroke-width: 1.42 ;&st7; " /><path d=" M  188.39,  300.65  C  188.39   299.87   187.75   299.24   186.97   299.24 " style="stroke-width: 0.85 ;&st7; " /><path d=" M  186.97,  299.24  C  186.19   299.24   185.55   299.87   185.55   300.65 " style="stroke-width: 0.85 ;&st7; " /><path d=" M  185.55,  300.65  C  185.55   301.43   186.19   302.07   186.97   302.07 " style="stroke-width: 0.85 ;&st7; " /><path d=" M  186.97,  302.07  C  187.75   302.07   188.39   301.43   188.39   300.65 " style="stroke-width: 0.85 ;&st7; " /><path d=" M  188.39,  323.31  C  188.39   322.53   187.75   321.90   186.97   321.90 " style="stroke-width: 0.85 ;&st7; " /><path d=" M  186.97,  321.90  C  186.19   321.90   185.55   322.53   185.55   323.31 " style="stroke-width: 0.85 ;&st7; " /><path d=" M  185.55,  323.31  C  185.55   324.10   186.19   324.73   186.97   324.73 " style="stroke-width: 0.85 ;&st7; " /><path d=" M  186.97,  324.73  C  187.75   324.73   188.39   324.10   188.39   323.31 " style="stroke-width: 0.85 ;&st7; " /><path d=" M  193.34,  354.48  C  193.34   352.13   191.44   350.23   189.09   350.23 " style="stroke-width: 1.42 ;&st7; " /><path d=" M  189.09,  358.73  C  191.44   358.73   193.34   356.82   193.34   354.48 " style="stroke-width: 1.42 ;&st7; " /><path d=" M   82.86,   95.27  C   80.51    95.27    78.61    97.17    78.61    99.52 " style="stroke-width: 1.42 ;&st7; " /><path d=" M   78.61,   99.52  C   78.61   101.87    80.51   103.77    82.86   103.77 " style="stroke-width: 1.42 ;&st7; " /><path d=" M   87.11,  103.77  C   89.46   103.77    91.36   101.87    91.36    99.52 " style="stroke-width: 1.42 ;&st7; " /><path d=" M   91.36,   99.52  C   91.36    97.17    89.46    95.27    87.11    95.27 " style="stroke-width: 1.42 ;&st7; " /><path d=" M  186.97,   47.11  C  186.12    50.03   186.78    52.92   188.81    55.18 " style="stroke-width: 1.42 ;&st7; " /><path d=" M  186.97,   47.11  C  184.80    50.13   184.80    54.00   186.97    57.03 " style="stroke-width: 1.42 ;&st7; " /><path d=" M  186.97,   47.11  C  183.25    49.88   182.43    55.10   185.13    58.87 " style="stroke-width: 1.42 ;&st7; " /><path d=" M  186.97,   66.94  C  190.69    64.17   191.50    58.96   188.81    55.19 " style="stroke-width: 1.42 ;&st7; " /><path d=" M  186.97,   66.94  C  189.14    63.92   189.14    60.05   186.97    57.03 " style="stroke-width: 1.42 ;&st7; " /><path d=" M  186.97,   66.94  C  187.82    64.02   187.16    61.13   185.13    58.87 " style="stroke-width: 1.42 ;&st7; " /><path d=" M   84.99,   47.11  C   82.25    48.72    81.34    52.25    82.95    54.99 " style="stroke-width: 1.42 ;&st7; " /><path d=" M   82.95,   54.99  C   83.47    55.87    84.10    56.51    84.99    57.03 " style="stroke-width: 1.42 ;&st7; " /><path d=" M   84.99,   66.94  C   87.72    65.33    88.64    61.80    87.02    59.06 " style="stroke-width: 1.42 ;&st7; " /><path d=" M   87.02,   59.06  C   86.50    58.18    85.87    57.55    84.99    57.03 " style="stroke-width: 1.42 ;&st7; " /><path d=" M   86.40,   45.69  C   86.40    44.91    85.77    44.28    84.99    44.28 " style="stroke-width: 0.85 ;&st7; " /><path d=" M   84.99,   44.28  C   84.20    44.28    83.57    44.91    83.57    45.69 " style="stroke-width: 0.85 ;&st7; " /><path d=" M   83.57,   45.69  C   83.57    46.48    84.20    47.11    84.99    47.11 " style="stroke-width: 0.85 ;&st7; " /><path d=" M   84.99,   47.11  C   85.77    47.11    86.40    46.48    86.40    45.69 " style="stroke-width: 0.85 ;&st7; " /><path d=" M   86.40,   68.36  C   86.40    67.57    85.77    66.94    84.99    66.94 " style="stroke-width: 0.85 ;&st7; " /><path d=" M   84.99,   66.94  C   84.20    66.94    83.57    67.57    83.57    68.36 " style="stroke-width: 0.85 ;&st7; " /><path d=" M   83.57,   68.36  C   83.57    69.14    84.20    69.77    84.99    69.77 " style="stroke-width: 0.85 ;&st7; " /><path d=" M   84.99,   69.77  C   85.77    69.77    86.40    69.14    86.40    68.36 " style="stroke-width: 0.85 ;&st7; " /><path d=" M  265.58,  235.50  C  265.58   237.84   267.48   239.75   269.83   239.75 " style="stroke-width: 1.42 ;&st7; " /><path d=" M  269.83,  231.25  C  267.48   231.25   265.58   233.15   265.58   235.50 " style="stroke-width: 1.42 ;&st7; " /><path d=" M  278.33,  150.51  C  278.33   148.16   276.43   146.26   274.08   146.26 " style="stroke-width: 1.42 ;&st7; " /><path d=" M  274.08,  154.76  C  276.43   154.76   278.33   152.86   278.33   150.51 " style="stroke-width: 1.42 ;&st7; " /><path d=" M  265.58,  150.51  C  265.58   152.86   267.48   154.76   269.83   154.76 " style="stroke-width: 1.42 ;&st7; " /><path d=" M  269.83,  146.26  C  267.48   146.26   265.58   148.16   265.58   150.51 " style="stroke-width: 1.42 ;&st7; " /><path d=" M  273.37,  181.67  C  273.37   180.89   272.74   180.26   271.95   180.26 " style="stroke-width: 0.85 ;&st7; " /><path d=" M  271.95,  180.26  C  271.17   180.26   270.54   180.89   270.54   181.67 " style="stroke-width: 0.85 ;&st7; " /><path d=" M  270.54,  181.67  C  270.54   182.45   271.17   183.09   271.95   183.09 " style="stroke-width: 0.85 ;&st7; " /><path d=" M  271.95,  183.09  C  272.74   183.09   273.37   182.45   273.37   181.67 " style="stroke-width: 0.85 ;&st7; " /><path d=" M  273.37,  204.33  C  273.37   203.55   272.74   202.92   271.95   202.92 " style="stroke-width: 0.85 ;&st7; " /><path d=" M  271.95,  202.92  C  271.17   202.92   270.54   203.55   270.54   204.33 " style="stroke-width: 0.85 ;&st7; " /><path d=" M  270.54,  204.33  C  270.54   205.12   271.17   205.75   271.95   205.75 " style="stroke-width: 0.85 ;&st7; " /><path d=" M  271.95,  205.75  C  272.74   205.75   273.37   205.12   273.37   204.33 " style="stroke-width: 0.85 ;&st7; " /><path d=" M  278.33,  235.50  C  278.33   233.15   276.43   231.25   274.08   231.25 " style="stroke-width: 1.42 ;&st7; " /><path d=" M  274.08,  239.75  C  276.43   239.75   278.33   237.84   278.33   235.50 " style="stroke-width: 1.42 ;&st7; " /><path d=" M  269.83,  290.74  C  267.48   290.74   265.58   292.64   265.58   294.99 " style="stroke-width: 1.42 ;&st7; " /><path d=" M  265.58,  294.99  C  265.58   297.33   267.48   299.24   269.83   299.24 " style="stroke-width: 1.42 ;&st7; " /><path d=" M  274.08,  299.24  C  276.43   299.24   278.33   297.33   278.33   294.99 " style="stroke-width: 1.42 ;&st7; " /><path d=" M  278.33,  294.99  C  278.33   292.64   276.43   290.74   274.08   290.74 " style="stroke-width: 1.42 ;&st7; " /><path d=" M  271.95,  183.09  C  269.22   184.70   268.30   188.23   269.92   190.97 " style="stroke-width: 1.42 ;&st7; " /><path d=" M  269.92,  190.97  C  270.44   191.85   271.07   192.48   271.95   193.00 " style="stroke-width: 1.42 ;&st7; " /><path d=" M  403.97,   91.87  C  403.97    89.37   401.94    87.34   399.43    87.34 " style="stroke-width: 1.42 ;&st7; " /><path d=" M  399.43,   87.34  C  396.93    87.34   394.90    89.37   394.90    91.87 " style="stroke-width: 1.42 ;&st7; " /><path d=" M  394.90,   91.87  C  394.90    94.37   396.93    96.40   399.43    96.40 " style="stroke-width: 1.42 ;&st7; " /><path d=" M  399.43,   96.40  C  401.94    96.40   403.97    94.37   403.97    91.87 " style="stroke-width: 1.42 ;&st7; " /><path d=" M  271.95,  202.92  C  274.69   201.31   275.60   197.78   273.99   195.04 " style="stroke-width: 1.42 ;&st7; " /><path d=" M  273.99,  195.04  C  273.47   194.16   272.84   193.52   271.95   193.00 " style="stroke-width: 1.42 ;&st7; " /><path d=" M   89.52,  167.22  C   89.52   164.72    87.49   162.69    84.99   162.69 " style="stroke-width: 1.42 ;&st7; " /><path d=" M   84.99,  162.69  C   82.48   162.69    80.45   164.72    80.45   167.22 " style="stroke-width: 1.42 ;&st7; " /><path d=" M   80.45,  167.22  C   80.45   169.73    82.48   171.76    84.99   171.76 " style="stroke-width: 1.42 ;&st7; " /><path d=" M   84.99,  171.76  C   87.49   171.76    89.52   169.73    89.52   167.22 " style="stroke-width: 1.42 ;&st7; " /><path d=" M   89.52,  158.16  C   89.52   155.66    87.49   153.63    84.99   153.63 " style="stroke-width: 1.42 ;&st7; " /><path d=" M   84.99,  153.63  C   82.48   153.63    80.45   155.66    80.45   158.16 " style="stroke-width: 1.42 ;&st7; " /><path d=" M   80.45,  158.16  C   80.45   160.66    82.48   162.69    84.99   162.69 " style="stroke-width: 1.42 ;&st7; " /><path d=" M   84.99,  162.69  C   87.49   162.69    89.52   160.66    89.52   158.16 " style="stroke-width: 1.42 ;&st7; " /><path d=" M   89.52,  210.85  C   89.52   208.35    87.49   206.32    84.99   206.32 " style="stroke-width: 1.42 ;&st7; " /><path d=" M   84.99,  206.32  C   82.48   206.32    80.45   208.35    80.45   210.85 " style="stroke-width: 1.42 ;&st7; " /><path d=" M   80.45,  210.85  C   80.45   213.35    82.48   215.38    84.99   215.38 " style="stroke-width: 1.42 ;&st7; " /><path d=" M   84.99,  215.38  C   87.49   215.38    89.52   213.35    89.52   210.85 " style="stroke-width: 1.42 ;&st7; " /><path d=" M   89.52,  201.78  C   89.52   199.28    87.49   197.25    84.99   197.25 " style="stroke-width: 1.42 ;&st7; " /><path d=" M   84.99,  197.25  C   82.48   197.25    80.45   199.28    80.45   201.78 " style="stroke-width: 1.42 ;&st7; " /><path d=" M   80.45,  201.78  C   80.45   204.29    82.48   206.32    84.99   206.32 " style="stroke-width: 1.42 ;&st7; " /><path d=" M   84.99,  206.32  C   87.49   206.32    89.52   204.29    89.52   201.78 " style="stroke-width: 1.42 ;&st7; " /><path d=" M  188.39,  200.09  C  188.39   199.30   187.75   198.67   186.97   198.67 " style="stroke-width: 0.85 ;&st7; " /><path d=" M  186.97,  198.67  C  186.19   198.67   185.55   199.30   185.55   200.09 " style="stroke-width: 0.85 ;&st7; " /><path d=" M  185.55,  200.09  C  185.55   200.87   186.19   201.50   186.97   201.50 " style="stroke-width: 0.85 ;&st7; " /><path d=" M  186.97,  201.50  C  187.75   201.50   188.39   200.87   188.39   200.09 " style="stroke-width: 0.85 ;&st7; " /><path d=" M  188.39,  177.42  C  188.39   176.64   187.75   176.01   186.97   176.01 " style="stroke-width: 0.85 ;&st7; " /><path d=" M  186.97,  176.01  C  186.19   176.01   185.55   176.64   185.55   177.42 " style="stroke-width: 0.85 ;&st7; " /><path d=" M  185.55,  177.42  C  185.55   178.20   186.19   178.84   186.97   178.84 " style="stroke-width: 0.85 ;&st7; " /><path d=" M  186.97,  178.84  C  187.75   178.84   188.39   178.20   188.39   177.42 " style="stroke-width: 0.85 ;&st7; " /><path d=" M  158.94,  186.28  C  160.31   187.67   162.55   187.69   163.95   186.33 " style="stroke-width: 0.85 ;&st7; " /><path d=" M  163.95,  186.33  C  165.35   184.96   165.37   182.71   164.00   181.32 " style="stroke-width: 0.85 ;&st7; " /><path d=" M  164.00,  181.32  C  163.31   180.61   162.46   180.25   161.47   180.25 " style="stroke-width: 0.85 ;&st7; " /><path d=" M  158.94,  191.23  C  160.31   192.63   162.55   192.65   163.95   191.28 " style="stroke-width: 0.85 ;&st7; " /><path d=" M  163.95,  191.28  C  165.35   189.91   165.37   187.67   164.00   186.28 " style="stroke-width: 0.85 ;&st7; " /><path d=" M  164.00,  186.28  C  162.63   184.88   160.39   184.86   158.99   186.22 " style="stroke-width: 0.85 ;&st7; " /><path d=" M  158.99,  186.22  C  158.98   186.24   158.96   186.26   158.94   186.28 " style="stroke-width: 0.85 ;&st7; " /><path d=" M  161.47,  197.25  C  163.43   197.25   165.01   195.67   165.01   193.71 " style="stroke-width: 0.85 ;&st7; " /><path d=" M  165.01,  193.71  C  165.01   191.76   163.43   190.17   161.47   190.17 " style="stroke-width: 0.85 ;&st7; " /><path d=" M  161.47,  190.17  C  160.48   190.17   159.64   190.53   158.94   191.23 " style="stroke-width: 0.85 ;&st7; " /><path d=" M  180.59,   99.52  C  180.59   101.87   182.50   103.77   184.84   103.77 " style="stroke-width: 1.42 ;&st7; " /><path d=" M  188.39,   45.69  C  188.39    44.91   187.75    44.28   186.97    44.28 " style="stroke-width: 0.85 ;&st7; " /><path d=" M  186.97,   44.28  C  186.19    44.28   185.55    44.91   185.55    45.69 " style="stroke-width: 0.85 ;&st7; " /><path d=" M  185.55,   45.69  C  185.55    46.48   186.19    47.11   186.97    47.11 " style="stroke-width: 0.85 ;&st7; " /><path d=" M  186.97,   47.11  C  187.75    47.11   188.39    46.48   188.39    45.69 " style="stroke-width: 0.85 ;&st7; " /><path d=" M  188.39,   68.36  C  188.39    67.57   187.75    66.94   186.97    66.94 " style="stroke-width: 0.85 ;&st7; " /><path d=" M  186.97,   66.94  C  186.19    66.94   185.55    67.57   185.55    68.36 " style="stroke-width: 0.85 ;&st7; " /><path d=" M  185.55,   68.36  C  185.55    69.14   186.19    69.77   186.97    69.77 " style="stroke-width: 0.85 ;&st7; " /><path d=" M  186.97,   69.77  C  187.75    69.77   188.39    69.14   188.39    68.36 " style="stroke-width: 0.85 ;&st7; " /><path d=" M  184.84,   95.27  C  182.50    95.27   180.59    97.17   180.59    99.52 " style="stroke-width: 1.42 ;&st7; " /><path d=" M  193.34,  227.00  C  193.34   224.65   191.44   222.75   189.09   222.75 " style="stroke-width: 1.42 ;&st7; " /><path d=" M  155.10,  227.00  C  155.10   229.34   157.00   231.25   159.35   231.25 " style="stroke-width: 1.42 ;&st7; " /><path d=" M  189.09,  103.77  C  191.44   103.77   193.34   101.87   193.34    99.52 " style="stroke-width: 1.42 ;&st7; " /><path d=" M  193.34,  150.51  C  193.34   148.16   191.44   146.26   189.09   146.26 " style="stroke-width: 1.42 ;&st7; " /><path d=" M  180.59,  150.51  C  180.59   152.86   182.50   154.76   184.84   154.76 " style="stroke-width: 1.42 ;&st7; " /><path d=" M  189.09,  154.76  C  191.44   154.76   193.34   152.86   193.34   150.51 " style="stroke-width: 1.42 ;&st7; " /><path d=" M  167.85,  150.51  C  167.85   148.16   165.94   146.26   163.60   146.26 " style="stroke-width: 1.42 ;&st7; " /><path d=" M  193.34,   99.52  C  193.34    97.17   191.44    95.27   189.09    95.27 " style="stroke-width: 1.42 ;&st7; " /><path d=" M  184.84,  146.26  C  182.50   146.26   180.59   148.16   180.59   150.51 " style="stroke-width: 1.42 ;&st7; " /><path d=" M  184.84,  222.75  C  182.50   222.75   180.59   224.65   180.59   227.00 " style="stroke-width: 1.42 ;&st7; " /><path d=" M  159.35,  222.75  C  157.00   222.75   155.10   224.65   155.10   227.00 " style="stroke-width: 1.42 ;&st7; " /><path d=" M  163.60,  154.76  C  165.94   154.76   167.85   152.86   167.85   150.51 " style="stroke-width: 1.42 ;&st7; " /><path d=" M  180.59,  354.48  C  180.59   356.82   182.50   358.73   184.84   358.73 " style="stroke-width: 1.42 ;&st7; " /><path d=" M  184.84,  350.23  C  182.50   350.23   180.59   352.13   180.59   354.48 " style="stroke-width: 1.42 ;&st7; " /><path d=" M  189.09,  231.25  C  191.44   231.25   193.34   229.34   193.34   227.00 " style="stroke-width: 1.42 ;&st7; " /><path d=" M  180.59,  227.00  C  180.59   229.34   182.50   231.25   184.84   231.25 " style="stroke-width: 1.42 ;&st7; " /><path d=" M  193.34,  269.49  C  193.34   267.14   191.44   265.24   189.09   265.24 " style="stroke-width: 1.42 ;&st7; " /><path d=" M  189.09,  273.74  C  191.44   273.74   193.34   271.84   193.34   269.49 " style="stroke-width: 1.42 ;&st7; " /><path d=" M  180.59,  269.49  C  180.59   271.84   182.50   273.74   184.84   273.74 " style="stroke-width: 1.42 ;&st7; " /><path d=" M  184.84,  265.24  C  182.50   265.24   180.59   267.14   180.59   269.49 " style="stroke-width: 1.42 ;&st7; " /><path d=" M  159.35,  146.26  C  157.00   146.26   155.10   148.16   155.10   150.51 " style="stroke-width: 1.42 ;&st7; " /><path d=" M  163.60,  231.25  C  165.94   231.25   167.85   229.34   167.85   227.00 " style="stroke-width: 1.42 ;&st7; " /><text style="&st18;" transform="matrix(&st16;  180.18  86.47 )">2</text><text style="&st18;" transform="matrix(&st17;  81.29  135.73 )">R-L</text><text style="&st18;" transform="matrix(&st17;  183.27  256.37 )">W-G</text><text style="&st18;" transform="matrix(&st17;  183.27  137.1 )">W-R</text><text style="&st18;" transform="matrix(&st16;  180.17  168.07 )">3</text><text style="&st18;" transform="matrix(&st16;  177.86  32.08 )">(BAT)</text><text style="&st18;" transform="matrix(&st16;  159.49  152.48 )">3</text><text style="&st18;" transform="matrix(&st16;  396.91  16.48 )">P 6(A),(B)</text><text ewd:textID="15" style="&st18;" transform="matrix(&st16;  396.91  23.58 )">Power Window Master SW</text><text style="&st18;" transform="matrix(&st16;  155.46  168.07 )">1</text><text style="&st18;" transform="matrix(&st16;  154.68  213.94 )">2</text><text style="&st18;" transform="matrix(&st16;  184.99  271.46 )">3</text><text style="&st18;" transform="matrix(&st16;  180.18  341.42 )">2</text><text style="&st18;" transform="matrix(&st16;  184.99  356.45 )">3</text><text style="&st18;" transform="matrix(&st17;  268.26  261.48 )">LG</text><text style="&st18;" transform="matrix(&st16;  230.12  117.07 )">W-R</text><text style="&st18;" transform="matrix(&st16;  308.12  261.54 )">L-B</text><text style="&st18;" transform="matrix(&st16;  393.75  74.58 )">BW</text><text style="&st18;" transform="matrix(&st16;  490.94  389.02 )">L</text><text style="&st18;" transform="matrix(&st17;  135.11  619.86 )">(*4)</text><text ewd:textID="3" style="&st18;" transform="matrix(&st16;  286.43  513.67 )">* 3 :Before Oct. 2008 Production</text><text style="&st18;" transform="matrix(&st17;  123.78  621.38 )">W-B</text><text style="&st18;" transform="matrix(&st17;  157.78  281.44 )">W-B</text><text ewd:textID="4" style="&st18;" transform="matrix(&st16;  286.43  522.17 )">* 4 :From Oct. 2008 Production</text><text style="&st18;" transform="matrix(&st17;  169.11  279.92 )">(*3)</text><text style="&st18;" transform="matrix(&st16;  120.68  652.49 )">9</text><text style="&st18;" transform="matrix(&st17;  135.11  279.92 )">(*4)</text><text style="&st18;" transform="matrix(&st17;  183.27  377.7 )">L</text><text style="&st18;" transform="matrix(&st16;  204.27  311.13 )">30A <tspan dy="6" x="0">PWR</tspan></text><text style="&st18;" transform="matrix(&st16;  184.99  228.97 )">3</text><text style="&st18;" transform="matrix(&st16;  174.28  101.49 )">2</text><text style="&st18;" transform="matrix(&st16;  182.52  101.49 )">2H</text><text style="&st18;" transform="matrix(&st16;  80.68  101.49 )">2K</text><text style="&st18;" transform="matrix(&st16;  72.3  101.49 )">8</text><text style="&st18;" transform="matrix(&st16;  485.22  660.98 )">W-B</text><text style="&st18;" transform="matrix(&st16;  265.94  168.07 )">1</text><text style="&st18;" transform="matrix(&st16;  269.98  152.48 )">3</text><text style="&st18;" transform="matrix(&st16;  265.17  222.44 )">2</text><text style="&st18;" transform="matrix(&st16;  269.98  237.47 )">3</text><text style="&st18;" transform="matrix(&st16;  289.26  192.15 )">25A <tspan dy="6" x="0">DOOR</tspan></text><text style="&st18;" transform="matrix(&st16;  267.5  296.96 )">2H</text><text style="&st18;" transform="matrix(&st16;  259.26  296.96 )">4</text><text ewd:textID="1" style="&st18;" transform="matrix(&st16;  286.43  496.67 )">* 1 :w/o Driver's Window Jam Protection</text><text ewd:textID="2" style="&st18;" transform="matrix(&st16;  286.43  505.17 )">* 2 :w/ Driver's Window Jam Protection</text><text style="&st18;" transform="matrix(&st16;  405.41  93.84 )">(*2)</text><text style="&st18;" transform="matrix(&st16;  388.56  93.84 )">7</text><text style="&st18;" transform="matrix(&st16;  397.1  93.84 )">B</text><text style="&st18;" transform="matrix(&st16;  265.17  312.54 )">5</text><text style="&st18;" transform="matrix(&st16;  263.19  323.87 )">ALTB</text><text ewd:textID="13" style="&st18;" transform="matrix(&st16;  255.18  357.86 )">Integration <tspan dy="6" x="0">Relay</tspan></text><text style="&st18;" transform="matrix(&st17;  395.74  127.09 )">L-B</text><text style="&st18;" transform="matrix(&st17;  395.74  220.57 )">L-B</text><text style="&st18;" transform="matrix(&st17;  56.9  199.78 )">J22(A),J23(B)</text><text ewd:textID="14" style="&st18;" transform="matrix(&st17;  64.01  199.78 )">Junction <tspan dy="6" x="0">Connector</tspan></text><text ewd:textID="12" style="&st18;" transform="matrix(&st17;  203.11  204.15 )">IG1 Relay</text><text style="&st18;" transform="matrix(&st16;  180.18  213.94 )">5</text><text style="&st18;" transform="matrix(&st16;  159.49  228.97 )">3</text><text style="&st18;" transform="matrix(&st17;  81.29  233.46 )">R-L</text><text style="&st18;" transform="matrix(&st17;  157.78  135.73 )">R-L</text><text style="&st18;" transform="matrix(&st16;  78.91  32.08 )">(IG)</text><text style="&st18;" transform="matrix(&st16;  180.95  287.05 )">1</text><text style="&st18;" transform="matrix(&st16;  184.99  152.48 )">3</text><text style="&st18;" transform="matrix(&st16;  102.29  53.34 )">10A <tspan dy="6" x="0">ECU-IG&amp; </tspan><tspan dy="6" x="0">GAUGE</tspan></text><text style="&st18;" transform="matrix(&st16;  204.27  56.17 )">40A <tspan dy="6" x="0">IG1</tspan></text><text style="&st18;" transform="matrix(&st17;  123.78  281.44 )">W-B</text><text ewd:textID="14" style="&st18;" transform="matrix(&st17;  109.34  675.7 )">Junction <tspan dy="6" x="0">Connector</tspan></text><text style="&st18;" transform="matrix(&st17;  102.23  675.7 )">J21</text><text style="&st18;" transform="matrix(&st16;  486.74  672.31 )">(*3)</text><text ewd:textID="5" style="&st18;" transform="matrix(&st16;  286.43  530.67 )">* 5 :Before Oct. 2011 Production</text><text ewd:textID="6" style="&st18;" transform="matrix(&st16;  286.43  539.16 )">* 6 :From Oct. 2011 Production</text><text style="&st18;" transform="matrix(&st16;  409.34  169.48 )">(*6)</text><text style="&st18;" transform="matrix(&st16;  409.34  160.98 )">(*5)</text><text style="&st18;" transform="matrix(&st16;  384.62  160.98 )">9</text><text style="&st18;" transform="matrix(&st16;  384.62  169.48 )">7</text><text ewd:textID="7" style="&st18;" transform="matrix(&st16;  286.43  547.66 )">* 7 :Before Oct. 2013 Production</text><text ewd:textID="8" style="&st18;" transform="matrix(&st16;  286.43  556.16 )">* 8 :From Oct. 2013 Production</text><text style="&st18;" transform="matrix(&st16;  90.96  169.19 )">(*8)</text><text style="&st18;" transform="matrix(&st16;  82.65  169.19 )">A</text><text style="&st18;" transform="matrix(&st16;  74.11  169.19 )">5</text><text style="&st18;" transform="matrix(&st16;  90.96  160.13 )">(*7)</text><text style="&st18;" transform="matrix(&st16;  82.65  160.13 )">A</text><text style="&st18;" transform="matrix(&st16;  74.11  160.13 )">7</text><text style="&st18;" transform="matrix(&st16;  90.96  212.82 )">(*8)</text><text style="&st18;" transform="matrix(&st16;  82.65  212.82 )">B</text><text style="&st18;" transform="matrix(&st16;  74.89  212.82 )">1</text><text style="&st18;" transform="matrix(&st16;  90.96  203.75 )">(*7)</text><text style="&st18;" transform="matrix(&st16;  82.65  203.75 )">B</text><text style="&st18;" transform="matrix(&st16;  71.71  203.75 )">11</text><text ewd:textID="9" style="&st18;" transform="matrix(&st16;  286.43  564.66 )">* 9 :Before Apr. 2015 Production</text><text ewd:textID="10" style="&st18;" transform="matrix(&st16;  286.43  573.16 )">*10 :From Apr. 2015 Production</text></svg>