﻿<?xml version="1.0" encoding="utf-8"?>
<!DOCTYPE svg PUBLIC "-//W3C//DTD SVG 1.0//EN" "http://www.w3.org/TR/2001/REC-SVG-20010904/DTD/svg10.dtd"[
	<!ENTITY ns_flows "http://ns.adobe.com/Flows/1.0/">
	<!ENTITY ns_svg "http://www.w3.org/2000/svg">
	<!ENTITY ns_xlink "http://www.w3.org/1999/xlink">
	<!ENTITY st0 "font-size:7px;font-family:'MS-PGothic';adobe-font-script:japanese;">
	<!ENTITY st1 "font-size:6px;font-family:'ArialMT';">
	<!-- White fill  -->
	<!ENTITY st2 "fill:#FFFFFF;stroke:#000000; stroke-width:1.41;stroke-linecap:round;stroke-linejoin:round;">
	<!-- Yellow fill  -->
	<!ENTITY st3 "fill:#FFFFCC;stroke:#FFFFCC; stroke-width:0.1;stroke-linecap:round;stroke-linejoin:round;">
	<!-- Gray fill  -->
	<!ENTITY st4 "fill:#CCCCCC;stroke:#CCCCCC; stroke-width:0.1;stroke-linecap:round;stroke-linejoin:round;">
	<!-- Light-blue fill -->
	<!ENTITY st5 "fill:#CCECF4;stroke:#000000; stroke-width:1.133;stroke-linecap:round;stroke-linejoin:round;">
	<!ENTITY st6 "fill:none;stroke-linecap:butt; stroke-linejoin:round;">
	<!ENTITY st7 "fill:none;stroke:#000000;stroke-linecap:round;stroke-linejoin:round;">
	<!ENTITY st8 "enable-background:new    ;">
	<!-- Black fill -->
	<!ENTITY st9 "fill:#000000;stroke:#000000; stroke-linecap:round;stroke-linejoin:round;">
	<!-- SRS note   -->
	<!ENTITY st10 "font-size:9px;font-family:'ArialMT';">
	<!ENTITY st11 "font-size:9px;font-family:'Svg Symbol';">
	<!ENTITY st12 "font-size:6px;font-family:'Svg Symbol';">
	<!ENTITY st13 "fill:none;stroke:#ff0000;stroke-linecap:round;stroke-linejoin:round;">
	<!-- Yellow fill  -->
	<!ENTITY st14 "fill:#FFFF00;stroke:#FFFF00; stroke-width:0.1;stroke-linecap:round;stroke-linejoin:round;">
	<!ENTITY st15 "font-size:6px;font-family:'MS-PGothic';adobe-font-script:japanese;">
	<!ENTITY st16 "1.00 0.00 0.00 1.00">
	<!ENTITY st17 "0.00 -1.00 1.00 0.00">
	<!ENTITY st18 "font-size:6px;font-family:'Arial';">
	<!ENTITY st19 "font-size:9px;font-family:'Arial';">
	<!ENTITY st20 "font-size:6px;font-family:'MS-PGothic','MS PGothic';adobe-font-script:japanese;">
	<!ENTITY st21 "font-size:7px;font-family:'MS-PGothic','MS PGothic';adobe-font-script:japanese;">
	<!ATTLIST svg
		xmlns:ewd CDATA #FIXED "http://shcl.co.jp/ewd"
		xmlns:a CDATA #FIXED "http://ns.adobe.com/AdobeSVGViewerExtensions/3.0/"
		ewd:ver CDATA #IMPLIED
	>
	<!ATTLIST a
		ewd:lineID CDATA #IMPLIED
		ewd:groupID CDATA #IMPLIED
		ewd:figtype CDATA #IMPLIED
		ewd:code CDATA #IMPLIED
		ewd:figID CDATA #IMPLIED
		ewd:pinNo CDATA #IMPLIED
		ewd:comment CDATA #IMPLIED >
	<!ATTLIST g
		ewd:lineID CDATA #IMPLIED
		ewd:groupID CDATA #IMPLIED
		ewd:figtype CDATA #IMPLIED
		ewd:code CDATA #IMPLIED
		ewd:figID CDATA #IMPLIED
		ewd:pinNo CDATA #IMPLIED
		ewd:comment CDATA #IMPLIED >
	<!ATTLIST text
		ewd:textID CDATA #IMPLIED >
	<!ATTLIST title
		ewd:textID CDATA #IMPLIED >
]>
<!-- Generator: Shintec Hozumi YS   -->
<svg onload="call_execInitLoadProc_svg('system')" style="overflow:visible;  enable-background:new 0 0 3100.474 710.000" viewBox="0 0 3100.474 710.000" height="710.000" width="3100.474" xml:space="preserve" ewd:ver="L2.1.2.7" xmlns="&ns_svg;" xmlns:a="http://ns.adobe.com/AdobeSVGViewerExtensions/3.0/" xmlns:ewd="http://shcl.co.jp/ewd" xmlns:xlink="&ns_xlink;">
<path d=" M 1693.34,   95.27  L 1689.09,   95.27 " style="stroke-width: 1.42 ;&st7; " /><path d=" M 1693.34,  103.77  L 1689.09,  103.77 " style="stroke-width: 1.42 ;&st7; " /><path d=" M 1695.47,  358.73  L 1686.97,  358.73 " style="stroke-width: 0.85 ;&st7; " /><path d=" M 1703.95,  349.06  L 1696.59,  353.31 " style="stroke-width: 0.85 ;&st7; " /><path d=" M 1698.59,  356.78  L 1705.95,  352.53 " style="stroke-width: 0.85 ;&st7; " /><path d=" M 1695.47,  375.72  L 1686.97,  375.72 " style="stroke-width: 0.85 ;&st7; " /><path d=" M 1703.95,  366.06  L 1696.59,  370.31 " style="stroke-width: 0.85 ;&st7; " /><path d=" M 1698.59,  373.78  L 1705.95,  369.53 " style="stroke-width: 0.85 ;&st7; " /><path d=" M 1695.47,  392.72  L 1686.97,  392.72 " style="stroke-width: 0.85 ;&st7; " /><path d=" M 1703.95,  383.06  L 1696.59,  387.31 " style="stroke-width: 0.85 ;&st7; " /><path d=" M 1698.59,  390.77  L 1705.95,  386.52 " style="stroke-width: 0.85 ;&st7; " /><path d=" M 1729.46,  358.73  L 1720.96,  358.73 " style="stroke-width: 0.85 ;&st7; " /><path d=" M 1737.95,  349.06  L 1730.58,  353.31 " style="stroke-width: 0.85 ;&st7; " /><path d=" M 1732.59,  356.78  L 1739.95,  352.53 " style="stroke-width: 0.85 ;&st7; " /><path d=" M 1729.46,  375.72  L 1720.96,  375.72 " style="stroke-width: 0.85 ;&st7; " /><path d=" M 1737.95,  366.06  L 1730.58,  370.31 " style="stroke-width: 0.85 ;&st7; " /><path d=" M 1732.59,  373.78  L 1739.95,  369.53 " style="stroke-width: 0.85 ;&st7; " /><path d=" M 1929.18,  384.22  L 1937.68,  384.22 " style="stroke-width: 1.42 ;&st7; " /><path d=" M 1690.02,  315.23  L 1689.75,  315.70  L 1689.66,  316.23  L 1689.75,  316.77  L 1690.02,  317.24  L 1690.44,  317.58  L 1690.94,  317.77  L 1691.49,  317.77  L 1692.00,  317.58  L 1692.41,  317.24  L 1692.68,  316.77  L 1692.77,  316.23  L 1692.68,  315.70  L 1692.41,  315.23  L 1692.00,  314.88  L 1691.49,  314.70  L 1690.94,  314.70  L 1690.44,  314.88  L 1690.02,  315.23  L 1690.42,  315.94  L 1690.42,  316.52  L 1690.79,  316.97  L 1691.36,  317.07  L 1691.87,  316.78  L 1692.07,  316.23  L 1691.87,  315.69  L 1691.36,  315.40  L 1690.79,  315.50  L 1691.22,  316.23 " style="stroke-width: 0.85 ;&st7; " /><path d=" M 1716.71,  307.73  L 1716.71,  409.72  L 1742.21,  409.72  L 1742.21,  307.73  L 1716.71,  307.73 " style="stroke-width: 1.42 ;&st7; " /><path d=" M 1691.22,   90.37  L 1688.38,   87.54  L 1688.38,   91.79  L 1691.22,   94.62  L 1694.05,   91.79  L 1694.05,   87.54  L 1691.22,   90.37 " style="stroke-width: 0.28 ;&st9;" /><path d=" M 1623.23,  273.74  L 1623.23,  418.22  L 1750.71,  418.22  L 1750.71,  273.74  L 1623.23,  273.74 " style="stroke-width: 1.42 ;&st7; " /><path d=" M 1691.22,  171.76  L 1691.22,  188.75 " style="stroke-width: 0.85 ;&st7; " /><path d=" M 1691.22,  350.23  L 1691.22,  341.73  L 1688.38,  340.31  L 1694.05,  337.48  L 1688.38,  334.65  L 1694.05,  331.81  L 1688.38,  328.98  L 1694.05,  326.15  L 1691.22,  324.73  L 1691.22,  316.23 " style="stroke-width: 0.85 ;&st7; " /><path d=" M 1691.22,  358.73  L 1685.55,  350.23  L 1696.88,  350.23  L 1691.22,  358.73 " style="stroke-width: 0.28 ;&st9;" /><path d=" M 1703.95,  349.06  L 1701.62,  352.10  L 1700.15,  349.56  L 1703.95,  349.06  L 1702.67,  349.80  L 1701.68,  351.09  L 1701.06,  350.01  L 1702.67,  349.80  L 1702.03,  350.17  L 1701.72,  350.58  L 1701.52,  350.24  L 1702.03,  350.17 " style="stroke-width: 0.85 ;&st7; " /><path d=" M 1705.95,  352.53  L 1703.62,  355.57  L 1702.15,  353.03  L 1705.95,  352.53  L 1704.67,  353.27  L 1703.69,  354.55  L 1703.07,  353.48  L 1704.67,  353.27  L 1704.03,  353.64  L 1703.72,  354.05  L 1703.53,  353.71  L 1704.03,  353.64 " style="stroke-width: 0.85 ;&st7; " /><path d=" M 1691.22,  375.72  L 1685.55,  367.22  L 1696.88,  367.22  L 1691.22,  375.72 " style="stroke-width: 0.28 ;&st9;" /><path d=" M 1703.95,  366.06  L 1701.62,  369.10  L 1700.15,  366.56  L 1703.95,  366.06  L 1702.67,  366.80  L 1701.68,  368.08  L 1701.06,  367.01  L 1702.67,  366.80  L 1702.03,  367.17  L 1701.72,  367.57  L 1701.52,  367.24  L 1702.03,  367.17 " style="stroke-width: 0.85 ;&st7; " /><path d=" M 1705.95,  369.53  L 1703.62,  372.57  L 1702.15,  370.03  L 1705.95,  369.53  L 1704.67,  370.27  L 1703.69,  371.55  L 1703.07,  370.48  L 1704.67,  370.27  L 1704.03,  370.64  L 1703.72,  371.04  L 1703.53,  370.71  L 1704.03,  370.64 " style="stroke-width: 0.85 ;&st7; " /><path d=" M 1691.22,  392.72  L 1685.55,  384.22  L 1696.88,  384.22  L 1691.22,  392.72 " style="stroke-width: 0.28 ;&st9;" /><path d=" M 1703.95,  383.06  L 1701.62,  386.10  L 1700.15,  383.56  L 1703.95,  383.06  L 1702.67,  383.80  L 1701.68,  385.08  L 1701.06,  384.01  L 1702.67,  383.80  L 1702.03,  384.17  L 1701.72,  384.57  L 1701.52,  384.23  L 1702.03,  384.17 " style="stroke-width: 0.85 ;&st7; " /><path d=" M 1705.95,  386.52  L 1703.62,  389.57  L 1702.15,  387.03  L 1705.95,  386.52  L 1704.67,  387.27  L 1703.69,  388.55  L 1703.07,  387.48  L 1704.67,  387.27  L 1704.03,  387.63  L 1703.72,  388.04  L 1703.53,  387.70  L 1704.03,  387.63 " style="stroke-width: 0.85 ;&st7; " /><path d=" M 1725.21,  358.73  L 1719.55,  350.23  L 1730.88,  350.23  L 1725.21,  358.73 " style="stroke-width: 0.28 ;&st9;" /><path d=" M 1737.94,  349.06  L 1735.61,  352.10  L 1734.14,  349.56  L 1737.94,  349.06  L 1736.66,  349.80  L 1735.68,  351.09  L 1735.06,  350.01  L 1736.66,  349.80  L 1736.02,  350.17  L 1735.71,  350.58  L 1735.51,  350.24  L 1736.02,  350.17 " style="stroke-width: 0.85 ;&st7; " /><path d=" M 1739.95,  352.53  L 1737.61,  355.57  L 1736.15,  353.03  L 1739.95,  352.53  L 1738.66,  353.27  L 1737.68,  354.55  L 1737.06,  353.48  L 1738.66,  353.27  L 1738.02,  353.64  L 1737.71,  354.05  L 1737.52,  353.71  L 1738.02,  353.64 " style="stroke-width: 0.85 ;&st7; " /><path d=" M 1725.21,  375.72  L 1719.55,  367.22  L 1730.88,  367.22  L 1725.21,  375.72 " style="stroke-width: 0.28 ;&st9;" /><path d=" M 1737.94,  366.06  L 1735.61,  369.10  L 1734.14,  366.56  L 1737.94,  366.06  L 1736.66,  366.80  L 1735.68,  368.08  L 1735.06,  367.01  L 1736.66,  366.80  L 1736.02,  367.17  L 1735.71,  367.57  L 1735.51,  367.24  L 1736.02,  367.17 " style="stroke-width: 0.85 ;&st7; " /><path d=" M 1739.95,  369.53  L 1737.61,  372.57  L 1736.15,  370.03  L 1739.95,  369.53  L 1738.66,  370.27  L 1737.68,  371.55  L 1737.06,  370.48  L 1738.66,  370.27  L 1738.02,  370.64  L 1737.71,  371.04  L 1737.52,  370.71  L 1738.02,  370.64 " style="stroke-width: 0.85 ;&st7; " /><path d=" M 1725.21,  350.23  L 1725.21,  341.73  L 1722.38,  340.31  L 1728.04,  337.48  L 1722.38,  334.65  L 1728.04,  331.81  L 1722.38,  328.98  L 1728.04,  326.15  L 1725.21,  324.73  L 1725.21,  316.23 " style="stroke-width: 0.85 ;&st7; " /><path d=" M 1691.22,  273.74  L 1691.22,  316.23 " style="stroke-width: 0.85 ;&st7; " /><path d=" M 1691.22,  316.23  L 1725.21,  316.23 " style="stroke-width: 0.85 ;&st7; " /><path d=" M 1691.22,  401.22  L 1691.22,  350.23 " style="stroke-width: 0.85 ;&st7; " /><path d=" M 1691.22,  401.22  L 1725.21,  401.22  L 1725.21,  350.23 " style="stroke-width: 0.85 ;&st7; " /><path d=" M 1690.02,  400.22  L 1689.75,  400.69  L 1689.66,  401.22  L 1689.75,  401.75  L 1690.02,  402.22  L 1690.44,  402.57  L 1690.94,  402.75  L 1691.49,  402.75  L 1692.00,  402.57  L 1692.41,  402.22  L 1692.68,  401.75  L 1692.77,  401.22  L 1692.68,  400.69  L 1692.41,  400.22  L 1692.00,  399.87  L 1691.49,  399.68  L 1690.94,  399.68  L 1690.44,  399.87  L 1690.02,  400.22  L 1690.42,  400.93  L 1690.42,  401.51  L 1690.79,  401.95  L 1691.36,  402.05  L 1691.87,  401.77  L 1692.07,  401.22  L 1691.87,  400.67  L 1691.36,  400.38  L 1690.79,  400.48  L 1691.22,  401.22 " style="stroke-width: 0.85 ;&st7; " /><path d=" M 1623.23,  299.24  L 1750.71,  299.24 " style="stroke-width: 1.42 ;&st7; " /><path d=" M 1657.22,  273.74  L 1657.22,  401.22  L 1725.21,  401.22 " style="stroke-width: 0.85 ;&st7; " /><path d=" M 1708.21,  299.24  L 1708.21,  409.72  L 1640.23,  409.72  L 1640.23,  299.24 " style="stroke-width: 1.42 ;&st7; " /><path d=" M 1682.72,  171.76  L 1682.72,  188.75  L 1699.72,  188.75  L 1699.72,  171.76  L 1682.72,  171.76 " style="stroke-width: 1.42 ;&st7; " /><path d=" M 1665.72,  260.14  L 1674.22,  260.14 " style="stroke-width: 0.85 ;&st7;stroke-dasharray:3, 1.5;" /><path d=" M 1674.22,  269.21  L 1665.72,  269.21 " style="stroke-width: 0.85 ;&st7;stroke-dasharray:3, 1.5;" /><path d=" M 1691.22,   95.27  L 1691.22,   69.77 " style="stroke-width: 0.85 ;&st7; " /><path d=" M 1690.02,   68.77  L 1689.75,   69.24  L 1689.66,   69.77  L 1689.75,   70.31  L 1690.02,   70.78  L 1690.44,   71.12  L 1690.94,   71.31  L 1691.49,   71.31  L 1692.00,   71.12  L 1692.41,   70.78  L 1692.68,   70.31  L 1692.77,   69.77  L 1692.68,   69.24  L 1692.41,   68.77  L 1692.00,   68.43  L 1691.49,   68.24  L 1690.94,   68.24  L 1690.44,   68.43  L 1690.02,   68.77  L 1690.42,   69.48  L 1690.42,   70.07  L 1690.79,   70.51  L 1691.36,   70.61  L 1691.87,   70.32  L 1692.07,   69.77  L 1691.87,   69.23  L 1691.36,   68.94  L 1690.79,   69.04  L 1691.22,   69.77 " style="stroke-width: 0.85 ;&st7; " /><path d=" M 1801.70,  137.76  L 1946.17,  137.76  L 1946.17,  171.76  L 1801.70,  171.76  L 1801.70,  137.76 " style="stroke-width: 1.42 ;&st7; " /><path d=" M 1946.17,  146.26  L 1801.70,  146.26 " style="stroke-width: 1.13 ;&st7;stroke-dasharray:3, 1.5;" /><path d=" M 1946.17,  163.26  L 1801.70,  163.26 " style="stroke-width: 1.13 ;&st7;stroke-dasharray:3, 1.5;" /><path d=" M 1937.68,  137.76  L 1937.68,  171.76 " style="stroke-width: 0.85 ;&st7; " /><path d=" M 1937.68,  154.76  L 1810.20,  154.76  L 1810.20,  171.76 " style="stroke-width: 0.85 ;&st7; " /><path d=" M 1844.19,  171.76  L 1844.19,  154.76 " style="stroke-width: 0.85 ;&st7; " /><path d=" M 1878.19,  171.76  L 1878.19,  154.76 " style="stroke-width: 0.85 ;&st7; " /><path d=" M 1936.48,  153.76  L 1936.21,  154.23  L 1936.12,  154.76  L 1936.21,  155.29  L 1936.48,  155.76  L 1936.90,  156.11  L 1937.40,  156.30  L 1937.95,  156.30  L 1938.45,  156.11  L 1938.87,  155.76  L 1939.14,  155.29  L 1939.23,  154.76  L 1939.14,  154.23  L 1938.87,  153.76  L 1938.45,  153.41  L 1937.95,  153.22  L 1937.40,  153.22  L 1936.90,  153.41  L 1936.48,  153.76  L 1936.88,  154.47  L 1936.88,  155.05  L 1937.25,  155.50  L 1937.82,  155.60  L 1938.33,  155.31  L 1938.53,  154.76  L 1938.33,  154.21  L 1937.82,  153.92  L 1937.25,  154.02  L 1937.68,  154.76 " style="stroke-width: 0.85 ;&st7; " /><path d=" M 1876.99,  153.76  L 1876.72,  154.23  L 1876.63,  154.76  L 1876.72,  155.29  L 1876.99,  155.76  L 1877.41,  156.11  L 1877.91,  156.30  L 1878.46,  156.30  L 1878.96,  156.11  L 1879.38,  155.76  L 1879.65,  155.29  L 1879.74,  154.76  L 1879.65,  154.23  L 1879.38,  153.76  L 1878.96,  153.41  L 1878.46,  153.22  L 1877.91,  153.22  L 1877.41,  153.41  L 1876.99,  153.76  L 1877.39,  154.47  L 1877.39,  155.05  L 1877.76,  155.50  L 1878.33,  155.60  L 1878.84,  155.31  L 1879.04,  154.76  L 1878.84,  154.21  L 1878.33,  153.92  L 1877.76,  154.02  L 1878.19,  154.76 " style="stroke-width: 0.85 ;&st7; " /><path d=" M 1843.00,  153.76  L 1842.73,  154.23  L 1842.63,  154.76  L 1842.73,  155.29  L 1843.00,  155.76  L 1843.41,  156.11  L 1843.92,  156.30  L 1844.46,  156.30  L 1844.97,  156.11  L 1845.38,  155.76  L 1845.66,  155.29  L 1845.75,  154.76  L 1845.66,  154.23  L 1845.38,  153.76  L 1844.97,  153.41  L 1844.46,  153.22  L 1843.92,  153.22  L 1843.41,  153.41  L 1843.00,  153.76  L 1843.39,  154.47  L 1843.39,  155.05  L 1843.77,  155.50  L 1844.34,  155.60  L 1844.84,  155.31  L 1845.04,  154.76  L 1844.84,  154.21  L 1844.34,  153.92  L 1843.77,  154.02  L 1844.19,  154.76 " style="stroke-width: 0.85 ;&st7; " /><path d=" M 1997.17,  239.75  L 1997.17,  273.74  L 2031.16,  273.74  L 2031.16,  239.75  L 1997.17,  239.75 " style="stroke-width: 1.42 ;&st7; " /><path d=" M 1920.68,  239.75  L 1920.68,  273.74  L 1954.67,  273.74  L 1954.67,  239.75  L 1920.68,  239.75 " style="stroke-width: 1.42 ;&st7; " /><path d=" M 1861.19,  239.75  L 1861.19,  273.74  L 1895.18,  273.74  L 1895.18,  239.75  L 1861.19,  239.75 " style="stroke-width: 1.42 ;&st7; " /><path d=" M 1933.43,  375.16  L 1937.68,  379.41  L 1941.92,  375.16 " style="stroke-width: 1.42 ;&st7; " /><path d=" M 1941.92,  378.56  L 1937.68,  382.80  L 1933.43,  378.56 " style="stroke-width: 1.42 ;&st7; " /><path d=" M 1937.68,  697.25  L 1937.68,  701.50 " style="stroke-width: 0.85 ;&st7; " /><path d=" M 1929.18,  701.50  L 1946.17,  701.50 " style="stroke-width: 0.85 ;&st7; " /><path d=" M 1933.43,  704.33  L 1941.92,  704.33 " style="stroke-width: 0.85 ;&st7; " /><path d=" M 1934.84,  707.17  L 1940.51,  707.17 " style="stroke-width: 0.85 ;&st7; " /><path d=" M 1936.26,  710.00  L 1939.09,  710.00 " style="stroke-width: 0.85 ;&st7; " /><path d=" M 1869.69,  384.22  L 1886.68,  384.22  L 1886.68,  401.22  L 1869.69,  401.22  L 1869.69,  384.22 " style="stroke-width: 1.42 ;&st7; " /><path d=" M 1878.19,  384.22  L 1878.19,  401.22 " style="stroke-width: 0.85 ;&st7; " /><path d=" M 1695.75,  260.14  C 1695.75   257.64  1693.72   255.61  1691.22   255.61 " style="stroke-width: 1.42 ;&st7; " /><path d=" M 1691.22,  255.61  C 1688.71   255.61  1686.68   257.64  1686.68   260.14 " style="stroke-width: 1.42 ;&st7; " /><path d=" M 1686.68,  260.14  C 1686.68   262.65  1688.71   264.67  1691.22   264.67 " style="stroke-width: 1.42 ;&st7; " /><path d=" M 1691.22,  264.67  C 1693.72   264.67  1695.75   262.65  1695.75   260.14 " style="stroke-width: 1.42 ;&st7; " /><path d=" M 1695.75,  269.21  C 1695.75   266.70  1693.72   264.67  1691.22   264.67 " style="stroke-width: 1.42 ;&st7; " /><path d=" M 1691.22,  264.67  C 1688.71   264.67  1686.68   266.70  1686.68   269.21 " style="stroke-width: 1.42 ;&st7; " /><path d=" M 1686.68,  269.21  C 1686.68   271.71  1688.71   273.74  1691.22   273.74 " style="stroke-width: 1.42 ;&st7; " /><path d=" M 1691.22,  273.74  C 1693.72   273.74  1695.75   271.71  1695.75   269.21 " style="stroke-width: 1.42 ;&st7; " /><path d=" M 1661.76,  260.14  C 1661.76   257.64  1659.73   255.61  1657.22   255.61 " style="stroke-width: 1.42 ;&st7; " /><path d=" M 1657.22,  255.61  C 1654.72   255.61  1652.69   257.64  1652.69   260.14 " style="stroke-width: 1.42 ;&st7; " /><path d=" M 1652.69,  260.14  C 1652.69   262.65  1654.72   264.67  1657.22   264.67 " style="stroke-width: 1.42 ;&st7; " /><path d=" M 1657.22,  264.67  C 1659.73   264.67  1661.76   262.65  1661.76   260.14 " style="stroke-width: 1.42 ;&st7; " /><path d=" M 1661.76,  269.21  C 1661.76   266.70  1659.73   264.67  1657.22   264.67 " style="stroke-width: 1.42 ;&st7; " /><path d=" M 1657.22,  264.67  C 1654.72   264.67  1652.69   266.70  1652.69   269.21 " style="stroke-width: 1.42 ;&st7; " /><path d=" M 1652.69,  269.21  C 1652.69   271.71  1654.72   273.74  1657.22   273.74 " style="stroke-width: 1.42 ;&st7; " /><path d=" M 1657.22,  273.74  C 1659.73   273.74  1661.76   271.71  1661.76   269.21 " style="stroke-width: 1.42 ;&st7; " /><path d=" M 1942.21,  133.23  C 1942.21   130.73  1940.18   128.70  1937.68   128.70 " style="stroke-width: 1.42 ;&st7; " /><path d=" M 1937.68,  128.70  C 1935.17   128.70  1933.14   130.73  1933.14   133.23 " style="stroke-width: 1.42 ;&st7; " /><path d=" M 1933.14,  133.23  C 1933.14   135.73  1935.17   137.76  1937.68   137.76 " style="stroke-width: 1.42 ;&st7; " /><path d=" M 1937.68,  137.76  C 1940.18   137.76  1942.21   135.73  1942.21   133.23 " style="stroke-width: 1.42 ;&st7; " /><path d=" M 1942.21,  176.29  C 1942.21   173.79  1940.18   171.76  1937.68   171.76 " style="stroke-width: 1.42 ;&st7; " /><path d=" M 1937.68,  171.76  C 1935.17   171.76  1933.14   173.79  1933.14   176.29 " style="stroke-width: 1.42 ;&st7; " /><path d=" M 1933.14,  176.29  C 1933.14   178.79  1935.17   180.82  1937.68   180.82 " style="stroke-width: 1.42 ;&st7; " /><path d=" M 1937.68,  180.82  C 1940.18   180.82  1942.21   178.79  1942.21   176.29 " style="stroke-width: 1.42 ;&st7; " /><path d=" M 1814.73,  176.29  C 1814.73   173.79  1812.70   171.76  1810.20   171.76 " style="stroke-width: 1.42 ;&st7; " /><path d=" M 1810.20,  171.76  C 1807.69   171.76  1805.66   173.79  1805.66   176.29 " style="stroke-width: 1.42 ;&st7; " /><path d=" M 1805.66,  176.29  C 1805.66   178.79  1807.69   180.82  1810.20   180.82 " style="stroke-width: 1.42 ;&st7; " /><path d=" M 1810.20,  180.82  C 1812.70   180.82  1814.73   178.79  1814.73   176.29 " style="stroke-width: 1.42 ;&st7; " /><path d=" M 1848.72,  176.29  C 1848.72   173.79  1846.70   171.76  1844.19   171.76 " style="stroke-width: 1.42 ;&st7; " /><path d=" M 1844.19,  171.76  C 1841.69   171.76  1839.66   173.79  1839.66   176.29 " style="stroke-width: 1.42 ;&st7; " /><path d=" M 1839.66,  176.29  C 1839.66   178.79  1841.69   180.82  1844.19   180.82 " style="stroke-width: 1.42 ;&st7; " /><path d=" M 1844.19,  180.82  C 1846.70   180.82  1848.72   178.79  1848.72   176.29 " style="stroke-width: 1.42 ;&st7; " /><path d=" M 1882.72,  176.29  C 1882.72   173.79  1880.69   171.76  1878.19   171.76 " style="stroke-width: 1.42 ;&st7; " /><path d=" M 1878.19,  171.76  C 1875.68   171.76  1873.65   173.79  1873.65   176.29 " style="stroke-width: 1.42 ;&st7; " /><path d=" M 1873.65,  176.29  C 1873.65   178.79  1875.68   180.82  1878.19   180.82 " style="stroke-width: 1.42 ;&st7; " /><path d=" M 1878.19,  180.82  C 1880.69   180.82  1882.72   178.79  1882.72   176.29 " style="stroke-width: 1.42 ;&st7; " /><path d=" M 1882.72,  405.75  C 1882.72   403.25  1880.69   401.22  1878.19   401.22 " style="stroke-width: 1.42 ;&st7; " /><path d=" M 1878.19,  401.22  C 1875.68   401.22  1873.65   403.25  1873.65   405.75 " style="stroke-width: 1.42 ;&st7; " /><path d=" M 1873.65,  405.75  C 1873.65   408.25  1875.68   410.28  1878.19   410.28 " style="stroke-width: 1.42 ;&st7; " /><path d=" M 1878.19,  410.28  C 1880.69   410.28  1882.72   408.25  1882.72   405.75 " style="stroke-width: 1.42 ;&st7; " /><path d=" M 1882.72,  379.69  C 1882.72   377.19  1880.69   375.16  1878.19   375.16 " style="stroke-width: 1.42 ;&st7; " /><path d=" M 1878.19,  375.16  C 1875.68   375.16  1873.65   377.19  1873.65   379.69 " style="stroke-width: 1.42 ;&st7; " /><path d=" M 1873.65,  379.69  C 1873.65   382.19  1875.68   384.22  1878.19   384.22 " style="stroke-width: 1.42 ;&st7; " /><path d=" M 1878.19,  384.22  C 1880.69   384.22  1882.72   382.19  1882.72   379.69 " style="stroke-width: 1.42 ;&st7; " /><path d=" M 1500.28,  339.46  C 1500.28   336.96  1498.25   334.93  1495.75   334.93 " style="stroke-width: 1.42 ;&st7; " /><path d=" M 1689.09,   95.27  C 1686.75    95.27  1684.84    97.17  1684.84    99.52 " style="stroke-width: 1.42 ;&st7; " /><path d=" M 1684.84,   99.52  C 1684.84   101.87  1686.75   103.77  1689.09   103.77 " style="stroke-width: 1.42 ;&st7; " /><path d=" M 1693.34,  103.77  C 1695.69   103.77  1697.59   101.87  1697.59    99.52 " style="stroke-width: 1.42 ;&st7; " /><path d=" M 1697.59,   99.52  C 1697.59    97.17  1695.69    95.27  1693.34    95.27 " style="stroke-width: 1.42 ;&st7; " /><path d=" M 1695.75,  167.22  C 1695.75   164.72  1693.72   162.69  1691.22   162.69 " style="stroke-width: 1.42 ;&st7; " /><path d=" M 1691.22,  162.69  C 1688.71   162.69  1686.68   164.72  1686.68   167.22 " style="stroke-width: 1.42 ;&st7; " /><path d=" M 1686.68,  167.22  C 1686.68   169.73  1688.71   171.76  1691.22   171.76 " style="stroke-width: 1.42 ;&st7; " /><path d=" M 1691.22,  171.76  C 1693.72   171.76  1695.75   169.73  1695.75   167.22 " style="stroke-width: 1.42 ;&st7; " /><path d=" M 1695.75,  193.29  C 1695.75   190.78  1693.72   188.75  1691.22   188.75 " style="stroke-width: 1.42 ;&st7; " /><path d=" M 1691.22,  188.75  C 1688.71   188.75  1686.68   190.78  1686.68   193.29 " style="stroke-width: 1.42 ;&st7; " /><path d=" M 1686.68,  193.29  C 1686.68   195.79  1688.71   197.82  1691.22   197.82 " style="stroke-width: 1.42 ;&st7; " /><path d=" M 1691.22,  197.82  C 1693.72   197.82  1695.75   195.79  1695.75   193.29 " style="stroke-width: 1.42 ;&st7; " /><path d=" M 1500.28,  312.27  C 1500.28   309.76  1498.25   307.73  1495.75   307.73 " style="stroke-width: 1.42 ;&st7; " /><path d=" M 1500.28,  321.33  C 1500.28   318.83  1498.25   316.80  1495.75   316.80 " style="stroke-width: 1.42 ;&st7; " /><path d=" M 1500.28,  330.40  C 1500.28   327.89  1498.25   325.86  1495.75   325.86 " style="stroke-width: 1.42 ;&st7; " /><text style="&st18;" transform="matrix(&st16;  1521.97  544.83 )">(*15)</text><text ewd:textID="4" style="&st18;" transform="matrix(&st16;  1629.2  445.68 )">* 4 :Manual A/C</text><text ewd:textID="3" style="&st18;" transform="matrix(&st16;  1629.2  437.18 )">* 3 :Automatic A/C</text><text style="&st18;" transform="matrix(&st16;  1833.32  178.26 )">5</text><text style="&st18;" transform="matrix(&st16;  1867.31  178.26 )">2</text><text style="&st18;" transform="matrix(&st16;  1875.85  178.26 )">A</text><text style="&st18;" transform="matrix(&st17;  1874.49  208.51 )">G</text><text style="&st18;" transform="matrix(&st17;  1885.82  213.91 )">(*25)</text><text style="&st18;" transform="matrix(&st17;  1933.98  208.51 )">G</text><text style="&st18;" transform="matrix(&st17;  1945.31  213.91 )">(*27)</text><text style="&st18;" transform="matrix(&st17;  1840.5  208.51 )">G</text><text style="&st18;" transform="matrix(&st17;  1851.83  220.13 )">(*19 *15)</text><text style="&st18;" transform="matrix(&st17;  1806.5  208.51 )">G</text><text style="&st18;" transform="matrix(&st17;  1817.83  213.52 )">(*19)</text><text style="&st18;" transform="matrix(&st16;  1930.72  247.38 )">ILL+</text><text style="&st18;" transform="matrix(&st16;  1871.23  247.38 )">ILL+</text><text style="&st18;" transform="matrix(&st16;  1935.34  270.04 )">E</text><text style="&st18;" transform="matrix(&st16;  1871.23  270.04 )">ILL-</text><text ewd:textID="49" style="&st18;" transform="matrix(&st17;  1969.39  276.26 )">Headlight Leveling Switch</text><text style="&st18;" transform="matrix(&st17;  1962.28  276.26 )">H25</text><text ewd:textID="70" style="&st18;" transform="matrix(&st17;  1909.9  276.26 )">VSC Off Switch</text><text style="&st18;" transform="matrix(&st17;  1902.79  276.26 )">V 8</text><text style="&st18;" transform="matrix(&st16;  1919.68  390.44 )">12</text><text style="&st18;" transform="matrix(&st17;  1933.98  332.43 )">W-B</text><text style="&st18;" transform="matrix(&st17;  1945.31  332.89 )">(*27)</text><text style="&st18;" transform="matrix(&st17;  1874.49  332.43 )">W-B</text><text style="&st18;" transform="matrix(&st17;  1885.82  332.89 )">(*25)</text><text style="&st18;" transform="matrix(&st17;  1933.98  519.4 )">W-B</text><text style="&st18;" transform="matrix(&st17;  1945.31  519.86 )">(*27)</text><text style="&st18;" transform="matrix(&st16;  1867.31  407.72 )">9</text><text style="&st18;" transform="matrix(&st16;  1875.85  407.72 )">A</text><text style="&st18;" transform="matrix(&st16;  1867.31  381.66 )">7</text><text style="&st18;" transform="matrix(&st16;  1875.85  381.66 )">A</text><text style="&st18;" transform="matrix(&st17;  1874.49  519.4 )">W-B</text><text style="&st18;" transform="matrix(&st17;  1885.82  519.86 )">(*25)</text><text ewd:textID="51" style="&st18;" transform="matrix(&st16;  1799.17  134.07 )">Junction Connector</text><text style="&st18;" transform="matrix(&st16;  1799.17  126.96 )">J59(A),J60(B)</text><text style="&st18;" transform="matrix(&st16;  1930.89  236.06 )">3</text><text style="&st18;" transform="matrix(&st16;  1871.4  236.06 )">2</text><text style="&st18;" transform="matrix(&st16;  1930.89  281.93 )">4</text><text style="&st18;" transform="matrix(&st16;  1872.17  281.93 )">1</text><text style="&st18;" transform="matrix(&st16;  1519.64  592.99 )">Y(*19)</text><text style="&st18;" transform="matrix(&st16;  1570.63  592.99 )">Y(*19)</text><text ewd:textID="25" style="&st18;" transform="matrix(&st16;  1629.2  556.16 )">*26 :w/ Headlight Cleaner</text><text ewd:textID="23" style="&st18;" transform="matrix(&st16;  1629.2  539.16 )">*24 :Radio Receiver Type</text><text ewd:textID="18" style="&st18;" transform="matrix(&st16;  1629.2  522.17 )">*18 :Before Oct. 2011 Production</text><text ewd:textID="19" style="&st18;" transform="matrix(&st16;  1629.2  530.67 )">*19 :From Oct. 2011 Production</text><text ewd:textID="24" style="&st18;" transform="matrix(&st16;  1629.2  547.66 )">*25 :w/ VSC</text><text ewd:textID="66" style="&st18;" transform="matrix(&st17;  1765.43  412.24 )">Spiral Cable</text><text style="&st18;" transform="matrix(&st17;  1758.32  412.24 )">S13(A),S28(B)</text><text ewd:textID="9" style="&st18;" transform="matrix(&st16;  1629.2  454.18 )">* 9 :w/ Light Control Rheostat</text><text ewd:textID="26" style="&st18;" transform="matrix(&st16;  1629.2  564.66 )">*27 :w/ Headlight Beam Level Control (Manual)</text><text style="&st18;" transform="matrix(&st17;  1698.86  232.87 )">(*18 *15)</text><text style="&st18;" transform="matrix(&st17;  1687.52  221.25 )">G</text><text ewd:textID="67" style="&st18;" transform="matrix(&st17;  1633.7  386.21 )">Steering Pad SW</text><text style="&st18;" transform="matrix(&st16;  1686.48  101.49 )">2Q</text><text style="&st18;" transform="matrix(&st16;  1674.57  101.49 )">24</text><text style="&st18;" transform="matrix(&st16;  1674.47  307.43 )">ILL+</text><text style="&st18;" transform="matrix(&st16;  1640.12  307.43 )">EAU</text><text style="&st18;" transform="matrix(&st17;  1664.86  226.27 )">(*15)</text><text style="&st18;" transform="matrix(&st17;  1653.53  220.48 )">L</text><text style="&st18;" transform="matrix(&st16;  1640.12  281.93 )">EAU</text><text style="&st18;" transform="matrix(&st16;  1674.47  281.93 )">IL+2</text><text style="&st18;" transform="matrix(&st17;  1707.33  191.28 )">J50(B)</text><text ewd:textID="51" style="&st18;" transform="matrix(&st17;  1714.43  191.28 )">Junction <tspan dy="6" x="0">Connector</tspan></text><text style="&st18;" transform="matrix(&st17;  1698.86  156.39 )">(*18 *15)</text><text style="&st18;" transform="matrix(&st16;  1688.89  169.19 )">B</text><text style="&st18;" transform="matrix(&st16;  1680.34  169.19 )">3</text><text style="&st18;" transform="matrix(&st17;  1687.52  144.77 )">G</text><text style="&st18;" transform="matrix(&st16;  1688.89  195.26 )">B</text><text style="&st18;" transform="matrix(&st16;  1680.34  195.26 )">2</text><text style="&st18;" transform="matrix(&st17;  1503.39  366.5 )">(*15)</text><text ewd:textID="12" style="&st18;" transform="matrix(&st16;  1629.2  479.67 )">*12 :Before Oct. 2008 Production</text><text ewd:textID="13" style="&st18;" transform="matrix(&st16;  1629.2  488.17 )">*13 :From Oct. 2008 Production</text><text ewd:textID="15" style="&st18;" transform="matrix(&st16;  1629.2  496.67 )">*15 :w/ Steering Pad SW</text><text style="&st18;" transform="matrix(&st16;  1570.63  609.99 )">Y(*18)</text><text style="&st18;" transform="matrix(&st16;  1578.76  533.5 )">L</text><text style="&st18;" transform="matrix(&st16;  1571.2  626.98 )">W(*4)</text><text style="&st18;" transform="matrix(&st16;  1575.93  643.98 )">BR</text><text style="&st18;" transform="matrix(&st16;  1573.04  660.98 )">W-B</text><text style="&st18;" transform="matrix(&st16;  1522.04  660.98 )">W-B</text><text style="&st18;" transform="matrix(&st16;  1524.94  643.98 )">BR</text><text style="&st18;" transform="matrix(&st16;  1520.21  626.98 )">W(*4)</text><text style="&st18;" transform="matrix(&st16;  1527.77  533.5 )">L</text><text style="&st18;" transform="matrix(&st16;  1519.64  609.99 )">Y(*18)</text><text style="&st18;" transform="matrix(&st16;  1572.96  544.83 )">(*15)</text><text ewd:textID="10" style="&st18;" transform="matrix(&st16;  1629.2  462.68 )">*10 :w/o Light Control Rheostat w/ Short Connector <tspan dy="8.5" x="14.17">(Light Control Rheostat)</tspan></text><text ewd:textID="16" style="&st18;" transform="matrix(&st16;  1629.2  505.17 )">*16 :w/o Light Control Rheostat w/o Short Connector <tspan dy="8.5" x="14.17">(Light Control Rheostat)</tspan></text><text style="&st18;" transform="matrix(&st16;  1501.72  314.24 )">(*19 *24)</text><text style="&st18;" transform="matrix(&st16;  1501.72  323.3 )">(*19 *28)</text><text style="&st18;" transform="matrix(&st16;  1501.72  332.37 )">(*18)</text><text style="&st18;" transform="matrix(&st16;  1677.16  262.11 )">12</text><text style="&st18;" transform="matrix(&st16;  1688.89  262.11 )">A</text><text style="&st18;" transform="matrix(&st16;  1697.19  262.11 )">(*18)</text><text style="&st18;" transform="matrix(&st16;  1677.16  271.18 )">12</text><text style="&st18;" transform="matrix(&st16;  1688.89  271.18 )">B</text><text style="&st18;" transform="matrix(&st16;  1697.19  271.18 )">(*19)</text><text style="&st18;" transform="matrix(&st16;  1646.35  262.11 )">4</text><text style="&st18;" transform="matrix(&st16;  1654.89  262.11 )">A</text><text style="&st18;" transform="matrix(&st16;  1646.35  271.18 )">4</text><text style="&st18;" transform="matrix(&st16;  1654.89  271.18 )">B</text><text style="&st18;" transform="matrix(&st16;  1926.8  135.2 )">4</text><text style="&st18;" transform="matrix(&st16;  1935.34  135.2 )">B</text><text style="&st18;" transform="matrix(&st16;  1927.58  178.26 )">1</text><text style="&st18;" transform="matrix(&st16;  1935.34  178.26 )">A</text><text style="&st18;" transform="matrix(&st16;  1799.32  178.26 )">4</text><text style="&st18;" transform="matrix(&st16;  1807.87  178.26 )">A</text><text style="&st18;" transform="matrix(&st16;  1841.86  178.26 )">A</text><text ewd:textID="51" style="&st18;" transform="matrix(&st17;  1901.4  403.74 )">Junction <tspan dy="6" x="0">Connector</tspan></text><text style="&st18;" transform="matrix(&st17;  1894.3  403.74 )">J59(A)</text><text ewd:textID="28" style="&st18;" transform="matrix(&st16;  1629.2  581.66 )">*29 :Navigation Receiver Type</text><text ewd:textID="27" style="&st18;" transform="matrix(&st16;  1629.2  573.16 )">*28 :Radio &amp; Display Receiver Type</text><text style="&st18;" transform="matrix(&st16;  1501.72  341.43 )">(*29)</text></svg>