﻿<?xml version="1.0"?>
<!-- Generator: Adobe Illustrator 10.0, SVG Export Plug-In . SVG Version: 3.0.0 Build 77)  -->
<!DOCTYPE svg PUBLIC "-//W3C//DTD SVG 1.0//EN" "http://www.w3.org/TR/2001/REC-SVG-20010904/DTD/svg10.dtd"[
	<!ENTITY ns_flows "http://ns.adobe.com/Flows/1.0/">
	<!ENTITY ns_svg "http://www.w3.org/2000/svg">
	<!ENTITY ns_xlink "http://www.w3.org/1999/xlink">
	<!ENTITY st0 "fill:none;stroke:#000000;stroke-linecap:round;stroke-linejoin:round;">
	<!ENTITY st1 "fill:none;stroke:#000000;stroke-width:0.6;stroke-linecap:round;stroke-linejoin:round;">
	<!ENTITY st2 "font-size:6px;">
	<!ENTITY st3 "font-family:'Arial';">
	<!ATTLIST svg
		ewd:ver CDATA #IMPLIED
		xmlns:ewd CDATA #FIXED "http://shcl.co.jp/ewd"
		xmlns:a CDATA #FIXED "http://ns.adobe.com/AdobeSVGViewerExtensions/3.0/">
	<!ATTLIST g
		ewd:pinNo CDATA #IMPLIED>
]>
<svg width="104.116" height="63.06" viewBox="0 0 104.116 63.06" style="overflow:visible;enable-background:new 0 0 104.116 63.06" xml:space="preserve" onload="call_execInitLoadProc_svg('connector')" ewd:ver="L2.1.2.7" xmlns="&ns_svg;" xmlns:ewd="http://shcl.co.jp/ewd" xmlns:a="http://ns.adobe.com/AdobeSVGViewerExtensions/3.0/" xmlns:xlink="&ns_xlink;">
<script type="text/javascript" xlink:href="../../../../../system/js/ewd/fig/svgfig.js"/>
<g id="レイヤー_1">
	<path style="&st0;" d="M100.783,52.645c1.564,0,2.833-1.268,2.833-2.833"/>
	<path style="&st0;" d="M0.5,49.812c0,1.564,1.269,2.833,2.833,2.833"/>
	<path style="&st1;" d="M3.899,22.333c-0.782,0-1.417,0.634-1.417,1.417"/>
	<path style="&st1;" d="M101.633,23.75c0-0.782-0.634-1.417-1.416-1.417"/>
	<path style="&st1;" d="M103.616,21.767c0-0.782-0.634-1.417-1.417-1.417"/>
	<path style="&st1;" d="M1.916,20.35c-0.782,0-1.416,0.634-1.416,1.417"/>
	<path style="&st1;" d="M2.483,49.245c0,0.782,0.634,1.417,1.417,1.417"/>
	<path style="&st1;" d="M100.217,50.662c0.782,0,1.416-0.634,1.416-1.417"/>
	<path style="&st0;" d="M1.916,4.77C1.134,4.77,0.5,5.404,0.5,6.186"/>
	<path style="&st0;" d="M103.616,6.186c0-0.782-0.634-1.416-1.417-1.416"/>
	<path style="&st0;" d="M12.004,61.316c0.83,0.829,1.831,1.243,3.003,1.243"/>
	<path style="&st0;" d="M89.109,62.56c1.173,0,2.174-0.414,3.003-1.243"/>
	<path style="&st1;" d="M2.483,49.245V23.75"/>
	<path style="&st1;" d="M30.812,22.333V9.019"/>
	<path style="&st1;" d="M3.899,50.662h96.317"/>
	<path style="&st1;" d="M5.316,23.75v25.496H98.8V23.75H5.316"/>
	<path style="&st1;" d="M39.31,49.245V23.75"/>
	<path style="&st1;" d="M35.911,3.919h1.417"/>
	<path style="&st1;" d="M47.809,49.245V23.75"/>
	<path style="&st1;" d="M56.307,49.245V23.75"/>
	<path style="&st1;" d="M64.806,49.245V23.75"/>
	<path style="&st1;" d="M101.633,23.75v25.496"/>
	<path style="&st0;" d="M103.616,49.812V6.186"/>
	<path style="&st1;" d="M25.146,9.019h5.666"/>
	<path style="&st0;" d="M0.5,6.186v43.626"/>
	<path style="&st1;" d="M37.327,20.35V3.919"/>
	<path style="&st1;" d="M100.783,52.645H3.333"/>
	<path style="&st1;" d="M47.809,9.019v5.666h8.499V9.019"/>
	<path style="&st1;" d="M73.304,22.333V9.019"/>
	<path style="&st1;" d="M68.206,3.919h-1.417"/>
	<path style="&st1;" d="M78.97,9.019h-5.666"/>
	<path style="&st1;" d="M66.789,20.35V3.919"/>
	<path style="&st1;" d="M39.31,22.333V9.019h25.496v13.314"/>
	<path style="&st1;" d="M43.701,6.469v2.55"/>
	<path style="&st1;" d="M47.809,11.852h8.499"/>
	<path style="&st1;" d="M39.31,9.019v-2.55h25.496v2.55"/>
	<path style="&st1;" d="M60.557,6.469v2.55"/>
	<path style="&st1;" d="M37.327,3.919h29.462"/>
	<path style="&st0;" d="M29.639,4.77l4.269-4.27"/>
	<path style="&st0;" d="M74.477,4.77L70.208,0.5"/>
	<path style="&st0;" d="M1.916,4.77h27.723"/>
	<path style="&st0;" d="M74.477,4.77H102.2"/>
	<path style="&st0;" d="M33.908,0.5h36.3"/>
	<path style="&st1;" d="M97.95,58.311v-5.666"/>
	<path style="&st1;" d="M6.166,58.311v-5.666"/>
	<path style="&st1;" d="M29.395,55.478v-2.833"/>
	<path style="&st1;" d="M40.727,55.478v-2.833"/>
	<path style="&st1;" d="M29.395,55.478h11.332"/>
	<path style="&st1;" d="M5.316,36.498H98.8"/>
	<path style="&st0;" d="M8.999,58.311l3.005,3.005"/>
	<path style="&st0;" d="M95.117,58.311l-3.005,3.005"/>
	<path style="&st0;" d="M15.007,62.56h74.102"/>
	<path style="&st0;" d="M3.333,52.645v5.666h5.666"/>
	<path style="&st1;" d="M8.999,58.311h86.119"/>
	<path style="&st0;" d="M95.117,58.311h5.666v-5.666"/>
	<path style="&st1;" d="M30.812,9.019l5.099-5.099"/>
	<path style="&st1;" d="M68.206,3.919l5.099,5.099"/>
	<path style="&st1;" d="M23.446,58.311v-5.666"/>
	<path style="&st1;" d="M12.115,58.311v-5.666"/>
	<path style="&st1;" d="M12.115,55.478h11.332"/>
	<path style="&st1;" d="M80.67,58.311v-5.666"/>
	<path style="&st1;" d="M92.001,58.311v-5.666"/>
	<path style="&st1;" d="M92.001,55.478H80.67"/>
	<path style="&st1;" d="M30.812,49.245V23.75"/>
	<path style="&st1;" d="M73.304,49.245V23.75"/>
	<path style="&st1;" d="M81.803,49.245V23.75"/>
	<path style="&st1;" d="M13.814,49.245V23.75"/>
	<path style="&st1;" d="M25.146,22.333V4.77"/>
	<path style="&st1;" d="M1.916,20.35h23.23"/>
	<path style="&st1;" d="M30.812,20.35h8.499"/>
	<path style="&st1;" d="M3.899,22.333h21.247"/>
	<path style="&st1;" d="M30.812,22.333h8.499"/>
	<path style="&st1;" d="M78.97,22.333V4.77"/>
	<path style="&st1;" d="M102.2,20.35H78.97"/>
	<path style="&st1;" d="M73.304,20.35h-8.499"/>
	<path style="&st1;" d="M100.217,22.333H78.97"/>
	<path style="&st1;" d="M73.304,22.333h-8.499"/>
	<path style="&st1;" d="M94.834,20.35V4.77"/>
	<path style="&st1;" d="M8.574,20.35V4.77"/>
	<path style="&st1;" d="M63.39,55.478v-2.833"/>
	<path style="&st1;" d="M74.721,55.478v-2.833"/>
	<path style="&st1;" d="M63.39,55.478h11.331"/>
	<path style="&st1;" d="M90.302,49.245V23.75"/>
	<path style="&st1;" d="M22.313,49.245V23.75"/>
	<path style="&st1;" d="M57.724,55.478v-2.833"/>
	<path style="&st1;" d="M46.392,55.478v-2.833"/>
	<path style="&st1;" d="M46.392,55.478h11.332"/>
	<g ewd:pinNo="16">
		<text transform="matrix(1 0 0 1 39.9517 45.3843)"><tspan x="0" y="0" style="&st3; &st2;">16</tspan></text>
	</g>
	<g ewd:pinNo="15">
		<text transform="matrix(1 0 0 1 31.4531 45.3843)"><tspan x="0" y="0" style="&st3; &st2;">15</tspan></text>
	</g>
	<g ewd:pinNo="17">
		<text transform="matrix(1 0 0 1 48.4502 45.3843)"><tspan x="0" y="0" style="&st3; &st2;">17</tspan></text>
	</g>
	<g ewd:pinNo="18">
		<text transform="matrix(1 0 0 1 56.9487 45.3843)"><tspan x="0" y="0" style="&st3; &st2;">18</tspan></text>
	</g>
	<g ewd:pinNo="19">
		<text transform="matrix(1 0 0 1 65.4473 45.3843)"><tspan x="0" y="0" style="&st3; &st2;">19</tspan></text>
	</g>
	<g ewd:pinNo="8">
		<text transform="matrix(1 0 0 1 67.5796 32.6367)"><tspan x="0" y="0" style="&st3; &st2;">8</tspan></text>
	</g>
	<g ewd:pinNo="7">
		<text transform="matrix(1 0 0 1 59.0806 32.6367)"><tspan x="0" y="0" style="&st3; &st2;">7</tspan></text>
	</g>
	<g ewd:pinNo="6">
		<text transform="matrix(1 0 0 1 50.582 32.6367)"><tspan x="0" y="0" style="&st3; &st2;">6</tspan></text>
	</g>
	<g ewd:pinNo="4">
		<text transform="matrix(1 0 0 1 33.585 32.6367)"><tspan x="0" y="0" style="&st3; &st2;">4</tspan></text>
	</g>
	<g ewd:pinNo="5">
		<text transform="matrix(1 0 0 1 42.0835 32.6367)"><tspan x="0" y="0" style="&st3; &st2;">5</tspan></text>
	</g>
	<g ewd:pinNo="14">
		<text transform="matrix(1 0 0 1 22.9546 45.3843)"><tspan x="0" y="0" style="&st3; &st2;">14</tspan></text>
	</g>
	<g ewd:pinNo="3">
		<text transform="matrix(1 0 0 1 25.0864 32.6367)"><tspan x="0" y="0" style="&st3; &st2;">3</tspan></text>
	</g>
	<g ewd:pinNo="20">
		<text transform="matrix(1 0 0 1 74.2241 45.3843)"><tspan x="0" y="0" style="&st3; &st2;">20</tspan></text>
	</g>
	<g ewd:pinNo="9">
		<text transform="matrix(1 0 0 1 76.0781 32.6367)"><tspan x="0" y="0" style="&st3; &st2;">9</tspan></text>
	</g>
	<g ewd:pinNo="21">
		<text transform="matrix(1 0 0 1 82.7227 45.3843)"><tspan x="0" y="0" style="&st3; &st2;">21</tspan></text>
	</g>
	<g ewd:pinNo="10">
		<text transform="matrix(1 0 0 1 82.4443 32.6367)"><tspan x="0" y="0" style="&st3; &st2;">10</tspan></text>
	</g>
	<g ewd:pinNo="12">
		<text transform="matrix(1 0 0 1 5.957 45.3843)"><tspan x="0" y="0" style="&st3; &st2;">12</tspan></text>
	</g>
	<g ewd:pinNo="1">
		<text transform="matrix(1 0 0 1 8.0894 32.6367)"><tspan x="0" y="0" style="&st3; &st2;">1</tspan></text>
	</g>
	<g ewd:pinNo="22">
		<text transform="matrix(1 0 0 1 91.2212 45.3843)"><tspan x="0" y="0" style="&st3; &st2;">22</tspan></text>
	</g>
	<g ewd:pinNo="11">
		<text transform="matrix(1 0 0 1 91.1655 32.6367)"><tspan x="0" y="0" style="&st3; &st2;">11</tspan></text>
	</g>
	<g ewd:pinNo="13">
		<text transform="matrix(1 0 0 1 14.4561 45.3843)"><tspan x="0" y="0" style="&st3; &st2;">13</tspan></text>
	</g>
	<g ewd:pinNo="2">
		<text transform="matrix(1 0 0 1 16.5879 32.6367)"><tspan x="0" y="0" style="&st3; &st2;">2</tspan></text>
	</g>
</g>
</svg>