﻿<?xml version="1.0"?>
<!-- Generator: Adobe Illustrator 10.0, SVG Export Plug-In . SVG Version: 3.0.0 Build 77)  -->
<!DOCTYPE svg PUBLIC "-//W3C//DTD SVG 1.0//EN" "http://www.w3.org/TR/2001/REC-SVG-20010904/DTD/svg10.dtd"[
	<!ENTITY ns_flows "http://ns.adobe.com/Flows/1.0/">
	<!ENTITY ns_svg "http://www.w3.org/2000/svg">
	<!ENTITY ns_xlink "http://www.w3.org/1999/xlink">
	<!ENTITY st0 "fill:none;stroke:#000000;stroke-linecap:round;stroke-linejoin:round;">
	<!ENTITY st1 "fill:none;stroke:#000000;stroke-width:0.6;stroke-linecap:round;stroke-linejoin:round;">
	<!ENTITY st2 "font-size:6px;">
	<!ENTITY st3 "font-family:'Arial';">
	<!ATTLIST svg
		ewd:ver CDATA #IMPLIED
		xmlns:ewd CDATA #FIXED "http://shcl.co.jp/ewd"
		xmlns:a CDATA #FIXED "http://ns.adobe.com/AdobeSVGViewerExtensions/3.0/">
	<!ATTLIST g
		ewd:pinNo CDATA #IMPLIED>
]>
<svg width="54.148" height="51.085" viewBox="0 0 54.148 51.085" style="overflow:visible;enable-background:new 0 0 54.148 51.085" xml:space="preserve" onload="call_execInitLoadProc_svg('connector')" ewd:ver="L2.1.2.7" xmlns="&ns_svg;" xmlns:ewd="http://shcl.co.jp/ewd" xmlns:a="http://ns.adobe.com/AdobeSVGViewerExtensions/3.0/" xmlns:xlink="&ns_xlink;">
<script type="text/javascript" xlink:href="../../../../../system/js/ewd/fig/svgfig.js"/>
<g id="レイヤー_1">
	<path style="&st1;" d="M40.971,32.197c0.499-0.498,0.748-1.1,0.748-1.805"/>
	<path style="&st1;" d="M35.854,40.585c4.224,0,7.649-3.424,7.649-7.648"/>
	<path style="&st1;" d="M6.875,32.937c0,3.074,1.05,5.697,3.172,7.92"/>
	<path style="&st1;" d="M10.699,32.937c0,4.224,3.424,7.648,7.649,7.648"/>
	<path style="&st1;" d="M13.249,32.937c0,2.816,2.283,5.099,5.099,5.099"/>
	<path style="&st1;" d="M35.345,38.036c2.816,0,5.099-2.283,5.099-5.099"/>
	<path style="&st1;" d="M18.348,15.939c-2.816,0-5.099,2.283-5.099,5.099"/>
	<path style="&st1;" d="M43.503,21.038c0-4.224-3.425-7.648-7.649-7.648"/>
	<path style="&st1;" d="M41.719,23.583c0-0.705-0.25-1.307-0.749-1.804"/>
	<path style="&st1;" d="M35.854,44.41c6.237,0,11.315-4.955,11.47-11.19"/>
	<path style="&st1;" d="M40.444,21.038c0-2.816-2.283-5.099-5.099-5.099"/>
	<path style="&st1;" d="M18.348,13.39c-4.225,0-7.649,3.425-7.649,7.648"/>
	<path style="&st1;" d="M40.659,2.285c0-0.986-0.799-1.785-1.785-1.785"/>
	<path style="&st1;" d="M16.945,5.741c-0.986,0-1.785,0.799-1.785,1.784"/>
	<path style="&st0;" d="M3.104,34.206c0.286,3.429,1.496,6.269,3.772,8.849"/>
	<path style="&st1;" d="M37.398,7.525c0-0.985-0.799-1.784-1.785-1.784"/>
	<path style="&st0;" d="M1.249,24.54C0.75,25.038,0.5,25.64,0.5,26.345"/>
	<path style="&st0;" d="M0.5,30.605c0,0.705,0.25,1.306,0.748,1.804"/>
	<path style="&st0;" d="M53.648,17.18c0-0.811-0.337-1.504-0.975-2.005"/>
	<path style="&st1;" d="M14.466,0.5c-0.985,0-1.785,0.799-1.785,1.785"/>
	<path style="&st1;" d="M12.682,6.829C6.729,9.202,3.05,14.631,3.05,21.038"/>
	<path style="&st0;" d="M4.466,0.5C3.684,0.5,3.05,1.134,3.05,1.917"/>
	<path style="&st0;" d="M48.744,1.917c0-0.782-0.634-1.417-1.417-1.417"/>
	<path style="&st0;" d="M6.875,47.752c0,1.564,1.268,2.833,2.833,2.833"/>
	<path style="&st1;" d="M47.328,21.038c0-6.336-5.137-11.473-11.473-11.473"/>
	<path style="&st1;" d="M18.348,9.565c-6.336,0-11.473,5.137-11.473,11.473"/>
	<path style="&st1;" d="M37.52,48.234c2.032,0,3.754-0.329,5.644-1.079"/>
	<path style="&st0;" d="M51.234,43.951c1.492-0.592,2.415-1.951,2.415-3.555"/>
	<path style="&st0;" d="M43.076,50.585c2.347,0,4.249-1.902,4.249-4.249"/>
	<path style="&st1;" d="M15.033,43.919c1.131,0.341,2.132,0.489,3.314,0.489"/>
	<path style="&st1;" d="M40.444,32.724l0.527-0.527"/>
	<path style="&st1;" d="M18.348,13.39h17.507"/>
	<path style="&st1;" d="M41.719,23.583v6.81"/>
	<path style="&st1;" d="M18.348,40.585h17.507"/>
	<path style="&st1;" d="M13.249,21.038v11.898"/>
	<path style="&st0;" d="M1.249,24.54l1.801-1.802V1.917"/>
	<path style="&st1;" d="M12.682,6.829V2.285"/>
	<path style="&st1;" d="M17.498,23.588v8.499h16.997v-8.499H17.498"/>
	<path style="&st1;" d="M18.348,15.939h16.997"/>
	<path style="&st1;" d="M47.328,21.038v5.524"/>
	<path style="&st1;" d="M18.348,44.41h17.507"/>
	<path style="&st1;" d="M40.444,21.251l0.527,0.527"/>
	<path style="&st1;" d="M18.348,38.036h16.997"/>
	<path style="&st1;" d="M10.047,40.857v6.612h4.986v-3.549"/>
	<path style="&st1;" d="M43.503,21.038v11.898"/>
	<path style="&st1;" d="M40.444,31.449v1.487"/>
	<path style="&st1;" d="M32.937,13.39V5.741"/>
	<path style="&st1;" d="M40.444,22.525h-3.683v8.924h3.683"/>
	<path style="&st0;" d="M1.249,32.41l1.801,1.802"/>
	<path style="&st1;" d="M6.875,26.563H3.05v3.824h3.825"/>
	<path style="&st1;" d="M10.699,21.038v11.898"/>
	<path style="&st1;" d="M19.622,10.33h13.314"/>
	<path style="&st1;" d="M19.104,0.5v1.275h15.13V0.5"/>
	<path style="&st1;" d="M47.328,26.563h3.824v3.824h-3.827"/>
	<path style="&st0;" d="M0.5,30.605v-4.26"/>
	<path style="&st0;" d="M53.648,40.396V17.18"/>
	<path style="&st1;" d="M19.622,13.39V5.741"/>
	<path style="&st1;" d="M16.945,5.741h18.668"/>
	<path style="&st1;" d="M40.659,5.741V2.285"/>
	<path style="&st0;" d="M4.466,0.5h42.861"/>
	<path style="&st1;" d="M15.161,10.016V7.525"/>
	<path style="&st1;" d="M19.622,7.653h13.314"/>
	<path style="&st1;" d="M37.398,9.67V7.525"/>
	<path style="&st1;" d="M18.348,9.565h1.274"/>
	<path style="&st1;" d="M17.39,9.605v3.785"/>
	<path style="&st1;" d="M35.166,9.565v3.824"/>
	<path style="&st1;" d="M35.854,9.565h-2.918"/>
	<path style="&st0;" d="M43.076,50.585H9.707"/>
	<path style="&st1;" d="M6.875,21.038v5.524"/>
	<path style="&st1;" d="M6.875,30.387v2.55"/>
	<path style="&st1;" d="M47.325,33.22v-2.833"/>
	<path style="&st1;" d="M40.444,22.525v-1.487"/>
	<path style="&st1;" d="M18.084,48.234H37.52"/>
	<path style="&st1;" d="M25.996,32.086v-8.499"/>
	<path style="&st0;" d="M48.744,12.089V1.917"/>
	<path style="&st1;" d="M40.659,5.741l8.085,6.348"/>
	<path style="&st0;" d="M48.744,12.089l3.929,3.085"/>
	<path style="&st0;" d="M6.875,47.752v-4.697"/>
	<path style="&st0;" d="M47.325,46.336v-0.833"/>
	<path style="&st0;" d="M43.163,47.155l4.162-1.652"/>
	<path style="&st0;" d="M47.249,45.534l3.985-1.583"/>
	<path style="&st1;" d="M17.016,50.585l1.068-2.351"/>
	<g ewd:pinNo="1">
		<text transform="matrix(1 0 0 1 20.001 30.1338)"><tspan x="0" y="0" style="&st3; &st2;">1</tspan></text>
	</g>
	<g ewd:pinNo="2">
		<text transform="matrix(1 0 0 1 28.8447 30.1338)"><tspan x="0" y="0" style="&st3; &st2;">2</tspan></text>
	</g>
</g>
</svg>