﻿<?xml version="1.0"?>
<!-- Generator: Adobe Illustrator 10.0, SVG Export Plug-In . SVG Version: 3.0.0 Build 77)  -->
<!DOCTYPE svg PUBLIC "-//W3C//DTD SVG 1.0//EN" "http://www.w3.org/TR/2001/REC-SVG-20010904/DTD/svg10.dtd"[
	<!ENTITY ns_flows "http://ns.adobe.com/Flows/1.0/">
	<!ENTITY ns_svg "http://www.w3.org/2000/svg">
	<!ENTITY ns_xlink "http://www.w3.org/1999/xlink">
	<!ENTITY st0 "fill:none;stroke:#000000;stroke-linecap:round;stroke-linejoin:round;">
	<!ENTITY st1 "fill:none;stroke:#000000;stroke-width:0.6;stroke-linecap:round;stroke-linejoin:round;">
	<!ENTITY st2 "font-size:6px;">
	<!ENTITY st3 "font-family:'Arial';">
	<!ATTLIST svg
		ewd:ver CDATA #IMPLIED
		xmlns:ewd CDATA #FIXED "http://shcl.co.jp/ewd"
		xmlns:a CDATA #FIXED "http://ns.adobe.com/AdobeSVGViewerExtensions/3.0/">
	<!ATTLIST g
		ewd:pinNo CDATA #IMPLIED>
]>
<svg width="81.453" height="51.142" viewBox="0 0 81.453 51.142" style="overflow:visible;enable-background:new 0 0 81.453 51.142" xml:space="preserve" onload="call_execInitLoadProc_svg('connector')" ewd:ver="L2.1.2.7" xmlns="&ns_svg;" xmlns:ewd="http://shcl.co.jp/ewd" xmlns:a="http://ns.adobe.com/AdobeSVGViewerExtensions/3.0/" xmlns:xlink="&ns_xlink;">
<script type="text/javascript" xlink:href="../../../../../system/js/ewd/fig/svgfig.js"/>
<g id="レイヤー_1">
	<path style="&st0;" d="M76.704,49.226c2.347,0,4.25-1.903,4.25-4.25"/>
	<path style="&st0;" d="M80.953,8.149c0-1.564-1.268-2.833-2.833-2.833"/>
	<path style="&st1;" d="M77.562,45.228c1.106-1.106,1.106-2.899,0-4.005"/>
	<path style="&st0;" d="M69.551,49.234c1.106,1.106,2.899,1.106,4.006,0"/>
	<path style="&st1;" d="M75.894,39.554c0.518-1.083,0.862-2.042,1.153-3.207"/>
	<path style="&st0;" d="M0.5,44.976c0,2.347,1.902,4.25,4.249,4.25"/>
	<path style="&st0;" d="M4.749,5.316c-2.347,0-4.249,1.903-4.249,4.25"/>
	<path style="&st1;" d="M6.466,9.565c-1.172,0-2.169,0.302-3.144,0.952"/>
	<path style="&st1;" d="M1.761,11.557C0.946,12.1,0.5,12.935,0.5,13.914"/>
	<path style="&st1;" d="M0.5,32.228c0,0.979,0.446,1.814,1.261,2.357"/>
	<path style="&st1;" d="M79.692,34.585c0.814-0.543,1.261-1.378,1.261-2.357"/>
	<path style="&st1;" d="M76.704,8.05c0,0.979,0.447,1.813,1.261,2.356"/>
	<path style="&st1;" d="M80.953,13.914c0-0.979-0.447-1.814-1.261-2.357"/>
	<path style="&st1;" d="M72.373,40.039c1.604-2.427,2.348-4.902,2.348-7.811"/>
	<path style="&st1;" d="M60.557,46.393c2.909,0,5.384-0.744,7.811-2.348"/>
	<path style="&st0;" d="M76.704,5.316c0-2.66-2.156-4.816-4.815-4.816"/>
	<path style="&st0;" d="M12.398,0.5c-2.66,0-4.816,2.156-4.816,4.816"/>
	<path style="&st1;" d="M74.721,5.316c0-1.564-1.268-2.833-2.833-2.833"/>
	<path style="&st1;" d="M12.398,2.483c-1.564,0-2.833,1.269-2.833,2.833"/>
	<path style="&st1;" d="M74.721,12.398c0-1.564-1.268-2.833-2.833-2.833"/>
	<path style="&st0;" d="M60.557,49.226c2.663,0,4.923-0.512,7.326-1.66"/>
	<path style="&st0;" d="M4.407,36.347c1.92,7.688,8.566,12.878,16.49,12.878"/>
	<path style="&st1;" d="M6.732,32.228c0,7.823,6.341,14.165,14.164,14.165"/>
	<path style="&st1;" d="M66.222,20.896c0-3.129-2.537-5.665-5.666-5.665"/>
	<path style="&st1;" d="M15.231,32.228c0,3.129,2.537,5.666,5.666,5.666"/>
	<path style="&st1;" d="M20.896,15.231c-3.129,0-5.666,2.536-5.666,5.665"/>
	<path style="&st1;" d="M60.557,37.894c3.129,0,5.666-2.537,5.666-5.666"/>
	<path style="&st1;" d="M69.055,20.896c0-4.693-3.805-8.498-8.499-8.498"/>
	<path style="&st1;" d="M60.557,40.727c4.693,0,8.499-3.805,8.499-8.499"/>
	<path style="&st1;" d="M12.398,32.228c0,4.694,3.805,8.499,8.499,8.499"/>
	<path style="&st1;" d="M20.896,12.398c-4.693,0-8.499,3.805-8.499,8.498"/>
	<path style="&st1;" d="M9.565,32.228c0,6.258,5.073,11.332,11.332,11.332"/>
	<path style="&st1;" d="M60.557,43.56c6.258,0,11.332-5.073,11.332-11.332"/>
	<path style="&st1;" d="M71.888,20.896c0-6.258-5.074-11.331-11.332-11.331"/>
	<path style="&st1;" d="M20.896,9.565c-6.258,0-11.332,5.073-11.332,11.331"/>
	<path style="&st1;" d="M32.228,32.228l8.499-11.332"/>
	<path style="&st1;" d="M32.228,20.896l8.499,11.332"/>
	<path style="&st1;" d="M23.729,20.896l8.499,11.332"/>
	<path style="&st1;" d="M23.729,32.228l8.499-11.332"/>
	<path style="&st0;" d="M73.565,49.226h3.139"/>
	<path style="&st0;" d="M76.704,5.316h1.417"/>
	<path style="&st1;" d="M75.894,39.554l1.668,1.668"/>
	<path style="&st0;" d="M67.882,47.565l1.668,1.668"/>
	<path style="&st1;" d="M35.061,46.393v2.833h11.331v-2.833"/>
	<path style="&st0;" d="M4.749,5.316h2.833"/>
	<path style="&st1;" d="M4.407,36.347l-2.646-1.762"/>
	<path style="&st0;" d="M0.5,44.976V9.565"/>
	<path style="&st1;" d="M3.321,10.517l-1.561,1.04"/>
	<path style="&st1;" d="M77.046,36.347l2.646-1.762"/>
	<path style="&st1;" d="M77.964,10.407l1.728,1.15"/>
	<path style="&st1;" d="M46.392,46.393h14.165"/>
	<path style="&st1;" d="M76.704,8.05V5.316"/>
	<path style="&st0;" d="M80.953,44.976V8.149"/>
	<path style="&st1;" d="M6.466,9.565h1.116"/>
	<path style="&st1;" d="M0.5,29.396V13.814"/>
	<path style="&st1;" d="M7.582,9.565v-4.25"/>
	<path style="&st0;" d="M12.398,0.5h59.49"/>
	<path style="&st1;" d="M71.888,9.565h2.833"/>
	<path style="&st1;" d="M74.721,9.565v-4.25"/>
	<path style="&st1;" d="M12.398,2.483h59.49"/>
	<path style="&st1;" d="M74.721,32.228v-2.833"/>
	<path style="&st1;" d="M74.721,23.729V19.48"/>
	<path style="&st1;" d="M74.721,13.814h4.25v5.666h-4.25"/>
	<path style="&st1;" d="M74.721,23.729h4.25v5.666h-4.25"/>
	<path style="&st1;" d="M71.888,32.228V20.896"/>
	<path style="&st1;" d="M9.565,13.814V5.316"/>
	<path style="&st1;" d="M6.732,23.729V19.48"/>
	<path style="&st1;" d="M9.565,13.814H2.483v5.666h4.25"/>
	<path style="&st1;" d="M6.732,23.729h-4.25v5.666h4.25"/>
	<path style="&st1;" d="M6.732,32.228v-2.833"/>
	<path style="&st1;" d="M20.896,46.393h14.165"/>
	<path style="&st0;" d="M52.058,49.226h8.499"/>
	<path style="&st0;" d="M4.749,49.226h24.646"/>
	<path style="&st0;" d="M29.395,49.226v1.416h22.663v-1.416"/>
	<path style="&st1;" d="M44.976,44.976h15.581"/>
	<path style="&st1;" d="M20.896,44.976h15.581"/>
	<path style="&st1;" d="M73.557,49.234l4.005-4.006"/>
	<path style="&st1;" d="M68.367,44.044l3.187,3.187"/>
	<path style="&st1;" d="M72.373,40.039l3.187,3.187"/>
	<path style="&st1;" d="M71.554,47.231l4.006-4.005"/>
	<path style="&st1;" d="M74.721,13.814v-1.416"/>
	<path style="&st1;" d="M20.896,9.565h39.66"/>
	<path style="&st1;" d="M9.565,20.896v11.332"/>
	<path style="&st1;" d="M36.477,44.976v2.833h8.499v-2.833"/>
	<path style="&st1;" d="M20.896,15.231h39.66"/>
	<path style="&st1;" d="M66.222,20.896v11.332"/>
	<path style="&st1;" d="M15.231,20.896v11.332"/>
	<path style="&st1;" d="M18.063,32.228V20.896"/>
	<path style="&st1;" d="M20.896,36.478h39.66"/>
	<path style="&st1;" d="M15.231,20.896h5.666v11.332h-5.666"/>
	<path style="&st1;" d="M63.39,32.228V20.896"/>
	<path style="&st1;" d="M66.222,20.896h-5.666v11.332h5.666"/>
	<path style="&st1;" d="M20.896,12.398h39.66"/>
	<path style="&st1;" d="M69.055,20.896v11.332"/>
	<path style="&st1;" d="M20.896,15.231v2.833h39.66v-2.833"/>
	<path style="&st1;" d="M12.398,20.896v11.332"/>
	<path style="&st1;" d="M49.225,32.228V20.896"/>
	<path style="&st1;" d="M40.727,32.228V20.896"/>
	<path style="&st1;" d="M32.228,32.228V20.896"/>
	<path style="&st1;" d="M23.729,20.896v11.332h33.994V20.896H23.729"/>
	<path style="&st1;" d="M20.896,36.478v8.499"/>
	<path style="&st1;" d="M60.557,36.478v8.499"/>
	<g ewd:pinNo="2">
		<text transform="matrix(1 0 0 1 51.9268 28.6797)"><tspan x="0" y="0" style="&st3; &st2;">2</tspan></text>
	</g>
	<g ewd:pinNo="1">
		<text transform="matrix(1 0 0 1 43.4282 28.6797)"><tspan x="0" y="0" style="&st3; &st2;">1</tspan></text>
	</g>
</g>
</svg>