﻿<?xml version="1.0"?>
<!-- Generator: Adobe Illustrator 10.0, SVG Export Plug-In . SVG Version: 3.0.0 Build 77)  -->
<!DOCTYPE svg PUBLIC "-//W3C//DTD SVG 1.0//EN" "http://www.w3.org/TR/2001/REC-SVG-20010904/DTD/svg10.dtd"[
	<!ENTITY ns_flows "http://ns.adobe.com/Flows/1.0/">
	<!ENTITY ns_svg "http://www.w3.org/2000/svg">
	<!ENTITY ns_xlink "http://www.w3.org/1999/xlink">
	<!ENTITY st0 "fill:none;stroke:#000000;stroke-linecap:round;stroke-linejoin:round;">
	<!ENTITY st1 "fill:none;stroke:#000000;stroke-width:0.6;stroke-linecap:round;stroke-linejoin:round;">
	<!ENTITY st2 "font-size:6px;">
	<!ENTITY st3 "font-family:'Arial';">
	<!ATTLIST svg
		ewd:ver CDATA #IMPLIED
		xmlns:ewd CDATA #FIXED "http://shcl.co.jp/ewd"
		xmlns:a CDATA #FIXED "http://ns.adobe.com/AdobeSVGViewerExtensions/3.0/">
	<!ATTLIST g
		ewd:pinNo CDATA #IMPLIED>
]>
<svg width="108.649" height="94.485" viewBox="0 0 108.649 94.485" style="overflow:visible;enable-background:new 0 0 108.649 94.485" xml:space="preserve" onload="call_execInitLoadProc_svg('connector')" ewd:ver="L2.1.2.7" xmlns="&ns_svg;" xmlns:ewd="http://shcl.co.jp/ewd" xmlns:a="http://ns.adobe.com/AdobeSVGViewerExtensions/3.0/" xmlns:xlink="&ns_xlink;">
<script type="text/javascript" xlink:href="../../../../../system/js/ewd/fig/svgfig.js"/>
<g id="レイヤー_1">
	<path style="&st0;" d="M94.399,0.583c-0.29-0.058-0.54-0.083-0.836-0.083"/>
	<path style="&st0;" d="M15.087,0.5c-0.296,0-0.546,0.025-0.835,0.083"/>
	<path style="&st0;" d="M81.237,0.5c-1.564,0-2.833,1.269-2.833,2.833"/>
	<path style="&st0;" d="M108.149,5.657c0-1.368-0.936-2.51-2.278-2.778"/>
	<path style="&st0;" d="M2.779,2.877C1.437,3.146,0.5,4.288,0.5,5.657"/>
	<path style="&st0;" d="M30.246,3.333c0-1.564-1.269-2.833-2.833-2.833"/>
	<path style="&st0;" d="M104.875,89.09c1.947-0.459,3.274-2.135,3.274-4.136"/>
	<path style="&st1;" d="M14.946,0.5c-0.197,0-0.363,0.017-0.555,0.055"/>
	<path style="&st0;" d="M0.501,84.954c0,2.001,1.327,3.677,3.274,4.136"/>
	<path style="&st1;" d="M93.985,51.492v28.329"/>
	<path style="&st1;" d="M4.75,51.492h99.15"/>
	<path style="&st1;" d="M54.325,65.657V37.328"/>
	<path style="&st1;" d="M44.41,79.821V37.328"/>
	<path style="&st1;" d="M34.495,79.821V51.492"/>
	<path style="&st1;" d="M14.665,79.821V51.492"/>
	<path style="&st1;" d="M20.331,0.5v22.663"/>
	<path style="&st1;" d="M0.501,23.164h1.416v-7.082"/>
	<path style="&st1;" d="M35.912,7.583h36.827"/>
	<path style="&st0;" d="M35.912,4.75L48.66,1.917h11.332L72.739,4.75"/>
	<path style="&st0;" d="M35.912,4.75v11.332"/>
	<path style="&st1;" d="M48.66,16.082v-5.666h11.332v5.666"/>
	<path style="&st1;" d="M6.167,17.498v5.666h24.08"/>
	<path style="&st0;" d="M30.246,23.164h8.499"/>
	<path style="&st0;" d="M78.405,23.164h-8.499"/>
	<path style="&st1;" d="M64.24,16.082v-3.683h5.666v3.683"/>
	<path style="&st1;" d="M44.41,14.24h4.25"/>
	<path style="&st0;" d="M93.563,0.5H81.237"/>
	<path style="&st0;" d="M78.405,23.164V3.333"/>
	<path style="&st1;" d="M108.149,17.498l-1.416-1.417H103.9l-1.417,1.417"/>
	<path style="&st0;" d="M105.872,2.877L94.399,0.583"/>
	<path style="&st1;" d="M88.32,0.5v22.663"/>
	<path style="&st1;" d="M106.733,16.082v7.082h1.416"/>
	<path style="&st1;" d="M38.745,16.082h31.161"/>
	<path style="&st0;" d="M72.739,16.082h-2.833v7.082"/>
	<path style="&st1;" d="M38.745,16.082v-3.683h5.666v3.683"/>
	<path style="&st0;" d="M35.912,16.082h2.833v7.082"/>
	<path style="&st0;" d="M72.739,4.75v11.332"/>
	<path style="&st1;" d="M102.484,17.498v5.666H78.405"/>
	<path style="&st1;" d="M102.484,23.164h1.417v-7.082"/>
	<path style="&st0;" d="M2.779,2.877l11.473-2.294"/>
	<path style="&st1;" d="M0.501,17.498l1.416-1.417H4.75l1.417,1.417"/>
	<path style="&st0;" d="M24.58,93.985h59.49"/>
	<path style="&st1;" d="M59.991,14.24h4.249"/>
	<path style="&st0;" d="M84.07,93.985l20.805-4.895"/>
	<path style="&st0;" d="M3.775,89.09l20.805,4.895"/>
	<path style="&st1;" d="M4.75,16.082v7.082h1.417"/>
	<path style="&st1;" d="M0.501,78.404l4.249,4.25"/>
	<path style="&st1;" d="M103.9,82.654l4.249-4.25"/>
	<path style="&st0;" d="M30.246,23.164V3.333"/>
	<path style="&st0;" d="M0.501,5.657v79.297"/>
	<path style="&st0;" d="M108.149,5.657v79.297"/>
	<path style="&st0;" d="M15.087,0.5h12.326"/>
	<path style="&st1;" d="M74.155,79.821V51.492"/>
	<path style="&st1;" d="M64.24,79.821V37.328"/>
	<path style="&st1;" d="M4.75,51.492v28.329"/>
	<path style="&st1;" d="M24.58,79.821V51.492"/>
	<path style="&st1;" d="M4.75,65.657h99.15"/>
	<path style="&st1;" d="M84.07,51.492v28.329"/>
	<path style="&st1;" d="M64.24,79.821h39.66V51.492"/>
	<path style="&st1;" d="M44.41,37.328h19.83"/>
	<path style="&st1;" d="M4.75,82.654h99.15"/>
	<path style="&st1;" d="M4.75,79.821h39.66"/>
	<path style="&st1;" d="M7.583,25.996v21.247h33.995V25.996H7.583"/>
	<path style="&st1;" d="M24.58,47.243V25.996"/>
	<path style="&st1;" d="M101.067,25.996v21.247H67.073V25.996H101.067"/>
	<path style="&st1;" d="M84.07,47.243V25.996"/>
	<path style="&st1;" d="M47.243,68.489v14.165"/>
	<path style="&st1;" d="M61.407,68.489v14.165"/>
	<path style="&st1;" d="M47.243,73.447h14.164"/>
	<path style="&st1;" d="M4.75,82.654v5.666h40.51l1.983-1.983v-3.683"/>
	<path style="&st1;" d="M103.9,82.654v5.666h-40.51l-1.983-1.983v-3.683"/>
	<path style="&st1;" d="M47.243,68.489h14.164"/>
	<g ewd:pinNo="18">
		<text transform="matrix(1 0 0 1 16.0522 74.8843)"><tspan x="0" y="0" style="&st3; &st2;">18</tspan></text>
	</g>
	<g ewd:pinNo="24">
		<text transform="matrix(1 0 0 1 95.5195 74.8843)"><tspan x="0" y="0" style="&st3; &st2;">24</tspan></text>
	</g>
	<g ewd:pinNo="17">
		<text transform="matrix(1 0 0 1 6.1367 74.8843)"><tspan x="0" y="0" style="&st3; &st2;">17</tspan></text>
	</g>
	<g ewd:pinNo="8">
		<text transform="matrix(1 0 0 1 17.8789 60.7197)"><tspan x="0" y="0" style="&st3; &st2;">8</tspan></text>
	</g>
	<g ewd:pinNo="7">
		<text transform="matrix(1 0 0 1 7.9639 60.7197)"><tspan x="0" y="0" style="&st3; &st2;">7</tspan></text>
	</g>
	<g ewd:pinNo="9">
		<text transform="matrix(1 0 0 1 27.7939 60.7197)"><tspan x="0" y="0" style="&st3; &st2;">9</tspan></text>
	</g>
	<g ewd:pinNo="10">
		<text transform="matrix(1 0 0 1 35.8818 60.7197)"><tspan x="0" y="0" style="&st3; &st2;">10</tspan></text>
	</g>
	<g ewd:pinNo="23">
		<text transform="matrix(1 0 0 1 85.6045 74.8843)"><tspan x="0" y="0" style="&st3; &st2;">23</tspan></text>
	</g>
	<g ewd:pinNo="4">
		<text transform="matrix(1 0 0 1 57.5391 46.5557)"><tspan x="0" y="0" style="&st3; &st2;">4</tspan></text>
	</g>
	<g ewd:pinNo="11">
		<text transform="matrix(1 0 0 1 46.0195 60.7197)"><tspan x="0" y="0" style="&st3; &st2;">11</tspan></text>
	</g>
	<g ewd:pinNo="12">
		<text transform="matrix(1 0 0 1 55.5635 60.7197)"><tspan x="0" y="0" style="&st3; &st2;">12</tspan></text>
	</g>
	<g ewd:pinNo="15">
		<text transform="matrix(1 0 0 1 85.457 60.7197)"><tspan x="0" y="0" style="&st3; &st2;">15</tspan></text>
	</g>
	<g ewd:pinNo="3">
		<text transform="matrix(1 0 0 1 47.624 46.5557)"><tspan x="0" y="0" style="&st3; &st2;">3</tspan></text>
	</g>
	<g ewd:pinNo="16">
		<text transform="matrix(1 0 0 1 95.3721 60.7197)"><tspan x="0" y="0" style="&st3; &st2;">16</tspan></text>
	</g>
	<g ewd:pinNo="13">
		<text transform="matrix(1 0 0 1 65.627 60.7197)"><tspan x="0" y="0" style="&st3; &st2;">13</tspan></text>
	</g>
	<g ewd:pinNo="14">
		<text transform="matrix(1 0 0 1 75.542 60.7197)"><tspan x="0" y="0" style="&st3; &st2;">14</tspan></text>
	</g>
	<g ewd:pinNo="19">
		<text transform="matrix(1 0 0 1 25.9673 74.8843)"><tspan x="0" y="0" style="&st3; &st2;">19</tspan></text>
	</g>
	<g ewd:pinNo="20">
		<text transform="matrix(1 0 0 1 36.0293 74.8843)"><tspan x="0" y="0" style="&st3; &st2;">20</tspan></text>
	</g>
	<g ewd:pinNo="22">
		<text transform="matrix(1 0 0 1 75.6895 74.8843)"><tspan x="0" y="0" style="&st3; &st2;">22</tspan></text>
	</g>
	<g ewd:pinNo="21">
		<text transform="matrix(1 0 0 1 65.7744 74.8843)"><tspan x="0" y="0" style="&st3; &st2;">21</tspan></text>
	</g>
	<g ewd:pinNo="1">
		<text transform="matrix(1 0 0 1 14.3379 38.7651)"><tspan x="0" y="0" style="&st3; &st2;">1</tspan></text>
	</g>
	<g ewd:pinNo="2">
		<text transform="matrix(1 0 0 1 31.335 38.7651)"><tspan x="0" y="0" style="&st3; &st2;">2</tspan></text>
	</g>
	<g ewd:pinNo="5">
		<text transform="matrix(1 0 0 1 73.8276 38.7651)"><tspan x="0" y="0" style="&st3; &st2;">5</tspan></text>
	</g>
	<g ewd:pinNo="6">
		<text transform="matrix(1 0 0 1 90.8252 38.7651)"><tspan x="0" y="0" style="&st3; &st2;">6</tspan></text>
	</g>
</g>
</svg>